33.096 54.3 34.808 58.128 23.548 70.232 54.56 50.804 86.296 58.572 43.164 21.04 30.592 67.12 30.812 31.316 77.676 60.008 76.288 73.652
7.26 7.74 6.624 7.16 6.516 6.56 7.04 5.88 5.396 5.444 6.472 6.416 6.332 6.452 7.024 8.532 6.22 7.28 6.42 6.972
8.92 10.052 13.596 10.312 9.184 9.072 10.744 9.676 12.088 9.568 8.308 10.94 13.676 13.384 9.388 8.552 8.24 9.34 10.4 8.076
9.948 9.728 9.664 7.708 10.54 8.856 10.748 10.432 9.576 9.36 7.76 8.916 11.096 10.384 9.36 10.14 8.776 9.312 8.588 8.028
11.832 10.252 10.16 13.664 12.312 11.996 11.616 13.156 15.748 14.632 14.784 11.96 14.988 10.028 10.672 11.332 10.224 8.964 9.32 9.028
11.596 9.632 18.068 16.924 10.772 13.708 11.076 12.944 14.972 12.404 13.532 11.448 10.7 9.96 12.808 9.836 10.096 12.552 10.548 9.376
11.632 11.256 11.34 11.828 11.28 14.168 15.988 13.076 13.288 12.172 11.86 11.104 11.376 11.368 13.74 11.244 13.736 14.36 18.82 12.208
14.732 11.5 16.02 14.348 19.616 22.108 16.184 14.8 15.044 14.604 14.708 12.188 11.38 13.136 16.116 17.624 14.6 17.684 13.732 14.184
19.528 15.92 20.7 19.492 26.532 18.268 19.184 23.572 16.288 20.38 15.7 21.616 21.804 19.248 18.064 15.348 24.04 27.428 22.344 15.164
15.068 11.964 22.128 15.42 22.016 32.432 28.7 32.144 25.52 25.004 19.2 21.14 23.296 23.236 15.692 18.076 21.736 15.212 22.812 21.988
