0.96 1.316 0.916 1.016 2.212 1.108 0.848 2.324 0.836 1.2 1.44 1.824 1.816 2.088 0.7 1.564 1.192 1.288 1.296 1.844 1.768 0.832 1.756 1.452 1.296 2.008 2.936 0.764 1.12 0.924 0.876 2.312 1.62 0.668 1.344 1.38 1.536 1.268 0.796 0.82 1.876 1.88 1.636 1.956 1.128 0.9 1.316 5.028 0.904 1.716 0.84 1.16 1.372 1.956 1.416 1.412 2.344 0.756 1.812 1.848 1.72 0.856 1.396 1.66 1.908 1.848 0.984 0.908 1.112 1.12 1.276 1.704 1.004 1.756 0.924 1.004 1.396 1.512 1.34 1.2 1.432 0.896 2.648 1.94 1.488 0.912 0.944 1.132 0.764 0.82 1.972 0.912 1.176 1.432 1.548 1.164 0.904 2.2 2.212 0.84
0.476 0.512 0.552 0.596 0.46 0.452 0.416 0.512 0.572 0.512 0.504 0.496 0.492 0.492 0.48 0.456 0.728 0.488 0.548 0.476 0.468 0.464 0.612 0.54 0.52 0.388 0.408 0.412 0.44 0.54 0.5 0.592 0.548 0.544 0.556 0.544 0.56 0.556 0.46 0.436 0.476 0.484 0.54 0.564 0.492 0.468 0.504 0.508 0.496 0.584 0.644 0.532 0.6 0.504 0.44 0.496 0.524 0.496 0.544 0.504 0.452 0.444 0.584 0.432 0.464 0.436 0.448 0.456 0.464 0.424 0.464 0.452 0.508 0.592 0.552 0.628 0.68 0.428 0.436 0.568 0.68 0.476 0.992 1.204 0.576 0.788 0.812 0.456 0.408 0.42 0.42 0.492 0.524 0.476 0.432 1.276 1.2 1.668 0.428 0.528
2.004 1.844 2.716 1.812 0.584 2.456 1.52 0.672 2.348 1.456 2.328 2.06 0.544 1.188 2.668 0.504 2.392 1.852 0.476 2.072 1.736 0.504 1.7 2.38 0.468 0.652 0.512 0.544 0.604 0.544 0.62 0.92 0.652 1.1 0.608 1.34 1.152 0.488 0.504 0.54 2.664 0.684 0.58 1.716 1.408 0.66 2.792 1.56 2.532 1.872 1.388 2.52 0.772 2.1 1.64 0.98 2.472 1.676 0.564 2.92 1.096 0.52 2.156 1.716 2.416 1.66 0.576 1.108 2.516 0.876 1.284 2.48 0.784 0.592 0.62 0.584 0.664 0.616 0.544 0.612 0.6 2.096 1.332 0.568 0.56 1.24 1.42 1.932 0.528 2.548 1.532 0.516 0.556 0.616 2.684 0.492 0.512 0.664 2.352 0.984
0.604 1.288 2.408 0.54 0.616 0.664 0.568 1.292 0.592 0.548 2.144 1.868 0.556 0.608 0.824 0.756 0.672 0.596 0.56 0.968 0.536 0.608 0.508 0.576 0.564 0.556 1.3 0.544 0.504 0.552 0.608 0.56 0.58 0.608 1.012 0.524 0.504 0.58 0.628 0.528 0.568 0.56 0.992 0.644 0.888 0.708 0.584 0.568 0.636 0.736 0.544 0.524 0.528 0.72 0.672 1.132 0.748 0.652 0.856 0.972 0.892 0.836 0.7 0.564 0.568 0.572 0.592 0.732 0.88 0.628 0.564 0.768 0.932 0.864 0.716 0.628 0.568 0.668 0.516 0.552 0.6 0.508 1.468 0.66 1.084 0.64 1.792 0.684 0.584 0.7 0.728 0.888 0.932 0.772 0.7 0.576 0.708 0.616 0.5 0.708
0.944 0.796 0.66 0.656 1.024 0.88 1.636 0.956 0.968 1.248 0.884 0.836 1.316 1.004 1.344 0.896 0.836 0.808 0.748 0.832 1.14 0.728 0.716 0.8 2.2 1.048 0.744 0.708 0.988 0.688 0.752 0.688 1.072 0.768 0.968 0.84 0.772 0.792 0.64 0.764 0.584 0.5 2.148 0.588 0.664 0.596 0.56 0.64 0.552 1.012 1.7 2.324 1.488 0.544 2.136 0.704 0.636 0.584 2.412 0.56 0.916 2.636 0.988 0.644 2.816 0.6 0.532 1.36 2.504 0.576 0.588 0.624 0.968 0.684 1.304 0.556 2.904 1.216 0.92 0.556 0.62 0.596 1.744 2.504 0.596 0.804 0.68 0.576 0.564 0.548 0.54 0.548 0.612 0.544 0.556 0.604 0.528 0.6 0.56 1.828
1.044 0.64 1.864 1.76 2.028 0.628 0.528 0.624 0.616 0.672 0.624 1.416 1.636 0.652 1.628 0.78 0.884 0.972 0.956 1.228 1.18 0.82 0.976 0.952 1.1 1 1.1 1.144 0.892 0.868 0.96 0.796 0.804 0.936 1.06 0.876 0.968 1.044 0.808 0.86 1.024 1.068 0.924 0.792 0.94 0.908 0.836 0.832 0.824 0.824 0.78 0.92 0.848 0.852 0.844 0.96 0.88 0.94 0.828 0.904 0.84 0.852 0.804 0.876 0.808 0.74 0.82 0.808 0.792 0.824 0.968 0.82 0.876 0.9 0.82 0.828 0.788 0.796 0.904 0.844 0.832 0.896 1.072 1.048 0.96 0.784 0.904 0.78 0.916 0.824 0.8 0.864 1.328 0.896 0.948 0.876 0.972 1.22 1.116 0.912
0.94 1.12 1.272 0.976 0.864 1.14 0.976 1.116 1.432 0.884 0.856 0.916 1.192 1.092 0.868 0.9 0.872 1.028 0.848 1.18 1.044 1.1 0.976 0.964 0.904 0.716 0.82 0.892 1.052 0.992 0.924 1.084 0.94 1.004 3.188 0.656 1.836 2.252 0.896 0.7 0.9 0.768 0.888 0.644 1.196 0.664 1.772 0.972 2.336 0.664 1.66 0.72 0.648 0.696 2.024 0.636 2.456 1.68 0.704 0.72 0.868 0.716 0.612 0.644 0.848 1.712 1.744 0.9 2.196 0.708 0.708 1.22 0.98 0.732 0.664 0.688 0.94 0.832 0.94 0.624 0.608 0.588 0.688 0.7 0.864 1.096 1.196 1.704 0.796 1.336 1.428 0.664 0.672 2.14 0.988 1.412 1.184 1.212 0.836 0.812
0.948 1.072 1.58 2.328 2.428 1.58 1.936 1.08 0.828 1.036 0.672 0.996 0.808 0.804 1.312 1.128 1.052 1.552 1.668 1.976 1.268 1.372 1.012 1.14 1.872 1.136 0.736 1.696 1.536 0.696 1.268 1.052 1.28 1.38 1.556 2.004 1.24 1.432 1.528 1.108 3.012 1.964 1.444 1.048 1.12 2.188 1.388 1.196 1.036 1.176 1.256 1.36 1.052 2.388 0.756 1.004 1.176 0.976 1.076 2.884 2.408 2.788 1.872 1.488 0.696 1.068 0.76 2.908 0.764 2.448 2.2 3.052 1.172 0.776 2.976 2.252 2.168 1.52 2.86 1.068 2.992 0.696 1.588 2.596 2.996 0.692 1.924 2.944 0.684 0.748 0.764 2.428 0.912 2.188 2.06 2.18 1.78 2.76 1.392 1.54
1.1 0.872 1.584 1.796 1.78 1.232 2.028 1.704 1.048 1.232 1.252 1.18 1.384 1.316 1.136 1.784 2.828 1.208 2.172 1.952 1.548 0.944 0.92 1.776 1.244 1.492 1.544 2.472 1.436 0.74 0.984 1.528 1.256 1.568 1.1 1.056 0.832 2.056 0.996 1.38 1.364 1 1.728 1.432 1.424 1.484 1.692 1.316 2.012 1.808 2.716 1.384 1.496 1.376 1.416 1.512 1.352 1.712 1.248 1.488 1.544 1.464 1.564 1.272 1.372 2.1 1.16 1.972 1.82 1.532 1.292 1.12 1.384 2.46 1.424 0.916 2.084 1.14 2.232 1.944 2.752 2.348 2.28 1.796 2.42 1.488 1.6 1.756 0.944 1.228 2.724 2.312 1.424 1.46 1.4 2.636 2.192 2.004 1.224 2.996
2.076 2.332 1.272 1.804 2.012 2.2 1.18 1.552 1.6 1.384 1.808 1.72 1.748 1.756 1.584 1.28 1.24 2.276 0.904 0.98 1.676 1.54 1.504 0.86 2.716 1.152 1.392 2.932 2.7 0.796 1.772 2.764 2.084 1.916 1.376 1.52 1.816 1.272 2.228 2.136 3.192 0.884 2.092 1.56 2.288 2.096 2.416 2.424 2.484 1.512 1.868 2.124 3.28 1.288 1.164 1.128 1.268 1.312 1.296 1.912 1.572 1.204 1.696 1.504 1.436 2.476 2.304 2.22 2.656 1.232 1.644 1.7 2.364 2.036 0.856 0.844 0.716 1.124 2.792 2.696 1.04 1.992 2.98 3.216 1.528 1.328 0.768 2.992 2.984 1.6 2.088 2.412 1.568 2.092 0.796 0.84 2.236 2.652 1.244 2.004