c
c This is glucose-proof 1.0 based on  2.1 --  (thanks to MiniSAT)
c
c EXPERIMENTAL EASY PARALLEL (ROUND ROBIN) VERSION
c
c WARNING: for repeatability, setting FPU to use double precision
c Parallel version 6 solvers created.
c ========================================[ Problem Statistics ]===========================================
c |                                                                                                       |
c |  Number of variables:        168302                                                                   |
c |  Number of clauses:         3520180                                                                   |
c |  Parse time:                   5.57 s                                                                 |
c |                                                                                                       |
c ========================================[ MAGIC CONSTANTS ]==============================================
c | Constants are supposed to work well together :-)                                                      |
c | however, if you find better choices, please let us known...                                           |
c |-------------------------------------------------------------------------------------------------------|
c |                                |                                |                                     |
c | - Restarts:                    | - Reduce Clause DB:            | - Minimize Asserting:               |
c |   * LBD Queue    :     50      |   * First     :   4000         |    * size <  30                     |
c |   * Trail  Queue :   5000      |   * Inc       :    300         |    * lbd  <   6                     |
c |   * K            :   0.80      |   * Special   :   1000         |                                     |
c |   * R            :   1.40      |   * Protected :  (lbd)< 30     |                                     |
c |                                |                                |                                     |
c ==================================[ Search Statistics (every  10000 conflicts) ]=========================
c |                                                                                                       |
c |          RESTARTS           |          ORIGINAL         |              LEARNT              | Progress |
c |       NB   Blocked  Avg Cfc |    Vars  Clauses Literals |   Red   Learnts    LBD2  Removed |          |
c =========================================================================================================
c |       26         0      384 |  168291  3520180 10134242 |     1     7999       77     2531 |  0.007 % |
c |      117         0      170 |  168290  3520180 10134242 |     3     6964      139    14911 |  0.007 % |
c |      122         0      245 |  165545  3520180 10134242 |     3    16964      172    14911 |  1.638 % |
c |      127         0      314 |  165545  3520180 10134242 |     4    17697      194    24534 |  1.638 % |
c |      127         0      393 |  165545  3520180 10134242 |     5    15854      202    36547 |  1.638 % |
c |      128         0      468 |  165545  3520180 10134242 |     5    25854      215    36547 |  1.638 % |
c |      129         0      542 |  165544  3520180 10134242 |     6    21430      218    51388 |  1.639 % |
c |      155         7      516 |  162992  3520180 10134242 |     6    31430      243    51388 |  3.155 % |
c |      180        26      500 |  162992  3520180 10134242 |     7    24440      336    69146 |  3.155 % |
c |      180        27      555 |  162992  3520180 10134242 |     7    34440      360    69146 |  3.155 % |
c |      220        84      500 |  162977  3520180 10134242 |     8    24842      442    89489 |  3.164 % |
c |      273       111      439 |  159623  3520180 10134242 |     8    34841      486    89489 |  5.157 % |
c |      368       116      353 |  159622  3520180 10134242 |     9    22633      519   112497 |  5.158 % |
c |      438       143      319 |  156889  3520180 10134242 |     9    32633      610   112497 |  6.781 % |
c |      556       146      269 |  156881  3520180 10134242 |     9    42632      729   112497 |  6.786 % |
c |      674       160      237 |  156879  3520180 10134242 |    10    27863      851   138094 |  6.787 % |
c |      741       164      229 |  156879  3520180 10134242 |    10    37863      927   138094 |  6.787 % |
c |      814       164      221 |  156840  3520180 10134242 |    10    47863      942   138094 |  6.810 % |
c |      835       165      227 |  156839  3520180 10134242 |    11    30448      954   166326 |  6.811 % |
c |      835       165      239 |  156838  3520180 10134242 |    11    40448      962   166326 |  6.812 % |
c |      896       177      234 |  156837  3520180 10134242 |    11    50448     1021   166326 |  6.812 % |
c |      981       182      224 |  156830  3520180 10134242 |    12    30431     1086   196904 |  6.816 % |
c |     1011       182      227 |  156829  3520180 10134242 |    12    40431     1094   196904 |  6.817 % |
c |     1057       189      227 |  156825  3520180 10134242 |    12    50431     1117   196904 |  6.819 % |
c |     1165       189      214 |  156825  3520180 10134242 |    12    60431     1153   196904 |  6.819 % |
c |     1283       194      202 |  156825  3520180 10134242 |    13    37867     1197   230094 |  6.819 % |
c |     1306       196      206 |  156825  3520180 10134242 |    13    47867     1233   230094 |  6.819 % |
c |     1315       202      212 |  156825  3520180 10134242 |    13    57867     1250   230094 |  6.819 % |
c |     1403       219      206 |  156825  3520180 10134242 |    13    67867     1336   230094 |  6.819 % |
c |     1412       237      212 |  156825  3520180 10134242 |    14    42643     1359   265579 |  6.819 % |
c |     1456       265      212 |  156820  3520180 10134242 |    14    52641     1405   265579 |  6.822 % |
c |     1462       265      218 |  156344  3520180 10134242 |    14    62641     1414   265579 |  7.105 % |
c |     1462       265      225 |  156344  3520180 10134242 |    14    72641     1418   265579 |  7.105 % |
c |     1462       265      232 |  156342  3520180 10134242 |    15    44385     1422   303512 |  7.106 % |
c |     1500       274      233 |  156341  3520180 10134242 |    15    54385     1477   303512 |  7.107 % |
c |     1584       280      227 |  156332  3520180 10134242 |    15    64384     1545   303512 |  7.112 % |
c |     1584       280      233 |  156332  3520180 10134242 |    15    74384     1546   303512 |  7.112 % |
c |     1594       292      238 |  156332  3520180 10134242 |    16    44197     1571   344209 |  7.112 % |
c |     1661       299      234 |  156304  3520180 10134242 |    16    50288     1607   344209 |  7.129 % |
c |     1752       314      228 |  154042  3520180 10134242 |    16    60288     1702   344209 |  8.473 % |
c |     1883       318      217 |  154041  3520180 10134242 |    16    70288     1768   344209 |  8.473 % |
c |     2033       323      206 |  153359  3520180 10134242 |    16    80055     1834   344209 |  8.879 % |
c |     2133       333      201 |  153355  3520180 10134242 |    17    48422     1883   385558 |  8.881 % |
c |     2254       341      195 |  153350  3520180 10134242 |    17    58422     1929   385558 |  8.884 % |
c |     2398       345      187 |  138629  3520180 10134242 |    17    67940     1985   385558 | 17.631 % |
c |     2525       349      182 |  138629  3520180 10134242 |    17    77940     2071   385558 | 17.631 % |
c |     2626       356      178 |  138147  3520180 10134242 |    18    44014     2163   430743 | 17.917 % |
c |     2728       372      175 |  138147  3520180 10134242 |    18    54014     2283   430743 | 17.917 % |
c |     2807       374      174 |  138142  3520180 10134242 |    18    64014     2293   430743 | 17.920 % |
c |     2822       374      177 |  136715  3520180 10134242 |    18    74014     2299   430743 | 18.768 % |
c |     2822       374      180 |  136713  3520180 10134242 |    18    84014     2305   430743 | 18.769 % |
c |     2892       392      179 |  136711  3520180 10134242 |    18    94014     2376   430743 | 18.771 % |
c |     2952       397      179 |  136711  3520180 10134242 |    19    56849     2396   479088 | 18.770 % |
c |     2957       398      182 |  136711  3520180 10134242 |    19    66849     2400   479088 | 18.770 % |
c |     2959       399      185 |  136498  3520180 10134242 |    19    76849     2407   479088 | 18.897 % |
c |     3017       415      185 |  136497  3520180 10134242 |    19    86849     2445   479088 | 18.898 % |
c |     3089       425      184 |  136496  3520180 10134242 |    19    96849     2535   479088 | 18.898 % |
c |     3111       437      186 |  136496  3520180 10134242 |    20    56453     2557   530965 | 18.898 % |
c |     3141       444      187 |  136496  3520180 10134242 |    20    66453     2594   530965 | 18.898 % |
c |     3152       445      190 |  136496  3520180 10134242 |    20    76453     2602   530965 | 18.898 % |
c |     3182       460      191 |  136491  3520180 10134242 |    20    86453     2626   530965 | 18.901 % |
c |     3193       464      194 |  136491  3520180 10134242 |    20    96453     2640   530965 | 18.901 % |
c |     3193       464      197 |  136491  3520180 10134242 |    20   106453     2649   530965 | 18.901 % |
c |     3211       469      199 |  135959  3520180 10134242 |    21    63271     2664   585244 | 19.217 % |
c |     3225       473      201 |  135959  3520180 10134242 |    21    73271     2680   585244 | 19.217 % |
c |     3272       478      201 |  135959  3520180 10134242 |    21    83271     2700   585244 | 19.217 % |
c |     3338       483      200 |  135959  3520180 10134242 |    21    93271     2734   585244 | 19.217 % |
c |     3393       487      200 |  135959  3520180 10134242 |    21   103271     2777   585244 | 19.217 % |
c |     3466       497      199 |  135959  3520180 10134242 |    22    57345     2842   642024 | 19.217 % |
c |     3537       504      197 |  135959  3520180 10134242 |    22    67345     2892   642024 | 19.217 % |
c |     3576       509      198 |  135949  3520180 10134242 |    22    72428     2916   642024 | 19.223 % |
c |     3703       515      194 |  135671  3520180 10134242 |    22    82427     2995   642024 | 19.388 % |
c |     3835       515      190 |  135671  3520180 10134242 |    22    92427     3021   642024 | 19.388 % |
c |     3926       515      188 |  135670  3520180 10134242 |    22   102427     3030   642024 | 19.389 % |
c |     4051       519      185 |  135669  3520180 10134242 |    23    56321     3104   699249 | 19.390 % |
c |     4124       519      184 |  135669  3520180 10134242 |    23    66321     3118   699249 | 19.390 % |
c |     4124       519      186 |  135669  3520180 10134242 |    23    76321     3128   699249 | 19.390 % |
c |     4125       519      189 |  135669  3520180 10134242 |    23    86321     3135   699249 | 19.390 % |
c |     4128       521      191 |  135667  3520180 10134242 |    23    96321     3154   699249 | 19.391 % |
c |     4200       526      190 |  135667  3520180 10134242 |    23   106321     3178   699249 | 19.391 % |
c |     4207       527      192 |  135667  3520180 10134242 |    23   116321     3182   699249 | 19.391 % |
c |     4251       546      192 |  135667  3520180 10134242 |    24    66372     3220   760839 | 19.391 % |
c |     4286       559      193 |  135667  3520180 10134242 |    24    76372     3237   760839 | 19.391 % |
c |     4416       561      190 |  135665  3520180 10134242 |    24    86372     3279   760839 | 19.392 % |
c |     4523       572      187 |  135664  3520180 10134242 |    24    96372     3303   760839 | 19.393 % |
c |     4672       577      184 |  135664  3520180 10134242 |    24   106372     3339   760839 | 19.393 % |
c |     4737       594      183 |  135663  3520180 10134242 |    24   116372     3357   760839 | 19.393 % |
c |     4785       595      183 |  135662  3520180 10134242 |    24   126372     3380   760839 | 19.394 % |
c |     4837       608      183 |  135661  3520180 10134242 |    25    73217     3404   825656 | 19.394 % |
c |     4879       614      184 |  135660  3520180 10134242 |    25    83217     3432   825656 | 19.395 % |
c |     5007       628      181 |  135660  3520180 10134242 |    25    93217     3473   825656 | 19.395 % |
c |     5069       640      181 |  135659  3520180 10134242 |    25   103217     3506   825656 | 19.395 % |
c |     5163       648      180 |  135657  3520180 10134242 |    25   113217     3547   825656 | 19.397 % |
c |     5279       652      178 |  135657  3520180 10134242 |    25   123217     3570   825656 | 19.397 % |
c |     5364       662      177 |  135657  3520180 10134242 |    26    67122     3623   893249 | 19.397 % |
c |     5504       665      174 |  135657  3520180 10134242 |    26    77122     3666   893249 | 19.397 % |
c |     5593       667      173 |  135657  3520180 10134242 |    26    87122     3699   893249 | 19.397 % |
c |     5711       672      171 |  135656  3520180 10134242 |    26    97122     3731   893249 | 19.397 % |
c |     5800       672      170 |  135655  3520180 10134242 |    26   107122     3751   893249 | 19.398 % |
c |     5811       672      172 |  135655  3520180 10134242 |    26   117122     3754   893249 | 19.398 % |
c |     5822       672      173 |  135655  3520180 10134242 |    26   127122     3758   893249 | 19.398 % |
c |     5924       686      172 |  135655  3520180 10134242 |    26   137122     3790   893249 | 19.398 % |
c |     5932       686      173 |  135655  3520180 10134242 |    27    78269     3798   964004 | 19.398 % |
c |     5932       686      175 |  135655  3520180 10134242 |    27    88269     3803   964004 | 19.398 % |
c |     5965       701      176 |  135655  3520180 10134242 |    27    98269     3825   964004 | 19.398 % |
c |     6042       718      175 |  135410  3520180 10134242 |    27   108269     3870   964004 | 19.543 % |
c |     6192       721      172 |  135410  3520180 10134242 |    27   118269     3923   964004 | 19.543 % |
c |     6337       728      170 |  135410  3520180 10134242 |    27   128269     3985   964004 | 19.543 % |
c |     6493       731      167 |  135410  3520180 10134242 |    27   138269     4020   964004 | 19.543 % |
c |     6655       731      165 |  135410  3520180 10134242 |    28    76796     4057  1036971 | 19.543 % |
c |     6748       731      164 |  135408  3520180 10134242 |    28    86796     4092  1036971 | 19.545 % |
c |     6890       744      162 |  135408  3520180 10134242 |    28    96796     4126  1036971 | 19.545 % |
c |     6994       754      161 |  135408  3520180 10134242 |    28   106796     4161  1036971 | 19.545 % |
c |     7097       761      160 |  135408  3520180 10134242 |    28   116796     4182  1036971 | 19.545 % |
c |     7214       769      159 |  135408  3520180 10134242 |    28   126796     4210  1036971 | 19.545 % |
c |     7339       769      158 |  135405  3520180 10134242 |    28   136796     4233  1036971 | 19.546 % |
c |     7473       775      156 |  135404  3520180 10134242 |    28   146796     4272  1036971 | 19.547 % |
c |     7599       779      155 |  135404  3520180 10134242 |    29    82672     4291  1112609 | 19.547 % |
c |     7734       784      153 |  135404  3520180 10134242 |    29    92672     4328  1112609 | 19.547 % |
c |     7871       785      152 |  135404  3520180 10134242 |    29   102672     4364  1112609 | 19.547 % |
c |     7995       802      151 |  135403  3520180 10134242 |    29   112671     4427  1112609 | 19.548 % |
c |     8097       802      150 |  135402  3520180 10134242 |    29   122671     4445  1112609 | 19.548 % |
c |     8109       808      151 |  135402  3520180 10134242 |    29   132671     4461  1112609 | 19.548 % |
c |     8214       822      150 |  135402  3520180 10134242 |    29   142671     4509  1112609 | 19.548 % |
c |     8371       834      149 |  135402  3520180 10134242 |    29   152671     4545  1112609 | 19.548 % |
c |     8484       852      148 |  135402  3520180 10134242 |    30    85886     4588  1191023 | 19.548 % |
c |     8581       877      148 |  135402  3520180 10134242 |    30    95886     4677  1191023 | 19.548 % |
c |     8684       903      147 |  135402  3520180 10134242 |    30   105886     4716  1191023 | 19.548 % |
c |     8714       905      148 |  135402  3520180 10134242 |    30   115886     4730  1191023 | 19.548 % |
c |     8724       905      149 |  135402  3520180 10134242 |    30   125886     4741  1191023 | 19.548 % |
c |     8738       916      149 |   95428  3520180 10134242 |    30    95682     4790  1191023 | 43.300 % |
c |     8859       924      149 |   92532  3520180 10134242 |    30    57236     4870  1191023 | 45.020 % |
c |     9007       924      147 |   92520  3520180 10134242 |    30    66390     4940  1191023 | 45.027 % |
c |     9120       927      146 |   92516  3520180 10134242 |    31    41686     5024  1227793 | 45.030 % |
c empty clause found by core 3 at conflict 1346126
*
c checking the resolution graph...OK
c All useful bySize 2422461 clauses, percentiles 0 2 2 2 10 78 226 762 1665 5056 23296 23706 (0,1,5,10,25,50,75,90,95,99,100-1,100)
c All useless bySize 9175420 clauses, percentiles 0 2 2 2 2 79 207 589 1191 4188 23449 23967 (0,1,5,10,25,50,75,90,95,99,100-1,100)
c ProofOnly useful bySize 1853109 clauses, percentiles 0 3 12 26 59 114 339 1062 2221 5567 23296 23706 (0,1,5,10,25,50,75,90,95,99,100-1,100)
c ProofOnly useless bySize 6223645 clauses, percentiles 1 5 23 40 76 142 327 878 1678 5185 23449 23967 (0,1,5,10,25,50,75,90,95,99,100-1,100)
c All useful byFinalLBD 2422461 clauses, percentiles 0 2 2 2 3 8 14 19 22 36 164 177 (0,1,5,10,25,50,75,90,95,99,100-1,100)
c All useless byFinalLBD 9175420 clauses, percentiles 0 2 2 2 2 13 26 46 62 96 406 406 (0,1,5,10,25,50,75,90,95,99,100-1,100)
c ProofOnly useful byFinalLBD 1853109 clauses, percentiles 0 2 3 4 6 11 15 19 23 31 164 177 (0,1,5,10,25,50,75,90,95,99,100-1,100)
c ProofOnly useless byFinalLBD 6223645 clauses, percentiles 1 3 6 8 12 20 34 55 70 103 406 406 (0,1,5,10,25,50,75,90,95,99,100-1,100)
c All useful byInitialLBD 2422461 clauses, percentiles 0 2 2 2 5 11 16 22 26 46 177 196 (0,1,5,10,25,50,75,90,95,99,100-1,100)
c All useless byInitialLBD 9175420 clauses, percentiles 0 2 2 2 2 15 28 48 64 97 406 406 (0,1,5,10,25,50,75,90,95,99,100-1,100)
c ProofOnly useful byInitialLBD 1853109 clauses, percentiles 0 3 5 6 9 13 18 23 27 42 177 196 (0,1,5,10,25,50,75,90,95,99,100-1,100)
c ProofOnly useless byInitialLBD 6223645 clauses, percentiles 1 4 7 10 14 22 36 57 72 104 406 406 (0,1,5,10,25,50,75,90,95,99,100-1,100)
c Literals ProofOnly useful 848868388
c Literals ProofOnly useless 2626661595
c additional windowsGood 1 1 1 1 1 1 1 2 3 4 23 23 (0,1,5,10,25,50,75,90,95,99,100-1,100)
c additional windowsBad 1 1 1 1 1 3 5 7 11 35 1511 1559 (0,1,5,10,25,50,75,90,95,99,100-1,100)
c additional 1WindowNoDecision 1049456 522461 0.50 345350 143659 0.42 (nbWindowsGood,nbWindowsNoDecisionGood,nbWindowsBad,nbWindowsNoDecisionBad
c additional topclausessize all (10%,5%,1%,top) 2450.85 3771.74 7076.07 23706
c additional topclausessize proofonly (10%,5%,1%,top) 2667.62 4036.91 7330.31 23706
c additional topclausesinitialLBD all (10%,5%,1%,top) 1944.82 3119.58 6422.39 23706
c additional topclausesinitialLBD proofonly (10%,5%,1%,top) 1619.78 2667.62 5926.56 23706
c additional topclausesfinalLBD all (10%,5%,1%,top) 1331.83 2246.75 5420.59 23706
c additional topclausesfinalLBD proofonly (10%,5%,1%,top) 1173.01 2007.71 5103.33 23706
c additional predictionInitialLBD 1 206 1853109 0.89 0.00 0.00 8076548 6223645 0.77 3.36 1.25 0.77 (nbgoodclauses,nbtotalgood,precisionGood,recallGood,FGood,nbbadclause,nbtotalbad,precisionBad,recallBad,FBad,accuracy)
c additional predictionInitialLBD 2 34729 1853109 0.36 0.01 0.01 8042025 6223645 0.77 3.35 1.25 0.77 (nbgoodclauses,nbtotalgood,precisionGood,recallGood,FGood,nbbadclause,nbtotalbad,precisionBad,recallBad,FBad,accuracy)
c additional predictionInitialLBD 3 81720 1853109 0.43 0.02 0.04 7995034 6223645 0.77 3.33 1.25 0.77 (nbgoodclauses,nbtotalgood,precisionGood,recallGood,FGood,nbbadclause,nbtotalbad,precisionBad,recallBad,FBad,accuracy)
c additional predictionInitialLBD 4 159907 1853109 0.47 0.04 0.08 7916847 6223645 0.78 3.31 1.26 0.77 (nbgoodclauses,nbtotalgood,precisionGood,recallGood,FGood,nbbadclause,nbtotalbad,precisionBad,recallBad,FBad,accuracy)
c additional predictionInitialLBD 5 279477 1853109 0.48 0.07 0.13 7797277 6223645 0.78 3.28 1.26 0.77 (nbgoodclauses,nbtotalgood,precisionGood,recallGood,FGood,nbbadclause,nbtotalbad,precisionBad,recallBad,FBad,accuracy)
c additional predictionInitialLBD 6 429934 1853109 0.48 0.11 0.18 7646820 6223645 0.78 3.24 1.26 0.77 (nbgoodclauses,nbtotalgood,precisionGood,recallGood,FGood,nbbadclause,nbtotalbad,precisionBad,recallBad,FBad,accuracy)
c additional predictionInitialLBD 7 620883 1853109 0.47 0.16 0.24 7455871 6223645 0.79 3.18 1.27 0.77 (nbgoodclauses,nbtotalgood,precisionGood,recallGood,FGood,nbbadclause,nbtotalbad,precisionBad,recallBad,FBad,accuracy)
c additional predictionInitialLBD 8 838266 1853109 0.47 0.21 0.29 7238488 6223645 0.80 3.12 1.27 0.76 (nbgoodclauses,nbtotalgood,precisionGood,recallGood,FGood,nbbadclause,nbtotalbad,precisionBad,recallBad,FBad,accuracy)
c additional predictionInitialLBD 10 1369610 1853109 0.45 0.33 0.38 6707144 6223645 0.82 2.95 1.28 0.75 (nbgoodclauses,nbtotalgood,precisionGood,recallGood,FGood,nbbadclause,nbtotalbad,precisionBad,recallBad,FBad,accuracy)
c additional predictionInitialLBD 14 2675787 1853109 0.41 0.59 0.49 5400967 6223645 0.86 2.51 1.28 0.71 (nbgoodclauses,nbtotalgood,precisionGood,recallGood,FGood,nbbadclause,nbtotalbad,precisionBad,recallBad,FBad,accuracy)
c additional predictionInitialLBD 18 3916216 1853109 0.37 0.79 0.51 4160538 6223645 0.91 2.03 1.25 0.65 (nbgoodclauses,nbtotalgood,precisionGood,recallGood,FGood,nbbadclause,nbtotalbad,precisionBad,recallBad,FBad,accuracy)
c additional predictionInitialLBD 22 4855934 1853109 0.34 0.89 0.49 3220820 6223645 0.94 1.63 1.19 0.58 (nbgoodclauses,nbtotalgood,precisionGood,recallGood,FGood,nbbadclause,nbtotalbad,precisionBad,recallBad,FBad,accuracy)
c additional predictionInitialLBD 30 6010108 1853109 0.30 0.97 0.46 2066646 6223645 0.97 1.08 1.03 0.47 (nbgoodclauses,nbtotalgood,precisionGood,recallGood,FGood,nbbadclause,nbtotalbad,precisionBad,recallBad,FBad,accuracy)
c additional predictionInitialLBD 40 6787526 1853109 0.27 0.99 0.42 1289228 6223645 0.98 0.68 0.81 0.38 (nbgoodclauses,nbtotalgood,precisionGood,recallGood,FGood,nbbadclause,nbtotalbad,precisionBad,recallBad,FBad,accuracy)
c additional predictionFinallLBD 1 10883 1853109 0.67 0.00 0.01 8065871 6223645 0.77 1.00 0.87 0.77 (nbgoodclauses,nbtotalgood,precisionGood,recallGood,FGood,nbbadclause,nbtotalbad,precisionBad,recallBad,FBad,accuracy)
c additional predictionFinallLBD 2 106312 1853109 0.56 0.03 0.06 7970442 6223645 0.78 0.99 0.87 0.77 (nbgoodclauses,nbtotalgood,precisionGood,recallGood,FGood,nbbadclause,nbtotalbad,precisionBad,recallBad,FBad,accuracy)
c additional predictionFinallLBD 3 251319 1853109 0.58 0.08 0.14 7825435 6223645 0.78 0.98 0.87 0.78 (nbgoodclauses,nbtotalgood,precisionGood,recallGood,FGood,nbbadclause,nbtotalbad,precisionBad,recallBad,FBad,accuracy)
c additional predictionFinallLBD 4 433778 1853109 0.58 0.13 0.22 7642976 6223645 0.79 0.97 0.87 0.78 (nbgoodclauses,nbtotalgood,precisionGood,recallGood,FGood,nbbadclause,nbtotalbad,precisionBad,recallBad,FBad,accuracy)
c additional predictionFinallLBD 5 658463 1853109 0.55 0.19 0.29 7418291 6223645 0.80 0.95 0.87 0.78 (nbgoodclauses,nbtotalgood,precisionGood,recallGood,FGood,nbbadclause,nbtotalbad,precisionBad,recallBad,FBad,accuracy)
c additional predictionFinallLBD 6 910871 1853109 0.52 0.25 0.34 7165883 6223645 0.81 0.93 0.86 0.77 (nbgoodclauses,nbtotalgood,precisionGood,recallGood,FGood,nbbadclause,nbtotalbad,precisionBad,recallBad,FBad,accuracy)
c additional predictionFinallLBD 7 1187901 1853109 0.49 0.32 0.38 6888853 6223645 0.82 0.90 0.86 0.77 (nbgoodclauses,nbtotalgood,precisionGood,recallGood,FGood,nbbadclause,nbtotalbad,precisionBad,recallBad,FBad,accuracy)
c additional predictionFinallLBD 8 1478719 1853109 0.47 0.38 0.42 6598035 6223645 0.82 0.87 0.85 0.76 (nbgoodclauses,nbtotalgood,precisionGood,recallGood,FGood,nbbadclause,nbtotalbad,precisionBad,recallBad,FBad,accuracy)
c additional predictionFinallLBD 10 2098602 1853109 0.44 0.50 0.47 5978152 6223645 0.84 0.81 0.83 0.74 (nbgoodclauses,nbtotalgood,precisionGood,recallGood,FGood,nbbadclause,nbtotalbad,precisionBad,recallBad,FBad,accuracy)
c additional predictionFinallLBD 14 3397426 1853109 0.40 0.73 0.51 4679328 6223645 0.89 0.67 0.77 0.68 (nbgoodclauses,nbtotalgood,precisionGood,recallGood,FGood,nbbadclause,nbtotalbad,precisionBad,recallBad,FBad,accuracy)
c additional predictionFinallLBD 18 4499126 1853109 0.36 0.88 0.51 3577628 6223645 0.94 0.54 0.68 0.62 (nbgoodclauses,nbtotalgood,precisionGood,recallGood,FGood,nbbadclause,nbtotalbad,precisionBad,recallBad,FBad,accuracy)
c additional predictionFinallLBD 22 5293744 1853109 0.33 0.95 0.49 2783010 6223645 0.97 0.43 0.60 0.55 (nbgoodclauses,nbtotalgood,precisionGood,recallGood,FGood,nbbadclause,nbtotalbad,precisionBad,recallBad,FBad,accuracy)
c additional predictionFinallLBD 30 6262483 1853109 0.29 0.99 0.45 1814271 6223645 0.99 0.29 0.45 0.45 (nbgoodclauses,nbtotalgood,precisionGood,recallGood,FGood,nbbadclause,nbtotalbad,precisionBad,recallBad,FBad,accuracy)
c additional predictionFinallLBD 40 6926166 1853109 0.27 1.00 0.42 1150588 6223645 0.99 0.18 0.31 0.37 (nbgoodclauses,nbtotalgood,precisionGood,recallGood,FGood,nbbadclause,nbtotalbad,precisionBad,recallBad,FBad,accuracy)
c additional predictionSize 1 206 1853109 0.89 0.00 0.00 8076548 6223645 0.77 3.36 1.25 0.77 (nbgoodclauses,nbtotalgood,precisionGood,recallGood,FGood,nbbadclause,nbtotalbad,precisionBad,recallBad,FBad,accuracy)
c additional predictionSize 2 30577 1853109 0.33 0.01 0.01 8046177 6223645 0.77 3.35 1.25 0.77 (nbgoodclauses,nbtotalgood,precisionGood,recallGood,FGood,nbbadclause,nbtotalbad,precisionBad,recallBad,FBad,accuracy)
c additional predictionSize 3 56137 1853109 0.33 0.01 0.02 8020617 6223645 0.77 3.34 1.25 0.77 (nbgoodclauses,nbtotalgood,precisionGood,recallGood,FGood,nbbadclause,nbtotalbad,precisionBad,recallBad,FBad,accuracy)
c additional predictionSize 4 82371 1853109 0.36 0.02 0.03 7994383 6223645 0.77 3.33 1.25 0.77 (nbgoodclauses,nbtotalgood,precisionGood,recallGood,FGood,nbbadclause,nbtotalbad,precisionBad,recallBad,FBad,accuracy)
c additional predictionSize 5 105211 1853109 0.35 0.02 0.04 7971543 6223645 0.77 3.32 1.25 0.77 (nbgoodclauses,nbtotalgood,precisionGood,recallGood,FGood,nbbadclause,nbtotalbad,precisionBad,recallBad,FBad,accuracy)
c additional predictionSize 6 125105 1853109 0.36 0.02 0.05 7951649 6223645 0.77 3.32 1.25 0.77 (nbgoodclauses,nbtotalgood,precisionGood,recallGood,FGood,nbbadclause,nbtotalbad,precisionBad,recallBad,FBad,accuracy)
c additional predictionSize 7 143346 1853109 0.38 0.03 0.05 7933408 6223645 0.77 3.31 1.25 0.77 (nbgoodclauses,nbtotalgood,precisionGood,recallGood,FGood,nbbadclause,nbtotalbad,precisionBad,recallBad,FBad,accuracy)
c additional predictionSize 8 162629 1853109 0.38 0.03 0.06 7914125 6223645 0.77 3.30 1.25 0.77 (nbgoodclauses,nbtotalgood,precisionGood,recallGood,FGood,nbbadclause,nbtotalbad,precisionBad,recallBad,FBad,accuracy)
c additional predictionSize 10 202406 1853109 0.39 0.04 0.08 7874348 6223645 0.77 3.29 1.25 0.76 (nbgoodclauses,nbtotalgood,precisionGood,recallGood,FGood,nbbadclause,nbtotalbad,precisionBad,recallBad,FBad,accuracy)
c additional predictionSize 14 288105 1853109 0.38 0.06 0.10 7788649 6223645 0.78 3.26 1.25 0.76 (nbgoodclauses,nbtotalgood,precisionGood,recallGood,FGood,nbbadclause,nbtotalbad,precisionBad,recallBad,FBad,accuracy)
c additional predictionSize 18 376825 1853109 0.36 0.07 0.12 7699929 6223645 0.78 3.23 1.25 0.76 (nbgoodclauses,nbtotalgood,precisionGood,recallGood,FGood,nbbadclause,nbtotalbad,precisionBad,recallBad,FBad,accuracy)
c additional predictionSize 22 460745 1853109 0.35 0.09 0.14 7616009 6223645 0.78 3.20 1.25 0.75 (nbgoodclauses,nbtotalgood,precisionGood,recallGood,FGood,nbbadclause,nbtotalbad,precisionBad,recallBad,FBad,accuracy)
c additional predictionSize 30 657425 1853109 0.33 0.12 0.18 7419329 6223645 0.78 3.12 1.25 0.74 (nbgoodclauses,nbtotalgood,precisionGood,recallGood,FGood,nbbadclause,nbtotalbad,precisionBad,recallBad,FBad,accuracy)
c additional predictionSize 40 931083 1853109 0.33 0.16 0.22 7145671 6223645 0.78 3.02 1.24 0.73 (nbgoodclauses,nbtotalgood,precisionGood,recallGood,FGood,nbbadclause,nbtotalbad,precisionBad,recallBad,FBad,accuracy)
c additional predictionAge 1 240061 1853109 0.24 0.03 0.06 7836693 6223645 0.77 3.26 1.25 0.76 (nbgoodclauses,nbtotalgood,precisionGood,recallGood,FGood,nbbadclause,nbtotalbad,precisionBad,recallBad,FBad,accuracy)
c additional predictionAge 10 269505 1853109 0.22 0.03 0.06 7807249 6223645 0.77 3.25 1.25 0.75 (nbgoodclauses,nbtotalgood,precisionGood,recallGood,FGood,nbbadclause,nbtotalbad,precisionBad,recallBad,FBad,accuracy)
c additional predictionAge 25 328096 1853109 0.20 0.04 0.06 7748658 6223645 0.77 3.22 1.24 0.75 (nbgoodclauses,nbtotalgood,precisionGood,recallGood,FGood,nbbadclause,nbtotalbad,precisionBad,recallBad,FBad,accuracy)
c additional predictionAge 50 354848 1853109 0.20 0.04 0.06 7721906 6223645 0.77 3.21 1.24 0.74 (nbgoodclauses,nbtotalgood,precisionGood,recallGood,FGood,nbbadclause,nbtotalbad,precisionBad,recallBad,FBad,accuracy)
c additional predictionAge 100 382270 1853109 0.20 0.04 0.07 7694484 6223645 0.77 3.19 1.24 0.74 (nbgoodclauses,nbtotalgood,precisionGood,recallGood,FGood,nbbadclause,nbtotalbad,precisionBad,recallBad,FBad,accuracy)
c additional predictionAge 250 415907 1853109 0.20 0.05 0.07 7660847 6223645 0.77 3.18 1.24 0.74 (nbgoodclauses,nbtotalgood,precisionGood,recallGood,FGood,nbbadclause,nbtotalbad,precisionBad,recallBad,FBad,accuracy)
c additional predictionAge 500 435132 1853109 0.21 0.05 0.08 7641622 6223645 0.77 3.17 1.24 0.74 (nbgoodclauses,nbtotalgood,precisionGood,recallGood,FGood,nbbadclause,nbtotalbad,precisionBad,recallBad,FBad,accuracy)
c additional predictionAge 1000 452506 1853109 0.21 0.05 0.08 7624248 6223645 0.77 3.17 1.24 0.74 (nbgoodclauses,nbtotalgood,precisionGood,recallGood,FGood,nbbadclause,nbtotalbad,precisionBad,recallBad,FBad,accuracy)
c additional predictionAge 2500 477678 1853109 0.22 0.06 0.09 7599076 6223645 0.77 3.16 1.24 0.74 (nbgoodclauses,nbtotalgood,precisionGood,recallGood,FGood,nbbadclause,nbtotalbad,precisionBad,recallBad,FBad,accuracy)
c additional predictionAge 5000 501508 1853109 0.23 0.06 0.10 7575246 6223645 0.77 3.15 1.24 0.74 (nbgoodclauses,nbtotalgood,precisionGood,recallGood,FGood,nbbadclause,nbtotalbad,precisionBad,recallBad,FBad,accuracy)
c additional predictionAge 10000 533221 1853109 0.23 0.07 0.10 7543533 6223645 0.77 3.14 1.24 0.73 (nbgoodclauses,nbtotalgood,precisionGood,recallGood,FGood,nbbadclause,nbtotalbad,precisionBad,recallBad,FBad,accuracy)
c additional predictionAge 25000 596178 1853109 0.24 0.08 0.11 7480576 6223645 0.77 3.11 1.24 0.73 (nbgoodclauses,nbtotalgood,precisionGood,recallGood,FGood,nbbadclause,nbtotalbad,precisionBad,recallBad,FBad,accuracy)
c additional predictionAge 50000 671025 1853109 0.24 0.09 0.13 7405729 6223645 0.77 3.08 1.23 0.73 (nbgoodclauses,nbtotalgood,precisionGood,recallGood,FGood,nbbadclause,nbtotalbad,precisionBad,recallBad,FBad,accuracy)
c additional predictionAge 100000 794736 1853109 0.25 0.11 0.15 7282018 6223645 0.77 3.04 1.23 0.72 (nbgoodclauses,nbtotalgood,precisionGood,recallGood,FGood,nbbadclause,nbtotalbad,precisionBad,recallBad,FBad,accuracy)
c additional predictionTicks 1 335383 1853109 0.24 0.04 0.07 7741371 6223645 0.77 3.22 1.24 0.75 (nbgoodclauses,nbtotalgood,precisionGood,recallGood,FGood,nbbadclause,nbtotalbad,precisionBad,recallBad,FBad,accuracy)
c additional predictionTicks 10 1060159 1853109 0.20 0.11 0.15 7016595 6223645 0.77 2.90 1.21 0.69 (nbgoodclauses,nbtotalgood,precisionGood,recallGood,FGood,nbbadclause,nbtotalbad,precisionBad,recallBad,FBad,accuracy)
c additional predictionTicks 25 1798099 1853109 0.20 0.19 0.19 6278655 6223645 0.76 2.58 1.18 0.64 (nbgoodclauses,nbtotalgood,precisionGood,recallGood,FGood,nbbadclause,nbtotalbad,precisionBad,recallBad,FBad,accuracy)
c additional predictionTicks 50 2219698 1853109 0.20 0.24 0.22 5857056 6223645 0.76 2.40 1.15 0.61 (nbgoodclauses,nbtotalgood,precisionGood,recallGood,FGood,nbbadclause,nbtotalbad,precisionBad,recallBad,FBad,accuracy)
c additional predictionTicks 100 2679105 1853109 0.21 0.30 0.24 5397649 6223645 0.76 2.21 1.13 0.58 (nbgoodclauses,nbtotalgood,precisionGood,recallGood,FGood,nbbadclause,nbtotalbad,precisionBad,recallBad,FBad,accuracy)
c additional predictionTicks 250 3313788 1853109 0.22 0.39 0.28 4762966 6223645 0.76 1.96 1.10 0.54 (nbgoodclauses,nbtotalgood,precisionGood,recallGood,FGood,nbbadclause,nbtotalbad,precisionBad,recallBad,FBad,accuracy)
c additional predictionTicks 500 3775235 1853109 0.23 0.47 0.31 4301519 6223645 0.77 1.79 1.08 0.52 (nbgoodclauses,nbtotalgood,precisionGood,recallGood,FGood,nbbadclause,nbtotalbad,precisionBad,recallBad,FBad,accuracy)
c additional predictionTicks 1000 4231719 1853109 0.24 0.55 0.34 3845035 6223645 0.78 1.63 1.06 0.50 (nbgoodclauses,nbtotalgood,precisionGood,recallGood,FGood,nbbadclause,nbtotalbad,precisionBad,recallBad,FBad,accuracy)
c additional predictionTicks 2500 4853836 1853109 0.25 0.66 0.36 3222918 6223645 0.80 1.40 1.02 0.47 (nbgoodclauses,nbtotalgood,precisionGood,recallGood,FGood,nbbadclause,nbtotalbad,precisionBad,recallBad,FBad,accuracy)
c additional predictionTicks 5000 5330444 1853109 0.25 0.73 0.38 2746310 6223645 0.82 1.21 0.98 0.45 (nbgoodclauses,nbtotalgood,precisionGood,recallGood,FGood,nbbadclause,nbtotalbad,precisionBad,recallBad,FBad,accuracy)
c additional predictionTicks 10000 5786422 1853109 0.25 0.80 0.39 2290332 6223645 0.83 1.03 0.92 0.42 (nbgoodclauses,nbtotalgood,precisionGood,recallGood,FGood,nbbadclause,nbtotalbad,precisionBad,recallBad,FBad,accuracy)
c additional predictionTicks 25000 6344347 1853109 0.25 0.87 0.39 1732407 6223645 0.86 0.80 0.83 0.38 (nbgoodclauses,nbtotalgood,precisionGood,recallGood,FGood,nbbadclause,nbtotalbad,precisionBad,recallBad,FBad,accuracy)
c additional predictionTicks 50000 6754660 1853109 0.25 0.91 0.39 1322094 6223645 0.87 0.62 0.72 0.35 (nbgoodclauses,nbtotalgood,precisionGood,recallGood,FGood,nbbadclause,nbtotalbad,precisionBad,recallBad,FBad,accuracy)
c additional predictionTicks 100000 7151589 1853109 0.24 0.94 0.39 925165 6223645 0.88 0.44 0.58 0.32 (nbgoodclauses,nbtotalgood,precisionGood,recallGood,FGood,nbbadclause,nbtotalbad,precisionBad,recallBad,FBad,accuracy)
c additional lifetimeGood 2 12 918 20214 183418 1441100 3864343 5759123 6850756 7720663 8077652 8077663 (0,1,5,10,25,50,75,90,95,99,100-1,100)
c additional lifetimeBad 1 6 414 22002 297682 2373590 5247544 6795301 7187924 7888734 8077658 8077662 (0,1,5,10,25,50,75,90,95,99,100-1,100)
c additional lifetimeBadBad 1 6 12 24 4014 122417 449165 949842 1450558 3193232 8074315 8074327 (0,1,5,10,25,50,75,90,95,99,100-1,100)
c additional compositionBad 1 2 4 6 13 32 83 211 466 4943 20041 20052 (0,1,5,10,25,50,75,90,95,99,100-1,100)
c additional compositionBadWithGood 0 0 0 1 3 8 19 41 69 336 1170 1202 (0,1,5,10,25,50,75,90,95,99,100-1,100)
c additional compositionBadWithBad 0 0 0 0 1 2 5 18 32 60 237 239 (0,1,5,10,25,50,75,90,95,99,100-1,100)
c additional compositionBadWithInitial 0 0 2 3 7 19 52 157 394 4558 19016 19029 (0,1,5,10,25,50,75,90,95,99,100-1,100)
c additional compositionGood 1 2 3 5 10 27 71 165 289 3081 20364 26499 (0,1,5,10,25,50,75,90,95,99,100-1,100)
c additional compositionGoodWithGood 0 0 1 2 4 12 28 50 69 166 1321 1347 (0,1,5,10,25,50,75,90,95,99,100-1,100)
c additional compositionGoodWithInitial 0 0 2 2 5 14 41 115 228 2909 19344 26114 (0,1,5,10,25,50,75,90,95,99,100-1,100)
c additional propagationGood total 481679645 percentiles 0 1 1 1 2 4 21 177 559 4028 261849 276351 (0,1,5,10,25,50,75,90,95,99,100-1,100)
c additional propagationBad total 375923341 percentiles 1 1 1 1 1 2 5 21 61 684 162275 174331 (0,1,5,10,25,50,75,90,95,99,100-1,100)
c additional resolutionGood total 58277274 percentiles 0 1 1 1 1 3 10 50 133 545 34818 34972 (0,1,5,10,25,50,75,90,95,99,100-1,100)
c additional resolutionBad total 38489442 percentiles 0 0 0 0 1 1 3 7 16 96 6387 6764 (0,1,5,10,25,50,75,90,95,99,100-1,100)
No graph is dumped
c result of core 3 is UNSAT
c One thread has finished
c Core 3 said it finished
c result of core 5 is UNKNOWN
c result of core 4 is UNKNOWN
c result of core 2 is UNKNOWN
c result of core 1 is UNKNOWN
c result of core 0 is UNKNOWN
c restarts              : 9191 (146 conflicts in avg)
c blocked restarts      : 928 (multiple: 612) 
c last block at restart : 9138
c nb ReduceDB           : 31
c nb removed Clauses    : 1227793
c nb learnts DL2        : 5069
c nb learnts size 2     : 4367
c nb learnts size 1     : 19
c conflicts             : 1346126        (40 /sec)
c decisions             : 58554413       (0.00 % random) (1748 /sec)
c propagations          : 2580367039     (77037 /sec)
c conflict literals     : 526930861      (5.85 % deleted)
c nb reduced Clauses    : 8847
c CPU time              : 33495.3 s

s INDETERMINATE
