c
c This is glucose-proof 1.0 based on  2.1 --  (thanks to MiniSAT)
c
c EXPERIMENTAL EASY PARALLEL (ROUND ROBIN) VERSION
c
c WARNING: for repeatability, setting FPU to use double precision
c Parallel version 1 solvers created.
c ========================================[ Problem Statistics ]===========================================
c |                                                                                                       |
c |  Number of variables:        168302                                                                   |
c |  Number of clauses:         3520180                                                                   |
c |  Parse time:                   1.89 s                                                                 |
c |                                                                                                       |
c ========================================[ MAGIC CONSTANTS ]==============================================
c | Constants are supposed to work well together :-)                                                      |
c | however, if you find better choices, please let us known...                                           |
c |-------------------------------------------------------------------------------------------------------|
c |                                |                                |                                     |
c | - Restarts:                    | - Reduce Clause DB:            | - Minimize Asserting:               |
c |   * LBD Queue    :     50      |   * First     :   4000         |    * size <  30                     |
c |   * Trail  Queue :   5000      |   * Inc       :    300         |    * lbd  <   6                     |
c |   * K            :   0.80      |   * Special   :   1000         |                                     |
c |   * R            :   1.40      |   * Protected :  (lbd)< 30     |                                     |
c |                                |                                |                                     |
c ==================================[ Search Statistics (every  10000 conflicts) ]=========================
c |                                                                                                       |
c |          RESTARTS           |          ORIGINAL         |              LEARNT              | Progress |
c |       NB   Blocked  Avg Cfc |    Vars  Clauses Literals |   Red   Learnts    LBD2  Removed |          |
c =========================================================================================================
c |       43         0      232 |  168301  3520180 10134242 |     1     8005      142     1993 |  0.001 % |
c |      136        22      147 |  168298  3520180 10134242 |     3     6953      380    13033 |  0.002 % |
c |      194        47      154 |  168295  3520180 10134242 |     3    16919      537    13033 |  0.004 % |
c |      234        47      170 |  168295  3520180 10134242 |     4    17652      595    22282 |  0.004 % |
c |      235        47      212 |  168295  3520180 10134242 |     5    15843      649    34091 |  0.004 % |
c |      292        51      205 |  168295  3520180 10134242 |     5    25843      781    34091 |  0.004 % |
c |      412        65      169 |  168294  3520180 10134242 |     6    21489      895    48444 |  0.005 % |
c |      447        71      178 |  168294  3520180 10134242 |     6    31489     1001    48444 |  0.005 % |
c |      477        74      188 |  168294  3520180 10134242 |     7    24449     1104    65484 |  0.005 % |
c |      535        82      186 |  168294  3520180 10134242 |     7    34449     1213    65484 |  0.005 % |
c |      616        83      178 |  168294  3520180 10134242 |     8    24863     1308    85070 |  0.005 % |
c |      721        87      166 |  168294  3520180 10134242 |     8    34863     1415    85070 |  0.005 % |
c |      772        87      168 |  168294  3520180 10134242 |     9    22662     1473   107271 |  0.005 % |
c |      845        88      165 |  168294  3520180 10134242 |     9    32662     1576   107271 |  0.005 % |
c |      849        88      176 |  168294  3520180 10134242 |     9    42662     1612   107271 |  0.005 % |
c |      849        89      188 |  168294  3520180 10134242 |    10    27843     1633   132090 |  0.005 % |
c |      852        93      199 |  168294  3520180 10134242 |    10    37843     1655   132090 |  0.005 % |
c |      886        93      203 |  168294  3520180 10134242 |    10    47843     1688   132090 |  0.005 % |
c |      886        93      214 |  168294  3520180 10134242 |    11    30443     1714   159490 |  0.005 % |
c |      886        93      225 |  168294  3520180 10134242 |    11    40443     1736   159490 |  0.005 % |
c |      906        93      231 |  168294  3520180 10134242 |    11    50443     1761   159490 |  0.005 % |
c |      949       100      231 |  168294  3520180 10134242 |    12    30426     1848   189507 |  0.005 % |
c |      949       100      242 |  168294  3520180 10134242 |    12    40426     1857   189507 |  0.005 % |
c |     1050       100      228 |  168294  3520180 10134242 |    12    50426     1866   189507 |  0.005 % |
c |     1153       108      216 |  168294  3520180 10134242 |    12    60426     1941   189507 |  0.005 % |
c |     1233       109      210 |  168294  3520180 10134242 |    13    37828     1990   222105 |  0.005 % |
c |     1235       109      218 |  168294  3520180 10134242 |    13    47828     1992   222105 |  0.005 % |
c |     1235       109      226 |  168294  3520180 10134242 |    13    57828     1994   222105 |  0.005 % |
c |     1235       109      234 |  168294  3520180 10134242 |    13    67828     1997   222105 |  0.005 % |
c |     1235       109      242 |  168294  3520180 10134242 |    14    42631     2001   257302 |  0.005 % |
c |     1299       112      238 |  168293  3520180 10134242 |    14    52630     2066   257302 |  0.005 % |
c |     1427       121      224 |  168293  3520180 10134242 |    14    62630     2143   257302 |  0.005 % |
c |     1580       125      208 |  168293  3520180 10134242 |    14    72630     2228   257302 |  0.005 % |
c |     1686       134      201 |  168293  3520180 10134242 |    15    44817     2361   295115 |  0.005 % |
c |     1709       157      204 |  168293  3520180 10134242 |    15    54817     2399   295115 |  0.005 % |
c |     1851       173      194 |  168293  3520180 10134242 |    15    64817     2501   295115 |  0.005 % |
c |     1931       176      191 |  168293  3520180 10134242 |    15    74817     2607   295115 |  0.005 % |
c |     2026       182      187 |  164983  3520180 10134242 |    16    44383     2675   335520 |  1.972 % |
c |     2045       192      190 |  164983  3520180 10134242 |    16    54383     2706   335520 |  1.972 % |
c |     2109       199      189 |  164983  3520180 10134242 |    16    64383     2812   335520 |  1.972 % |
c |     2205       202      185 |  164983  3520180 10134242 |    16    74383     2871   335520 |  1.972 % |
c |     2213       202      189 |  164983  3520180 10134242 |    16    84383     2895   335520 |  1.972 % |
c |     2213       202      194 |  164983  3520180 10134242 |    17    51409     2921   378494 |  1.972 % |
c |     2253       203      195 |  164983  3520180 10134242 |    17    61409     2947   378494 |  1.972 % |
c |     2279       203      197 |  164983  3520180 10134242 |    17    71409     2967   378494 |  1.972 % |
c |     2305       207      199 |  164983  3520180 10134242 |    17    81409     3044   378494 |  1.972 % |
c |     2443       210      192 |  164983  3520180 10134242 |    18    45827     3150   424076 |  1.972 % |
c |     2468       210      194 |  164983  3520180 10134242 |    18    55827     3182   424076 |  1.972 % |
c |     2470       211      198 |  164983  3520180 10134242 |    18    65827     3193   424076 |  1.972 % |
c |     2485       215      201 |  164983  3520180 10134242 |    18    75827     3240   424076 |  1.972 % |
c |     2544       219      200 |  164615  3520180 10134242 |    18    85621     3295   424076 |  2.191 % |
c |     2664       221      195 |  164614  3520180 10134242 |    18    95620     3410   424076 |  2.191 % |
c |     2800       236      189 |  164614  3520180 10134242 |    19    57643     3570   472053 |  2.191 % |
c |     2914       245      185 |  164613  3520180 10134242 |    19    67642     3719   472053 |  2.192 % |
c |     2995       252      183 |  164613  3520180 10134242 |    19    77642     3819   472053 |  2.192 % |
c |     3130       262      178 |  164613  3520180 10134242 |    19    87642     3891   472053 |  2.192 % |
c |     3249       270      175 |  164613  3520180 10134242 |    19    97642     3976   472053 |  2.192 % |
c |     3343       280      173 |  164612  3520180 10134242 |    20    56829     4147   522865 |  2.192 % |
c |     3424       291      172 |  164611  3520180 10134242 |    20    66828     4226   522865 |  2.193 % |
c |     3564       292      168 |  164610  3520180 10134242 |    20    76827     4320   522865 |  2.194 % |
c |     3588       298      170 |  164610  3520180 10134242 |    20    86827     4354   522865 |  2.194 % |
c |     3597       303      172 |  164610  3520180 10134242 |    20    96827     4412   522865 |  2.194 % |
c |     3679       308      171 |  164610  3520180 10134242 |    20   106827     4463   522865 |  2.194 % |
c |     3797       314      168 |  161879  3520180 10134242 |    21    63430     4535   576260 |  3.816 % |
c |     3897       314      166 |  161879  3520180 10134242 |    21    73430     4610   576260 |  3.816 % |
c |     3978       314      165 |  161879  3520180 10134242 |    21    83430     4652   576260 |  3.816 % |
c |     4014       314      166 |  161879  3520180 10134242 |    21    93430     4683   576260 |  3.816 % |
c |     4014       314      169 |  161879  3520180 10134242 |    21   103430     4697   576260 |  3.816 % |
c |     4018       318      171 |  161879  3520180 10134242 |    22    57444     4741   632246 |  3.816 % |
c |     4019       318      174 |  161879  3520180 10134242 |    22    67444     4779   632246 |  3.816 % |
c |     4024       321      176 |  161879  3520180 10134242 |    22    77444     4822   632246 |  3.816 % |
c |     4079       332      176 |  161879  3520180 10134242 |    22    87444     4890   632246 |  3.817 % |
c |     4079       334      178 |  161879  3520180 10134242 |    22    97444     4933   632246 |  3.817 % |
c |     4103       346      180 |  161879  3520180 10134242 |    22   107444     4971   632246 |  3.816 % |
c |     4110       347      182 |  161879  3520180 10134242 |    23    58842     5006   690848 |  3.816 % |
c |     4150       358      183 |  161879  3520180 10134242 |    23    68842     5078   690848 |  3.816 % |
c |     4236       370      181 |  161879  3520180 10134242 |    23    78842     5184   690848 |  3.817 % |
c |     4331       376      180 |  161879  3520180 10134242 |    23    88842     5333   690848 |  3.816 % |
c |     4436       383      178 |  161879  3520180 10134242 |    23    98842     5451   690848 |  3.817 % |
c |     4526       402      176 |  161879  3520180 10134242 |    23   108842     5582   690848 |  3.816 % |
c |     4658       408      173 |  161879  3520180 10134242 |    23   118842     5696   690848 |  3.816 % |
c |     4812       411      170 |  161872  3520180 10134242 |    24    67619     5827   752064 |  3.821 % |
c |     4918       413      168 |  161862  3520180 10134242 |    24    77617     5920   752064 |  3.826 % |
c |     5034       433      166 |  161860  3520180 10134242 |    24    86348     6069   752064 |  3.828 % |
c |     5106       452      166 |  161860  3520180 10134242 |    24    96348     6117   752064 |  3.828 % |
c |     5272       455      163 |  159597  3520180 10134242 |    24   106344     6232   752064 |  5.172 % |
c |     5413       461      160 |  159597  3520180 10134242 |    24   116341     6338   752064 |  5.172 % |
c |     5499       468      160 |  159597  3520180 10134242 |    24   126341     6441   752064 |  5.172 % |
c |     5617       479      158 |  159595  3520180 10134242 |    25    73560     6541   814843 |  5.174 % |
c |     5775       484      155 |  159594  3520180 10134242 |    25    83559     6625   814843 |  5.174 % |
c |     5894       495      154 |  159594  3520180 10134242 |    25    93559     6725   814843 |  5.174 % |
c |     6025       506      152 |  159594  3520180 10134242 |    25   103559     6828   814843 |  5.174 % |
c |     6186       513      150 |  159594  3520180 10134242 |    25   113559     6888   814843 |  5.174 % |
c |     6334       516      148 |  159594  3520180 10134242 |    25   123559     6966   814843 |  5.174 % |
c |     6462       516      147 |  159200  3520180 10134242 |    26    67327     7033   881019 |  5.408 % |
c |     6495       516      147 |  159200  3520180 10134242 |    26    77327     7045   881019 |  5.408 % |
c |     6496       516      149 |  159200  3520180 10134242 |    26    87327     7062   881019 |  5.408 % |
c |     6507       516      150 |  159200  3520180 10134242 |    26    97327     7083   881019 |  5.408 % |
c |     6511       517      152 |  159200  3520180 10134242 |    26   107327     7108   881019 |  5.408 % |
c |     6543       529      152 |  159200  3520180 10134242 |    26   117327     7190   881019 |  5.408 % |
c |     6659       545      151 |  159200  3520180 10134242 |    26   127327     7275   881019 |  5.408 % |
c |     6712       552      151 |  159200  3520180 10134242 |    26   137327     7327   881019 |  5.408 % |
c |     6776       570      152 |  159200  3520180 10134242 |    27    78424     7440   949922 |  5.408 % |
c |     6789       572      153 |  159200  3520180 10134242 |    27    88424     7466   949922 |  5.408 % |
c |     6842       589      153 |  159200  3520180 10134242 |    27    98424     7523   949922 |  5.408 % |
c |     6912       594      153 |  159200  3520180 10134242 |    27   108424     7657   949922 |  5.408 % |
c |     7007       611      152 |  159200  3520180 10134242 |    27   118424     7753   949922 |  5.408 % |
c |     7105       621      152 |  159200  3520180 10134242 |    27   128424     7835   949922 |  5.408 % |
c |     7240       634      150 |  159200  3520180 10134242 |    27   138424     7933   949922 |  5.408 % |
c |     7330       645      150 |  159200  3520180 10134242 |    28    76831     8054  1021515 |  5.408 % |
c |     7427       664      149 |  159200  3520180 10134242 |    28    86831     8135  1021515 |  5.408 % |
c |     7492       678      149 |  159200  3520180 10134242 |    28    96831     8243  1021515 |  5.408 % |
c |     7627       684      148 |  159200  3520180 10134242 |    28   106831     8336  1021515 |  5.408 % |
c |     7653       692      148 |  159193  3520180 10134242 |    28   115412     8368  1021515 |  5.412 % |
c |     7790       703      147 |  159193  3520180 10134242 |    28   125412     8461  1021515 |  5.412 % |
c |     7941       708      146 |  159193  3520180 10134242 |    28   135412     8560  1021515 |  5.412 % |
c |     8062       717      145 |  159193  3520180 10134242 |    28   145412     8646  1021515 |  5.412 % |
c |     8189       728      144 |  159193  3520180 10134242 |    29    82140     8791  1094787 |  5.412 % |
c |     8296       737      143 |  159193  3520180 10134242 |    29    92140     8843  1094787 |  5.412 % |
c |     8342       749      143 |  159193  3520180 10134242 |    29   102140     8981  1094787 |  5.412 % |
c |     8462       768      142 |  159193  3520180 10134242 |    29   112140     9047  1094787 |  5.412 % |
c |     8603       770      141 |  159193  3520180 10134242 |    29   122140     9141  1094787 |  5.412 % |
c |     8694       777      141 |  159193  3520180 10134242 |    29   132140     9258  1094787 |  5.412 % |
c |     8765       778      141 |  159193  3520180 10134242 |    29   142140     9303  1094787 |  5.413 % |
c |     8778       779      142 |  159193  3520180 10134242 |    29   152140     9329  1094787 |  5.412 % |
c |     8779       782      143 |  159193  3520180 10134242 |    30    85605     9358  1171322 |  5.413 % |
c |     8884       809      142 |  159193  3520180 10134242 |    30    95605     9504  1171322 |  5.412 % |
c |     9003       811      142 |  159193  3520180 10134242 |    30   105605     9558  1171322 |  5.412 % |
c |     9122       823      141 |  159193  3520180 10134242 |    30   115605     9675  1171322 |  5.412 % |
c |     9267       824      140 |  159189  3520180 10134242 |    30   125601     9719  1171322 |  5.415 % |
c |     9387       825      139 |  159189  3520180 10134242 |    30   135601     9770  1171322 |  5.415 % |
c |     9424       825      140 |  159189  3520180 10134242 |    30   145601     9791  1171322 |  5.415 % |
c |     9473       829      140 |  159189  3520180 10134242 |    30   155601     9833  1171322 |  5.415 % |
c |     9619       833      139 |  159189  3520180 10134242 |    31    86443     9895  1250480 |  5.415 % |
c |     9739       836      138 |  159189  3520180 10134242 |    31    96443     9958  1250480 |  5.415 % |
c |     9783       836      139 |  159189  3520180 10134242 |    31   106443     9970  1250480 |  5.415 % |
c |     9800       841      139 |  159189  3520180 10134242 |    31   116443    10009  1250480 |  5.415 % |
c |     9825       842      140 |  159189  3520180 10134242 |    31   126443    10021  1250480 |  5.415 % |
c |     9834       843      141 |  159189  3520180 10134242 |    31   136443    10039  1250480 |  5.415 % |
c |     9852       846      142 |  159189  3520180 10134242 |    31   146443    10086  1250480 |  5.415 % |
c |     9873       848      142 |  159189  3520180 10134242 |    31   156443    10109  1250480 |  5.415 % |
c |     9962       859      142 |  159189  3520180 10134242 |    32    84532    10180  1332391 |  5.415 % |
c |     9972       879      143 |  159189  3520180 10134242 |    32    94532    10285  1332391 |  5.415 % |
c |     9983       887      144 |  159189  3520180 10134242 |    32   104532    10312  1332391 |  5.415 % |
c |    10010       901      144 |  159189  3520180 10134242 |    32   114532    10357  1332391 |  5.415 % |
c |    10069       907      144 |  159189  3520180 10134242 |    32   124532    10438  1332391 |  5.415 % |
c |    10157       907      144 |  159189  3520180 10134242 |    32   134532    10490  1332391 |  5.415 % |
c |    10161       908      145 |  159189  3520180 10134242 |    32   144532    10509  1332391 |  5.415 % |
c |    10163       913      146 |   91383  3520180 10134242 |    32    79534    10587  1332391 | 45.703 % |
c |    10163       914      147 |   91383  3520180 10134242 |    32    89534    10604  1332391 | 45.703 % |
c empty clause found by core 0 at conflict 1501189
*
c checking the resolution graph...OK
c All useful bySize 1087524 clauses, percentiles 0 2 2 2 2 26 161 902 2269 10012 41916 41926 (0,1,5,10,25,50,75,90,95,99,100-1,100)
c All useless bySize 3933846 clauses, percentiles 0 2 2 2 2 2 7 272 761 4540 42030 42152 (0,1,5,10,25,50,75,90,95,99,100-1,100)
c ProofOnly useful bySize 567907 clauses, percentiles 0 4 17 33 73 151 570 2168 4967 14719 41916 41926 (0,1,5,10,25,50,75,90,95,99,100-1,100)
c ProofOnly useless bySize 933282 clauses, percentiles 1 3 27 47 91 205 609 1909 3968 11586 42030 42152 (0,1,5,10,25,50,75,90,95,99,100-1,100)
c All useful byFinalLBD 1087524 clauses, percentiles 0 2 2 2 2 5 12 18 23 52 144 146 (0,1,5,10,25,50,75,90,95,99,100-1,100)
c All useless byFinalLBD 3933846 clauses, percentiles 0 2 2 2 2 2 6 27 43 80 299 305 (0,1,5,10,25,50,75,90,95,99,100-1,100)
c ProofOnly useful byFinalLBD 567907 clauses, percentiles 0 2 3 4 7 11 16 20 24 33 109 109 (0,1,5,10,25,50,75,90,95,99,100-1,100)
c ProofOnly useless byFinalLBD 933282 clauses, percentiles 1 3 7 9 14 23 38 58 74 107 299 305 (0,1,5,10,25,50,75,90,95,99,100-1,100)
c All useful byInitialLBD 1087524 clauses, percentiles 0 2 2 2 2 7 15 21 27 58 144 146 (0,1,5,10,25,50,75,90,95,99,100-1,100)
c All useless byInitialLBD 3933846 clauses, percentiles 0 2 2 2 2 2 6 29 45 81 300 305 (0,1,5,10,25,50,75,90,95,99,100-1,100)
c ProofOnly useful byInitialLBD 567907 clauses, percentiles 0 3 5 7 10 14 18 24 29 45 119 121 (0,1,5,10,25,50,75,90,95,99,100-1,100)
c ProofOnly useless byInitialLBD 933282 clauses, percentiles 1 3 8 11 16 25 40 60 76 108 300 305 (0,1,5,10,25,50,75,90,95,99,100-1,100)
c Literals ProofOnly useful 576881730
c Literals ProofOnly useless 821432324
c additional windowsGood 1 1 1 1 1 1 2 6 12 39 204 269 (0,1,5,10,25,50,75,90,95,99,100-1,100)
c additional windowsBad 1 1 1 1 1 2 5 11 19 54 626 701 (0,1,5,10,25,50,75,90,95,99,100-1,100)
c additional 1WindowNoDecision 103727 48140 0.46 65752 27177 0.41 (nbWindowsGood,nbWindowsNoDecisionGood,nbWindowsBad,nbWindowsNoDecisionBad
c additional topclausessize all (10%,5%,1%,top) 4525.78 7577.81 18322.92 41926
c additional topclausessize proofonly (10%,5%,1%,top) 5593.84 9098.00 20702.54 41926
c additional topclausesinitialLBD all (10%,5%,1%,top) 3740.43 6425.21 16464.06 41926
c additional topclausesinitialLBD proofonly (10%,5%,1%,top) 3185.40 5593.84 15065.86 41926
c additional topclausesfinalLBD all (10%,5%,1%,top) 2475.07 4485.90 13082.39 41926
c additional topclausesfinalLBD proofonly (10%,5%,1%,top) 2215.74 4063.42 12268.02 41926
c additional predictionInitialLBD 1 45 567907 0.98 0.00 0.00 1501144 933282 0.62 1.64 0.90 0.62 (nbgoodclauses,nbtotalgood,precisionGood,recallGood,FGood,nbbadclause,nbtotalbad,precisionBad,recallBad,FBad,accuracy)
c additional predictionInitialLBD 2 10664 567907 0.29 0.01 0.01 1490525 933282 0.62 1.63 0.90 0.62 (nbgoodclauses,nbtotalgood,precisionGood,recallGood,FGood,nbbadclause,nbtotalbad,precisionBad,recallBad,FBad,accuracy)
c additional predictionInitialLBD 3 19020 567907 0.43 0.01 0.03 1482169 933282 0.62 1.62 0.90 0.62 (nbgoodclauses,nbtotalgood,precisionGood,recallGood,FGood,nbbadclause,nbtotalbad,precisionBad,recallBad,FBad,accuracy)
c additional predictionInitialLBD 4 33590 567907 0.57 0.03 0.06 1467599 933282 0.63 1.62 0.90 0.62 (nbgoodclauses,nbtotalgood,precisionGood,recallGood,FGood,nbbadclause,nbtotalbad,precisionBad,recallBad,FBad,accuracy)
c additional predictionInitialLBD 5 56654 567907 0.62 0.06 0.11 1444535 933282 0.63 1.61 0.91 0.63 (nbgoodclauses,nbtotalgood,precisionGood,recallGood,FGood,nbbadclause,nbtotalbad,precisionBad,recallBad,FBad,accuracy)
c additional predictionInitialLBD 6 84549 567907 0.66 0.10 0.17 1416640 933282 0.64 1.59 0.91 0.64 (nbgoodclauses,nbtotalgood,precisionGood,recallGood,FGood,nbbadclause,nbtotalbad,precisionBad,recallBad,FBad,accuracy)
c additional predictionInitialLBD 7 119887 567907 0.67 0.14 0.23 1381302 933282 0.65 1.57 0.92 0.65 (nbgoodclauses,nbtotalgood,precisionGood,recallGood,FGood,nbbadclause,nbtotalbad,precisionBad,recallBad,FBad,accuracy)
c additional predictionInitialLBD 8 160450 567907 0.67 0.19 0.29 1340739 933282 0.66 1.55 0.92 0.66 (nbgoodclauses,nbtotalgood,precisionGood,recallGood,FGood,nbbadclause,nbtotalbad,precisionBad,recallBad,FBad,accuracy)
c additional predictionInitialLBD 10 261175 567907 0.66 0.30 0.42 1240014 933282 0.68 1.49 0.93 0.68 (nbgoodclauses,nbtotalgood,precisionGood,recallGood,FGood,nbbadclause,nbtotalbad,precisionBad,recallBad,FBad,accuracy)
c additional predictionInitialLBD 14 508120 567907 0.62 0.56 0.59 993069 933282 0.75 1.31 0.95 0.70 (nbgoodclauses,nbtotalgood,precisionGood,recallGood,FGood,nbbadclause,nbtotalbad,precisionBad,recallBad,FBad,accuracy)
c additional predictionInitialLBD 18 738750 567907 0.58 0.76 0.66 762439 933282 0.82 1.10 0.94 0.70 (nbgoodclauses,nbtotalgood,precisionGood,recallGood,FGood,nbbadclause,nbtotalbad,precisionBad,recallBad,FBad,accuracy)
c additional predictionInitialLBD 22 910229 567907 0.55 0.87 0.67 590960 933282 0.88 0.92 0.90 0.68 (nbgoodclauses,nbtotalgood,precisionGood,recallGood,FGood,nbbadclause,nbtotalbad,precisionBad,recallBad,FBad,accuracy)
c additional predictionInitialLBD 30 1121349 567907 0.49 0.96 0.65 379840 933282 0.94 0.63 0.75 0.60 (nbgoodclauses,nbtotalgood,precisionGood,recallGood,FGood,nbbadclause,nbtotalbad,precisionBad,recallBad,FBad,accuracy)
c additional predictionInitialLBD 40 1267015 567907 0.44 0.99 0.61 234174 933282 0.96 0.40 0.56 0.52 (nbgoodclauses,nbtotalgood,precisionGood,recallGood,FGood,nbbadclause,nbtotalbad,precisionBad,recallBad,FBad,accuracy)
c additional predictionFinallLBD 1 1874 567907 0.93 0.00 0.01 1499315 933282 0.62 1.00 0.77 0.62 (nbgoodclauses,nbtotalgood,precisionGood,recallGood,FGood,nbbadclause,nbtotalbad,precisionBad,recallBad,FBad,accuracy)
c additional predictionFinallLBD 2 23439 567907 0.64 0.03 0.05 1477750 933282 0.63 0.99 0.77 0.63 (nbgoodclauses,nbtotalgood,precisionGood,recallGood,FGood,nbbadclause,nbtotalbad,precisionBad,recallBad,FBad,accuracy)
c additional predictionFinallLBD 3 51366 567907 0.76 0.07 0.13 1449823 933282 0.64 0.99 0.77 0.64 (nbgoodclauses,nbtotalgood,precisionGood,recallGood,FGood,nbbadclause,nbtotalbad,precisionBad,recallBad,FBad,accuracy)
c additional predictionFinallLBD 4 86636 567907 0.81 0.12 0.21 1414553 933282 0.65 0.98 0.78 0.66 (nbgoodclauses,nbtotalgood,precisionGood,recallGood,FGood,nbbadclause,nbtotalbad,precisionBad,recallBad,FBad,accuracy)
c additional predictionFinallLBD 5 129290 567907 0.78 0.18 0.29 1371899 933282 0.66 0.97 0.79 0.67 (nbgoodclauses,nbtotalgood,precisionGood,recallGood,FGood,nbbadclause,nbtotalbad,precisionBad,recallBad,FBad,accuracy)
c additional predictionFinallLBD 6 175899 567907 0.76 0.23 0.36 1325290 933282 0.67 0.95 0.79 0.68 (nbgoodclauses,nbtotalgood,precisionGood,recallGood,FGood,nbbadclause,nbtotalbad,precisionBad,recallBad,FBad,accuracy)
c additional predictionFinallLBD 7 227406 567907 0.73 0.29 0.42 1273783 933282 0.68 0.93 0.79 0.69 (nbgoodclauses,nbtotalgood,precisionGood,recallGood,FGood,nbbadclause,nbtotalbad,precisionBad,recallBad,FBad,accuracy)
c additional predictionFinallLBD 8 281991 567907 0.71 0.35 0.47 1219198 933282 0.70 0.91 0.79 0.70 (nbgoodclauses,nbtotalgood,precisionGood,recallGood,FGood,nbbadclause,nbtotalbad,precisionBad,recallBad,FBad,accuracy)
c additional predictionFinallLBD 10 399192 567907 0.67 0.47 0.56 1101997 933282 0.73 0.86 0.79 0.71 (nbgoodclauses,nbtotalgood,precisionGood,recallGood,FGood,nbbadclause,nbtotalbad,precisionBad,recallBad,FBad,accuracy)
c additional predictionFinallLBD 14 643633 567907 0.62 0.70 0.66 857556 933282 0.80 0.74 0.77 0.72 (nbgoodclauses,nbtotalgood,precisionGood,recallGood,FGood,nbbadclause,nbtotalbad,precisionBad,recallBad,FBad,accuracy)
c additional predictionFinallLBD 18 847442 567907 0.57 0.86 0.69 653747 933282 0.88 0.61 0.72 0.71 (nbgoodclauses,nbtotalgood,precisionGood,recallGood,FGood,nbbadclause,nbtotalbad,precisionBad,recallBad,FBad,accuracy)
c additional predictionFinallLBD 22 992607 567907 0.54 0.94 0.68 508582 933282 0.93 0.51 0.66 0.67 (nbgoodclauses,nbtotalgood,precisionGood,recallGood,FGood,nbbadclause,nbtotalbad,precisionBad,recallBad,FBad,accuracy)
c additional predictionFinallLBD 30 1170326 567907 0.48 0.99 0.64 330863 933282 0.98 0.35 0.51 0.59 (nbgoodclauses,nbtotalgood,precisionGood,recallGood,FGood,nbbadclause,nbtotalbad,precisionBad,recallBad,FBad,accuracy)
c additional predictionFinallLBD 40 1294598 567907 0.44 1.00 0.61 206591 933282 0.99 0.22 0.36 0.51 (nbgoodclauses,nbtotalgood,precisionGood,recallGood,FGood,nbbadclause,nbtotalbad,precisionBad,recallBad,FBad,accuracy)
c additional predictionSize 1 45 567907 0.98 0.00 0.00 1501144 933282 0.62 1.64 0.90 0.62 (nbgoodclauses,nbtotalgood,precisionGood,recallGood,FGood,nbbadclause,nbtotalbad,precisionBad,recallBad,FBad,accuracy)
c additional predictionSize 2 9857 567907 0.24 0.00 0.01 1491332 933282 0.62 1.63 0.90 0.62 (nbgoodclauses,nbtotalgood,precisionGood,recallGood,FGood,nbbadclause,nbtotalbad,precisionBad,recallBad,FBad,accuracy)
c additional predictionSize 3 14489 567907 0.31 0.01 0.02 1486700 933282 0.62 1.63 0.90 0.62 (nbgoodclauses,nbtotalgood,precisionGood,recallGood,FGood,nbbadclause,nbtotalbad,precisionBad,recallBad,FBad,accuracy)
c additional predictionSize 4 18886 567907 0.36 0.01 0.02 1482303 933282 0.62 1.62 0.90 0.62 (nbgoodclauses,nbtotalgood,precisionGood,recallGood,FGood,nbbadclause,nbtotalbad,precisionBad,recallBad,FBad,accuracy)
c additional predictionSize 5 22765 567907 0.35 0.01 0.03 1478424 933282 0.62 1.62 0.90 0.62 (nbgoodclauses,nbtotalgood,precisionGood,recallGood,FGood,nbbadclause,nbtotalbad,precisionBad,recallBad,FBad,accuracy)
c additional predictionSize 6 25364 567907 0.36 0.02 0.03 1475825 933282 0.62 1.61 0.90 0.62 (nbgoodclauses,nbtotalgood,precisionGood,recallGood,FGood,nbbadclause,nbtotalbad,precisionBad,recallBad,FBad,accuracy)
c additional predictionSize 7 27896 567907 0.38 0.02 0.04 1473293 933282 0.62 1.61 0.90 0.62 (nbgoodclauses,nbtotalgood,precisionGood,recallGood,FGood,nbbadclause,nbtotalbad,precisionBad,recallBad,FBad,accuracy)
c additional predictionSize 8 30499 567907 0.41 0.02 0.04 1470690 933282 0.62 1.61 0.90 0.62 (nbgoodclauses,nbtotalgood,precisionGood,recallGood,FGood,nbbadclause,nbtotalbad,precisionBad,recallBad,FBad,accuracy)
c additional predictionSize 10 36117 567907 0.45 0.03 0.05 1465072 933282 0.62 1.61 0.90 0.62 (nbgoodclauses,nbtotalgood,precisionGood,recallGood,FGood,nbbadclause,nbtotalbad,precisionBad,recallBad,FBad,accuracy)
c additional predictionSize 14 48194 567907 0.48 0.04 0.08 1452995 933282 0.63 1.60 0.90 0.62 (nbgoodclauses,nbtotalgood,precisionGood,recallGood,FGood,nbbadclause,nbtotalbad,precisionBad,recallBad,FBad,accuracy)
c additional predictionSize 18 61928 567907 0.49 0.05 0.10 1439261 933282 0.63 1.59 0.90 0.62 (nbgoodclauses,nbtotalgood,precisionGood,recallGood,FGood,nbbadclause,nbtotalbad,precisionBad,recallBad,FBad,accuracy)
c additional predictionSize 22 75348 567907 0.49 0.07 0.12 1425841 933282 0.63 1.58 0.90 0.62 (nbgoodclauses,nbtotalgood,precisionGood,recallGood,FGood,nbbadclause,nbtotalbad,precisionBad,recallBad,FBad,accuracy)
c additional predictionSize 30 104736 567907 0.48 0.09 0.15 1396453 933282 0.63 1.55 0.90 0.62 (nbgoodclauses,nbtotalgood,precisionGood,recallGood,FGood,nbbadclause,nbtotalbad,precisionBad,recallBad,FBad,accuracy)
c additional predictionSize 40 146428 567907 0.48 0.12 0.20 1354761 933282 0.63 1.51 0.89 0.62 (nbgoodclauses,nbtotalgood,precisionGood,recallGood,FGood,nbbadclause,nbtotalbad,precisionBad,recallBad,FBad,accuracy)
c additional predictionAge 1 108100 567907 0.26 0.05 0.08 1393089 933282 0.61 1.50 0.87 0.59 (nbgoodclauses,nbtotalgood,precisionGood,recallGood,FGood,nbbadclause,nbtotalbad,precisionBad,recallBad,FBad,accuracy)
c additional predictionAge 10 139800 567907 0.25 0.06 0.10 1361389 933282 0.61 1.46 0.86 0.57 (nbgoodclauses,nbtotalgood,precisionGood,recallGood,FGood,nbbadclause,nbtotalbad,precisionBad,recallBad,FBad,accuracy)
c additional predictionAge 25 149843 567907 0.25 0.07 0.11 1351346 933282 0.61 1.45 0.86 0.57 (nbgoodclauses,nbtotalgood,precisionGood,recallGood,FGood,nbbadclause,nbtotalbad,precisionBad,recallBad,FBad,accuracy)
c additional predictionAge 50 155999 567907 0.26 0.07 0.11 1345190 933282 0.61 1.44 0.85 0.57 (nbgoodclauses,nbtotalgood,precisionGood,recallGood,FGood,nbbadclause,nbtotalbad,precisionBad,recallBad,FBad,accuracy)
c additional predictionAge 100 160834 567907 0.27 0.08 0.12 1340355 933282 0.61 1.44 0.85 0.57 (nbgoodclauses,nbtotalgood,precisionGood,recallGood,FGood,nbbadclause,nbtotalbad,precisionBad,recallBad,FBad,accuracy)
c additional predictionAge 250 167131 567907 0.28 0.08 0.13 1334058 933282 0.61 1.43 0.86 0.57 (nbgoodclauses,nbtotalgood,precisionGood,recallGood,FGood,nbbadclause,nbtotalbad,precisionBad,recallBad,FBad,accuracy)
c additional predictionAge 500 172770 567907 0.29 0.09 0.14 1328419 933282 0.61 1.43 0.85 0.57 (nbgoodclauses,nbtotalgood,precisionGood,recallGood,FGood,nbbadclause,nbtotalbad,precisionBad,recallBad,FBad,accuracy)
c additional predictionAge 1000 179606 567907 0.30 0.09 0.14 1321583 933282 0.61 1.42 0.85 0.57 (nbgoodclauses,nbtotalgood,precisionGood,recallGood,FGood,nbbadclause,nbtotalbad,precisionBad,recallBad,FBad,accuracy)
c additional predictionAge 2500 192485 567907 0.31 0.11 0.16 1308704 933282 0.61 1.41 0.85 0.57 (nbgoodclauses,nbtotalgood,precisionGood,recallGood,FGood,nbbadclause,nbtotalbad,precisionBad,recallBad,FBad,accuracy)
c additional predictionAge 5000 207426 567907 0.33 0.12 0.18 1293763 933282 0.61 1.40 0.85 0.57 (nbgoodclauses,nbtotalgood,precisionGood,recallGood,FGood,nbbadclause,nbtotalbad,precisionBad,recallBad,FBad,accuracy)
c additional predictionAge 10000 227820 567907 0.34 0.14 0.19 1273369 933282 0.61 1.38 0.85 0.57 (nbgoodclauses,nbtotalgood,precisionGood,recallGood,FGood,nbbadclause,nbtotalbad,precisionBad,recallBad,FBad,accuracy)
c additional predictionAge 25000 266913 567907 0.36 0.17 0.23 1234276 933282 0.62 1.34 0.84 0.57 (nbgoodclauses,nbtotalgood,precisionGood,recallGood,FGood,nbbadclause,nbtotalbad,precisionBad,recallBad,FBad,accuracy)
c additional predictionAge 50000 311700 567907 0.37 0.20 0.26 1189489 933282 0.62 1.30 0.84 0.57 (nbgoodclauses,nbtotalgood,precisionGood,recallGood,FGood,nbbadclause,nbtotalbad,precisionBad,recallBad,FBad,accuracy)
c additional predictionAge 100000 392699 567907 0.38 0.26 0.31 1108490 933282 0.62 1.22 0.82 0.56 (nbgoodclauses,nbtotalgood,precisionGood,recallGood,FGood,nbbadclause,nbtotalbad,precisionBad,recallBad,FBad,accuracy)
c additional predictionTicks 1 189163 567907 0.31 0.10 0.16 1312026 933282 0.61 1.41 0.85 0.57 (nbgoodclauses,nbtotalgood,precisionGood,recallGood,FGood,nbbadclause,nbtotalbad,precisionBad,recallBad,FBad,accuracy)
c additional predictionTicks 10 430297 567907 0.33 0.25 0.29 1070892 933282 0.60 1.14 0.79 0.53 (nbgoodclauses,nbtotalgood,precisionGood,recallGood,FGood,nbbadclause,nbtotalbad,precisionBad,recallBad,FBad,accuracy)
c additional predictionTicks 25 546861 567907 0.35 0.34 0.34 954328 933282 0.61 1.02 0.76 0.51 (nbgoodclauses,nbtotalgood,precisionGood,recallGood,FGood,nbbadclause,nbtotalbad,precisionBad,recallBad,FBad,accuracy)
c additional predictionTicks 50 633799 567907 0.37 0.41 0.39 867390 933282 0.61 0.94 0.74 0.51 (nbgoodclauses,nbtotalgood,precisionGood,recallGood,FGood,nbbadclause,nbtotalbad,precisionBad,recallBad,FBad,accuracy)
c additional predictionTicks 100 719273 567907 0.39 0.49 0.43 781916 933282 0.63 0.87 0.73 0.51 (nbgoodclauses,nbtotalgood,precisionGood,recallGood,FGood,nbbadclause,nbtotalbad,precisionBad,recallBad,FBad,accuracy)
c additional predictionTicks 250 834859 567907 0.40 0.59 0.48 666330 933282 0.65 0.77 0.71 0.52 (nbgoodclauses,nbtotalgood,precisionGood,recallGood,FGood,nbbadclause,nbtotalbad,precisionBad,recallBad,FBad,accuracy)
c additional predictionTicks 500 926863 567907 0.41 0.67 0.51 574326 933282 0.68 0.69 0.68 0.51 (nbgoodclauses,nbtotalgood,precisionGood,recallGood,FGood,nbbadclause,nbtotalbad,precisionBad,recallBad,FBad,accuracy)
c additional predictionTicks 1000 1017491 567907 0.42 0.75 0.54 483698 933282 0.70 0.60 0.65 0.51 (nbgoodclauses,nbtotalgood,precisionGood,recallGood,FGood,nbbadclause,nbtotalbad,precisionBad,recallBad,FBad,accuracy)
c additional predictionTicks 2500 1130506 567907 0.42 0.83 0.56 370683 933282 0.74 0.48 0.58 0.50 (nbgoodclauses,nbtotalgood,precisionGood,recallGood,FGood,nbbadclause,nbtotalbad,precisionBad,recallBad,FBad,accuracy)
c additional predictionTicks 5000 1206769 567907 0.41 0.88 0.56 294420 933282 0.76 0.40 0.52 0.48 (nbgoodclauses,nbtotalgood,precisionGood,recallGood,FGood,nbbadclause,nbtotalbad,precisionBad,recallBad,FBad,accuracy)
c additional predictionTicks 10000 1276565 567907 0.41 0.91 0.56 224624 933282 0.78 0.31 0.44 0.46 (nbgoodclauses,nbtotalgood,precisionGood,recallGood,FGood,nbbadclause,nbtotalbad,precisionBad,recallBad,FBad,accuracy)
c additional predictionTicks 25000 1371375 567907 0.40 0.96 0.56 129814 933282 0.81 0.18 0.30 0.43 (nbgoodclauses,nbtotalgood,precisionGood,recallGood,FGood,nbbadclause,nbtotalbad,precisionBad,recallBad,FBad,accuracy)
c additional predictionTicks 50000 1437102 567907 0.39 0.98 0.56 64087 933282 0.83 0.09 0.17 0.41 (nbgoodclauses,nbtotalgood,precisionGood,recallGood,FGood,nbbadclause,nbtotalbad,precisionBad,recallBad,FBad,accuracy)
c additional predictionTicks 100000 1476650 567907 0.38 0.99 0.55 24539 933282 0.85 0.04 0.07 0.39 (nbgoodclauses,nbtotalgood,precisionGood,recallGood,FGood,nbbadclause,nbtotalbad,precisionBad,recallBad,FBad,accuracy)
c additional lifetimeGood 1 2 86 2173 38766 222414 763883 1184531 1373188 1474626 1501157 1501158 (0,1,5,10,25,50,75,90,95,99,100-1,100)
c additional lifetimeBad 1 1 13 1084 25703 149719 646170 1066898 1233940 1419723 1501079 1501152 (0,1,5,10,25,50,75,90,95,99,100-1,100)
c additional lifetimeBadBad 1 1 1 1 4 186 23938 72317 109410 277019 1482657 1484254 (0,1,5,10,25,50,75,90,95,99,100-1,100)
c additional compositionBad 2 2 4 5 12 36 109 320 672 3209 40132 42481 (0,1,5,10,25,50,75,90,95,99,100-1,100)
c additional compositionBadWithGood 0 0 0 0 2 9 26 53 72 125 472 476 (0,1,5,10,25,50,75,90,95,99,100-1,100)
c additional compositionBadWithBad 0 0 0 0 1 1 3 5 8 18 107 134 (0,1,5,10,25,50,75,90,95,99,100-1,100)
c additional compositionBadWithInitial 0 1 2 4 8 24 75 267 605 3127 39841 42175 (0,1,5,10,25,50,75,90,95,99,100-1,100)
c additional compositionGood 2 2 3 4 8 27 80 266 748 16020 43166 43247 (0,1,5,10,25,50,75,90,95,99,100-1,100)
c additional compositionGoodWithGood 0 0 1 1 3 9 24 51 75 244 549 571 (0,1,5,10,25,50,75,90,95,99,100-1,100)
c additional compositionGoodWithInitial 0 0 1 2 5 16 52 217 687 15766 42801 42824 (0,1,5,10,25,50,75,90,95,99,100-1,100)
c additional propagationGood total 79916294 percentiles 0 1 1 1 2 4 19 150 462 2639 74948 77220 (0,1,5,10,25,50,75,90,95,99,100-1,100)
c additional propagationBad total 34796289 percentiles 1 1 1 1 1 2 4 13 36 673 36560 46165 (0,1,5,10,25,50,75,90,95,99,100-1,100)
c additional resolutionGood total 17334969 percentiles 0 1 1 1 1 3 9 49 135 531 9079 9772 (0,1,5,10,25,50,75,90,95,99,100-1,100)
c additional resolutionBad total 2148799 percentiles 0 0 0 0 1 1 2 4 7 27 432 446 (0,1,5,10,25,50,75,90,95,99,100-1,100)
No graph is dumped
c =========================================================================================================
c result of core 0 is UNSAT
c One thread has finished
c Core 0 said it finished
c restarts              : 10163 (147 conflicts in avg)
c blocked restarts      : 914 (multiple: 621) 
c last block at restart : 10163
c nb ReduceDB           : 32
c nb removed Clauses    : 1332391
c nb learnts DL2        : 10619
c nb learnts size 2     : 9812
c nb learnts size 1     : 44
c conflicts             : 1501189        (209 /sec)
c decisions             : 66085003       (0.00 % random) (9184 /sec)
c propagations          : 3111722329     (432429 /sec)
c conflict literals     : 1398348995     (9.65 % deleted)
c nb reduced Clauses    : 12764
c CPU time              : 7195.91 s

s INDETERMINATE
