c
c This is glucose-proof 1.0 based on  2.1 --  (thanks to MiniSAT)
c
c EXPERIMENTAL EASY PARALLEL (ROUND ROBIN) VERSION
c
c WARNING: for repeatability, setting FPU to use double precision
c Parallel version 4 solvers created.
c ========================================[ Problem Statistics ]===========================================
c |                                                                                                       |
c |  Number of variables:          1731                                                                   |
c |  Number of clauses:            9791                                                                   |
c |  Parse time:                   0.01 s                                                                 |
c |                                                                                                       |
c ========================================[ MAGIC CONSTANTS ]==============================================
c | Constants are supposed to work well together :-)                                                      |
c | however, if you find better choices, please let us known...                                           |
c |-------------------------------------------------------------------------------------------------------|
c |                                |                                |                                     |
c | - Restarts:                    | - Reduce Clause DB:            | - Minimize Asserting:               |
c |   * LBD Queue    :     50      |   * First     :   4000         |    * size <  30                     |
c |   * Trail  Queue :   5000      |   * Inc       :    300         |    * lbd  <   6                     |
c |   * K            :   0.80      |   * Special   :   1000         |                                     |
c |   * R            :   1.40      |   * Protected :  (lbd)< 30     |                                     |
c |                                |                                |                                     |
c ==================================[ Search Statistics (every  10000 conflicts) ]=========================
c |                                                                                                       |
c |          RESTARTS           |          ORIGINAL         |              LEARNT              | Progress |
c |       NB   Blocked  Avg Cfc |    Vars  Clauses Literals |   Red   Learnts    LBD2  Removed |          |
c =========================================================================================================
c |        6         0     1666 |    1715     9791    32002 |     1     8002       31     2236 |  0.925 % |
c |        6        46     3333 |    1715     9791    32002 |     3     6955       63    13562 |  0.925 % |
c |       19        47     1578 |    1715     9791    32002 |     3    16955       77    13562 |  0.925 % |
c |       20        67     2000 |    1715     9791    32002 |     4    17682       92    22957 |  0.925 % |
c |       21        92     2380 |    1715     9791    32002 |     5    15842       97    34934 |  0.924 % |
c |       26       124     2307 |    1715     9791    32002 |     5    25842      111    34934 |  0.927 % |
c Contradiction found while importing a unary clause clauses.
c empty clause found by core 3 at conflict 68047
*
c checking the resolution graph...OK
c All useful bySize 230444 clauses, percentiles 0 3 6 10 20 42 70 93 111 149 327 332 (0,1,5,10,25,50,75,90,95,99,100-1,100)
c All useless bySize 51578 clauses, percentiles 0 3 4 11 22 42 66 90 108 142 245 254 (0,1,5,10,25,50,75,90,95,99,100-1,100)
c ProofOnly useful bySize 224039 clauses, percentiles 0 5 8 11 21 43 70 94 112 150 327 332 (0,1,5,10,25,50,75,90,95,99,100-1,100)
c ProofOnly useless bySize 48149 clauses, percentiles 2 8 12 16 25 45 68 92 110 144 245 254 (0,1,5,10,25,50,75,90,95,99,100-1,100)
c All useful byFinalLBD 230444 clauses, percentiles 0 1 2 3 6 8 11 13 14 18 30 31 (0,1,5,10,25,50,75,90,95,99,100-1,100)
c All useless byFinalLBD 51578 clauses, percentiles 0 3 3 5 7 10 12 15 17 22 33 34 (0,1,5,10,25,50,75,90,95,99,100-1,100)
c ProofOnly useful byFinalLBD 224039 clauses, percentiles 0 1 3 4 6 9 11 13 15 18 30 31 (0,1,5,10,25,50,75,90,95,99,100-1,100)
c ProofOnly useless byFinalLBD 48149 clauses, percentiles 1 3 5 6 8 10 12 15 18 22 33 34 (0,1,5,10,25,50,75,90,95,99,100-1,100)
c All useful byInitialLBD 230444 clauses, percentiles 0 3 4 5 7 9 11 13 15 18 31 33 (0,1,5,10,25,50,75,90,95,99,100-1,100)
c All useless byInitialLBD 51578 clauses, percentiles 0 3 3 5 8 10 12 15 18 23 33 34 (0,1,5,10,25,50,75,90,95,99,100-1,100)
c ProofOnly useful byInitialLBD 224039 clauses, percentiles 0 3 5 5 7 9 11 13 15 18 31 33 (0,1,5,10,25,50,75,90,95,99,100-1,100)
c ProofOnly useless byInitialLBD 48149 clauses, percentiles 2 4 6 6 8 10 13 16 18 23 33 34 (0,1,5,10,25,50,75,90,95,99,100-1,100)
c Literals ProofOnly useful 11052424
c Literals ProofOnly useless 2420362
c additional windowsGood 1 1 1 2 3 3 3 7 11 74 451 670 (0,1,5,10,25,50,75,90,95,99,100-1,100)
c additional windowsBad 1 1 1 1 1 1 1 2 2 3 55 94 (0,1,5,10,25,50,75,90,95,99,100-1,100)
c additional 1WindowNoDecision 3046 1548 0.51 36791 18211 0.49 (nbWindowsGood,nbWindowsNoDecisionGood,nbWindowsBad,nbWindowsNoDecisionBad
c additional topclausessize all (10%,5%,1%,top) 118.16 135.33 175.49 332
c additional topclausessize proofonly (10%,5%,1%,top) 118.51 135.68 175.86 332
c additional topclausesinitialLBD all (10%,5%,1%,top) 108.28 125.57 165.31 332
c additional topclausesinitialLBD proofonly (10%,5%,1%,top) 101.21 118.51 158.20 332
c additional topclausesfinalLBD all (10%,5%,1%,top) 95.48 112.88 152.56 332
c additional topclausesfinalLBD proofonly (10%,5%,1%,top) 90.82 108.40 148.12 332
c additional predictionInitialLBD 1 16 224039 1.00 0.00 0.00 272172 48149 0.18 0.21 0.19 0.18 (nbgoodclauses,nbtotalgood,precisionGood,recallGood,FGood,nbbadclause,nbtotalbad,precisionBad,recallBad,FBad,accuracy)
c additional predictionInitialLBD 2 676 224039 0.96 0.00 0.01 271512 48149 0.18 0.21 0.19 0.18 (nbgoodclauses,nbtotalgood,precisionGood,recallGood,FGood,nbbadclause,nbtotalbad,precisionBad,recallBad,FBad,accuracy)
c additional predictionInitialLBD 3 3806 224039 0.95 0.02 0.03 268382 48149 0.18 0.21 0.19 0.19 (nbgoodclauses,nbtotalgood,precisionGood,recallGood,FGood,nbbadclause,nbtotalbad,precisionBad,recallBad,FBad,accuracy)
c additional predictionInitialLBD 4 11516 224039 0.93 0.05 0.09 260672 48149 0.18 0.21 0.20 0.21 (nbgoodclauses,nbtotalgood,precisionGood,recallGood,FGood,nbbadclause,nbtotalbad,precisionBad,recallBad,FBad,accuracy)
c additional predictionInitialLBD 5 26303 224039 0.91 0.11 0.19 245885 48149 0.19 0.20 0.20 0.26 (nbgoodclauses,nbtotalgood,precisionGood,recallGood,FGood,nbbadclause,nbtotalbad,precisionBad,recallBad,FBad,accuracy)
c additional predictionInitialLBD 6 48416 224039 0.90 0.19 0.32 223772 48149 0.19 0.19 0.19 0.32 (nbgoodclauses,nbtotalgood,precisionGood,recallGood,FGood,nbbadclause,nbtotalbad,precisionBad,recallBad,FBad,accuracy)
c additional predictionInitialLBD 7 77187 224039 0.88 0.30 0.45 195001 48149 0.20 0.17 0.19 0.39 (nbgoodclauses,nbtotalgood,precisionGood,recallGood,FGood,nbbadclause,nbtotalbad,precisionBad,recallBad,FBad,accuracy)
c additional predictionInitialLBD 8 110450 224039 0.87 0.43 0.57 161738 48149 0.21 0.15 0.18 0.48 (nbgoodclauses,nbtotalgood,precisionGood,recallGood,FGood,nbbadclause,nbtotalbad,precisionBad,recallBad,FBad,accuracy)
c additional predictionInitialLBD 10 176788 224039 0.85 0.67 0.75 95400 48149 0.24 0.10 0.14 0.64 (nbgoodclauses,nbtotalgood,precisionGood,recallGood,FGood,nbbadclause,nbtotalbad,precisionBad,recallBad,FBad,accuracy)
c additional predictionInitialLBD 14 251560 224039 0.84 0.94 0.88 20628 48149 0.33 0.03 0.06 0.80 (nbgoodclauses,nbtotalgood,precisionGood,recallGood,FGood,nbbadclause,nbtotalbad,precisionBad,recallBad,FBad,accuracy)
c additional predictionInitialLBD 18 268291 224039 0.83 0.99 0.90 3897 48149 0.51 0.01 0.02 0.82 (nbgoodclauses,nbtotalgood,precisionGood,recallGood,FGood,nbbadclause,nbtotalbad,precisionBad,recallBad,FBad,accuracy)
c additional predictionInitialLBD 22 271327 224039 0.82 1.00 0.90 861 48149 0.61 0.00 0.00 0.82 (nbgoodclauses,nbtotalgood,precisionGood,recallGood,FGood,nbbadclause,nbtotalbad,precisionBad,recallBad,FBad,accuracy)
c additional predictionInitialLBD 30 272177 224039 0.82 1.00 0.90 11 48149 0.82 0.00 0.00 0.82 (nbgoodclauses,nbtotalgood,precisionGood,recallGood,FGood,nbbadclause,nbtotalbad,precisionBad,recallBad,FBad,accuracy)
c additional predictionInitialLBD 40 272188 224039 0.82 1.00 0.90 0 48149 -nan 0.00 -nan 0.82 (nbgoodclauses,nbtotalgood,precisionGood,recallGood,FGood,nbbadclause,nbtotalbad,precisionBad,recallBad,FBad,accuracy)
c additional predictionFinallLBD 1 3079 224039 0.99 0.01 0.03 269109 48149 0.18 1.00 0.30 0.19 (nbgoodclauses,nbtotalgood,precisionGood,recallGood,FGood,nbbadclause,nbtotalbad,precisionBad,recallBad,FBad,accuracy)
c additional predictionFinallLBD 2 11155 224039 0.98 0.05 0.09 261033 48149 0.18 0.99 0.31 0.22 (nbgoodclauses,nbtotalgood,precisionGood,recallGood,FGood,nbbadclause,nbtotalbad,precisionBad,recallBad,FBad,accuracy)
c additional predictionFinallLBD 3 22072 224039 0.96 0.09 0.17 250116 48149 0.19 0.98 0.32 0.25 (nbgoodclauses,nbtotalgood,precisionGood,recallGood,FGood,nbbadclause,nbtotalbad,precisionBad,recallBad,FBad,accuracy)
c additional predictionFinallLBD 4 35137 224039 0.94 0.15 0.26 237051 48149 0.19 0.96 0.32 0.29 (nbgoodclauses,nbtotalgood,precisionGood,recallGood,FGood,nbbadclause,nbtotalbad,precisionBad,recallBad,FBad,accuracy)
c additional predictionFinallLBD 5 50864 224039 0.92 0.21 0.34 221324 48149 0.20 0.92 0.33 0.33 (nbgoodclauses,nbtotalgood,precisionGood,recallGood,FGood,nbbadclause,nbtotalbad,precisionBad,recallBad,FBad,accuracy)
c additional predictionFinallLBD 6 71071 224039 0.90 0.29 0.43 201117 48149 0.21 0.86 0.33 0.39 (nbgoodclauses,nbtotalgood,precisionGood,recallGood,FGood,nbbadclause,nbtotalbad,precisionBad,recallBad,FBad,accuracy)
c additional predictionFinallLBD 7 97154 224039 0.88 0.38 0.54 175034 48149 0.21 0.77 0.33 0.45 (nbgoodclauses,nbtotalgood,precisionGood,recallGood,FGood,nbbadclause,nbtotalbad,precisionBad,recallBad,FBad,accuracy)
c additional predictionFinallLBD 8 127168 224039 0.87 0.49 0.63 145020 48149 0.22 0.66 0.33 0.52 (nbgoodclauses,nbtotalgood,precisionGood,recallGood,FGood,nbbadclause,nbtotalbad,precisionBad,recallBad,FBad,accuracy)
c additional predictionFinallLBD 10 187271 224039 0.85 0.71 0.78 84917 48149 0.25 0.43 0.31 0.66 (nbgoodclauses,nbtotalgood,precisionGood,recallGood,FGood,nbbadclause,nbtotalbad,precisionBad,recallBad,FBad,accuracy)
c additional predictionFinallLBD 14 254488 224039 0.84 0.95 0.89 17700 48149 0.35 0.13 0.19 0.80 (nbgoodclauses,nbtotalgood,precisionGood,recallGood,FGood,nbbadclause,nbtotalbad,precisionBad,recallBad,FBad,accuracy)
c additional predictionFinallLBD 18 269002 224039 0.83 0.99 0.90 3186 48149 0.56 0.04 0.07 0.82 (nbgoodclauses,nbtotalgood,precisionGood,recallGood,FGood,nbbadclause,nbtotalbad,precisionBad,recallBad,FBad,accuracy)
c additional predictionFinallLBD 22 271485 224039 0.82 1.00 0.90 703 48149 0.67 0.01 0.02 0.82 (nbgoodclauses,nbtotalgood,precisionGood,recallGood,FGood,nbbadclause,nbtotalbad,precisionBad,recallBad,FBad,accuracy)
c additional predictionFinallLBD 30 272179 224039 0.82 1.00 0.90 9 48149 0.89 0.00 0.00 0.82 (nbgoodclauses,nbtotalgood,precisionGood,recallGood,FGood,nbbadclause,nbtotalbad,precisionBad,recallBad,FBad,accuracy)
c additional predictionFinallLBD 40 272188 224039 0.82 1.00 0.90 0 48149 -nan 0.00 -nan 0.82 (nbgoodclauses,nbtotalgood,precisionGood,recallGood,FGood,nbbadclause,nbtotalbad,precisionBad,recallBad,FBad,accuracy)
c additional predictionSize 1 16 224039 1.00 0.00 0.00 272172 48149 0.18 0.21 0.19 0.18 (nbgoodclauses,nbtotalgood,precisionGood,recallGood,FGood,nbbadclause,nbtotalbad,precisionBad,recallBad,FBad,accuracy)
c additional predictionSize 2 102 224039 0.94 0.00 0.00 272086 48149 0.18 0.21 0.19 0.18 (nbgoodclauses,nbtotalgood,precisionGood,recallGood,FGood,nbbadclause,nbtotalbad,precisionBad,recallBad,FBad,accuracy)
c additional predictionSize 3 559 224039 0.97 0.00 0.00 271629 48149 0.18 0.21 0.19 0.18 (nbgoodclauses,nbtotalgood,precisionGood,recallGood,FGood,nbbadclause,nbtotalbad,precisionBad,recallBad,FBad,accuracy)
c additional predictionSize 4 1371 224039 0.97 0.01 0.01 270817 48149 0.18 0.21 0.19 0.18 (nbgoodclauses,nbtotalgood,precisionGood,recallGood,FGood,nbbadclause,nbtotalbad,precisionBad,recallBad,FBad,accuracy)
c additional predictionSize 5 3258 224039 0.97 0.01 0.03 268930 48149 0.18 0.21 0.19 0.19 (nbgoodclauses,nbtotalgood,precisionGood,recallGood,FGood,nbbadclause,nbtotalbad,precisionBad,recallBad,FBad,accuracy)
c additional predictionSize 6 6239 224039 0.96 0.03 0.05 265949 48149 0.18 0.21 0.20 0.20 (nbgoodclauses,nbtotalgood,precisionGood,recallGood,FGood,nbbadclause,nbtotalbad,precisionBad,recallBad,FBad,accuracy)
c additional predictionSize 7 9693 224039 0.95 0.04 0.08 262495 48149 0.18 0.21 0.20 0.21 (nbgoodclauses,nbtotalgood,precisionGood,recallGood,FGood,nbbadclause,nbtotalbad,precisionBad,recallBad,FBad,accuracy)
c additional predictionSize 8 13225 224039 0.94 0.06 0.10 258963 48149 0.18 0.21 0.20 0.22 (nbgoodclauses,nbtotalgood,precisionGood,recallGood,FGood,nbbadclause,nbtotalbad,precisionBad,recallBad,FBad,accuracy)
c additional predictionSize 10 20862 224039 0.92 0.09 0.16 251326 48149 0.19 0.21 0.20 0.24 (nbgoodclauses,nbtotalgood,precisionGood,recallGood,FGood,nbbadclause,nbtotalbad,precisionBad,recallBad,FBad,accuracy)
c additional predictionSize 14 37164 224039 0.89 0.15 0.25 235024 48149 0.19 0.20 0.19 0.28 (nbgoodclauses,nbtotalgood,precisionGood,recallGood,FGood,nbbadclause,nbtotalbad,precisionBad,recallBad,FBad,accuracy)
c additional predictionSize 18 53747 224039 0.87 0.21 0.34 218441 48149 0.19 0.18 0.19 0.32 (nbgoodclauses,nbtotalgood,precisionGood,recallGood,FGood,nbbadclause,nbtotalbad,precisionBad,recallBad,FBad,accuracy)
c additional predictionSize 22 69455 224039 0.86 0.27 0.41 202733 48149 0.19 0.17 0.18 0.36 (nbgoodclauses,nbtotalgood,precisionGood,recallGood,FGood,nbbadclause,nbtotalbad,precisionBad,recallBad,FBad,accuracy)
c additional predictionSize 30 97814 224039 0.84 0.37 0.51 174374 48149 0.19 0.15 0.16 0.42 (nbgoodclauses,nbtotalgood,precisionGood,recallGood,FGood,nbbadclause,nbtotalbad,precisionBad,recallBad,FBad,accuracy)
c additional predictionSize 40 127627 224039 0.83 0.47 0.60 144561 48149 0.18 0.12 0.14 0.49 (nbgoodclauses,nbtotalgood,precisionGood,recallGood,FGood,nbbadclause,nbtotalbad,precisionBad,recallBad,FBad,accuracy)
c additional predictionAge 1 6167 224039 0.92 0.03 0.05 266021 48149 0.18 0.21 0.19 0.20 (nbgoodclauses,nbtotalgood,precisionGood,recallGood,FGood,nbbadclause,nbtotalbad,precisionBad,recallBad,FBad,accuracy)
c additional predictionAge 10 8091 224039 0.88 0.03 0.06 264097 48149 0.18 0.21 0.19 0.20 (nbgoodclauses,nbtotalgood,precisionGood,recallGood,FGood,nbbadclause,nbtotalbad,precisionBad,recallBad,FBad,accuracy)
c additional predictionAge 25 9329 224039 0.86 0.04 0.07 262859 48149 0.18 0.21 0.19 0.20 (nbgoodclauses,nbtotalgood,precisionGood,recallGood,FGood,nbbadclause,nbtotalbad,precisionBad,recallBad,FBad,accuracy)
c additional predictionAge 50 10166 224039 0.85 0.04 0.07 262022 48149 0.18 0.21 0.19 0.20 (nbgoodclauses,nbtotalgood,precisionGood,recallGood,FGood,nbbadclause,nbtotalbad,precisionBad,recallBad,FBad,accuracy)
c additional predictionAge 100 11139 224039 0.84 0.04 0.08 261049 48149 0.18 0.21 0.19 0.21 (nbgoodclauses,nbtotalgood,precisionGood,recallGood,FGood,nbbadclause,nbtotalbad,precisionBad,recallBad,FBad,accuracy)
c additional predictionAge 250 12509 224039 0.84 0.05 0.09 259679 48149 0.18 0.21 0.19 0.21 (nbgoodclauses,nbtotalgood,precisionGood,recallGood,FGood,nbbadclause,nbtotalbad,precisionBad,recallBad,FBad,accuracy)
c additional predictionAge 500 13909 224039 0.83 0.05 0.10 258279 48149 0.18 0.20 0.19 0.21 (nbgoodclauses,nbtotalgood,precisionGood,recallGood,FGood,nbbadclause,nbtotalbad,precisionBad,recallBad,FBad,accuracy)
c additional predictionAge 1000 15744 224039 0.82 0.06 0.11 256444 48149 0.18 0.20 0.19 0.21 (nbgoodclauses,nbtotalgood,precisionGood,recallGood,FGood,nbbadclause,nbtotalbad,precisionBad,recallBad,FBad,accuracy)
c additional predictionAge 2500 19513 224039 0.81 0.07 0.13 252675 48149 0.18 0.20 0.19 0.22 (nbgoodclauses,nbtotalgood,precisionGood,recallGood,FGood,nbbadclause,nbtotalbad,precisionBad,recallBad,FBad,accuracy)
c additional predictionAge 5000 23969 224039 0.81 0.09 0.16 248219 48149 0.18 0.20 0.19 0.23 (nbgoodclauses,nbtotalgood,precisionGood,recallGood,FGood,nbbadclause,nbtotalbad,precisionBad,recallBad,FBad,accuracy)
c additional predictionAge 10000 31061 224039 0.82 0.11 0.20 241127 48149 0.18 0.19 0.18 0.25 (nbgoodclauses,nbtotalgood,precisionGood,recallGood,FGood,nbbadclause,nbtotalbad,precisionBad,recallBad,FBad,accuracy)
c additional predictionAge 25000 49419 224039 0.84 0.18 0.30 222769 48149 0.18 0.18 0.18 0.30 (nbgoodclauses,nbtotalgood,precisionGood,recallGood,FGood,nbbadclause,nbtotalbad,precisionBad,recallBad,FBad,accuracy)
c additional predictionAge 50000 76598 224039 0.85 0.29 0.43 195590 48149 0.19 0.16 0.18 0.38 (nbgoodclauses,nbtotalgood,precisionGood,recallGood,FGood,nbbadclause,nbtotalbad,precisionBad,recallBad,FBad,accuracy)
c additional predictionAge 100000 127361 224039 0.88 0.50 0.64 144827 48149 0.23 0.15 0.18 0.53 (nbgoodclauses,nbtotalgood,precisionGood,recallGood,FGood,nbbadclause,nbtotalbad,precisionBad,recallBad,FBad,accuracy)
c additional predictionTicks 1 6254 224039 0.92 0.03 0.05 265934 48149 0.18 0.21 0.19 0.20 (nbgoodclauses,nbtotalgood,precisionGood,recallGood,FGood,nbbadclause,nbtotalbad,precisionBad,recallBad,FBad,accuracy)
c additional predictionTicks 10 16032 224039 0.86 0.06 0.12 256156 48149 0.18 0.21 0.19 0.22 (nbgoodclauses,nbtotalgood,precisionGood,recallGood,FGood,nbbadclause,nbtotalbad,precisionBad,recallBad,FBad,accuracy)
c additional predictionTicks 25 26731 224039 0.85 0.10 0.18 245457 48149 0.18 0.20 0.19 0.25 (nbgoodclauses,nbtotalgood,precisionGood,recallGood,FGood,nbbadclause,nbtotalbad,precisionBad,recallBad,FBad,accuracy)
c additional predictionTicks 50 36675 224039 0.84 0.14 0.24 235513 48149 0.18 0.19 0.18 0.27 (nbgoodclauses,nbtotalgood,precisionGood,recallGood,FGood,nbbadclause,nbtotalbad,precisionBad,recallBad,FBad,accuracy)
c additional predictionTicks 100 50002 224039 0.84 0.19 0.31 222186 48149 0.18 0.18 0.18 0.30 (nbgoodclauses,nbtotalgood,precisionGood,recallGood,FGood,nbbadclause,nbtotalbad,precisionBad,recallBad,FBad,accuracy)
c additional predictionTicks 250 72237 224039 0.83 0.27 0.41 199951 48149 0.18 0.16 0.17 0.35 (nbgoodclauses,nbtotalgood,precisionGood,recallGood,FGood,nbbadclause,nbtotalbad,precisionBad,recallBad,FBad,accuracy)
c additional predictionTicks 500 93425 224039 0.83 0.35 0.49 178763 48149 0.18 0.14 0.16 0.40 (nbgoodclauses,nbtotalgood,precisionGood,recallGood,FGood,nbbadclause,nbtotalbad,precisionBad,recallBad,FBad,accuracy)
c additional predictionTicks 1000 118499 224039 0.83 0.44 0.57 153689 48149 0.18 0.13 0.15 0.46 (nbgoodclauses,nbtotalgood,precisionGood,recallGood,FGood,nbbadclause,nbtotalbad,precisionBad,recallBad,FBad,accuracy)
c additional predictionTicks 2500 156168 224039 0.83 0.58 0.68 116020 48149 0.18 0.10 0.13 0.55 (nbgoodclauses,nbtotalgood,precisionGood,recallGood,FGood,nbbadclause,nbtotalbad,precisionBad,recallBad,FBad,accuracy)
c additional predictionTicks 5000 185313 224039 0.83 0.69 0.75 86875 48149 0.19 0.07 0.11 0.62 (nbgoodclauses,nbtotalgood,precisionGood,recallGood,FGood,nbbadclause,nbtotalbad,precisionBad,recallBad,FBad,accuracy)
c additional predictionTicks 10000 211766 224039 0.83 0.78 0.81 60422 48149 0.20 0.05 0.08 0.69 (nbgoodclauses,nbtotalgood,precisionGood,recallGood,FGood,nbbadclause,nbtotalbad,precisionBad,recallBad,FBad,accuracy)
c additional predictionTicks 25000 241578 224039 0.83 0.89 0.86 30610 48149 0.21 0.03 0.05 0.76 (nbgoodclauses,nbtotalgood,precisionGood,recallGood,FGood,nbbadclause,nbtotalbad,precisionBad,recallBad,FBad,accuracy)
c additional predictionTicks 50000 257726 224039 0.83 0.95 0.88 14462 48149 0.22 0.01 0.03 0.79 (nbgoodclauses,nbtotalgood,precisionGood,recallGood,FGood,nbbadclause,nbtotalbad,precisionBad,recallBad,FBad,accuracy)
c additional predictionTicks 100000 268361 224039 0.82 0.99 0.90 3827 48149 0.27 0.00 0.01 0.82 (nbgoodclauses,nbtotalgood,precisionGood,recallGood,FGood,nbbadclause,nbtotalbad,precisionBad,recallBad,FBad,accuracy)
c additional lifetimeGood 1 4 12 476 12960 58427 133467 201958 233920 261626 272223 272224 (0,1,5,10,25,50,75,90,95,99,100-1,100)
c additional lifetimeBad 1 4 12 272 12844 75324 159910 219978 244533 269067 272222 272223 (0,1,5,10,25,50,75,90,95,99,100-1,100)
c additional lifetimeBadBad 4 4 4 4 8 80 3232 13588 20460 110198 207318 248866 (0,1,5,10,25,50,75,90,95,99,100-1,100)
c additional compositionBad 1 3 6 10 21 48 111 218 293 458 913 931 (0,1,5,10,25,50,75,90,95,99,100-1,100)
c additional compositionBadWithGood 0 0 1 2 3 8 16 31 42 70 138 152 (0,1,5,10,25,50,75,90,95,99,100-1,100)
c additional compositionBadWithBad 0 0 0 0 0 1 3 5 7 11 23 25 (0,1,5,10,25,50,75,90,95,99,100-1,100)
c additional compositionBadWithInitial 0 1 4 7 16 38 91 185 252 390 813 814 (0,1,5,10,25,50,75,90,95,99,100-1,100)
c additional compositionGood 1 2 5 7 16 43 116 239 317 487 1037 1064 (0,1,5,10,25,50,75,90,95,99,100-1,100)
c additional compositionGoodWithGood 0 0 1 2 3 8 19 36 48 82 176 180 (0,1,5,10,25,50,75,90,95,99,100-1,100)
c additional compositionGoodWithInitial 0 1 3 5 12 34 96 204 273 411 893 919 (0,1,5,10,25,50,75,90,95,99,100-1,100)
c additional propagationGood total 6887371 percentiles 0 1 1 1 1 1 4 26 88 565 21407 37328 (0,1,5,10,25,50,75,90,95,99,100-1,100)
c additional propagationBad total 154690 percentiles 1 1 1 1 1 1 2 4 8 37 1973 7078 (0,1,5,10,25,50,75,90,95,99,100-1,100)
c additional resolutionGood total 3183215 percentiles 0 1 1 1 1 1 3 15 45 255 6205 6904 (0,1,5,10,25,50,75,90,95,99,100-1,100)
c additional resolutionBad total 92846 percentiles 0 0 0 0 1 1 1 3 5 20 216 230 (0,1,5,10,25,50,75,90,95,99,100-1,100)
No graph is dumped
c result of core 3 is UNSAT
c One thread has finished
c Core 3 said it finished
c result of core 0 is UNKNOWN
c result of core 1 is UNKNOWN
c result of core 2 is UNKNOWN
c restarts              : 27 (2520 conflicts in avg)
c blocked restarts      : 124 (multiple: 5) 
c last block at restart : 22
c nb ReduceDB           : 6
c nb removed Clauses    : 45467
c nb learnts DL2        : 140
c nb learnts size 2     : 15
c nb learnts size 1     : 6
c conflicts             : 68047          (1209 /sec)
c decisions             : 82436          (0.00 % random) (1465 /sec)
c propagations          : 15749546       (279880 /sec)
c conflict literals     : 3230695        (10.65 % deleted)
c nb reduced Clauses    : 528
c CPU time              : 56.2724 s

s INDETERMINATE
