c
c This is glucose-proof 1.0 based on  2.1 --  (thanks to MiniSAT)
c
c EXPERIMENTAL EASY PARALLEL (ROUND ROBIN) VERSION
c
c WARNING: for repeatability, setting FPU to use double precision
c Parallel version 16 solvers created.
c ========================================[ Problem Statistics ]===========================================
c |                                                                                                       |
c |  Number of variables:          1392                                                                   |
c |  Number of clauses:            7916                                                                   |
c |  Parse time:                   0.03 s                                                                 |
c |                                                                                                       |
c ========================================[ MAGIC CONSTANTS ]==============================================
c | Constants are supposed to work well together :-)                                                      |
c | however, if you find better choices, please let us known...                                           |
c |-------------------------------------------------------------------------------------------------------|
c |                                |                                |                                     |
c | - Restarts:                    | - Reduce Clause DB:            | - Minimize Asserting:               |
c |   * LBD Queue    :     50      |   * First     :   4000         |    * size <  30                     |
c |   * Trail  Queue :   5000      |   * Inc       :    300         |    * lbd  <   6                     |
c |   * K            :   0.80      |   * Special   :   1000         |                                     |
c |   * R            :   1.40      |   * Protected :  (lbd)< 30     |                                     |
c |                                |                                |                                     |
c ==================================[ Search Statistics (every  10000 conflicts) ]=========================
c |                                                                                                       |
c |          RESTARTS           |          ORIGINAL         |              LEARNT              | Progress |
c |       NB   Blocked  Avg Cfc |    Vars  Clauses Literals |   Red   Learnts    LBD2  Removed |          |
c =========================================================================================================
c |       24         0      416 |    1362     7916    26039 |     1     8001       44     2420 |  2.155 % |
c |       30         0      666 |    1359     7916    26039 |     3     6952       68    14474 |  2.372 % |
c |       30         0     1000 |    1347     7916    26039 |     3    16904       76    14474 |  3.233 % |
c |       36         0     1111 |    1329     7916    26039 |     4    17352       85    24250 |  4.545 % |
c Contradiction found while importing a unary clause clauses.
c empty clause found by core 7 at conflict 47107
*
c checking the resolution graph...OK
c All useful bySize 671017 clauses, percentiles 0 4 8 11 21 46 78 106 125 165 306 316 (0,1,5,10,25,50,75,90,95,99,100-1,100)
c All useless bySize 90838 clauses, percentiles 0 3 10 15 26 47 77 105 123 160 260 261 (0,1,5,10,25,50,75,90,95,99,100-1,100)
c ProofOnly useful bySize 665103 clauses, percentiles 0 5 8 12 21 46 78 107 125 165 306 316 (0,1,5,10,25,50,75,90,95,99,100-1,100)
c ProofOnly useless bySize 88601 clauses, percentiles 2 8 13 16 27 49 78 106 123 160 260 261 (0,1,5,10,25,50,75,90,95,99,100-1,100)
c All useful byFinalLBD 671017 clauses, percentiles 0 1 3 4 6 8 11 13 14 17 34 34 (0,1,5,10,25,50,75,90,95,99,100-1,100)
c All useless byFinalLBD 90838 clauses, percentiles 0 3 4 5 7 10 13 16 17 21 30 30 (0,1,5,10,25,50,75,90,95,99,100-1,100)
c ProofOnly useful byFinalLBD 665103 clauses, percentiles 0 1 3 4 6 9 11 13 14 17 34 34 (0,1,5,10,25,50,75,90,95,99,100-1,100)
c ProofOnly useless byFinalLBD 88601 clauses, percentiles 1 3 5 6 8 10 13 16 17 21 30 30 (0,1,5,10,25,50,75,90,95,99,100-1,100)
c All useful byInitialLBD 671017 clauses, percentiles 0 3 4 5 7 9 11 13 14 17 34 34 (0,1,5,10,25,50,75,90,95,99,100-1,100)
c All useless byInitialLBD 90838 clauses, percentiles 0 3 5 6 8 10 13 16 18 21 30 30 (0,1,5,10,25,50,75,90,95,99,100-1,100)
c ProofOnly useful byInitialLBD 665103 clauses, percentiles 0 3 4 5 7 9 11 13 14 17 34 34 (0,1,5,10,25,50,75,90,95,99,100-1,100)
c ProofOnly useless byInitialLBD 88601 clauses, percentiles 2 4 5 6 8 10 13 16 18 21 30 30 (0,1,5,10,25,50,75,90,95,99,100-1,100)
c Literals ProofOnly useful 35758718
c Literals ProofOnly useless 4946373
c additional windowsGood 1 1 1 1 3 6 12 15 26 86 486 625 (0,1,5,10,25,50,75,90,95,99,100-1,100)
c additional windowsBad 1 1 1 1 1 1 1 2 3 4 15 15 (0,1,5,10,25,50,75,90,95,99,100-1,100)
c additional 1WindowNoDecision 9786 5146 0.53 56620 27655 0.49 (nbWindowsGood,nbWindowsNoDecisionGood,nbWindowsBad,nbWindowsNoDecisionBad
c additional topclausessize all (10%,5%,1%,top) 132.05 149.52 189.42 316
c additional topclausessize proofonly (10%,5%,1%,top) 132.16 149.63 189.53 316
c additional topclausesinitialLBD all (10%,5%,1%,top) 121.55 139.44 179.50 316
c additional topclausesinitialLBD proofonly (10%,5%,1%,top) 113.77 132.16 172.41 316
c additional topclausesfinalLBD all (10%,5%,1%,top) 107.39 126.37 166.85 316
c additional topclausesfinalLBD proofonly (10%,5%,1%,top) 101.94 121.59 162.34 316
c additional predictionInitialLBD 1 21 665103 1.00 0.00 0.00 753683 88601 0.12 0.13 0.12 0.12 (nbgoodclauses,nbtotalgood,precisionGood,recallGood,FGood,nbbadclause,nbtotalbad,precisionBad,recallBad,FBad,accuracy)
c additional predictionInitialLBD 2 1780 665103 0.94 0.00 0.01 751924 88601 0.12 0.13 0.12 0.12 (nbgoodclauses,nbtotalgood,precisionGood,recallGood,FGood,nbbadclause,nbtotalbad,precisionBad,recallBad,FBad,accuracy)
c additional predictionInitialLBD 3 11282 665103 0.95 0.02 0.03 742422 88601 0.12 0.13 0.13 0.13 (nbgoodclauses,nbtotalgood,precisionGood,recallGood,FGood,nbbadclause,nbtotalbad,precisionBad,recallBad,FBad,accuracy)
c additional predictionInitialLBD 4 36633 665103 0.94 0.05 0.10 717071 88601 0.12 0.13 0.13 0.16 (nbgoodclauses,nbtotalgood,precisionGood,recallGood,FGood,nbbadclause,nbtotalbad,precisionBad,recallBad,FBad,accuracy)
c additional predictionInitialLBD 5 82233 665103 0.93 0.12 0.21 671471 88601 0.12 0.13 0.12 0.21 (nbgoodclauses,nbtotalgood,precisionGood,recallGood,FGood,nbbadclause,nbtotalbad,precisionBad,recallBad,FBad,accuracy)
c additional predictionInitialLBD 6 146218 665103 0.93 0.20 0.33 607486 88601 0.13 0.12 0.12 0.28 (nbgoodclauses,nbtotalgood,precisionGood,recallGood,FGood,nbbadclause,nbtotalbad,precisionBad,recallBad,FBad,accuracy)
c additional predictionInitialLBD 7 227122 665103 0.92 0.31 0.47 526582 88601 0.13 0.11 0.12 0.37 (nbgoodclauses,nbtotalgood,precisionGood,recallGood,FGood,nbbadclause,nbtotalbad,precisionBad,recallBad,FBad,accuracy)
c additional predictionInitialLBD 8 320382 665103 0.92 0.44 0.60 433322 88601 0.14 0.09 0.11 0.47 (nbgoodclauses,nbtotalgood,precisionGood,recallGood,FGood,nbbadclause,nbtotalbad,precisionBad,recallBad,FBad,accuracy)
c additional predictionInitialLBD 10 507969 665103 0.91 0.69 0.79 245735 88601 0.17 0.06 0.09 0.67 (nbgoodclauses,nbtotalgood,precisionGood,recallGood,FGood,nbbadclause,nbtotalbad,precisionBad,recallBad,FBad,accuracy)
c additional predictionInitialLBD 14 709904 665103 0.89 0.96 0.92 43800 88601 0.32 0.02 0.04 0.86 (nbgoodclauses,nbtotalgood,precisionGood,recallGood,FGood,nbbadclause,nbtotalbad,precisionBad,recallBad,FBad,accuracy)
c additional predictionInitialLBD 18 747293 665103 0.89 1.00 0.94 6411 88601 0.49 0.00 0.01 0.88 (nbgoodclauses,nbtotalgood,precisionGood,recallGood,FGood,nbbadclause,nbtotalbad,precisionBad,recallBad,FBad,accuracy)
c additional predictionInitialLBD 22 752790 665103 0.88 1.00 0.94 914 88601 0.56 0.00 0.00 0.88 (nbgoodclauses,nbtotalgood,precisionGood,recallGood,FGood,nbbadclause,nbtotalbad,precisionBad,recallBad,FBad,accuracy)
c additional predictionInitialLBD 30 753692 665103 0.88 1.00 0.94 12 88601 0.00 0.00 -nan 0.88 (nbgoodclauses,nbtotalgood,precisionGood,recallGood,FGood,nbbadclause,nbtotalbad,precisionBad,recallBad,FBad,accuracy)
c additional predictionInitialLBD 40 753704 665103 0.88 1.00 0.94 0 88601 -nan 0.00 -nan 0.88 (nbgoodclauses,nbtotalgood,precisionGood,recallGood,FGood,nbbadclause,nbtotalbad,precisionBad,recallBad,FBad,accuracy)
c additional predictionFinallLBD 1 8771 665103 1.00 0.01 0.03 744933 88601 0.12 1.00 0.21 0.13 (nbgoodclauses,nbtotalgood,precisionGood,recallGood,FGood,nbbadclause,nbtotalbad,precisionBad,recallBad,FBad,accuracy)
c additional predictionFinallLBD 2 32596 665103 0.99 0.05 0.09 721108 88601 0.12 1.00 0.22 0.16 (nbgoodclauses,nbtotalgood,precisionGood,recallGood,FGood,nbbadclause,nbtotalbad,precisionBad,recallBad,FBad,accuracy)
c additional predictionFinallLBD 3 63201 665103 0.98 0.09 0.17 690503 88601 0.13 0.98 0.22 0.20 (nbgoodclauses,nbtotalgood,precisionGood,recallGood,FGood,nbbadclause,nbtotalbad,precisionBad,recallBad,FBad,accuracy)
c additional predictionFinallLBD 4 99984 665103 0.96 0.14 0.25 653720 88601 0.13 0.96 0.23 0.24 (nbgoodclauses,nbtotalgood,precisionGood,recallGood,FGood,nbbadclause,nbtotalbad,precisionBad,recallBad,FBad,accuracy)
c additional predictionFinallLBD 5 144675 665103 0.95 0.21 0.34 609029 88601 0.13 0.91 0.23 0.29 (nbgoodclauses,nbtotalgood,precisionGood,recallGood,FGood,nbbadclause,nbtotalbad,precisionBad,recallBad,FBad,accuracy)
c additional predictionFinallLBD 6 202094 665103 0.93 0.28 0.44 551610 88601 0.14 0.85 0.24 0.35 (nbgoodclauses,nbtotalgood,precisionGood,recallGood,FGood,nbbadclause,nbtotalbad,precisionBad,recallBad,FBad,accuracy)
c additional predictionFinallLBD 7 274507 665103 0.93 0.38 0.54 479197 88601 0.14 0.77 0.24 0.43 (nbgoodclauses,nbtotalgood,precisionGood,recallGood,FGood,nbbadclause,nbtotalbad,precisionBad,recallBad,FBad,accuracy)
c additional predictionFinallLBD 8 359843 665103 0.92 0.50 0.65 393861 88601 0.15 0.67 0.25 0.52 (nbgoodclauses,nbtotalgood,precisionGood,recallGood,FGood,nbbadclause,nbtotalbad,precisionBad,recallBad,FBad,accuracy)
c additional predictionFinallLBD 10 533097 665103 0.91 0.73 0.81 220607 88601 0.19 0.46 0.27 0.70 (nbgoodclauses,nbtotalgood,precisionGood,recallGood,FGood,nbbadclause,nbtotalbad,precisionBad,recallBad,FBad,accuracy)
c additional predictionFinallLBD 14 716290 665103 0.89 0.96 0.93 37414 88601 0.35 0.15 0.21 0.87 (nbgoodclauses,nbtotalgood,precisionGood,recallGood,FGood,nbbadclause,nbtotalbad,precisionBad,recallBad,FBad,accuracy)
c additional predictionFinallLBD 18 748489 665103 0.89 1.00 0.94 5215 88601 0.55 0.03 0.06 0.88 (nbgoodclauses,nbtotalgood,precisionGood,recallGood,FGood,nbbadclause,nbtotalbad,precisionBad,recallBad,FBad,accuracy)
c additional predictionFinallLBD 22 752990 665103 0.88 1.00 0.94 714 88601 0.63 0.01 0.01 0.88 (nbgoodclauses,nbtotalgood,precisionGood,recallGood,FGood,nbbadclause,nbtotalbad,precisionBad,recallBad,FBad,accuracy)
c additional predictionFinallLBD 30 753692 665103 0.88 1.00 0.94 12 88601 0.00 0.00 -nan 0.88 (nbgoodclauses,nbtotalgood,precisionGood,recallGood,FGood,nbbadclause,nbtotalbad,precisionBad,recallBad,FBad,accuracy)
c additional predictionFinallLBD 40 753704 665103 0.88 1.00 0.94 0 88601 -nan 0.00 -nan 0.88 (nbgoodclauses,nbtotalgood,precisionGood,recallGood,FGood,nbbadclause,nbtotalbad,precisionBad,recallBad,FBad,accuracy)
c additional predictionSize 1 21 665103 1.00 0.00 0.00 753683 88601 0.12 0.13 0.12 0.12 (nbgoodclauses,nbtotalgood,precisionGood,recallGood,FGood,nbbadclause,nbtotalbad,precisionBad,recallBad,FBad,accuracy)
c additional predictionSize 2 221 665103 0.86 0.00 0.00 753483 88601 0.12 0.13 0.12 0.12 (nbgoodclauses,nbtotalgood,precisionGood,recallGood,FGood,nbbadclause,nbtotalbad,precisionBad,recallBad,FBad,accuracy)
c additional predictionSize 3 884 665103 0.95 0.00 0.00 752820 88601 0.12 0.13 0.12 0.12 (nbgoodclauses,nbtotalgood,precisionGood,recallGood,FGood,nbbadclause,nbtotalbad,precisionBad,recallBad,FBad,accuracy)
c additional predictionSize 4 2984 665103 0.97 0.00 0.01 750720 88601 0.12 0.13 0.13 0.12 (nbgoodclauses,nbtotalgood,precisionGood,recallGood,FGood,nbbadclause,nbtotalbad,precisionBad,recallBad,FBad,accuracy)
c additional predictionSize 5 7819 665103 0.97 0.01 0.02 745885 88601 0.12 0.13 0.13 0.13 (nbgoodclauses,nbtotalgood,precisionGood,recallGood,FGood,nbbadclause,nbtotalbad,precisionBad,recallBad,FBad,accuracy)
c additional predictionSize 6 15536 665103 0.97 0.02 0.04 738168 88601 0.12 0.13 0.13 0.14 (nbgoodclauses,nbtotalgood,precisionGood,recallGood,FGood,nbbadclause,nbtotalbad,precisionBad,recallBad,FBad,accuracy)
c additional predictionSize 7 25161 665103 0.97 0.04 0.07 728543 88601 0.12 0.13 0.13 0.15 (nbgoodclauses,nbtotalgood,precisionGood,recallGood,FGood,nbbadclause,nbtotalbad,precisionBad,recallBad,FBad,accuracy)
c additional predictionSize 8 35472 665103 0.97 0.05 0.10 718232 88601 0.12 0.13 0.13 0.16 (nbgoodclauses,nbtotalgood,precisionGood,recallGood,FGood,nbbadclause,nbtotalbad,precisionBad,recallBad,FBad,accuracy)
c additional predictionSize 10 58052 665103 0.96 0.08 0.15 695652 88601 0.12 0.13 0.13 0.19 (nbgoodclauses,nbtotalgood,precisionGood,recallGood,FGood,nbbadclause,nbtotalbad,precisionBad,recallBad,FBad,accuracy)
c additional predictionSize 14 105615 665103 0.94 0.15 0.26 648089 88601 0.13 0.12 0.12 0.24 (nbgoodclauses,nbtotalgood,precisionGood,recallGood,FGood,nbbadclause,nbtotalbad,precisionBad,recallBad,FBad,accuracy)
c additional predictionSize 18 151488 665103 0.92 0.21 0.34 602216 88601 0.13 0.12 0.12 0.29 (nbgoodclauses,nbtotalgood,precisionGood,recallGood,FGood,nbbadclause,nbtotalbad,precisionBad,recallBad,FBad,accuracy)
c additional predictionSize 22 192839 665103 0.91 0.26 0.41 560865 88601 0.13 0.11 0.12 0.33 (nbgoodclauses,nbtotalgood,precisionGood,recallGood,FGood,nbbadclause,nbtotalbad,precisionBad,recallBad,FBad,accuracy)
c additional predictionSize 30 262560 665103 0.90 0.36 0.51 491144 88601 0.13 0.09 0.11 0.40 (nbgoodclauses,nbtotalgood,precisionGood,recallGood,FGood,nbbadclause,nbtotalbad,precisionBad,recallBad,FBad,accuracy)
c additional predictionSize 40 336708 665103 0.89 0.45 0.60 416996 88601 0.12 0.08 0.10 0.47 (nbgoodclauses,nbtotalgood,precisionGood,recallGood,FGood,nbbadclause,nbtotalbad,precisionBad,recallBad,FBad,accuracy)
c additional predictionAge 1 13975 665103 0.95 0.02 0.04 739729 88601 0.12 0.13 0.13 0.13 (nbgoodclauses,nbtotalgood,precisionGood,recallGood,FGood,nbbadclause,nbtotalbad,precisionBad,recallBad,FBad,accuracy)
c additional predictionAge 10 14006 665103 0.95 0.02 0.04 739698 88601 0.12 0.13 0.13 0.13 (nbgoodclauses,nbtotalgood,precisionGood,recallGood,FGood,nbbadclause,nbtotalbad,precisionBad,recallBad,FBad,accuracy)
c additional predictionAge 25 15433 665103 0.93 0.02 0.04 738271 88601 0.12 0.13 0.12 0.14 (nbgoodclauses,nbtotalgood,precisionGood,recallGood,FGood,nbbadclause,nbtotalbad,precisionBad,recallBad,FBad,accuracy)
c additional predictionAge 50 17880 665103 0.91 0.02 0.05 735824 88601 0.12 0.13 0.12 0.14 (nbgoodclauses,nbtotalgood,precisionGood,recallGood,FGood,nbbadclause,nbtotalbad,precisionBad,recallBad,FBad,accuracy)
c additional predictionAge 100 19002 665103 0.91 0.03 0.05 734702 88601 0.12 0.13 0.12 0.14 (nbgoodclauses,nbtotalgood,precisionGood,recallGood,FGood,nbbadclause,nbtotalbad,precisionBad,recallBad,FBad,accuracy)
c additional predictionAge 250 20891 665103 0.90 0.03 0.05 732813 88601 0.12 0.13 0.12 0.14 (nbgoodclauses,nbtotalgood,precisionGood,recallGood,FGood,nbbadclause,nbtotalbad,precisionBad,recallBad,FBad,accuracy)
c additional predictionAge 500 22653 665103 0.89 0.03 0.06 731051 88601 0.12 0.13 0.12 0.14 (nbgoodclauses,nbtotalgood,precisionGood,recallGood,FGood,nbbadclause,nbtotalbad,precisionBad,recallBad,FBad,accuracy)
c additional predictionAge 1000 24719 665103 0.89 0.03 0.06 728985 88601 0.12 0.13 0.12 0.14 (nbgoodclauses,nbtotalgood,precisionGood,recallGood,FGood,nbbadclause,nbtotalbad,precisionBad,recallBad,FBad,accuracy)
c additional predictionAge 2500 28614 665103 0.87 0.04 0.07 725090 88601 0.12 0.13 0.12 0.15 (nbgoodclauses,nbtotalgood,precisionGood,recallGood,FGood,nbbadclause,nbtotalbad,precisionBad,recallBad,FBad,accuracy)
c additional predictionAge 5000 33142 665103 0.86 0.04 0.08 720562 88601 0.12 0.13 0.12 0.15 (nbgoodclauses,nbtotalgood,precisionGood,recallGood,FGood,nbbadclause,nbtotalbad,precisionBad,recallBad,FBad,accuracy)
c additional predictionAge 10000 40301 665103 0.84 0.05 0.10 713403 88601 0.12 0.12 0.12 0.15 (nbgoodclauses,nbtotalgood,precisionGood,recallGood,FGood,nbbadclause,nbtotalbad,precisionBad,recallBad,FBad,accuracy)
c additional predictionAge 25000 59951 665103 0.84 0.08 0.14 693753 88601 0.11 0.12 0.12 0.17 (nbgoodclauses,nbtotalgood,precisionGood,recallGood,FGood,nbbadclause,nbtotalbad,precisionBad,recallBad,FBad,accuracy)
c additional predictionAge 50000 89598 665103 0.86 0.12 0.20 664106 88601 0.11 0.11 0.11 0.20 (nbgoodclauses,nbtotalgood,precisionGood,recallGood,FGood,nbbadclause,nbtotalbad,precisionBad,recallBad,FBad,accuracy)
c additional predictionAge 100000 145540 665103 0.88 0.19 0.31 608164 88601 0.12 0.11 0.11 0.26 (nbgoodclauses,nbtotalgood,precisionGood,recallGood,FGood,nbbadclause,nbtotalbad,precisionBad,recallBad,FBad,accuracy)
c additional predictionTicks 1 14664 665103 0.95 0.02 0.04 739040 88601 0.12 0.13 0.13 0.13 (nbgoodclauses,nbtotalgood,precisionGood,recallGood,FGood,nbbadclause,nbtotalbad,precisionBad,recallBad,FBad,accuracy)
c additional predictionTicks 10 16399 665103 0.94 0.02 0.05 737305 88601 0.12 0.13 0.13 0.14 (nbgoodclauses,nbtotalgood,precisionGood,recallGood,FGood,nbbadclause,nbtotalbad,precisionBad,recallBad,FBad,accuracy)
c additional predictionTicks 25 34760 665103 0.92 0.05 0.09 718944 88601 0.12 0.13 0.12 0.16 (nbgoodclauses,nbtotalgood,precisionGood,recallGood,FGood,nbbadclause,nbtotalbad,precisionBad,recallBad,FBad,accuracy)
c additional predictionTicks 50 56517 665103 0.90 0.08 0.14 697187 88601 0.12 0.12 0.12 0.18 (nbgoodclauses,nbtotalgood,precisionGood,recallGood,FGood,nbbadclause,nbtotalbad,precisionBad,recallBad,FBad,accuracy)
c additional predictionTicks 100 83343 665103 0.90 0.11 0.20 670361 88601 0.12 0.12 0.12 0.21 (nbgoodclauses,nbtotalgood,precisionGood,recallGood,FGood,nbbadclause,nbtotalbad,precisionBad,recallBad,FBad,accuracy)
c additional predictionTicks 250 135300 665103 0.89 0.18 0.30 618404 88601 0.12 0.11 0.11 0.26 (nbgoodclauses,nbtotalgood,precisionGood,recallGood,FGood,nbbadclause,nbtotalbad,precisionBad,recallBad,FBad,accuracy)
c additional predictionTicks 500 189340 665103 0.89 0.25 0.39 564364 88601 0.12 0.10 0.11 0.31 (nbgoodclauses,nbtotalgood,precisionGood,recallGood,FGood,nbbadclause,nbtotalbad,precisionBad,recallBad,FBad,accuracy)
c additional predictionTicks 1000 251747 665103 0.89 0.34 0.49 501957 88601 0.12 0.09 0.10 0.38 (nbgoodclauses,nbtotalgood,precisionGood,recallGood,FGood,nbbadclause,nbtotalbad,precisionBad,recallBad,FBad,accuracy)
c additional predictionTicks 2500 345945 665103 0.89 0.46 0.61 407759 88601 0.12 0.07 0.09 0.47 (nbgoodclauses,nbtotalgood,precisionGood,recallGood,FGood,nbbadclause,nbtotalbad,precisionBad,recallBad,FBad,accuracy)
c additional predictionTicks 5000 421116 665103 0.89 0.56 0.69 332588 88601 0.12 0.06 0.08 0.55 (nbgoodclauses,nbtotalgood,precisionGood,recallGood,FGood,nbbadclause,nbtotalbad,precisionBad,recallBad,FBad,accuracy)
c additional predictionTicks 10000 494107 665103 0.89 0.66 0.76 259597 88601 0.13 0.05 0.07 0.63 (nbgoodclauses,nbtotalgood,precisionGood,recallGood,FGood,nbbadclause,nbtotalbad,precisionBad,recallBad,FBad,accuracy)
c additional predictionTicks 25000 581978 665103 0.89 0.78 0.83 171726 88601 0.14 0.04 0.06 0.72 (nbgoodclauses,nbtotalgood,precisionGood,recallGood,FGood,nbbadclause,nbtotalbad,precisionBad,recallBad,FBad,accuracy)
c additional predictionTicks 50000 641068 665103 0.89 0.86 0.87 112636 88601 0.15 0.02 0.04 0.78 (nbgoodclauses,nbtotalgood,precisionGood,recallGood,FGood,nbbadclause,nbtotalbad,precisionBad,recallBad,FBad,accuracy)
c additional predictionTicks 100000 688777 665103 0.89 0.92 0.90 64927 88601 0.16 0.02 0.03 0.82 (nbgoodclauses,nbtotalgood,precisionGood,recallGood,FGood,nbbadclause,nbtotalbad,precisionBad,recallBad,FBad,accuracy)
c additional lifetimeGood 1 16 80 2791 41424 152879 339788 515458 602013 699794 753911 753918 (0,1,5,10,25,50,75,90,95,99,100-1,100)
c additional lifetimeBad 1 16 64 1824 38963 176703 392968 603215 706065 745271 753871 753879 (0,1,5,10,25,50,75,90,95,99,100-1,100)
c additional lifetimeBadBad 1 16 16 16 16 48 416 5279 18592 164955 740873 742984 (0,1,5,10,25,50,75,90,95,99,100-1,100)
c additional compositionBad 1 3 8 12 25 55 119 212 280 442 799 837 (0,1,5,10,25,50,75,90,95,99,100-1,100)
c additional compositionBadWithGood 0 0 1 2 5 10 20 37 50 85 157 160 (0,1,5,10,25,50,75,90,95,99,100-1,100)
c additional compositionBadWithBad 0 0 0 0 0 1 2 3 5 7 17 19 (0,1,5,10,25,50,75,90,95,99,100-1,100)
c additional compositionBadWithInitial 0 1 4 8 18 43 97 176 233 363 701 744 (0,1,5,10,25,50,75,90,95,99,100-1,100)
c additional compositionGood 1 3 5 8 18 48 119 217 284 431 907 940 (0,1,5,10,25,50,75,90,95,99,100-1,100)
c additional compositionGoodWithGood 0 0 1 2 4 10 22 40 53 84 194 195 (0,1,5,10,25,50,75,90,95,99,100-1,100)
c additional compositionGoodWithInitial 0 1 3 5 13 38 97 179 235 357 763 792 (0,1,5,10,25,50,75,90,95,99,100-1,100)
c additional propagationGood total 24681888 percentiles 0 1 1 1 1 1 3 20 60 438 46721 76582 (0,1,5,10,25,50,75,90,95,99,100-1,100)
c additional propagationBad total 196670 percentiles 1 1 1 1 1 1 2 3 5 15 4213 10789 (0,1,5,10,25,50,75,90,95,99,100-1,100)
c additional resolutionGood total 10361725 percentiles 0 1 1 1 1 1 3 11 30 188 16616 23273 (0,1,5,10,25,50,75,90,95,99,100-1,100)
c additional resolutionBad total 109859 percentiles 0 0 0 0 1 1 1 2 3 8 118 252 (0,1,5,10,25,50,75,90,95,99,100-1,100)
No graph is dumped
c result of core 7 is UNSAT
c One thread has finished
c Core 7 said it finished
c result of core 1 is UNKNOWN
c result of core 0 is UNKNOWN
c result of core 9 is UNKNOWN
c result of core 5 is UNKNOWN
c result of core 8 is UNKNOWN
c result of core 6 is UNKNOWN
c result of core 4 is UNKNOWN
c result of core 10 is UNKNOWN
c result of core 15 is UNKNOWN
c result of core 11 is UNKNOWN
c result of core 12 is UNKNOWN
c result of core 14 is UNKNOWN
c result of core 13 is UNKNOWN
c result of core 3 is UNKNOWN
c result of core 2 is UNKNOWN
c restarts              : 37 (1273 conflicts in avg)
c blocked restarts      : 0 (multiple: 0) 
c last block at restart : 0
c nb ReduceDB           : 5
c nb removed Clauses    : 34241
c nb learnts DL2        : 110
c nb learnts size 2     : 9
c nb learnts size 1     : 1
c conflicts             : 47107          (294 /sec)
c decisions             : 57138          (0.00 % random) (357 /sec)
c propagations          : 10343645       (64573 /sec)
c conflict literals     : 2769918        (9.33 % deleted)
c nb reduced Clauses    : 210
c CPU time              : 160.186 s

s INDETERMINATE
