c
c This is glucose-proof 1.0 based on  2.1 --  (thanks to MiniSAT)
c
c EXPERIMENTAL EASY PARALLEL (ROUND ROBIN) VERSION
c
c WARNING: for repeatability, setting FPU to use double precision
c Parallel version 6 solvers created.
c ========================================[ Problem Statistics ]===========================================
c |                                                                                                       |
c |  Number of variables:          1122                                                                   |
c |  Number of clauses:            4555                                                                   |
c |  Parse time:                   0.01 s                                                                 |
c |                                                                                                       |
c ========================================[ MAGIC CONSTANTS ]==============================================
c | Constants are supposed to work well together :-)                                                      |
c | however, if you find better choices, please let us known...                                           |
c |-------------------------------------------------------------------------------------------------------|
c |                                |                                |                                     |
c | - Restarts:                    | - Reduce Clause DB:            | - Minimize Asserting:               |
c |   * LBD Queue    :     50      |   * First     :   4000         |    * size <  30                     |
c |   * Trail  Queue :   5000      |   * Inc       :    300         |    * lbd  <   6                     |
c |   * K            :   0.80      |   * Special   :   1000         |                                     |
c |   * R            :   1.40      |   * Protected :  (lbd)< 30     |                                     |
c |                                |                                |                                     |
c ==================================[ Search Statistics (every  10000 conflicts) ]=========================
c |                                                                                                       |
c |          RESTARTS           |          ORIGINAL         |              LEARNT              | Progress |
c |       NB   Blocked  Avg Cfc |    Vars  Clauses Literals |   Red   Learnts    LBD2  Removed |          |
c =========================================================================================================
c |        1         0    10000 |    1035     4555    12887 |     1     7998       21     2054 |  7.756 % |
c |        1         0    20000 |    1035     4555    12887 |     3     6949       26    13288 |  7.756 % |
c |        7         0     4285 |    1034     4555    12887 |     3    15165       28    13288 |  7.845 % |
c |        8         0     5000 |    1034     4555    12887 |     4    16783       41    21724 |  7.845 % |
c empty clause found by core 1 at conflict 41112
*
c checking the resolution graph...OK
c All useful bySize 237163 clauses, percentiles 0 3 8 13 39 112 138 157 168 189 249 254 (0,1,5,10,25,50,75,90,95,99,100-1,100)
c All useless bySize 14194 clauses, percentiles 0 2 8 15 32 107 135 155 167 191 229 232 (0,1,5,10,25,50,75,90,95,99,100-1,100)
c ProofOnly useful bySize 233020 clauses, percentiles 0 6 10 14 52 113 139 158 169 189 249 254 (0,1,5,10,25,50,75,90,95,99,100-1,100)
c ProofOnly useless bySize 13648 clauses, percentiles 1 8 13 18 42 110 136 156 167 191 229 232 (0,1,5,10,25,50,75,90,95,99,100-1,100)
c All useful byFinalLBD 237163 clauses, percentiles 0 2 3 4 7 9 11 12 13 15 21 21 (0,1,5,10,25,50,75,90,95,99,100-1,100)
c All useless byFinalLBD 14194 clauses, percentiles 0 1 4 5 8 10 13 14 15 17 20 21 (0,1,5,10,25,50,75,90,95,99,100-1,100)
c ProofOnly useful byFinalLBD 233020 clauses, percentiles 0 2 3 5 7 9 11 12 13 15 21 21 (0,1,5,10,25,50,75,90,95,99,100-1,100)
c ProofOnly useless byFinalLBD 13648 clauses, percentiles 1 3 5 6 8 10 13 15 16 17 20 21 (0,1,5,10,25,50,75,90,95,99,100-1,100)
c All useful byInitialLBD 237163 clauses, percentiles 0 3 5 6 7 9 11 12 13 15 21 21 (0,1,5,10,25,50,75,90,95,99,100-1,100)
c All useless byInitialLBD 14194 clauses, percentiles 0 2 4 6 8 10 13 15 16 17 21 21 (0,1,5,10,25,50,75,90,95,99,100-1,100)
c ProofOnly useful byInitialLBD 233020 clauses, percentiles 0 4 5 6 8 9 11 12 13 15 21 21 (0,1,5,10,25,50,75,90,95,99,100-1,100)
c ProofOnly useless byInitialLBD 13648 clauses, percentiles 1 4 6 7 8 10 13 15 16 17 21 21 (0,1,5,10,25,50,75,90,95,99,100-1,100)
c Literals ProofOnly useful 22944735
c Literals ProofOnly useless 1318322
c additional windowsGood 1 1 1 2 5 5 5 5 11 444 2811 3227 (0,1,5,10,25,50,75,90,95,99,100-1,100)
c additional windowsBad 1 1 1 1 1 1 1 1 2 2 5 5 (0,1,5,10,25,50,75,90,95,99,100-1,100)
c additional 1WindowNoDecision 889 447 0.50 11819 5997 0.51 (nbWindowsGood,nbWindowsNoDecisionGood,nbWindowsBad,nbWindowsNoDecisionBad
c additional topclausessize all (10%,5%,1%,top) 171.66 180.90 198.61 254
c additional topclausessize proofonly (10%,5%,1%,top) 171.79 181.01 198.69 254
c additional topclausesinitialLBD all (10%,5%,1%,top) 165.67 175.71 194.60 254
c additional topclausesinitialLBD proofonly (10%,5%,1%,top) 160.99 171.79 191.62 254
c additional topclausesfinalLBD all (10%,5%,1%,top) 156.96 168.50 189.16 254
c additional topclausesfinalLBD proofonly (10%,5%,1%,top) 153.43 165.72 187.13 254
c additional predictionInitialLBD 1 29 233020 0.93 0.00 0.00 246639 13648 0.06 0.06 0.06 0.06 (nbgoodclauses,nbtotalgood,precisionGood,recallGood,FGood,nbbadclause,nbtotalbad,precisionBad,recallBad,FBad,accuracy)
c additional predictionInitialLBD 2 327 233020 0.96 0.00 0.00 246341 13648 0.06 0.06 0.06 0.06 (nbgoodclauses,nbtotalgood,precisionGood,recallGood,FGood,nbbadclause,nbtotalbad,precisionBad,recallBad,FBad,accuracy)
c additional predictionInitialLBD 3 1928 233020 0.97 0.01 0.02 244740 13648 0.06 0.06 0.06 0.06 (nbgoodclauses,nbtotalgood,precisionGood,recallGood,FGood,nbbadclause,nbtotalbad,precisionBad,recallBad,FBad,accuracy)
c additional predictionInitialLBD 4 6862 233020 0.97 0.03 0.06 239806 13648 0.06 0.06 0.06 0.08 (nbgoodclauses,nbtotalgood,precisionGood,recallGood,FGood,nbbadclause,nbtotalbad,precisionBad,recallBad,FBad,accuracy)
c additional predictionInitialLBD 5 16926 233020 0.97 0.07 0.13 229742 13648 0.06 0.06 0.06 0.12 (nbgoodclauses,nbtotalgood,precisionGood,recallGood,FGood,nbbadclause,nbtotalbad,precisionBad,recallBad,FBad,accuracy)
c additional predictionInitialLBD 6 34071 233020 0.96 0.14 0.25 212597 13648 0.06 0.05 0.06 0.18 (nbgoodclauses,nbtotalgood,precisionGood,recallGood,FGood,nbbadclause,nbtotalbad,precisionBad,recallBad,FBad,accuracy)
c additional predictionInitialLBD 7 59914 233020 0.96 0.25 0.39 186754 13648 0.06 0.05 0.05 0.28 (nbgoodclauses,nbtotalgood,precisionGood,recallGood,FGood,nbbadclause,nbtotalbad,precisionBad,recallBad,FBad,accuracy)
c additional predictionInitialLBD 8 94003 233020 0.96 0.39 0.55 152665 13648 0.07 0.04 0.05 0.41 (nbgoodclauses,nbtotalgood,precisionGood,recallGood,FGood,nbbadclause,nbtotalbad,precisionBad,recallBad,FBad,accuracy)
c additional predictionInitialLBD 10 169974 233020 0.96 0.70 0.81 76694 13648 0.09 0.03 0.04 0.69 (nbgoodclauses,nbtotalgood,precisionGood,recallGood,FGood,nbbadclause,nbtotalbad,precisionBad,recallBad,FBad,accuracy)
c additional predictionInitialLBD 14 241805 233020 0.95 0.99 0.97 4863 13648 0.29 0.01 0.01 0.94 (nbgoodclauses,nbtotalgood,precisionGood,recallGood,FGood,nbbadclause,nbtotalbad,precisionBad,recallBad,FBad,accuracy)
c additional predictionInitialLBD 18 246599 233020 0.94 1.00 0.97 69 13648 0.54 0.00 0.00 0.94 (nbgoodclauses,nbtotalgood,precisionGood,recallGood,FGood,nbbadclause,nbtotalbad,precisionBad,recallBad,FBad,accuracy)
c additional predictionInitialLBD 22 246668 233020 0.94 1.00 0.97 0 13648 -nan 0.00 -nan 0.94 (nbgoodclauses,nbtotalgood,precisionGood,recallGood,FGood,nbbadclause,nbtotalbad,precisionBad,recallBad,FBad,accuracy)
c additional predictionInitialLBD 30 246668 233020 0.94 1.00 0.97 0 13648 -nan 0.00 -nan 0.94 (nbgoodclauses,nbtotalgood,precisionGood,recallGood,FGood,nbbadclause,nbtotalbad,precisionBad,recallBad,FBad,accuracy)
c additional predictionInitialLBD 40 246668 233020 0.94 1.00 0.97 0 13648 -nan 0.00 -nan 0.94 (nbgoodclauses,nbtotalgood,precisionGood,recallGood,FGood,nbbadclause,nbtotalbad,precisionBad,recallBad,FBad,accuracy)
c additional predictionFinallLBD 1 1943 233020 0.99 0.01 0.02 244725 13648 0.06 1.00 0.11 0.06 (nbgoodclauses,nbtotalgood,precisionGood,recallGood,FGood,nbbadclause,nbtotalbad,precisionBad,recallBad,FBad,accuracy)
c additional predictionFinallLBD 2 7040 233020 0.99 0.03 0.06 239628 13648 0.06 0.99 0.11 0.08 (nbgoodclauses,nbtotalgood,precisionGood,recallGood,FGood,nbbadclause,nbtotalbad,precisionBad,recallBad,FBad,accuracy)
c additional predictionFinallLBD 3 13112 233020 0.98 0.06 0.10 233556 13648 0.06 0.98 0.11 0.11 (nbgoodclauses,nbtotalgood,precisionGood,recallGood,FGood,nbbadclause,nbtotalbad,precisionBad,recallBad,FBad,accuracy)
c additional predictionFinallLBD 4 20849 233020 0.98 0.09 0.16 225819 13648 0.06 0.96 0.11 0.14 (nbgoodclauses,nbtotalgood,precisionGood,recallGood,FGood,nbbadclause,nbtotalbad,precisionBad,recallBad,FBad,accuracy)
c additional predictionFinallLBD 5 31421 233020 0.97 0.13 0.23 215247 13648 0.06 0.93 0.11 0.18 (nbgoodclauses,nbtotalgood,precisionGood,recallGood,FGood,nbbadclause,nbtotalbad,precisionBad,recallBad,FBad,accuracy)
c additional predictionFinallLBD 6 46928 233020 0.97 0.19 0.32 199740 13648 0.06 0.89 0.11 0.23 (nbgoodclauses,nbtotalgood,precisionGood,recallGood,FGood,nbbadclause,nbtotalbad,precisionBad,recallBad,FBad,accuracy)
c additional predictionFinallLBD 7 70019 233020 0.96 0.29 0.45 176649 13648 0.06 0.81 0.12 0.32 (nbgoodclauses,nbtotalgood,precisionGood,recallGood,FGood,nbbadclause,nbtotalbad,precisionBad,recallBad,FBad,accuracy)
c additional predictionFinallLBD 8 101247 233020 0.96 0.42 0.58 145421 13648 0.07 0.72 0.12 0.43 (nbgoodclauses,nbtotalgood,precisionGood,recallGood,FGood,nbbadclause,nbtotalbad,precisionBad,recallBad,FBad,accuracy)
c additional predictionFinallLBD 10 173318 233020 0.96 0.71 0.82 73350 13648 0.09 0.48 0.15 0.70 (nbgoodclauses,nbtotalgood,precisionGood,recallGood,FGood,nbbadclause,nbtotalbad,precisionBad,recallBad,FBad,accuracy)
c additional predictionFinallLBD 14 242146 233020 0.95 0.99 0.97 4522 13648 0.30 0.10 0.15 0.94 (nbgoodclauses,nbtotalgood,precisionGood,recallGood,FGood,nbbadclause,nbtotalbad,precisionBad,recallBad,FBad,accuracy)
c additional predictionFinallLBD 18 246615 233020 0.94 1.00 0.97 53 13648 0.58 0.00 0.00 0.94 (nbgoodclauses,nbtotalgood,precisionGood,recallGood,FGood,nbbadclause,nbtotalbad,precisionBad,recallBad,FBad,accuracy)
c additional predictionFinallLBD 22 246668 233020 0.94 1.00 0.97 0 13648 -nan 0.00 -nan 0.94 (nbgoodclauses,nbtotalgood,precisionGood,recallGood,FGood,nbbadclause,nbtotalbad,precisionBad,recallBad,FBad,accuracy)
c additional predictionFinallLBD 30 246668 233020 0.94 1.00 0.97 0 13648 -nan 0.00 -nan 0.94 (nbgoodclauses,nbtotalgood,precisionGood,recallGood,FGood,nbbadclause,nbtotalbad,precisionBad,recallBad,FBad,accuracy)
c additional predictionFinallLBD 40 246668 233020 0.94 1.00 0.97 0 13648 -nan 0.00 -nan 0.94 (nbgoodclauses,nbtotalgood,precisionGood,recallGood,FGood,nbbadclause,nbtotalbad,precisionBad,recallBad,FBad,accuracy)
c additional predictionSize 1 29 233020 0.93 0.00 0.00 246639 13648 0.06 0.06 0.06 0.06 (nbgoodclauses,nbtotalgood,precisionGood,recallGood,FGood,nbbadclause,nbtotalbad,precisionBad,recallBad,FBad,accuracy)
c additional predictionSize 2 94 233020 0.90 0.00 0.00 246574 13648 0.06 0.06 0.06 0.06 (nbgoodclauses,nbtotalgood,precisionGood,recallGood,FGood,nbbadclause,nbtotalbad,precisionBad,recallBad,FBad,accuracy)
c additional predictionSize 3 261 233020 0.95 0.00 0.00 246407 13648 0.06 0.06 0.06 0.06 (nbgoodclauses,nbtotalgood,precisionGood,recallGood,FGood,nbbadclause,nbtotalbad,precisionBad,recallBad,FBad,accuracy)
c additional predictionSize 4 822 233020 0.98 0.00 0.01 245846 13648 0.06 0.06 0.06 0.06 (nbgoodclauses,nbtotalgood,precisionGood,recallGood,FGood,nbbadclause,nbtotalbad,precisionBad,recallBad,FBad,accuracy)
c additional predictionSize 5 1842 233020 0.98 0.01 0.02 244826 13648 0.06 0.06 0.06 0.06 (nbgoodclauses,nbtotalgood,precisionGood,recallGood,FGood,nbbadclause,nbtotalbad,precisionBad,recallBad,FBad,accuracy)
c additional predictionSize 6 3554 233020 0.98 0.01 0.03 243114 13648 0.06 0.06 0.06 0.07 (nbgoodclauses,nbtotalgood,precisionGood,recallGood,FGood,nbbadclause,nbtotalbad,precisionBad,recallBad,FBad,accuracy)
c additional predictionSize 7 5623 233020 0.98 0.02 0.05 241045 13648 0.06 0.06 0.06 0.08 (nbgoodclauses,nbtotalgood,precisionGood,recallGood,FGood,nbbadclause,nbtotalbad,precisionBad,recallBad,FBad,accuracy)
c additional predictionSize 8 8019 233020 0.97 0.03 0.06 238649 13648 0.06 0.06 0.06 0.09 (nbgoodclauses,nbtotalgood,precisionGood,recallGood,FGood,nbbadclause,nbtotalbad,precisionBad,recallBad,FBad,accuracy)
c additional predictionSize 10 13229 233020 0.97 0.06 0.10 233439 13648 0.06 0.06 0.06 0.11 (nbgoodclauses,nbtotalgood,precisionGood,recallGood,FGood,nbbadclause,nbtotalbad,precisionBad,recallBad,FBad,accuracy)
c additional predictionSize 14 24651 233020 0.96 0.10 0.18 222017 13648 0.06 0.05 0.06 0.15 (nbgoodclauses,nbtotalgood,precisionGood,recallGood,FGood,nbbadclause,nbtotalbad,precisionBad,recallBad,FBad,accuracy)
c additional predictionSize 18 35124 233020 0.96 0.14 0.25 211544 13648 0.06 0.05 0.05 0.19 (nbgoodclauses,nbtotalgood,precisionGood,recallGood,FGood,nbbadclause,nbtotalbad,precisionBad,recallBad,FBad,accuracy)
c additional predictionSize 22 43608 233020 0.95 0.18 0.30 203060 13648 0.06 0.05 0.05 0.22 (nbgoodclauses,nbtotalgood,precisionGood,recallGood,FGood,nbbadclause,nbtotalbad,precisionBad,recallBad,FBad,accuracy)
c additional predictionSize 30 54159 233020 0.95 0.22 0.36 192509 13648 0.06 0.05 0.05 0.25 (nbgoodclauses,nbtotalgood,precisionGood,recallGood,FGood,nbbadclause,nbtotalbad,precisionBad,recallBad,FBad,accuracy)
c additional predictionSize 40 58820 233020 0.94 0.24 0.38 187848 13648 0.05 0.04 0.05 0.27 (nbgoodclauses,nbtotalgood,precisionGood,recallGood,FGood,nbbadclause,nbtotalbad,precisionBad,recallBad,FBad,accuracy)
c additional predictionAge 1 3016 233020 0.98 0.01 0.03 243652 13648 0.06 0.06 0.06 0.07 (nbgoodclauses,nbtotalgood,precisionGood,recallGood,FGood,nbbadclause,nbtotalbad,precisionBad,recallBad,FBad,accuracy)
c additional predictionAge 10 3468 233020 0.98 0.01 0.03 243200 13648 0.06 0.06 0.06 0.07 (nbgoodclauses,nbtotalgood,precisionGood,recallGood,FGood,nbbadclause,nbtotalbad,precisionBad,recallBad,FBad,accuracy)
c additional predictionAge 25 4182 233020 0.97 0.02 0.03 242486 13648 0.06 0.06 0.06 0.07 (nbgoodclauses,nbtotalgood,precisionGood,recallGood,FGood,nbbadclause,nbtotalbad,precisionBad,recallBad,FBad,accuracy)
c additional predictionAge 50 4422 233020 0.97 0.02 0.04 242246 13648 0.06 0.06 0.06 0.07 (nbgoodclauses,nbtotalgood,precisionGood,recallGood,FGood,nbbadclause,nbtotalbad,precisionBad,recallBad,FBad,accuracy)
c additional predictionAge 100 4699 233020 0.97 0.02 0.04 241969 13648 0.06 0.06 0.06 0.07 (nbgoodclauses,nbtotalgood,precisionGood,recallGood,FGood,nbbadclause,nbtotalbad,precisionBad,recallBad,FBad,accuracy)
c additional predictionAge 250 5135 233020 0.97 0.02 0.04 241533 13648 0.06 0.06 0.06 0.07 (nbgoodclauses,nbtotalgood,precisionGood,recallGood,FGood,nbbadclause,nbtotalbad,precisionBad,recallBad,FBad,accuracy)
c additional predictionAge 500 5731 233020 0.97 0.02 0.05 240937 13648 0.06 0.06 0.06 0.08 (nbgoodclauses,nbtotalgood,precisionGood,recallGood,FGood,nbbadclause,nbtotalbad,precisionBad,recallBad,FBad,accuracy)
c additional predictionAge 1000 6619 233020 0.97 0.03 0.05 240049 13648 0.06 0.06 0.06 0.08 (nbgoodclauses,nbtotalgood,precisionGood,recallGood,FGood,nbbadclause,nbtotalbad,precisionBad,recallBad,FBad,accuracy)
c additional predictionAge 2500 8724 233020 0.96 0.04 0.07 237944 13648 0.06 0.06 0.06 0.09 (nbgoodclauses,nbtotalgood,precisionGood,recallGood,FGood,nbbadclause,nbtotalbad,precisionBad,recallBad,FBad,accuracy)
c additional predictionAge 5000 11847 233020 0.96 0.05 0.09 234821 13648 0.06 0.06 0.06 0.10 (nbgoodclauses,nbtotalgood,precisionGood,recallGood,FGood,nbbadclause,nbtotalbad,precisionBad,recallBad,FBad,accuracy)
c additional predictionAge 10000 17876 233020 0.96 0.07 0.14 228792 13648 0.06 0.06 0.06 0.12 (nbgoodclauses,nbtotalgood,precisionGood,recallGood,FGood,nbbadclause,nbtotalbad,precisionBad,recallBad,FBad,accuracy)
c additional predictionAge 25000 34720 233020 0.98 0.15 0.25 211948 13648 0.06 0.05 0.06 0.19 (nbgoodclauses,nbtotalgood,precisionGood,recallGood,FGood,nbbadclause,nbtotalbad,precisionBad,recallBad,FBad,accuracy)
c additional predictionAge 50000 60991 233020 0.97 0.25 0.40 185677 13648 0.06 0.05 0.06 0.29 (nbgoodclauses,nbtotalgood,precisionGood,recallGood,FGood,nbbadclause,nbtotalbad,precisionBad,recallBad,FBad,accuracy)
c additional predictionAge 100000 111640 233020 0.98 0.47 0.63 135028 13648 0.08 0.05 0.06 0.49 (nbgoodclauses,nbtotalgood,precisionGood,recallGood,FGood,nbbadclause,nbtotalbad,precisionBad,recallBad,FBad,accuracy)
c additional predictionTicks 1 3523 233020 0.98 0.01 0.03 243145 13648 0.06 0.06 0.06 0.07 (nbgoodclauses,nbtotalgood,precisionGood,recallGood,FGood,nbbadclause,nbtotalbad,precisionBad,recallBad,FBad,accuracy)
c additional predictionTicks 10 8798 233020 0.97 0.04 0.07 237870 13648 0.06 0.06 0.06 0.09 (nbgoodclauses,nbtotalgood,precisionGood,recallGood,FGood,nbbadclause,nbtotalbad,precisionBad,recallBad,FBad,accuracy)
c additional predictionTicks 25 17642 233020 0.96 0.07 0.14 229026 13648 0.06 0.06 0.06 0.12 (nbgoodclauses,nbtotalgood,precisionGood,recallGood,FGood,nbbadclause,nbtotalbad,precisionBad,recallBad,FBad,accuracy)
c additional predictionTicks 50 26989 233020 0.96 0.11 0.20 219679 13648 0.06 0.05 0.06 0.16 (nbgoodclauses,nbtotalgood,precisionGood,recallGood,FGood,nbbadclause,nbtotalbad,precisionBad,recallBad,FBad,accuracy)
c additional predictionTicks 100 41146 233020 0.96 0.17 0.29 205522 13648 0.06 0.05 0.05 0.21 (nbgoodclauses,nbtotalgood,precisionGood,recallGood,FGood,nbbadclause,nbtotalbad,precisionBad,recallBad,FBad,accuracy)
c additional predictionTicks 250 69475 233020 0.96 0.29 0.44 177193 13648 0.06 0.05 0.05 0.31 (nbgoodclauses,nbtotalgood,precisionGood,recallGood,FGood,nbbadclause,nbtotalbad,precisionBad,recallBad,FBad,accuracy)
c additional predictionTicks 500 96413 233020 0.96 0.40 0.56 150255 13648 0.06 0.04 0.05 0.41 (nbgoodclauses,nbtotalgood,precisionGood,recallGood,FGood,nbbadclause,nbtotalbad,precisionBad,recallBad,FBad,accuracy)
c additional predictionTicks 1000 125712 233020 0.96 0.52 0.67 120956 13648 0.07 0.04 0.05 0.52 (nbgoodclauses,nbtotalgood,precisionGood,recallGood,FGood,nbbadclause,nbtotalbad,precisionBad,recallBad,FBad,accuracy)
c additional predictionTicks 2500 164195 233020 0.96 0.67 0.79 82473 13648 0.08 0.03 0.04 0.66 (nbgoodclauses,nbtotalgood,precisionGood,recallGood,FGood,nbbadclause,nbtotalbad,precisionBad,recallBad,FBad,accuracy)
c additional predictionTicks 5000 188889 233020 0.95 0.77 0.85 57779 13648 0.09 0.02 0.03 0.75 (nbgoodclauses,nbtotalgood,precisionGood,recallGood,FGood,nbbadclause,nbtotalbad,precisionBad,recallBad,FBad,accuracy)
c additional predictionTicks 10000 208042 233020 0.95 0.85 0.90 38626 13648 0.10 0.02 0.03 0.82 (nbgoodclauses,nbtotalgood,precisionGood,recallGood,FGood,nbbadclause,nbtotalbad,precisionBad,recallBad,FBad,accuracy)
c additional predictionTicks 25000 227705 233020 0.95 0.93 0.94 18963 13648 0.12 0.01 0.02 0.89 (nbgoodclauses,nbtotalgood,precisionGood,recallGood,FGood,nbbadclause,nbtotalbad,precisionBad,recallBad,FBad,accuracy)
c additional predictionTicks 50000 238108 233020 0.95 0.97 0.96 8560 13648 0.15 0.01 0.01 0.92 (nbgoodclauses,nbtotalgood,precisionGood,recallGood,FGood,nbbadclause,nbtotalbad,precisionBad,recallBad,FBad,accuracy)
c additional predictionTicks 100000 244866 233020 0.95 0.99 0.97 1802 13648 0.15 0.00 0.00 0.94 (nbgoodclauses,nbtotalgood,precisionGood,recallGood,FGood,nbbadclause,nbtotalbad,precisionBad,recallBad,FBad,accuracy)
c additional lifetimeGood 1 6 444 5688 29576 82980 152624 203064 221820 240676 246780 246784 (0,1,5,10,25,50,75,90,95,99,100-1,100)
c additional lifetimeBad 1 6 480 5612 53096 146664 218780 239865 243918 246386 246785 246786 (0,1,5,10,25,50,75,90,95,99,100-1,100)
c additional lifetimeBadBad 1 6 6 6 6 18 852 9696 17697 73343 92391 94725 (0,1,5,10,25,50,75,90,95,99,100-1,100)
c additional compositionBad 1 3 8 12 34 713 851 925 956 1000 1057 1059 (0,1,5,10,25,50,75,90,95,99,100-1,100)
c additional compositionBadWithGood 0 0 2 3 7 25 38 48 53 61 74 75 (0,1,5,10,25,50,75,90,95,99,100-1,100)
c additional compositionBadWithBad 0 0 0 0 0 1 2 4 5 8 14 15 (0,1,5,10,25,50,75,90,95,99,100-1,100)
c additional compositionBadWithInitial 0 1 4 7 26 686 812 877 904 946 991 996 (0,1,5,10,25,50,75,90,95,99,100-1,100)
c additional compositionGood 1 3 6 9 33 735 861 929 957 999 1086 1097 (0,1,5,10,25,50,75,90,95,99,100-1,100)
c additional compositionGoodWithGood 0 0 2 2 7 25 38 49 54 63 84 88 (0,1,5,10,25,50,75,90,95,99,100-1,100)
c additional compositionGoodWithInitial 0 1 3 6 25 710 823 882 908 947 1037 1044 (0,1,5,10,25,50,75,90,95,99,100-1,100)
c additional propagationGood total 3884533 percentiles 0 1 1 1 1 1 1 6 28 270 11439 17964 (0,1,5,10,25,50,75,90,95,99,100-1,100)
c additional propagationBad total 22655 percentiles 1 1 1 1 1 1 1 2 3 15 166 201 (0,1,5,10,25,50,75,90,95,99,100-1,100)
c additional resolutionGood total 2753041 percentiles 0 1 1 1 1 1 1 5 21 189 8035 11463 (0,1,5,10,25,50,75,90,95,99,100-1,100)
c additional resolutionBad total 19320 percentiles 0 0 0 1 1 1 1 1 2 12 131 160 (0,1,5,10,25,50,75,90,95,99,100-1,100)
No graph is dumped
c result of core 1 is UNSAT
c One thread has finished
c Core 1 said it finished
c result of core 4 is UNKNOWN
c result of core 3 is UNKNOWN
c result of core 5 is UNKNOWN
c result of core 0 is UNKNOWN
c result of core 2 is UNKNOWN
c restarts              : 8 (5139 conflicts in avg)
c blocked restarts      : 0 (multiple: 0) 
c last block at restart : 0
c nb ReduceDB           : 4
c nb removed Clauses    : 21724
c nb learnts DL2        : 43
c nb learnts size 2     : 9
c nb learnts size 1     : 2
c conflicts             : 41112          (271 /sec)
c decisions             : 43873          (0.00 % random) (289 /sec)
c propagations          : 20088409       (132200 /sec)
c conflict literals     : 3987297        (11.55 % deleted)
c nb reduced Clauses    : 155
c CPU time              : 151.955 s

s INDETERMINATE
