c
c This is glucose-proof 1.0 based on  2.1 --  (thanks to MiniSAT)
c
c EXPERIMENTAL EASY PARALLEL (ROUND ROBIN) VERSION
c
c WARNING: for repeatability, setting FPU to use double precision
c Parallel version 2 solvers created.
c ========================================[ Problem Statistics ]===========================================
c |                                                                                                       |
c |  Number of variables:          4656                                                                   |
c |  Number of clauses:           22684                                                                   |
c |  Parse time:                   0.03 s                                                                 |
c |                                                                                                       |
c ========================================[ MAGIC CONSTANTS ]==============================================
c | Constants are supposed to work well together :-)                                                      |
c | however, if you find better choices, please let us known...                                           |
c |-------------------------------------------------------------------------------------------------------|
c |                                |                                |                                     |
c | - Restarts:                    | - Reduce Clause DB:            | - Minimize Asserting:               |
c |   * LBD Queue    :     50      |   * First     :   4000         |    * size <  30                     |
c |   * Trail  Queue :   5000      |   * Inc       :    300         |    * lbd  <   6                     |
c |   * K            :   0.80      |   * Special   :   1000         |                                     |
c |   * R            :   1.40      |   * Protected :  (lbd)< 30     |                                     |
c |                                |                                |                                     |
c ==================================[ Search Statistics (every  10000 conflicts) ]=========================
c |                                                                                                       |
c |          RESTARTS           |          ORIGINAL         |              LEARNT              | Progress |
c |       NB   Blocked  Avg Cfc |    Vars  Clauses Literals |   Red   Learnts    LBD2  Removed |          |
c =========================================================================================================
c |       62         0      161 |    4614    22684    85371 |     1     7991      726     2421 |  0.902 % |
c |      108        60      185 |    4600    22684    85371 |     3     6944     1148    14190 |  1.204 % |
c empty clause found by core 1 at conflict 27788
*
c checking the resolution graph...OK
c All useful bySize 39754 clauses, percentiles 0 2 2 3 3 8 34 66 90 146 360 391 (0,1,5,10,25,50,75,90,95,99,100-1,100)
c All useless bySize 38530 clauses, percentiles 0 2 2 3 3 18 44 74 95 145 387 414 (0,1,5,10,25,50,75,90,95,99,100-1,100)
c ProofOnly useful bySize 29368 clauses, percentiles 0 2 3 4 6 18 44 76 101 158 360 391 (0,1,5,10,25,50,75,90,95,99,100-1,100)
c ProofOnly useless bySize 26208 clauses, percentiles 2 4 6 9 16 32 57 86 108 156 387 414 (0,1,5,10,25,50,75,90,95,99,100-1,100)
c All useful byFinalLBD 39754 clauses, percentiles 0 1 1 1 2 3 7 11 14 20 30 30 (0,1,5,10,25,50,75,90,95,99,100-1,100)
c All useless byFinalLBD 38530 clauses, percentiles 0 2 2 3 3 7 12 19 22 31 48 48 (0,1,5,10,25,50,75,90,95,99,100-1,100)
c ProofOnly useful byFinalLBD 29368 clauses, percentiles 0 1 1 1 2 5 8 12 14 20 30 30 (0,1,5,10,25,50,75,90,95,99,100-1,100)
c ProofOnly useless byFinalLBD 26208 clauses, percentiles 1 2 3 4 6 9 14 20 25 33 48 48 (0,1,5,10,25,50,75,90,95,99,100-1,100)
c All useful byInitialLBD 39754 clauses, percentiles 0 2 2 2 3 5 8 12 15 21 31 32 (0,1,5,10,25,50,75,90,95,99,100-1,100)
c All useless byInitialLBD 38530 clauses, percentiles 0 2 2 3 3 7 13 19 23 31 48 48 (0,1,5,10,25,50,75,90,95,99,100-1,100)
c ProofOnly useful byInitialLBD 29368 clauses, percentiles 0 2 2 3 4 6 10 13 16 22 31 32 (0,1,5,10,25,50,75,90,95,99,100-1,100)
c ProofOnly useless byInitialLBD 26208 clauses, percentiles 2 3 4 4 7 10 15 21 25 33 48 48 (0,1,5,10,25,50,75,90,95,99,100-1,100)
c Literals ProofOnly useful 910020
c Literals ProofOnly useless 1090948
c additional windowsGood 1 1 1 1 1 1 2 3 6 30 133 151 (0,1,5,10,25,50,75,90,95,99,100-1,100)
c additional windowsBad 1 1 1 1 1 1 2 5 7 15 43 45 (0,1,5,10,25,50,75,90,95,99,100-1,100)
c additional 1WindowNoDecision 9011 5064 0.56 8754 4168 0.48 (nbWindowsGood,nbWindowsNoDecisionGood,nbWindowsBad,nbWindowsNoDecisionBad
c additional topclausessize all (10%,5%,1%,top) 101.69 127.31 188.79 391
c additional topclausessize proofonly (10%,5%,1%,top) 106.77 132.56 194.77 391
c additional topclausesinitialLBD all (10%,5%,1%,top) 90.44 115.54 176.09 391
c additional topclausesinitialLBD proofonly (10%,5%,1%,top) 82.00 106.77 166.97 391
c additional topclausesfinalLBD all (10%,5%,1%,top) 73.04 97.63 157.42 391
c additional topclausesfinalLBD proofonly (10%,5%,1%,top) 67.63 92.17 151.66 391
c additional predictionInitialLBD 1 24 29368 1.00 0.00 0.00 55552 26208 0.47 0.89 0.62 0.47 (nbgoodclauses,nbtotalgood,precisionGood,recallGood,FGood,nbbadclause,nbtotalbad,precisionBad,recallBad,FBad,accuracy)
c additional predictionInitialLBD 2 2706 29368 0.90 0.08 0.15 52870 26208 0.49 0.88 0.63 0.51 (nbgoodclauses,nbtotalgood,precisionGood,recallGood,FGood,nbbadclause,nbtotalbad,precisionBad,recallBad,FBad,accuracy)
c additional predictionInitialLBD 3 7990 29368 0.87 0.24 0.37 47586 26208 0.53 0.86 0.65 0.58 (nbgoodclauses,nbtotalgood,precisionGood,recallGood,FGood,nbbadclause,nbtotalbad,precisionBad,recallBad,FBad,accuracy)
c additional predictionInitialLBD 4 13210 29368 0.80 0.36 0.50 42366 26208 0.56 0.80 0.66 0.61 (nbgoodclauses,nbtotalgood,precisionGood,recallGood,FGood,nbbadclause,nbtotalbad,precisionBad,recallBad,FBad,accuracy)
c additional predictionInitialLBD 5 17863 29368 0.75 0.46 0.57 37713 26208 0.58 0.74 0.65 0.63 (nbgoodclauses,nbtotalgood,precisionGood,recallGood,FGood,nbbadclause,nbtotalbad,precisionBad,recallBad,FBad,accuracy)
c additional predictionInitialLBD 6 22269 29368 0.71 0.54 0.61 33307 26208 0.59 0.67 0.63 0.64 (nbgoodclauses,nbtotalgood,precisionGood,recallGood,FGood,nbbadclause,nbtotalbad,precisionBad,recallBad,FBad,accuracy)
c additional predictionInitialLBD 7 26559 29368 0.68 0.61 0.64 29017 26208 0.61 0.60 0.60 0.64 (nbgoodclauses,nbtotalgood,precisionGood,recallGood,FGood,nbbadclause,nbtotalbad,precisionBad,recallBad,FBad,accuracy)
c additional predictionInitialLBD 8 30688 29368 0.66 0.68 0.67 24888 26208 0.63 0.53 0.58 0.64 (nbgoodclauses,nbtotalgood,precisionGood,recallGood,FGood,nbbadclause,nbtotalbad,precisionBad,recallBad,FBad,accuracy)
c additional predictionInitialLBD 10 37678 29368 0.62 0.80 0.70 17898 26208 0.67 0.41 0.51 0.64 (nbgoodclauses,nbtotalgood,precisionGood,recallGood,FGood,nbbadclause,nbtotalbad,precisionBad,recallBad,FBad,accuracy)
c additional predictionInitialLBD 14 46768 29368 0.59 0.93 0.72 8808 26208 0.77 0.23 0.36 0.62 (nbgoodclauses,nbtotalgood,precisionGood,recallGood,FGood,nbbadclause,nbtotalbad,precisionBad,recallBad,FBad,accuracy)
c additional predictionInitialLBD 18 51026 29368 0.56 0.97 0.71 4550 26208 0.83 0.13 0.22 0.58 (nbgoodclauses,nbtotalgood,precisionGood,recallGood,FGood,nbbadclause,nbtotalbad,precisionBad,recallBad,FBad,accuracy)
c additional predictionInitialLBD 22 53278 29368 0.55 0.99 0.70 2298 26208 0.89 0.07 0.13 0.56 (nbgoodclauses,nbtotalgood,precisionGood,recallGood,FGood,nbbadclause,nbtotalbad,precisionBad,recallBad,FBad,accuracy)
c additional predictionInitialLBD 30 55102 29368 0.53 1.00 0.70 474 26208 0.99 0.02 0.03 0.54 (nbgoodclauses,nbtotalgood,precisionGood,recallGood,FGood,nbbadclause,nbtotalbad,precisionBad,recallBad,FBad,accuracy)
c additional predictionInitialLBD 40 55537 29368 0.53 1.00 0.69 39 26208 1.00 0.00 0.00 0.53 (nbgoodclauses,nbtotalgood,precisionGood,recallGood,FGood,nbbadclause,nbtotalbad,precisionBad,recallBad,FBad,accuracy)
c additional predictionFinallLBD 1 4656 29368 0.95 0.15 0.26 50920 26208 0.51 0.99 0.67 0.55 (nbgoodclauses,nbtotalgood,precisionGood,recallGood,FGood,nbbadclause,nbtotalbad,precisionBad,recallBad,FBad,accuracy)
c additional predictionFinallLBD 2 10112 29368 0.92 0.32 0.47 45464 26208 0.56 0.97 0.71 0.62 (nbgoodclauses,nbtotalgood,precisionGood,recallGood,FGood,nbbadclause,nbtotalbad,precisionBad,recallBad,FBad,accuracy)
c additional predictionFinallLBD 3 13792 29368 0.87 0.41 0.55 41784 26208 0.58 0.93 0.72 0.65 (nbgoodclauses,nbtotalgood,precisionGood,recallGood,FGood,nbbadclause,nbtotalbad,precisionBad,recallBad,FBad,accuracy)
c additional predictionFinallLBD 4 17906 29368 0.80 0.49 0.61 37670 26208 0.60 0.87 0.71 0.67 (nbgoodclauses,nbtotalgood,precisionGood,recallGood,FGood,nbbadclause,nbtotalbad,precisionBad,recallBad,FBad,accuracy)
c additional predictionFinallLBD 5 21953 29368 0.75 0.56 0.64 33623 26208 0.62 0.79 0.70 0.67 (nbgoodclauses,nbtotalgood,precisionGood,recallGood,FGood,nbbadclause,nbtotalbad,precisionBad,recallBad,FBad,accuracy)
c additional predictionFinallLBD 6 25915 29368 0.71 0.63 0.67 29661 26208 0.63 0.72 0.67 0.67 (nbgoodclauses,nbtotalgood,precisionGood,recallGood,FGood,nbbadclause,nbtotalbad,precisionBad,recallBad,FBad,accuracy)
c additional predictionFinallLBD 7 29812 29368 0.68 0.69 0.69 25764 26208 0.65 0.64 0.65 0.67 (nbgoodclauses,nbtotalgood,precisionGood,recallGood,FGood,nbbadclause,nbtotalbad,precisionBad,recallBad,FBad,accuracy)
c additional predictionFinallLBD 8 33537 29368 0.66 0.75 0.70 22039 26208 0.67 0.56 0.61 0.66 (nbgoodclauses,nbtotalgood,precisionGood,recallGood,FGood,nbbadclause,nbtotalbad,precisionBad,recallBad,FBad,accuracy)
c additional predictionFinallLBD 10 39880 29368 0.63 0.85 0.72 15696 26208 0.72 0.43 0.54 0.66 (nbgoodclauses,nbtotalgood,precisionGood,recallGood,FGood,nbbadclause,nbtotalbad,precisionBad,recallBad,FBad,accuracy)
c additional predictionFinallLBD 14 47898 29368 0.59 0.95 0.73 7678 26208 0.82 0.24 0.37 0.62 (nbgoodclauses,nbtotalgood,precisionGood,recallGood,FGood,nbbadclause,nbtotalbad,precisionBad,recallBad,FBad,accuracy)
c additional predictionFinallLBD 18 51553 29368 0.56 0.98 0.71 4023 26208 0.87 0.13 0.23 0.58 (nbgoodclauses,nbtotalgood,precisionGood,recallGood,FGood,nbbadclause,nbtotalbad,precisionBad,recallBad,FBad,accuracy)
c additional predictionFinallLBD 22 53503 29368 0.55 0.99 0.70 2073 26208 0.92 0.07 0.14 0.56 (nbgoodclauses,nbtotalgood,precisionGood,recallGood,FGood,nbbadclause,nbtotalbad,precisionBad,recallBad,FBad,accuracy)
c additional predictionFinallLBD 30 55146 29368 0.53 1.00 0.69 430 26208 1.00 0.02 0.03 0.54 (nbgoodclauses,nbtotalgood,precisionGood,recallGood,FGood,nbbadclause,nbtotalbad,precisionBad,recallBad,FBad,accuracy)
c additional predictionFinallLBD 40 55544 29368 0.53 1.00 0.69 32 26208 1.00 0.00 0.00 0.53 (nbgoodclauses,nbtotalgood,precisionGood,recallGood,FGood,nbbadclause,nbtotalbad,precisionBad,recallBad,FBad,accuracy)
c additional predictionSize 1 24 29368 1.00 0.00 0.00 55552 26208 0.47 0.89 0.62 0.47 (nbgoodclauses,nbtotalgood,precisionGood,recallGood,FGood,nbbadclause,nbtotalbad,precisionBad,recallBad,FBad,accuracy)
c additional predictionSize 2 580 29368 0.99 0.02 0.04 54996 26208 0.48 0.89 0.62 0.48 (nbgoodclauses,nbtotalgood,precisionGood,recallGood,FGood,nbbadclause,nbtotalbad,precisionBad,recallBad,FBad,accuracy)
c additional predictionSize 3 2859 29368 0.97 0.09 0.17 52717 26208 0.50 0.89 0.64 0.52 (nbgoodclauses,nbtotalgood,precisionGood,recallGood,FGood,nbbadclause,nbtotalbad,precisionBad,recallBad,FBad,accuracy)
c additional predictionSize 4 5484 29368 0.93 0.17 0.29 50092 26208 0.52 0.88 0.65 0.56 (nbgoodclauses,nbtotalgood,precisionGood,recallGood,FGood,nbbadclause,nbtotalbad,precisionBad,recallBad,FBad,accuracy)
c additional predictionSize 5 7887 29368 0.90 0.24 0.38 47689 26208 0.53 0.86 0.66 0.58 (nbgoodclauses,nbtotalgood,precisionGood,recallGood,FGood,nbbadclause,nbtotalbad,precisionBad,recallBad,FBad,accuracy)
c additional predictionSize 6 9905 29368 0.86 0.29 0.43 45671 26208 0.54 0.85 0.66 0.60 (nbgoodclauses,nbtotalgood,precisionGood,recallGood,FGood,nbbadclause,nbtotalbad,precisionBad,recallBad,FBad,accuracy)
c additional predictionSize 7 11576 29368 0.83 0.33 0.47 44000 26208 0.55 0.83 0.66 0.61 (nbgoodclauses,nbtotalgood,precisionGood,recallGood,FGood,nbbadclause,nbtotalbad,precisionBad,recallBad,FBad,accuracy)
c additional predictionSize 8 12988 29368 0.80 0.36 0.49 42588 26208 0.56 0.81 0.66 0.61 (nbgoodclauses,nbtotalgood,precisionGood,recallGood,FGood,nbbadclause,nbtotalbad,precisionBad,recallBad,FBad,accuracy)
c additional predictionSize 10 15405 29368 0.76 0.40 0.52 40171 26208 0.56 0.77 0.65 0.61 (nbgoodclauses,nbtotalgood,precisionGood,recallGood,FGood,nbbadclause,nbtotalbad,precisionBad,recallBad,FBad,accuracy)
c additional predictionSize 14 19262 29368 0.70 0.46 0.55 36314 26208 0.56 0.69 0.62 0.61 (nbgoodclauses,nbtotalgood,precisionGood,recallGood,FGood,nbbadclause,nbtotalbad,precisionBad,recallBad,FBad,accuracy)
c additional predictionSize 18 22386 29368 0.66 0.50 0.57 33190 26208 0.56 0.63 0.60 0.60 (nbgoodclauses,nbtotalgood,precisionGood,recallGood,FGood,nbbadclause,nbtotalbad,precisionBad,recallBad,FBad,accuracy)
c additional predictionSize 22 25751 29368 0.64 0.56 0.59 29825 26208 0.56 0.57 0.57 0.60 (nbgoodclauses,nbtotalgood,precisionGood,recallGood,FGood,nbbadclause,nbtotalbad,precisionBad,recallBad,FBad,accuracy)
c additional predictionSize 30 31188 29368 0.60 0.64 0.62 24388 26208 0.56 0.47 0.51 0.58 (nbgoodclauses,nbtotalgood,precisionGood,recallGood,FGood,nbbadclause,nbtotalbad,precisionBad,recallBad,FBad,accuracy)
c additional predictionSize 40 36750 29368 0.58 0.72 0.64 18826 26208 0.56 0.36 0.44 0.57 (nbgoodclauses,nbtotalgood,precisionGood,recallGood,FGood,nbbadclause,nbtotalbad,precisionBad,recallBad,FBad,accuracy)
c additional predictionAge 1 2491 29368 0.78 0.07 0.12 53085 26208 0.48 0.87 0.62 0.50 (nbgoodclauses,nbtotalgood,precisionGood,recallGood,FGood,nbbadclause,nbtotalbad,precisionBad,recallBad,FBad,accuracy)
c additional predictionAge 10 3097 29368 0.70 0.07 0.13 52479 26208 0.48 0.86 0.62 0.49 (nbgoodclauses,nbtotalgood,precisionGood,recallGood,FGood,nbbadclause,nbtotalbad,precisionBad,recallBad,FBad,accuracy)
c additional predictionAge 25 3334 29368 0.67 0.08 0.14 52242 26208 0.48 0.86 0.62 0.49 (nbgoodclauses,nbtotalgood,precisionGood,recallGood,FGood,nbbadclause,nbtotalbad,precisionBad,recallBad,FBad,accuracy)
c additional predictionAge 50 3553 29368 0.66 0.08 0.14 52023 26208 0.48 0.85 0.61 0.49 (nbgoodclauses,nbtotalgood,precisionGood,recallGood,FGood,nbbadclause,nbtotalbad,precisionBad,recallBad,FBad,accuracy)
c additional predictionAge 100 3779 29368 0.64 0.08 0.15 51797 26208 0.48 0.85 0.61 0.49 (nbgoodclauses,nbtotalgood,precisionGood,recallGood,FGood,nbbadclause,nbtotalbad,precisionBad,recallBad,FBad,accuracy)
c additional predictionAge 250 4167 29368 0.62 0.09 0.15 51409 26208 0.48 0.84 0.61 0.49 (nbgoodclauses,nbtotalgood,precisionGood,recallGood,FGood,nbbadclause,nbtotalbad,precisionBad,recallBad,FBad,accuracy)
c additional predictionAge 500 4617 29368 0.59 0.09 0.16 50959 26208 0.48 0.83 0.61 0.49 (nbgoodclauses,nbtotalgood,precisionGood,recallGood,FGood,nbbadclause,nbtotalbad,precisionBad,recallBad,FBad,accuracy)
c additional predictionAge 1000 5237 29368 0.57 0.10 0.17 50339 26208 0.48 0.82 0.60 0.48 (nbgoodclauses,nbtotalgood,precisionGood,recallGood,FGood,nbbadclause,nbtotalbad,precisionBad,recallBad,FBad,accuracy)
c additional predictionAge 2500 6777 29368 0.52 0.12 0.20 48799 26208 0.47 0.78 0.59 0.48 (nbgoodclauses,nbtotalgood,precisionGood,recallGood,FGood,nbbadclause,nbtotalbad,precisionBad,recallBad,FBad,accuracy)
c additional predictionAge 5000 9543 29368 0.47 0.15 0.23 46033 26208 0.46 0.72 0.56 0.46 (nbgoodclauses,nbtotalgood,precisionGood,recallGood,FGood,nbbadclause,nbtotalbad,precisionBad,recallBad,FBad,accuracy)
c additional predictionAge 10000 15173 29368 0.43 0.22 0.29 40403 26208 0.43 0.60 0.50 0.43 (nbgoodclauses,nbtotalgood,precisionGood,recallGood,FGood,nbbadclause,nbtotalbad,precisionBad,recallBad,FBad,accuracy)
c additional predictionAge 25000 30172 29368 0.41 0.42 0.41 25404 26208 0.33 0.28 0.30 0.37 (nbgoodclauses,nbtotalgood,precisionGood,recallGood,FGood,nbbadclause,nbtotalbad,precisionBad,recallBad,FBad,accuracy)
c additional predictionAge 50000 52312 29368 0.51 0.91 0.65 3264 26208 0.15 0.02 0.03 0.49 (nbgoodclauses,nbtotalgood,precisionGood,recallGood,FGood,nbbadclause,nbtotalbad,precisionBad,recallBad,FBad,accuracy)
c additional predictionAge 100000 55576 29368 0.53 1.00 0.69 0 26208 -nan 0.00 -nan 0.53 (nbgoodclauses,nbtotalgood,precisionGood,recallGood,FGood,nbbadclause,nbtotalbad,precisionBad,recallBad,FBad,accuracy)
c additional predictionTicks 1 2514 29368 0.78 0.07 0.12 53062 26208 0.48 0.87 0.62 0.50 (nbgoodclauses,nbtotalgood,precisionGood,recallGood,FGood,nbbadclause,nbtotalbad,precisionBad,recallBad,FBad,accuracy)
c additional predictionTicks 10 6679 29368 0.63 0.14 0.24 48897 26208 0.49 0.81 0.61 0.50 (nbgoodclauses,nbtotalgood,precisionGood,recallGood,FGood,nbbadclause,nbtotalbad,precisionBad,recallBad,FBad,accuracy)
c additional predictionTicks 25 9400 29368 0.60 0.19 0.29 46176 26208 0.49 0.76 0.59 0.51 (nbgoodclauses,nbtotalgood,precisionGood,recallGood,FGood,nbbadclause,nbtotalbad,precisionBad,recallBad,FBad,accuracy)
c additional predictionTicks 50 12372 29368 0.58 0.24 0.34 43204 26208 0.49 0.72 0.58 0.51 (nbgoodclauses,nbtotalgood,precisionGood,recallGood,FGood,nbbadclause,nbtotalbad,precisionBad,recallBad,FBad,accuracy)
c additional predictionTicks 100 15729 29368 0.57 0.30 0.40 39847 26208 0.49 0.66 0.56 0.51 (nbgoodclauses,nbtotalgood,precisionGood,recallGood,FGood,nbbadclause,nbtotalbad,precisionBad,recallBad,FBad,accuracy)
c additional predictionTicks 250 21416 29368 0.56 0.41 0.47 34160 26208 0.49 0.57 0.53 0.52 (nbgoodclauses,nbtotalgood,precisionGood,recallGood,FGood,nbbadclause,nbtotalbad,precisionBad,recallBad,FBad,accuracy)
c additional predictionTicks 500 26414 29368 0.55 0.49 0.52 29162 26208 0.49 0.49 0.49 0.52 (nbgoodclauses,nbtotalgood,precisionGood,recallGood,FGood,nbbadclause,nbtotalbad,precisionBad,recallBad,FBad,accuracy)
c additional predictionTicks 1000 31942 29368 0.54 0.59 0.57 23634 26208 0.49 0.40 0.44 0.52 (nbgoodclauses,nbtotalgood,precisionGood,recallGood,FGood,nbbadclause,nbtotalbad,precisionBad,recallBad,FBad,accuracy)
c additional predictionTicks 2500 40826 29368 0.53 0.74 0.62 14750 26208 0.49 0.24 0.33 0.52 (nbgoodclauses,nbtotalgood,precisionGood,recallGood,FGood,nbbadclause,nbtotalbad,precisionBad,recallBad,FBad,accuracy)
c additional predictionTicks 5000 47561 29368 0.53 0.85 0.65 8015 26208 0.46 0.13 0.20 0.52 (nbgoodclauses,nbtotalgood,precisionGood,recallGood,FGood,nbbadclause,nbtotalbad,precisionBad,recallBad,FBad,accuracy)
c additional predictionTicks 10000 52602 29368 0.53 0.94 0.68 2974 26208 0.43 0.04 0.08 0.52 (nbgoodclauses,nbtotalgood,precisionGood,recallGood,FGood,nbbadclause,nbtotalbad,precisionBad,recallBad,FBad,accuracy)
c additional predictionTicks 25000 55339 29368 0.53 0.99 0.69 237 26208 0.31 0.00 0.00 0.53 (nbgoodclauses,nbtotalgood,precisionGood,recallGood,FGood,nbbadclause,nbtotalbad,precisionBad,recallBad,FBad,accuracy)
c additional predictionTicks 50000 55575 29368 0.53 1.00 0.69 1 26208 1.00 0.00 0.00 0.53 (nbgoodclauses,nbtotalgood,precisionGood,recallGood,FGood,nbbadclause,nbtotalbad,precisionBad,recallBad,FBad,accuracy)
c additional predictionTicks 100000 55576 29368 0.53 1.00 0.69 0 26208 -nan 0.00 -nan 0.53 (nbgoodclauses,nbtotalgood,precisionGood,recallGood,FGood,nbbadclause,nbtotalbad,precisionBad,recallBad,FBad,accuracy)
c additional lifetimeGood 1 2 22 411 5172 16591 31221 42138 46919 52281 55520 55534 (0,1,5,10,25,50,75,90,95,99,100-1,100)
c additional lifetimeBad 1 2 6 58 2174 8765 19150 31116 37252 46960 55490 55519 (0,1,5,10,25,50,75,90,95,99,100-1,100)
c additional lifetimeBadBad 1 2 2 2 4 10 92 2325 6995 17212 45787 51499 (0,1,5,10,25,50,75,90,95,99,100-1,100)
c additional compositionBad 1 2 4 6 12 26 51 88 120 199 623 683 (0,1,5,10,25,50,75,90,95,99,100-1,100)
c additional compositionBadWithGood 0 0 1 1 4 9 18 32 46 78 179 181 (0,1,5,10,25,50,75,90,95,99,100-1,100)
c additional compositionBadWithBad 0 0 0 0 0 1 2 4 5 7 14 19 (0,1,5,10,25,50,75,90,95,99,100-1,100)
c additional compositionBadWithInitial 0 0 1 2 6 14 31 57 80 135 456 519 (0,1,5,10,25,50,75,90,95,99,100-1,100)
c additional compositionGood 1 2 3 3 6 14 37 79 113 204 612 753 (0,1,5,10,25,50,75,90,95,99,100-1,100)
c additional compositionGoodWithGood 0 0 0 1 3 7 19 40 57 97 207 212 (0,1,5,10,25,50,75,90,95,99,100-1,100)
c additional compositionGoodWithInitial 0 0 0 1 2 6 17 40 60 124 447 555 (0,1,5,10,25,50,75,90,95,99,100-1,100)
c additional propagationGood total 2036528 percentiles 0 1 1 1 1 4 26 160 372 1139 5140 5346 (0,1,5,10,25,50,75,90,95,99,100-1,100)
c additional propagationBad total 78503 percentiles 1 1 1 1 1 1 2 5 9 27 650 689 (0,1,5,10,25,50,75,90,95,99,100-1,100)
c additional resolutionGood total 705536 percentiles 0 1 1 1 1 2 11 51 117 390 1653 1950 (0,1,5,10,25,50,75,90,95,99,100-1,100)
c additional resolutionBad total 37984 percentiles 0 0 0 0 1 1 1 3 4 9 33 43 (0,1,5,10,25,50,75,90,95,99,100-1,100)
No graph is dumped
c result of core 1 is UNSAT
c One thread has finished
c Core 1 said it finished
c result of core 0 is UNKNOWN
c restarts              : 123 (225 conflicts in avg)
c blocked restarts      : 147 (multiple: 26) 
c last block at restart : 123
c nb ReduceDB           : 3
c nb removed Clauses    : 14190
c nb learnts DL2        : 1366
c nb learnts size 2     : 276
c nb learnts size 1     : 15
c conflicts             : 27788          (3846 /sec)
c decisions             : 49516          (0.00 % random) (6853 /sec)
c propagations          : 10021081       (1386828 /sec)
c conflict literals     : 981515         (4.30 % deleted)
c nb reduced Clauses    : 566
c CPU time              : 7.2259 s

s INDETERMINATE
