c
c This is glucose-proof 1.0 based on  2.1 --  (thanks to MiniSAT)
c
c EXPERIMENTAL EASY PARALLEL (ROUND ROBIN) VERSION
c
c WARNING: for repeatability, setting FPU to use double precision
c Parallel version 2 solvers created.
c ========================================[ Problem Statistics ]===========================================
c |                                                                                                       |
c |  Number of variables:          5283                                                                   |
c |  Number of clauses:           63775                                                                   |
c |  Parse time:                   0.04 s                                                                 |
c |                                                                                                       |
c ========================================[ MAGIC CONSTANTS ]==============================================
c | Constants are supposed to work well together :-)                                                      |
c | however, if you find better choices, please let us known...                                           |
c |-------------------------------------------------------------------------------------------------------|
c |                                |                                |                                     |
c | - Restarts:                    | - Reduce Clause DB:            | - Minimize Asserting:               |
c |   * LBD Queue    :     50      |   * First     :   4000         |    * size <  30                     |
c |   * Trail  Queue :   5000      |   * Inc       :    300         |    * lbd  <   6                     |
c |   * K            :   0.80      |   * Special   :   1000         |                                     |
c |   * R            :   1.40      |   * Protected :  (lbd)< 30     |                                     |
c |                                |                                |                                     |
c ==================================[ Search Statistics (every  10000 conflicts) ]=========================
c |                                                                                                       |
c |          RESTARTS           |          ORIGINAL         |              LEARNT              | Progress |
c |       NB   Blocked  Avg Cfc |    Vars  Clauses Literals |   Red   Learnts    LBD2  Removed |          |
c =========================================================================================================
c |       49         0      204 |    5283    63775   311573 |     1     8015       99     2165 |  0.000 % |
c |       66        98      303 |    5283    63775   311573 |     3     6963      162    13633 |  0.000 % |
c |      113       140      265 |    5283    63775   311573 |     3    16963      209    13633 |  0.000 % |
c |      166       207      240 |    5283    63775   311573 |     4    17683      265    23047 |  0.000 % |
c |      218       277      229 |    5259    63775   311573 |     5    15403      316    34576 |  0.454 % |
c |      269       334      223 |    5243    63775   311573 |     5    25049      384    34576 |  0.757 % |
c |      317       377      220 |    5243    63775   311573 |     6    21030      420    48709 |  0.757 % |
c |      379       442      211 |    5242    63775   311573 |     6    31029      459    48709 |  0.776 % |
c |      428       495      210 |    5242    63775   311573 |     7    24218      512    65617 |  0.777 % |
c |      467       562      214 |    5242    63775   311573 |     7    34218      576    65617 |  0.776 % |
c |      507       613      216 |    5173    63775   311573 |     8    23647      618    84182 |  2.082 % |
c |      558       663      215 |    5173    63775   311573 |     8    33387      661    84182 |  2.083 % |
c |      592       706      219 |    5173    63775   311573 |     9    21895      686   105799 |  2.082 % |
c |      653       746      214 |    5162    63775   311573 |     9    31790      717   105799 |  2.291 % |
c |      677       805      221 |    5162    63775   311573 |     9    41790      778   105799 |  2.290 % |
c |      692       851      231 |    5125    63775   311573 |    10    27399      881   130340 |  2.991 % |
c |      714       907      238 |    5123    63775   311573 |    10    37398      980   130340 |  3.029 % |
c |      733       975      245 |    5123    63775   311573 |    10    47075     1053   130340 |  3.029 % |
c |      769      1046      247 |    5122    63775   311573 |    11    30060     1110   157558 |  3.048 % |
c |      782      1121      255 |    5110    63775   311573 |    11    39547     1152   157558 |  3.275 % |
c |      819      1134      256 |    5110    63775   311573 |    11    49547     1189   157558 |  3.276 % |
c |      879      1159      250 |    5074    63775   311573 |    12    29773     1226   187241 |  3.956 % |
c |      948      1183      242 |    5045    63775   311573 |    12    39770     1252   187241 |  4.505 % |
c |      973      1219      246 |    5045    63775   311573 |    12    48508     1280   187241 |  4.505 % |
c |      994      1256      251 |    5045    63775   311573 |    12    58508     1316   187241 |  4.505 % |
c |     1011      1300      257 |    5044    63775   311573 |    13    36848     1334   219049 |  4.524 % |
c |     1016      1340      265 |    5028    63775   311573 |    13    42536     1379   219049 |  4.827 % |
c empty clause found by core 1 at conflict 270924
*
c checking the resolution graph...OK
c All useful bySize 203857 clauses, percentiles 0 2 2 3 14 34 93 200 292 440 933 947 (0,1,5,10,25,50,75,90,95,99,100-1,100)
c All useless bySize 401799 clauses, percentiles 0 3 5 8 31 70 146 264 347 528 964 977 (0,1,5,10,25,50,75,90,95,99,100-1,100)
c ProofOnly useful bySize 179527 clauses, percentiles 0 3 5 10 18 43 106 217 307 451 933 947 (0,1,5,10,25,50,75,90,95,99,100-1,100)
c ProofOnly useless bySize 362321 clauses, percentiles 1 9 17 23 40 81 159 277 359 539 964 977 (0,1,5,10,25,50,75,90,95,99,100-1,100)
c All useful byFinalLBD 203857 clauses, percentiles 0 1 2 2 3 7 11 15 18 22 45 46 (0,1,5,10,25,50,75,90,95,99,100-1,100)
c All useless byFinalLBD 401799 clauses, percentiles 0 3 5 6 8 13 19 26 32 47 132 133 (0,1,5,10,25,50,75,90,95,99,100-1,100)
c ProofOnly useful byFinalLBD 179527 clauses, percentiles 0 1 1 2 4 7 11 15 18 23 45 46 (0,1,5,10,25,50,75,90,95,99,100-1,100)
c ProofOnly useless byFinalLBD 362321 clauses, percentiles 1 3 6 7 10 14 20 27 32 48 132 133 (0,1,5,10,25,50,75,90,95,99,100-1,100)
c All useful byInitialLBD 203857 clauses, percentiles 0 2 2 3 5 9 13 17 19 24 47 48 (0,1,5,10,25,50,75,90,95,99,100-1,100)
c All useless byInitialLBD 401799 clauses, percentiles 0 3 5 6 10 14 20 27 32 47 132 133 (0,1,5,10,25,50,75,90,95,99,100-1,100)
c ProofOnly useful byInitialLBD 179527 clauses, percentiles 0 2 3 4 7 10 13 17 19 24 47 48 (0,1,5,10,25,50,75,90,95,99,100-1,100)
c ProofOnly useless byInitialLBD 362321 clauses, percentiles 1 5 7 8 11 15 21 27 33 48 132 133 (0,1,5,10,25,50,75,90,95,99,100-1,100)
c Literals ProofOnly useful 14870666
c Literals ProofOnly useless 43404042
c additional windowsGood 1 1 1 1 1 1 1 3 3 9 117 127 (0,1,5,10,25,50,75,90,95,99,100-1,100)
c additional windowsBad 1 1 1 1 1 1 2 7 12 29 1633 1814 (0,1,5,10,25,50,75,90,95,99,100-1,100)
c additional 1WindowNoDecision 100970 54096 0.54 84515 42993 0.51 (nbWindowsGood,nbWindowsNoDecisionGood,nbWindowsBad,nbWindowsNoDecisionBad
c additional topclausessize all (10%,5%,1%,top) 313.93 386.92 523.83 947
c additional topclausessize proofonly (10%,5%,1%,top) 320.93 392.74 528.96 947
c additional topclausesinitialLBD all (10%,5%,1%,top) 271.54 350.28 494.07 947
c additional topclausesinitialLBD proofonly (10%,5%,1%,top) 240.26 320.93 472.48 947
c additional topclausesfinalLBD all (10%,5%,1%,top) 212.89 293.82 452.95 947
c additional topclausesfinalLBD proofonly (10%,5%,1%,top) 193.58 273.99 438.44 947
c additional predictionInitialLBD 1 33 179527 0.97 0.00 0.00 541815 362321 0.67 2.02 1.00 0.67 (nbgoodclauses,nbtotalgood,precisionGood,recallGood,FGood,nbbadclause,nbtotalbad,precisionBad,recallBad,FBad,accuracy)
c additional predictionInitialLBD 2 2760 179527 0.91 0.01 0.03 539088 362321 0.67 2.02 1.01 0.67 (nbgoodclauses,nbtotalgood,precisionGood,recallGood,FGood,nbbadclause,nbtotalbad,precisionBad,recallBad,FBad,accuracy)
c additional predictionInitialLBD 3 11930 179527 0.89 0.06 0.11 529918 362321 0.68 2.01 1.02 0.69 (nbgoodclauses,nbtotalgood,precisionGood,recallGood,FGood,nbbadclause,nbtotalbad,precisionBad,recallBad,FBad,accuracy)
c additional predictionInitialLBD 4 21787 179527 0.84 0.10 0.18 520061 362321 0.69 2.00 1.03 0.70 (nbgoodclauses,nbtotalgood,precisionGood,recallGood,FGood,nbbadclause,nbtotalbad,precisionBad,recallBad,FBad,accuracy)
c additional predictionInitialLBD 5 37647 179527 0.78 0.16 0.27 504201 362321 0.70 1.97 1.04 0.71 (nbgoodclauses,nbtotalgood,precisionGood,recallGood,FGood,nbbadclause,nbtotalbad,precisionBad,recallBad,FBad,accuracy)
c additional predictionInitialLBD 6 58910 179527 0.72 0.24 0.36 482938 362321 0.72 1.93 1.04 0.72 (nbgoodclauses,nbtotalgood,precisionGood,recallGood,FGood,nbbadclause,nbtotalbad,precisionBad,recallBad,FBad,accuracy)
c additional predictionInitialLBD 7 86130 179527 0.67 0.32 0.43 455718 362321 0.73 1.86 1.05 0.72 (nbgoodclauses,nbtotalgood,precisionGood,recallGood,FGood,nbbadclause,nbtotalbad,precisionBad,recallBad,FBad,accuracy)
c additional predictionInitialLBD 8 116777 179527 0.62 0.41 0.49 425071 362321 0.75 1.77 1.05 0.72 (nbgoodclauses,nbtotalgood,precisionGood,recallGood,FGood,nbbadclause,nbtotalbad,precisionBad,recallBad,FBad,accuracy)
c additional predictionInitialLBD 10 183724 179527 0.56 0.57 0.56 358124 362321 0.78 1.56 1.04 0.71 (nbgoodclauses,nbtotalgood,precisionGood,recallGood,FGood,nbbadclause,nbtotalbad,precisionBad,recallBad,FBad,accuracy)
c additional predictionInitialLBD 14 313360 179527 0.47 0.81 0.59 228488 362321 0.85 1.09 0.96 0.63 (nbgoodclauses,nbtotalgood,precisionGood,recallGood,FGood,nbbadclause,nbtotalbad,precisionBad,recallBad,FBad,accuracy)
c additional predictionInitialLBD 18 409728 179527 0.41 0.94 0.57 132120 362321 0.91 0.67 0.78 0.53 (nbgoodclauses,nbtotalgood,precisionGood,recallGood,FGood,nbbadclause,nbtotalbad,precisionBad,recallBad,FBad,accuracy)
c additional predictionInitialLBD 22 468810 179527 0.38 0.98 0.54 73038 362321 0.96 0.39 0.55 0.45 (nbgoodclauses,nbtotalgood,precisionGood,recallGood,FGood,nbbadclause,nbtotalbad,precisionBad,recallBad,FBad,accuracy)
c additional predictionInitialLBD 30 517177 179527 0.35 1.00 0.51 24671 362321 0.99 0.14 0.24 0.38 (nbgoodclauses,nbtotalgood,precisionGood,recallGood,FGood,nbbadclause,nbtotalbad,precisionBad,recallBad,FBad,accuracy)
c additional predictionInitialLBD 40 533919 179527 0.34 1.00 0.50 7929 362321 1.00 0.04 0.08 0.35 (nbgoodclauses,nbtotalgood,precisionGood,recallGood,FGood,nbbadclause,nbtotalbad,precisionBad,recallBad,FBad,accuracy)
c additional predictionFinallLBD 1 10201 179527 0.95 0.05 0.10 531647 362321 0.68 1.00 0.81 0.69 (nbgoodclauses,nbtotalgood,precisionGood,recallGood,FGood,nbbadclause,nbtotalbad,precisionBad,recallBad,FBad,accuracy)
c additional predictionFinallLBD 2 24398 179527 0.92 0.13 0.22 517450 362321 0.70 0.99 0.82 0.71 (nbgoodclauses,nbtotalgood,precisionGood,recallGood,FGood,nbbadclause,nbtotalbad,precisionBad,recallBad,FBad,accuracy)
c additional predictionFinallLBD 3 41463 179527 0.89 0.20 0.33 500385 362321 0.71 0.99 0.83 0.73 (nbgoodclauses,nbtotalgood,precisionGood,recallGood,FGood,nbbadclause,nbtotalbad,precisionBad,recallBad,FBad,accuracy)
c additional predictionFinallLBD 4 60449 179527 0.84 0.28 0.42 481399 362321 0.73 0.97 0.84 0.75 (nbgoodclauses,nbtotalgood,precisionGood,recallGood,FGood,nbbadclause,nbtotalbad,precisionBad,recallBad,FBad,accuracy)
c additional predictionFinallLBD 5 82850 179527 0.79 0.36 0.50 458998 362321 0.75 0.95 0.84 0.76 (nbgoodclauses,nbtotalgood,precisionGood,recallGood,FGood,nbbadclause,nbtotalbad,precisionBad,recallBad,FBad,accuracy)
c additional predictionFinallLBD 6 108603 179527 0.72 0.44 0.55 433245 362321 0.77 0.92 0.84 0.76 (nbgoodclauses,nbtotalgood,precisionGood,recallGood,FGood,nbbadclause,nbtotalbad,precisionBad,recallBad,FBad,accuracy)
c additional predictionFinallLBD 7 137263 179527 0.67 0.51 0.58 404585 362321 0.78 0.87 0.83 0.75 (nbgoodclauses,nbtotalgood,precisionGood,recallGood,FGood,nbbadclause,nbtotalbad,precisionBad,recallBad,FBad,accuracy)
c additional predictionFinallLBD 8 167056 179527 0.62 0.58 0.60 374792 362321 0.80 0.83 0.81 0.74 (nbgoodclauses,nbtotalgood,precisionGood,recallGood,FGood,nbbadclause,nbtotalbad,precisionBad,recallBad,FBad,accuracy)
c additional predictionFinallLBD 10 226978 179527 0.55 0.70 0.62 314870 362321 0.83 0.72 0.77 0.71 (nbgoodclauses,nbtotalgood,precisionGood,recallGood,FGood,nbbadclause,nbtotalbad,precisionBad,recallBad,FBad,accuracy)
c additional predictionFinallLBD 14 339339 179527 0.46 0.87 0.60 202509 362321 0.89 0.49 0.64 0.62 (nbgoodclauses,nbtotalgood,precisionGood,recallGood,FGood,nbbadclause,nbtotalbad,precisionBad,recallBad,FBad,accuracy)
c additional predictionFinallLBD 18 423554 179527 0.41 0.96 0.57 118294 362321 0.94 0.31 0.46 0.52 (nbgoodclauses,nbtotalgood,precisionGood,recallGood,FGood,nbbadclause,nbtotalbad,precisionBad,recallBad,FBad,accuracy)
c additional predictionFinallLBD 22 475590 179527 0.37 0.99 0.54 66258 362321 0.97 0.18 0.30 0.45 (nbgoodclauses,nbtotalgood,precisionGood,recallGood,FGood,nbbadclause,nbtotalbad,precisionBad,recallBad,FBad,accuracy)
c additional predictionFinallLBD 30 518875 179527 0.35 1.00 0.51 22973 362321 0.99 0.06 0.12 0.37 (nbgoodclauses,nbtotalgood,precisionGood,recallGood,FGood,nbbadclause,nbtotalbad,precisionBad,recallBad,FBad,accuracy)
c additional predictionFinallLBD 40 534380 179527 0.34 1.00 0.50 7468 362321 1.00 0.02 0.04 0.35 (nbgoodclauses,nbtotalgood,precisionGood,recallGood,FGood,nbbadclause,nbtotalbad,precisionBad,recallBad,FBad,accuracy)
c additional predictionSize 1 33 179527 0.97 0.00 0.00 541815 362321 0.67 2.02 1.00 0.67 (nbgoodclauses,nbtotalgood,precisionGood,recallGood,FGood,nbbadclause,nbtotalbad,precisionBad,recallBad,FBad,accuracy)
c additional predictionSize 2 1044 179527 0.90 0.01 0.01 540804 362321 0.67 2.02 1.01 0.67 (nbgoodclauses,nbtotalgood,precisionGood,recallGood,FGood,nbbadclause,nbtotalbad,precisionBad,recallBad,FBad,accuracy)
c additional predictionSize 3 7421 179527 0.93 0.04 0.07 534427 362321 0.68 2.02 1.01 0.68 (nbgoodclauses,nbtotalgood,precisionGood,recallGood,FGood,nbbadclause,nbtotalbad,precisionBad,recallBad,FBad,accuracy)
c additional predictionSize 4 9211 179527 0.90 0.05 0.09 532637 362321 0.68 2.01 1.01 0.68 (nbgoodclauses,nbtotalgood,precisionGood,recallGood,FGood,nbbadclause,nbtotalbad,precisionBad,recallBad,FBad,accuracy)
c additional predictionSize 5 10962 179527 0.88 0.05 0.10 530886 362321 0.68 2.01 1.02 0.68 (nbgoodclauses,nbtotalgood,precisionGood,recallGood,FGood,nbbadclause,nbtotalbad,precisionBad,recallBad,FBad,accuracy)
c additional predictionSize 6 12573 179527 0.86 0.06 0.11 529275 362321 0.68 2.01 1.02 0.69 (nbgoodclauses,nbtotalgood,precisionGood,recallGood,FGood,nbbadclause,nbtotalbad,precisionBad,recallBad,FBad,accuracy)
c additional predictionSize 7 14560 179527 0.85 0.07 0.13 527288 362321 0.68 2.01 1.02 0.69 (nbgoodclauses,nbtotalgood,precisionGood,recallGood,FGood,nbbadclause,nbtotalbad,precisionBad,recallBad,FBad,accuracy)
c additional predictionSize 8 17048 179527 0.83 0.08 0.14 524800 362321 0.68 2.00 1.02 0.69 (nbgoodclauses,nbtotalgood,precisionGood,recallGood,FGood,nbbadclause,nbtotalbad,precisionBad,recallBad,FBad,accuracy)
c additional predictionSize 10 23028 179527 0.80 0.10 0.18 518820 362321 0.69 1.99 1.02 0.69 (nbgoodclauses,nbtotalgood,precisionGood,recallGood,FGood,nbbadclause,nbtotalbad,precisionBad,recallBad,FBad,accuracy)
c additional predictionSize 14 40529 179527 0.73 0.17 0.27 501319 362321 0.70 1.96 1.03 0.70 (nbgoodclauses,nbtotalgood,precisionGood,recallGood,FGood,nbbadclause,nbtotalbad,precisionBad,recallBad,FBad,accuracy)
c additional predictionSize 18 69832 179527 0.65 0.25 0.36 472016 362321 0.72 1.88 1.04 0.71 (nbgoodclauses,nbtotalgood,precisionGood,recallGood,FGood,nbbadclause,nbtotalbad,precisionBad,recallBad,FBad,accuracy)
c additional predictionSize 22 91513 179527 0.61 0.31 0.41 450335 362321 0.72 1.82 1.04 0.70 (nbgoodclauses,nbtotalgood,precisionGood,recallGood,FGood,nbbadclause,nbtotalbad,precisionBad,recallBad,FBad,accuracy)
c additional predictionSize 30 131725 179527 0.55 0.40 0.46 410123 362321 0.74 1.68 1.03 0.69 (nbgoodclauses,nbtotalgood,precisionGood,recallGood,FGood,nbbadclause,nbtotalbad,precisionBad,recallBad,FBad,accuracy)
c additional predictionSize 40 178282 179527 0.49 0.48 0.49 363566 362321 0.75 1.51 1.00 0.66 (nbgoodclauses,nbtotalgood,precisionGood,recallGood,FGood,nbbadclause,nbtotalbad,precisionBad,recallBad,FBad,accuracy)
c additional predictionAge 1 16784 179527 0.58 0.05 0.10 525064 362321 0.68 1.98 1.01 0.67 (nbgoodclauses,nbtotalgood,precisionGood,recallGood,FGood,nbbadclause,nbtotalbad,precisionBad,recallBad,FBad,accuracy)
c additional predictionAge 10 25430 179527 0.47 0.07 0.12 516418 362321 0.68 1.94 1.00 0.67 (nbgoodclauses,nbtotalgood,precisionGood,recallGood,FGood,nbbadclause,nbtotalbad,precisionBad,recallBad,FBad,accuracy)
c additional predictionAge 25 29155 179527 0.45 0.07 0.12 512693 362321 0.68 1.93 1.00 0.66 (nbgoodclauses,nbtotalgood,precisionGood,recallGood,FGood,nbbadclause,nbtotalbad,precisionBad,recallBad,FBad,accuracy)
c additional predictionAge 50 32431 179527 0.43 0.08 0.13 509417 362321 0.67 1.92 1.00 0.66 (nbgoodclauses,nbtotalgood,precisionGood,recallGood,FGood,nbbadclause,nbtotalbad,precisionBad,recallBad,FBad,accuracy)
c additional predictionAge 100 35597 179527 0.42 0.08 0.14 506251 362321 0.67 1.90 1.00 0.66 (nbgoodclauses,nbtotalgood,precisionGood,recallGood,FGood,nbbadclause,nbtotalbad,precisionBad,recallBad,FBad,accuracy)
c additional predictionAge 250 39743 179527 0.41 0.09 0.15 502105 362321 0.68 1.89 0.99 0.66 (nbgoodclauses,nbtotalgood,precisionGood,recallGood,FGood,nbbadclause,nbtotalbad,precisionBad,recallBad,FBad,accuracy)
c additional predictionAge 500 43085 179527 0.41 0.10 0.16 498763 362321 0.68 1.88 0.99 0.65 (nbgoodclauses,nbtotalgood,precisionGood,recallGood,FGood,nbbadclause,nbtotalbad,precisionBad,recallBad,FBad,accuracy)
c additional predictionAge 1000 46477 179527 0.41 0.11 0.17 495371 362321 0.68 1.87 0.99 0.65 (nbgoodclauses,nbtotalgood,precisionGood,recallGood,FGood,nbbadclause,nbtotalbad,precisionBad,recallBad,FBad,accuracy)
c additional predictionAge 2500 52032 179527 0.41 0.12 0.19 489816 362321 0.68 1.85 0.99 0.65 (nbgoodclauses,nbtotalgood,precisionGood,recallGood,FGood,nbbadclause,nbtotalbad,precisionBad,recallBad,FBad,accuracy)
c additional predictionAge 5000 57800 179527 0.41 0.13 0.20 484048 362321 0.68 1.83 0.99 0.65 (nbgoodclauses,nbtotalgood,precisionGood,recallGood,FGood,nbbadclause,nbtotalbad,precisionBad,recallBad,FBad,accuracy)
c additional predictionAge 10000 67437 179527 0.41 0.15 0.22 474411 362321 0.68 1.80 0.99 0.65 (nbgoodclauses,nbtotalgood,precisionGood,recallGood,FGood,nbbadclause,nbtotalbad,precisionBad,recallBad,FBad,accuracy)
c additional predictionAge 25000 96329 179527 0.41 0.22 0.28 445519 362321 0.69 1.70 0.98 0.64 (nbgoodclauses,nbtotalgood,precisionGood,recallGood,FGood,nbbadclause,nbtotalbad,precisionBad,recallBad,FBad,accuracy)
c additional predictionAge 50000 139751 179527 0.40 0.31 0.35 402097 362321 0.69 1.55 0.96 0.62 (nbgoodclauses,nbtotalgood,precisionGood,recallGood,FGood,nbbadclause,nbtotalbad,precisionBad,recallBad,FBad,accuracy)
c additional predictionAge 100000 211542 179527 0.37 0.44 0.40 330306 362321 0.70 1.28 0.90 0.57 (nbgoodclauses,nbtotalgood,precisionGood,recallGood,FGood,nbbadclause,nbtotalbad,precisionBad,recallBad,FBad,accuracy)
c additional predictionTicks 1 17680 179527 0.57 0.06 0.10 524168 362321 0.68 1.98 1.01 0.67 (nbgoodclauses,nbtotalgood,precisionGood,recallGood,FGood,nbbadclause,nbtotalbad,precisionBad,recallBad,FBad,accuracy)
c additional predictionTicks 10 70899 179527 0.41 0.16 0.23 470949 362321 0.68 1.79 0.99 0.65 (nbgoodclauses,nbtotalgood,precisionGood,recallGood,FGood,nbbadclause,nbtotalbad,precisionBad,recallBad,FBad,accuracy)
c additional predictionTicks 25 96865 179527 0.40 0.21 0.28 444983 362321 0.68 1.69 0.97 0.63 (nbgoodclauses,nbtotalgood,precisionGood,recallGood,FGood,nbbadclause,nbtotalbad,precisionBad,recallBad,FBad,accuracy)
c additional predictionTicks 50 121750 179527 0.39 0.26 0.31 420098 362321 0.68 1.60 0.96 0.62 (nbgoodclauses,nbtotalgood,precisionGood,recallGood,FGood,nbbadclause,nbtotalbad,precisionBad,recallBad,FBad,accuracy)
c additional predictionTicks 100 146688 179527 0.38 0.31 0.35 395160 362321 0.69 1.51 0.95 0.61 (nbgoodclauses,nbtotalgood,precisionGood,recallGood,FGood,nbbadclause,nbtotalbad,precisionBad,recallBad,FBad,accuracy)
c additional predictionTicks 250 182345 179527 0.38 0.39 0.39 359503 362321 0.69 1.39 0.93 0.59 (nbgoodclauses,nbtotalgood,precisionGood,recallGood,FGood,nbbadclause,nbtotalbad,precisionBad,recallBad,FBad,accuracy)
c additional predictionTicks 500 211819 179527 0.38 0.45 0.41 330029 362321 0.70 1.29 0.91 0.58 (nbgoodclauses,nbtotalgood,precisionGood,recallGood,FGood,nbbadclause,nbtotalbad,precisionBad,recallBad,FBad,accuracy)
c additional predictionTicks 1000 243066 179527 0.38 0.52 0.44 298782 362321 0.71 1.18 0.89 0.56 (nbgoodclauses,nbtotalgood,precisionGood,recallGood,FGood,nbbadclause,nbtotalbad,precisionBad,recallBad,FBad,accuracy)
c additional predictionTicks 2500 291798 179527 0.38 0.61 0.47 250050 362321 0.72 1.01 0.84 0.54 (nbgoodclauses,nbtotalgood,precisionGood,recallGood,FGood,nbbadclause,nbtotalbad,precisionBad,recallBad,FBad,accuracy)
c additional predictionTicks 5000 338598 179527 0.37 0.70 0.48 203250 362321 0.73 0.83 0.78 0.51 (nbgoodclauses,nbtotalgood,precisionGood,recallGood,FGood,nbbadclause,nbtotalbad,precisionBad,recallBad,FBad,accuracy)
c additional predictionTicks 10000 395085 179527 0.36 0.79 0.49 146763 362321 0.74 0.61 0.67 0.46 (nbgoodclauses,nbtotalgood,precisionGood,recallGood,FGood,nbbadclause,nbtotalbad,precisionBad,recallBad,FBad,accuracy)
c additional predictionTicks 25000 474734 179527 0.34 0.91 0.50 67114 362321 0.75 0.28 0.41 0.39 (nbgoodclauses,nbtotalgood,precisionGood,recallGood,FGood,nbbadclause,nbtotalbad,precisionBad,recallBad,FBad,accuracy)
c additional predictionTicks 50000 512396 179527 0.34 0.96 0.50 29452 362321 0.75 0.12 0.21 0.36 (nbgoodclauses,nbtotalgood,precisionGood,recallGood,FGood,nbbadclause,nbtotalbad,precisionBad,recallBad,FBad,accuracy)
c additional predictionTicks 100000 528112 179527 0.33 0.98 0.50 13736 362321 0.79 0.06 0.11 0.35 (nbgoodclauses,nbtotalgood,precisionGood,recallGood,FGood,nbbadclause,nbtotalbad,precisionBad,recallBad,FBad,accuracy)
c additional lifetimeGood 2 2 8 120 11254 63651 159748 230918 313158 454585 539659 541452 (0,1,5,10,25,50,75,90,95,99,100-1,100)
c additional lifetimeBad 1 2 4 42 12091 67452 182012 303716 388597 455587 539905 541468 (0,1,5,10,25,50,75,90,95,99,100-1,100)
c additional lifetimeBadBad 2 2 2 2 4 34 3384 34161 65933 224884 492781 493901 (0,1,5,10,25,50,75,90,95,99,100-1,100)
c additional compositionBad 1 3 4 6 12 27 56 101 140 247 1041 1068 (0,1,5,10,25,50,75,90,95,99,100-1,100)
c additional compositionBadWithGood 0 0 0 1 3 6 14 24 33 57 220 223 (0,1,5,10,25,50,75,90,95,99,100-1,100)
c additional compositionBadWithBad 0 0 0 0 0 1 3 5 6 12 50 58 (0,1,5,10,25,50,75,90,95,99,100-1,100)
c additional compositionBadWithInitial 0 1 2 4 8 18 40 74 105 189 847 886 (0,1,5,10,25,50,75,90,95,99,100-1,100)
c additional compositionGood 1 2 3 3 7 16 42 91 137 257 876 888 (0,1,5,10,25,50,75,90,95,99,100-1,100)
c additional compositionGoodWithGood 0 0 0 1 2 5 13 26 37 65 197 199 (0,1,5,10,25,50,75,90,95,99,100-1,100)
c additional compositionGoodWithInitial 0 0 1 2 4 11 29 66 102 198 717 745 (0,1,5,10,25,50,75,90,95,99,100-1,100)
c additional propagationGood total 12508832 percentiles 0 1 1 1 1 4 25 129 305 1198 13522 13554 (0,1,5,10,25,50,75,90,95,99,100-1,100)
c additional propagationBad total 1472793 percentiles 1 1 1 1 1 1 3 6 12 43 3230 3349 (0,1,5,10,25,50,75,90,95,99,100-1,100)
c additional resolutionGood total 4171320 percentiles 0 1 1 1 1 3 13 50 106 338 4336 4397 (0,1,5,10,25,50,75,90,95,99,100-1,100)
c additional resolutionBad total 711510 percentiles 0 0 0 0 1 1 2 4 6 17 272 441 (0,1,5,10,25,50,75,90,95,99,100-1,100)
No graph is dumped
c result of core 1 is UNSAT
c One thread has finished
c Core 1 said it finished
c result of core 0 is UNKNOWN
c restarts              : 1016 (266 conflicts in avg)
c blocked restarts      : 1347 (multiple: 303) 
c last block at restart : 1016
c nb ReduceDB           : 13
c nb removed Clauses    : 219049
c nb learnts DL2        : 1387
c nb learnts size 2     : 551
c nb learnts size 1     : 17
c conflicts             : 270924         (2896 /sec)
c decisions             : 519123         (0.00 % random) (5550 /sec)
c propagations          : 52344773       (559623 /sec)
c conflict literals     : 29247284       (6.67 % deleted)
c nb reduced Clauses    : 1765
c CPU time              : 93.5358 s

s INDETERMINATE
