c
c This is glucose-proof 1.0 based on  2.1 --  (thanks to MiniSAT)
c
c EXPERIMENTAL EASY PARALLEL (ROUND ROBIN) VERSION
c
c WARNING: for repeatability, setting FPU to use double precision
c Parallel version 16 solvers created.
c ========================================[ Problem Statistics ]===========================================
c |                                                                                                       |
c |  Number of variables:          5283                                                                   |
c |  Number of clauses:           63775                                                                   |
c |  Parse time:                   0.29 s                                                                 |
c |                                                                                                       |
c ========================================[ MAGIC CONSTANTS ]==============================================
c | Constants are supposed to work well together :-)                                                      |
c | however, if you find better choices, please let us known...                                           |
c |-------------------------------------------------------------------------------------------------------|
c |                                |                                |                                     |
c | - Restarts:                    | - Reduce Clause DB:            | - Minimize Asserting:               |
c |   * LBD Queue    :     50      |   * First     :   4000         |    * size <  30                     |
c |   * Trail  Queue :   5000      |   * Inc       :    300         |    * lbd  <   6                     |
c |   * K            :   0.80      |   * Special   :   1000         |                                     |
c |   * R            :   1.40      |   * Protected :  (lbd)< 30     |                                     |
c |                                |                                |                                     |
c ==================================[ Search Statistics (every  10000 conflicts) ]=========================
c |                                                                                                       |
c |          RESTARTS           |          ORIGINAL         |              LEARNT              | Progress |
c |       NB   Blocked  Avg Cfc |    Vars  Clauses Literals |   Red   Learnts    LBD2  Removed |          |
c =========================================================================================================
c |       58         0      172 |    5256    63775   311573 |     1     8001      142     3556 |  0.511 % |
c |      107        70      186 |    5255    63775   311573 |     3     6956      211    19243 |  0.530 % |
c |      129       144      232 |    5253    63775   311573 |     3    16951      241    19243 |  0.568 % |
c |      179       205      223 |    5145    63775   311573 |     4    16574      289    31085 |  2.612 % |
c |      225       277      222 |    5094    63775   311573 |     5    15290      326    44802 |  3.578 % |
c |      282       333      212 |    5012    63775   311573 |     5    25286      364    44802 |  5.130 % |
c |      326       363      214 |    4981    63775   311573 |     6    20900      396    61246 |  5.716 % |
c |      376       398      212 |    4971    63775   311573 |     6    30832      427    61246 |  5.906 % |
c empty clause found by core 5 at conflict 87656
*
c checking the resolution graph...OK
c All useful bySize 235758 clauses, percentiles 0 2 2 3 11 24 65 140 222 408 782 802 (0,1,5,10,25,50,75,90,95,99,100-1,100)
c All useless bySize 1231600 clauses, percentiles 0 4 9 15 29 61 124 226 304 465 931 934 (0,1,5,10,25,50,75,90,95,99,100-1,100)
c ProofOnly useful bySize 210923 clauses, percentiles 0 2 3 7 15 29 74 151 236 420 782 802 (0,1,5,10,25,50,75,90,95,99,100-1,100)
c ProofOnly useless bySize 1191563 clauses, percentiles 1 6 14 17 31 63 127 230 307 469 931 934 (0,1,5,10,25,50,75,90,95,99,100-1,100)
c All useful byFinalLBD 235758 clauses, percentiles 0 1 1 2 3 5 10 14 17 21 40 44 (0,1,5,10,25,50,75,90,95,99,100-1,100)
c All useless byFinalLBD 1231600 clauses, percentiles 0 2 4 5 8 13 18 24 29 42 163 164 (0,1,5,10,25,50,75,90,95,99,100-1,100)
c ProofOnly useful byFinalLBD 210923 clauses, percentiles 0 1 1 2 3 6 10 14 17 22 40 44 (0,1,5,10,25,50,75,90,95,99,100-1,100)
c ProofOnly useless byFinalLBD 1191563 clauses, percentiles 1 2 4 5 8 13 18 25 29 42 163 164 (0,1,5,10,25,50,75,90,95,99,100-1,100)
c All useful byInitialLBD 235758 clauses, percentiles 0 2 2 3 5 8 12 16 18 23 44 49 (0,1,5,10,25,50,75,90,95,99,100-1,100)
c All useless byInitialLBD 1231600 clauses, percentiles 0 3 5 6 9 14 19 25 30 42 164 167 (0,1,5,10,25,50,75,90,95,99,100-1,100)
c ProofOnly useful byInitialLBD 210923 clauses, percentiles 0 2 3 4 6 9 12 16 18 23 44 49 (0,1,5,10,25,50,75,90,95,99,100-1,100)
c ProofOnly useless byInitialLBD 1191563 clauses, percentiles 1 4 6 7 10 14 19 25 30 43 164 167 (0,1,5,10,25,50,75,90,95,99,100-1,100)
c Literals ProofOnly useful 12887305
c Literals ProofOnly useless 116611018
c additional windowsGood 1 1 1 1 1 1 1 2 2 3 7 8 (0,1,5,10,25,50,75,90,95,99,100-1,100)
c additional windowsBad 1 1 1 1 2 4 9 15 15 31 420 479 (0,1,5,10,25,50,75,90,95,99,100-1,100)
c additional 1WindowNoDecision 157113 79723 0.51 25671 11144 0.43 (nbWindowsGood,nbWindowsNoDecisionGood,nbWindowsBad,nbWindowsNoDecisionBad
c additional topclausessize all (10%,5%,1%,top) 254.16 333.72 491.59 802
c additional topclausessize proofonly (10%,5%,1%,top) 260.38 339.72 496.08 802
c additional topclausesinitialLBD all (10%,5%,1%,top) 213.24 291.59 459.42 802
c additional topclausesinitialLBD proofonly (10%,5%,1%,top) 185.57 260.38 434.22 802
c additional topclausesfinalLBD all (10%,5%,1%,top) 162.87 233.84 411.36 802
c additional topclausesfinalLBD proofonly (10%,5%,1%,top) 146.98 215.20 394.16 802
c additional predictionInitialLBD 1 77 210923 0.84 0.00 0.00 1402409 1191563 0.85 5.65 1.48 0.85 (nbgoodclauses,nbtotalgood,precisionGood,recallGood,FGood,nbbadclause,nbtotalbad,precisionBad,recallBad,FBad,accuracy)
c additional predictionInitialLBD 2 7041 210923 0.72 0.02 0.05 1395445 1191563 0.85 5.64 1.48 0.85 (nbgoodclauses,nbtotalgood,precisionGood,recallGood,FGood,nbbadclause,nbtotalbad,precisionBad,recallBad,FBad,accuracy)
c additional predictionInitialLBD 3 30502 210923 0.67 0.10 0.17 1371984 1191563 0.86 5.60 1.49 0.86 (nbgoodclauses,nbtotalgood,precisionGood,recallGood,FGood,nbbadclause,nbtotalbad,precisionBad,recallBad,FBad,accuracy)
c additional predictionInitialLBD 4 59413 210923 0.53 0.15 0.23 1343073 1191563 0.87 5.52 1.50 0.85 (nbgoodclauses,nbtotalgood,precisionGood,recallGood,FGood,nbbadclause,nbtotalbad,precisionBad,recallBad,FBad,accuracy)
c additional predictionInitialLBD 5 103775 210923 0.45 0.22 0.30 1298711 1191563 0.87 5.38 1.50 0.84 (nbgoodclauses,nbtotalgood,precisionGood,recallGood,FGood,nbbadclause,nbtotalbad,precisionBad,recallBad,FBad,accuracy)
c additional predictionInitialLBD 6 162768 210923 0.40 0.31 0.35 1239718 1191563 0.88 5.19 1.51 0.83 (nbgoodclauses,nbtotalgood,precisionGood,recallGood,FGood,nbbadclause,nbtotalbad,precisionBad,recallBad,FBad,accuracy)
c additional predictionInitialLBD 7 235893 210923 0.36 0.40 0.38 1166593 1191563 0.89 4.94 1.51 0.80 (nbgoodclauses,nbtotalgood,precisionGood,recallGood,FGood,nbbadclause,nbtotalbad,precisionBad,recallBad,FBad,accuracy)
c additional predictionInitialLBD 8 318094 210923 0.33 0.49 0.39 1084392 1191563 0.90 4.64 1.51 0.77 (nbgoodclauses,nbtotalgood,precisionGood,recallGood,FGood,nbbadclause,nbtotalbad,precisionBad,recallBad,FBad,accuracy)
c additional predictionInitialLBD 10 492858 210923 0.28 0.65 0.39 909628 1191563 0.92 3.97 1.49 0.69 (nbgoodclauses,nbtotalgood,precisionGood,recallGood,FGood,nbbadclause,nbtotalbad,precisionBad,recallBad,FBad,accuracy)
c additional predictionInitialLBD 14 820295 210923 0.22 0.86 0.35 582191 1191563 0.95 2.62 1.39 0.52 (nbgoodclauses,nbtotalgood,precisionGood,recallGood,FGood,nbbadclause,nbtotalbad,precisionBad,recallBad,FBad,accuracy)
c additional predictionInitialLBD 18 1066401 210923 0.19 0.96 0.32 336085 1191563 0.97 1.55 1.19 0.38 (nbgoodclauses,nbtotalgood,precisionGood,recallGood,FGood,nbbadclause,nbtotalbad,precisionBad,recallBad,FBad,accuracy)
c additional predictionInitialLBD 22 1219129 210923 0.17 0.99 0.29 183357 1191563 0.98 0.86 0.92 0.28 (nbgoodclauses,nbtotalgood,precisionGood,recallGood,FGood,nbbadclause,nbtotalbad,precisionBad,recallBad,FBad,accuracy)
c additional predictionInitialLBD 30 1347471 210923 0.16 1.00 0.27 55015 1191563 1.00 0.26 0.41 0.19 (nbgoodclauses,nbtotalgood,precisionGood,recallGood,FGood,nbbadclause,nbtotalbad,precisionBad,recallBad,FBad,accuracy)
c additional predictionInitialLBD 40 1387368 210923 0.15 1.00 0.26 15118 1191563 1.00 0.07 0.13 0.16 (nbgoodclauses,nbtotalgood,precisionGood,recallGood,FGood,nbbadclause,nbtotalbad,precisionBad,recallBad,FBad,accuracy)
c additional predictionFinallLBD 1 23565 210923 0.73 0.08 0.15 1378921 1191563 0.86 0.99 0.92 0.86 (nbgoodclauses,nbtotalgood,precisionGood,recallGood,FGood,nbbadclause,nbtotalbad,precisionBad,recallBad,FBad,accuracy)
c additional predictionFinallLBD 2 60782 210923 0.61 0.17 0.27 1341704 1191563 0.87 0.98 0.92 0.86 (nbgoodclauses,nbtotalgood,precisionGood,recallGood,FGood,nbbadclause,nbtotalbad,precisionBad,recallBad,FBad,accuracy)
c additional predictionFinallLBD 3 110136 210923 0.53 0.28 0.36 1292350 1191563 0.88 0.96 0.92 0.85 (nbgoodclauses,nbtotalgood,precisionGood,recallGood,FGood,nbbadclause,nbtotalbad,precisionBad,recallBad,FBad,accuracy)
c additional predictionFinallLBD 4 167036 210923 0.47 0.37 0.42 1235450 1191563 0.89 0.93 0.91 0.84 (nbgoodclauses,nbtotalgood,precisionGood,recallGood,FGood,nbbadclause,nbtotalbad,precisionBad,recallBad,FBad,accuracy)
c additional predictionFinallLBD 5 225661 210923 0.43 0.46 0.44 1176825 1191563 0.90 0.89 0.90 0.83 (nbgoodclauses,nbtotalgood,precisionGood,recallGood,FGood,nbbadclause,nbtotalbad,precisionBad,recallBad,FBad,accuracy)
c additional predictionFinallLBD 6 289005 210923 0.39 0.53 0.45 1113481 1191563 0.91 0.85 0.88 0.80 (nbgoodclauses,nbtotalgood,precisionGood,recallGood,FGood,nbbadclause,nbtotalbad,precisionBad,recallBad,FBad,accuracy)
c additional predictionFinallLBD 7 360817 210923 0.35 0.60 0.44 1041669 1191563 0.92 0.80 0.86 0.77 (nbgoodclauses,nbtotalgood,precisionGood,recallGood,FGood,nbbadclause,nbtotalbad,precisionBad,recallBad,FBad,accuracy)
c additional predictionFinallLBD 8 438174 210923 0.32 0.66 0.43 964312 1191563 0.93 0.75 0.83 0.74 (nbgoodclauses,nbtotalgood,precisionGood,recallGood,FGood,nbbadclause,nbtotalbad,precisionBad,recallBad,FBad,accuracy)
c additional predictionFinallLBD 10 594372 210923 0.27 0.77 0.40 808114 1191563 0.94 0.64 0.76 0.66 (nbgoodclauses,nbtotalgood,precisionGood,recallGood,FGood,nbbadclause,nbtotalbad,precisionBad,recallBad,FBad,accuracy)
c additional predictionFinallLBD 14 881888 210923 0.22 0.91 0.35 520598 1191563 0.96 0.42 0.59 0.49 (nbgoodclauses,nbtotalgood,precisionGood,recallGood,FGood,nbbadclause,nbtotalbad,precisionBad,recallBad,FBad,accuracy)
c additional predictionFinallLBD 18 1099561 210923 0.19 0.97 0.31 302925 1191563 0.98 0.25 0.40 0.36 (nbgoodclauses,nbtotalgood,precisionGood,recallGood,FGood,nbbadclause,nbtotalbad,precisionBad,recallBad,FBad,accuracy)
c additional predictionFinallLBD 22 1235987 210923 0.17 0.99 0.29 166499 1191563 0.99 0.14 0.24 0.27 (nbgoodclauses,nbtotalgood,precisionGood,recallGood,FGood,nbbadclause,nbtotalbad,precisionBad,recallBad,FBad,accuracy)
c additional predictionFinallLBD 30 1351531 210923 0.16 1.00 0.27 50955 1191563 1.00 0.04 0.08 0.19 (nbgoodclauses,nbtotalgood,precisionGood,recallGood,FGood,nbbadclause,nbtotalbad,precisionBad,recallBad,FBad,accuracy)
c additional predictionFinallLBD 40 1388318 210923 0.15 1.00 0.26 14168 1191563 1.00 0.01 0.02 0.16 (nbgoodclauses,nbtotalgood,precisionGood,recallGood,FGood,nbbadclause,nbtotalbad,precisionBad,recallBad,FBad,accuracy)
c additional predictionSize 1 77 210923 0.84 0.00 0.00 1402409 1191563 0.85 5.65 1.48 0.85 (nbgoodclauses,nbtotalgood,precisionGood,recallGood,FGood,nbbadclause,nbtotalbad,precisionBad,recallBad,FBad,accuracy)
c additional predictionSize 2 2595 210923 0.83 0.01 0.02 1399891 1191563 0.85 5.65 1.48 0.85 (nbgoodclauses,nbtotalgood,precisionGood,recallGood,FGood,nbbadclause,nbtotalbad,precisionBad,recallBad,FBad,accuracy)
c additional predictionSize 3 16850 210923 0.78 0.06 0.12 1385636 1191563 0.86 5.63 1.49 0.86 (nbgoodclauses,nbtotalgood,precisionGood,recallGood,FGood,nbbadclause,nbtotalbad,precisionBad,recallBad,FBad,accuracy)
c additional predictionSize 4 22720 210923 0.69 0.07 0.13 1379766 1191563 0.86 5.62 1.49 0.86 (nbgoodclauses,nbtotalgood,precisionGood,recallGood,FGood,nbbadclause,nbtotalbad,precisionBad,recallBad,FBad,accuracy)
c additional predictionSize 5 28074 210923 0.64 0.09 0.15 1374412 1191563 0.86 5.60 1.49 0.86 (nbgoodclauses,nbtotalgood,precisionGood,recallGood,FGood,nbbadclause,nbtotalbad,precisionBad,recallBad,FBad,accuracy)
c additional predictionSize 6 33375 210923 0.61 0.10 0.17 1369111 1191563 0.86 5.59 1.49 0.85 (nbgoodclauses,nbtotalgood,precisionGood,recallGood,FGood,nbbadclause,nbtotalbad,precisionBad,recallBad,FBad,accuracy)
c additional predictionSize 7 39187 210923 0.59 0.11 0.18 1363299 1191563 0.86 5.57 1.49 0.85 (nbgoodclauses,nbtotalgood,precisionGood,recallGood,FGood,nbbadclause,nbtotalbad,precisionBad,recallBad,FBad,accuracy)
c additional predictionSize 8 46278 210923 0.56 0.12 0.20 1356208 1191563 0.86 5.55 1.49 0.85 (nbgoodclauses,nbtotalgood,precisionGood,recallGood,FGood,nbbadclause,nbtotalbad,precisionBad,recallBad,FBad,accuracy)
c additional predictionSize 10 64466 210923 0.51 0.15 0.24 1338020 1191563 0.87 5.50 1.50 0.85 (nbgoodclauses,nbtotalgood,precisionGood,recallGood,FGood,nbbadclause,nbtotalbad,precisionBad,recallBad,FBad,accuracy)
c additional predictionSize 14 121724 210923 0.42 0.24 0.31 1280762 1191563 0.88 5.32 1.50 0.84 (nbgoodclauses,nbtotalgood,precisionGood,recallGood,FGood,nbbadclause,nbtotalbad,precisionBad,recallBad,FBad,accuracy)
c additional predictionSize 18 220086 210923 0.35 0.36 0.35 1182400 1191563 0.89 4.97 1.50 0.80 (nbgoodclauses,nbtotalgood,precisionGood,recallGood,FGood,nbbadclause,nbtotalbad,precisionBad,recallBad,FBad,accuracy)
c additional predictionSize 22 285725 210923 0.31 0.42 0.36 1116761 1191563 0.89 4.72 1.50 0.77 (nbgoodclauses,nbtotalgood,precisionGood,recallGood,FGood,nbbadclause,nbtotalbad,precisionBad,recallBad,FBad,accuracy)
c additional predictionSize 30 400547 210923 0.27 0.52 0.36 1001939 1191563 0.90 4.27 1.49 0.72 (nbgoodclauses,nbtotalgood,precisionGood,recallGood,FGood,nbbadclause,nbtotalbad,precisionBad,recallBad,FBad,accuracy)
c additional predictionSize 40 532699 210923 0.24 0.60 0.34 869787 1191563 0.90 3.73 1.45 0.65 (nbgoodclauses,nbtotalgood,precisionGood,recallGood,FGood,nbbadclause,nbtotalbad,precisionBad,recallBad,FBad,accuracy)
c additional predictionAge 1 45769 210923 0.33 0.07 0.12 1356717 1191563 0.86 5.50 1.48 0.84 (nbgoodclauses,nbtotalgood,precisionGood,recallGood,FGood,nbbadclause,nbtotalbad,precisionBad,recallBad,FBad,accuracy)
c additional predictionAge 10 45774 210923 0.33 0.07 0.12 1356712 1191563 0.86 5.50 1.48 0.84 (nbgoodclauses,nbtotalgood,precisionGood,recallGood,FGood,nbbadclause,nbtotalbad,precisionBad,recallBad,FBad,accuracy)
c additional predictionAge 25 48992 210923 0.32 0.07 0.12 1353494 1191563 0.86 5.49 1.48 0.84 (nbgoodclauses,nbtotalgood,precisionGood,recallGood,FGood,nbbadclause,nbtotalbad,precisionBad,recallBad,FBad,accuracy)
c additional predictionAge 50 63645 210923 0.27 0.08 0.13 1338841 1191563 0.86 5.43 1.48 0.83 (nbgoodclauses,nbtotalgood,precisionGood,recallGood,FGood,nbbadclause,nbtotalbad,precisionBad,recallBad,FBad,accuracy)
c additional predictionAge 100 71663 210923 0.25 0.09 0.13 1330823 1191563 0.86 5.40 1.48 0.82 (nbgoodclauses,nbtotalgood,precisionGood,recallGood,FGood,nbbadclause,nbtotalbad,precisionBad,recallBad,FBad,accuracy)
c additional predictionAge 250 82519 210923 0.24 0.09 0.14 1319967 1191563 0.86 5.35 1.47 0.82 (nbgoodclauses,nbtotalgood,precisionGood,recallGood,FGood,nbbadclause,nbtotalbad,precisionBad,recallBad,FBad,accuracy)
c additional predictionAge 500 91246 210923 0.23 0.10 0.14 1311240 1191563 0.86 5.32 1.47 0.81 (nbgoodclauses,nbtotalgood,precisionGood,recallGood,FGood,nbbadclause,nbtotalbad,precisionBad,recallBad,FBad,accuracy)
c additional predictionAge 1000 99354 210923 0.23 0.11 0.15 1303132 1191563 0.86 5.29 1.47 0.81 (nbgoodclauses,nbtotalgood,precisionGood,recallGood,FGood,nbbadclause,nbtotalbad,precisionBad,recallBad,FBad,accuracy)
c additional predictionAge 2500 110247 210923 0.22 0.12 0.15 1292239 1191563 0.86 5.24 1.47 0.81 (nbgoodclauses,nbtotalgood,precisionGood,recallGood,FGood,nbbadclause,nbtotalbad,precisionBad,recallBad,FBad,accuracy)
c additional predictionAge 5000 118993 210923 0.22 0.13 0.16 1283493 1191563 0.86 5.21 1.47 0.80 (nbgoodclauses,nbtotalgood,precisionGood,recallGood,FGood,nbbadclause,nbtotalbad,precisionBad,recallBad,FBad,accuracy)
c additional predictionAge 10000 129644 210923 0.23 0.14 0.17 1272842 1191563 0.86 5.17 1.47 0.80 (nbgoodclauses,nbtotalgood,precisionGood,recallGood,FGood,nbbadclause,nbtotalbad,precisionBad,recallBad,FBad,accuracy)
c additional predictionAge 25000 152277 210923 0.23 0.16 0.19 1250209 1191563 0.86 5.09 1.47 0.79 (nbgoodclauses,nbtotalgood,precisionGood,recallGood,FGood,nbbadclause,nbtotalbad,precisionBad,recallBad,FBad,accuracy)
c additional predictionAge 50000 186623 210923 0.22 0.20 0.21 1215863 1191563 0.86 4.96 1.47 0.78 (nbgoodclauses,nbtotalgood,precisionGood,recallGood,FGood,nbbadclause,nbtotalbad,precisionBad,recallBad,FBad,accuracy)
c additional predictionAge 100000 250086 210923 0.22 0.26 0.24 1152400 1191563 0.86 4.72 1.46 0.75 (nbgoodclauses,nbtotalgood,precisionGood,recallGood,FGood,nbbadclause,nbtotalbad,precisionBad,recallBad,FBad,accuracy)
c additional predictionTicks 1 47391 210923 0.32 0.07 0.12 1355095 1191563 0.86 5.50 1.48 0.84 (nbgoodclauses,nbtotalgood,precisionGood,recallGood,FGood,nbbadclause,nbtotalbad,precisionBad,recallBad,FBad,accuracy)
c additional predictionTicks 10 51598 210923 0.31 0.08 0.12 1350888 1191563 0.86 5.48 1.48 0.84 (nbgoodclauses,nbtotalgood,precisionGood,recallGood,FGood,nbbadclause,nbtotalbad,precisionBad,recallBad,FBad,accuracy)
c additional predictionTicks 25 98002 210923 0.26 0.12 0.16 1304484 1191563 0.86 5.30 1.48 0.82 (nbgoodclauses,nbtotalgood,precisionGood,recallGood,FGood,nbbadclause,nbtotalbad,precisionBad,recallBad,FBad,accuracy)
c additional predictionTicks 50 159153 210923 0.22 0.17 0.19 1243333 1191563 0.86 5.06 1.47 0.79 (nbgoodclauses,nbtotalgood,precisionGood,recallGood,FGood,nbbadclause,nbtotalbad,precisionBad,recallBad,FBad,accuracy)
c additional predictionTicks 100 208284 210923 0.21 0.21 0.21 1194202 1191563 0.86 4.87 1.46 0.76 (nbgoodclauses,nbtotalgood,precisionGood,recallGood,FGood,nbbadclause,nbtotalbad,precisionBad,recallBad,FBad,accuracy)
c additional predictionTicks 250 290566 210923 0.20 0.27 0.23 1111920 1191563 0.86 4.54 1.45 0.72 (nbgoodclauses,nbtotalgood,precisionGood,recallGood,FGood,nbbadclause,nbtotalbad,precisionBad,recallBad,FBad,accuracy)
c additional predictionTicks 500 367520 210923 0.19 0.34 0.24 1034966 1191563 0.86 4.24 1.44 0.69 (nbgoodclauses,nbtotalgood,precisionGood,recallGood,FGood,nbbadclause,nbtotalbad,precisionBad,recallBad,FBad,accuracy)
c additional predictionTicks 1000 449234 210923 0.19 0.40 0.26 953252 1191563 0.87 3.92 1.42 0.65 (nbgoodclauses,nbtotalgood,precisionGood,recallGood,FGood,nbbadclause,nbtotalbad,precisionBad,recallBad,FBad,accuracy)
c additional predictionTicks 2500 571044 210923 0.18 0.50 0.27 831442 1191563 0.87 3.44 1.39 0.59 (nbgoodclauses,nbtotalgood,precisionGood,recallGood,FGood,nbbadclause,nbtotalbad,precisionBad,recallBad,FBad,accuracy)
c additional predictionTicks 5000 670916 210923 0.18 0.57 0.27 731570 1191563 0.88 3.04 1.36 0.54 (nbgoodclauses,nbtotalgood,precisionGood,recallGood,FGood,nbbadclause,nbtotalbad,precisionBad,recallBad,FBad,accuracy)
c additional predictionTicks 10000 773314 210923 0.18 0.65 0.28 629172 1191563 0.88 2.63 1.32 0.49 (nbgoodclauses,nbtotalgood,precisionGood,recallGood,FGood,nbbadclause,nbtotalbad,precisionBad,recallBad,FBad,accuracy)
c additional predictionTicks 25000 916947 210923 0.17 0.75 0.28 485539 1191563 0.89 2.05 1.24 0.42 (nbgoodclauses,nbtotalgood,precisionGood,recallGood,FGood,nbbadclause,nbtotalbad,precisionBad,recallBad,FBad,accuracy)
c additional predictionTicks 50000 1044567 210923 0.17 0.82 0.28 357919 1191563 0.90 1.52 1.13 0.35 (nbgoodclauses,nbtotalgood,precisionGood,recallGood,FGood,nbbadclause,nbtotalbad,precisionBad,recallBad,FBad,accuracy)
c additional predictionTicks 100000 1187418 210923 0.16 0.90 0.27 215068 1191563 0.90 0.92 0.91 0.27 (nbgoodclauses,nbtotalgood,precisionGood,recallGood,FGood,nbbadclause,nbtotalbad,precisionBad,recallBad,FBad,accuracy)
c additional lifetimeGood 1 16 64 848 51520 213189 451025 787136 997843 1239852 1403324 1403461 (0,1,5,10,25,50,75,90,95,99,100-1,100)
c additional lifetimeBad 1 16 48 528 61167 249952 534772 847785 1049399 1285172 1403481 1403539 (0,1,5,10,25,50,75,90,95,99,100-1,100)
c additional lifetimeBadBad 1 16 16 16 144 24608 230627 505789 696116 1038539 1398564 1399508 (0,1,5,10,25,50,75,90,95,99,100-1,100)
c additional compositionBad 1 2 4 5 11 23 50 93 131 237 981 1044 (0,1,5,10,25,50,75,90,95,99,100-1,100)
c additional compositionBadWithGood 0 0 0 0 2 5 12 22 31 53 212 218 (0,1,5,10,25,50,75,90,95,99,100-1,100)
c additional compositionBadWithBad 0 0 0 0 1 2 4 8 12 24 136 140 (0,1,5,10,25,50,75,90,95,99,100-1,100)
c additional compositionBadWithInitial 0 1 2 3 6 15 34 65 93 175 813 821 (0,1,5,10,25,50,75,90,95,99,100-1,100)
c additional compositionGood 1 2 2 3 5 13 31 71 110 229 874 878 (0,1,5,10,25,50,75,90,95,99,100-1,100)
c additional compositionGoodWithGood 0 0 0 1 2 4 11 23 33 61 208 211 (0,1,5,10,25,50,75,90,95,99,100-1,100)
c additional compositionGoodWithInitial 0 0 1 2 3 8 21 48 78 174 685 696 (0,1,5,10,25,50,75,90,95,99,100-1,100)
c additional propagationGood total 29653143 percentiles 0 1 1 1 1 6 41 185 519 2684 32992 34258 (0,1,5,10,25,50,75,90,95,99,100-1,100)
c additional propagationBad total 10495104 percentiles 1 1 1 1 1 2 3 11 27 123 12965 13660 (0,1,5,10,25,50,75,90,95,99,100-1,100)
c additional resolutionGood total 8273246 percentiles 0 1 1 1 1 4 19 69 162 636 11812 12950 (0,1,5,10,25,50,75,90,95,99,100-1,100)
c additional resolutionBad total 4052905 percentiles 0 0 0 0 1 1 2 6 12 43 1600 2202 (0,1,5,10,25,50,75,90,95,99,100-1,100)
No graph is dumped
c result of core 5 is UNSAT
c One thread has finished
c Core 5 said it finished
c result of core 0 is UNKNOWN
c result of core 2 is UNKNOWN
c result of core 1 is UNKNOWN
c result of core 4 is UNKNOWN
c result of core 7 is UNKNOWN
c result of core 6 is UNKNOWN
c result of core 8 is UNKNOWN
c result of core 10 is UNKNOWN
c result of core 9 is UNKNOWN
c result of core 11 is UNKNOWN
c result of core 12 is UNKNOWN
c result of core 14 is UNKNOWN
c result of core 15 is UNKNOWN
c result of core 13 is UNKNOWN
c result of core 3 is UNKNOWN
c restarts              : 410 (213 conflicts in avg)
c blocked restarts      : 432 (multiple: 126) 
c last block at restart : 410
c nb ReduceDB           : 7
c nb removed Clauses    : 79957
c nb learnts DL2        : 444
c nb learnts size 2     : 220
c nb learnts size 1     : 5
c conflicts             : 87656          (298 /sec)
c decisions             : 177906         (0.00 % random) (606 /sec)
c propagations          : 17282474       (58834 /sec)
c conflict literals     : 9154402        (6.73 % deleted)
c nb reduced Clauses    : 624
c CPU time              : 293.751 s

s INDETERMINATE
