c
c This is glucose-proof 1.0 based on  2.1 --  (thanks to MiniSAT)
c
c EXPERIMENTAL EASY PARALLEL (ROUND ROBIN) VERSION
c
c WARNING: for repeatability, setting FPU to use double precision
c Parallel version 4 solvers created.
c ========================================[ Problem Statistics ]===========================================
c |                                                                                                       |
c |  Number of variables:         18188                                                                   |
c |  Number of clauses:           87504                                                                   |
c |  Parse time:                   0.12 s                                                                 |
c |                                                                                                       |
c ========================================[ MAGIC CONSTANTS ]==============================================
c | Constants are supposed to work well together :-)                                                      |
c | however, if you find better choices, please let us known...                                           |
c |-------------------------------------------------------------------------------------------------------|
c |                                |                                |                                     |
c | - Restarts:                    | - Reduce Clause DB:            | - Minimize Asserting:               |
c |   * LBD Queue    :     50      |   * First     :   4000         |    * size <  30                     |
c |   * Trail  Queue :   5000      |   * Inc       :    300         |    * lbd  <   6                     |
c |   * K            :   0.80      |   * Special   :   1000         |                                     |
c |   * R            :   1.40      |   * Protected :  (lbd)< 30     |                                     |
c |                                |                                |                                     |
c ==================================[ Search Statistics (every  10000 conflicts) ]=========================
c |                                                                                                       |
c |          RESTARTS           |          ORIGINAL         |              LEARNT              | Progress |
c |       NB   Blocked  Avg Cfc |    Vars  Clauses Literals |   Red   Learnts    LBD2  Removed |          |
c =========================================================================================================
c |       65         0      153 |   18111    87504   326703 |     1     7992     1389     4183 |  0.423 % |
c |      113        89      176 |   18104    87504   326703 |     2    12702     2033    12335 |  0.462 % |
c |      184       157      163 |   18099    87504   326703 |     3    14916     2343    21414 |  0.489 % |
c |      231       212      173 |   18095    87504   326703 |     4    14568     2557    32216 |  0.511 % |
c empty clause found by core 1 at conflict 48378
*
c checking the resolution graph...OK
c All useful bySize 121241 clauses, percentiles 0 2 2 2 3 8 25 54 72 108 234 236 (0,1,5,10,25,50,75,90,95,99,100-1,100)
c All useless bySize 160087 clauses, percentiles 0 2 2 2 4 15 44 77 98 141 384 393 (0,1,5,10,25,50,75,90,95,99,100-1,100)
c ProofOnly useful bySize 88142 clauses, percentiles 0 2 3 4 6 15 35 63 80 116 234 236 (0,1,5,10,25,50,75,90,95,99,100-1,100)
c ProofOnly useless bySize 105368 clauses, percentiles 1 3 5 8 15 33 60 89 109 153 384 393 (0,1,5,10,25,50,75,90,95,99,100-1,100)
c All useful byFinalLBD 121241 clauses, percentiles 0 1 1 1 2 3 5 8 10 14 32 33 (0,1,5,10,25,50,75,90,95,99,100-1,100)
c All useless byFinalLBD 160087 clauses, percentiles 0 2 2 2 3 6 10 14 16 23 93 181 (0,1,5,10,25,50,75,90,95,99,100-1,100)
c ProofOnly useful byFinalLBD 88142 clauses, percentiles 0 1 1 1 2 3 6 9 10 14 32 33 (0,1,5,10,25,50,75,90,95,99,100-1,100)
c ProofOnly useless byFinalLBD 105368 clauses, percentiles 1 1 3 3 5 8 11 15 18 25 93 181 (0,1,5,10,25,50,75,90,95,99,100-1,100)
c All useful byInitialLBD 121241 clauses, percentiles 0 2 2 2 3 4 7 9 11 15 32 33 (0,1,5,10,25,50,75,90,95,99,100-1,100)
c All useless byInitialLBD 160087 clauses, percentiles 0 2 2 2 3 6 10 14 17 24 94 181 (0,1,5,10,25,50,75,90,95,99,100-1,100)
c ProofOnly useful byInitialLBD 88142 clauses, percentiles 0 2 2 2 3 5 8 10 12 16 32 33 (0,1,5,10,25,50,75,90,95,99,100-1,100)
c ProofOnly useless byInitialLBD 105368 clauses, percentiles 1 2 3 4 6 8 12 15 18 25 94 181 (0,1,5,10,25,50,75,90,95,99,100-1,100)
c Literals ProofOnly useful 2203170
c Literals ProofOnly useless 4421653
c additional windowsGood 1 1 1 1 1 1 2 3 4 7 51 93 (0,1,5,10,25,50,75,90,95,99,100-1,100)
c additional windowsBad 1 1 1 1 1 2 3 3 5 11 41 41 (0,1,5,10,25,50,75,90,95,99,100-1,100)
c additional 1WindowNoDecision 25322 13924 0.55 20991 9218 0.44 (nbWindowsGood,nbWindowsNoDecisionGood,nbWindowsBad,nbWindowsNoDecisionBad
c additional topclausessize all (10%,5%,1%,top) 78.38 94.66 128.63 236
c additional topclausessize proofonly (10%,5%,1%,top) 81.97 97.92 131.59 236
c additional topclausesinitialLBD all (10%,5%,1%,top) 70.53 87.56 122.34 236
c additional topclausesinitialLBD proofonly (10%,5%,1%,top) 64.23 81.97 117.57 236
c additional topclausesfinalLBD all (10%,5%,1%,top) 57.20 75.71 112.30 236
c additional topclausesfinalLBD proofonly (10%,5%,1%,top) 52.91 71.86 109.10 236
c additional predictionInitialLBD 1 107 88142 0.80 0.00 0.00 193403 105368 0.54 1.20 0.75 0.54 (nbgoodclauses,nbtotalgood,precisionGood,recallGood,FGood,nbbadclause,nbtotalbad,precisionBad,recallBad,FBad,accuracy)
c additional predictionInitialLBD 2 11593 88142 0.87 0.11 0.20 181917 105368 0.57 1.18 0.77 0.59 (nbgoodclauses,nbtotalgood,precisionGood,recallGood,FGood,nbbadclause,nbtotalbad,precisionBad,recallBad,FBad,accuracy)
c additional predictionInitialLBD 3 31052 88142 0.80 0.28 0.42 162458 105368 0.61 1.12 0.79 0.64 (nbgoodclauses,nbtotalgood,precisionGood,recallGood,FGood,nbbadclause,nbtotalbad,precisionBad,recallBad,FBad,accuracy)
c additional predictionInitialLBD 4 52654 88142 0.71 0.43 0.53 140856 105368 0.64 1.02 0.79 0.66 (nbgoodclauses,nbtotalgood,precisionGood,recallGood,FGood,nbbadclause,nbtotalbad,precisionBad,recallBad,FBad,accuracy)
c additional predictionInitialLBD 5 73610 88142 0.66 0.55 0.60 119900 105368 0.67 0.91 0.77 0.67 (nbgoodclauses,nbtotalgood,precisionGood,recallGood,FGood,nbbadclause,nbtotalbad,precisionBad,recallBad,FBad,accuracy)
c additional predictionInitialLBD 6 92675 88142 0.63 0.66 0.64 100835 105368 0.70 0.80 0.75 0.67 (nbgoodclauses,nbtotalgood,precisionGood,recallGood,FGood,nbbadclause,nbtotalbad,precisionBad,recallBad,FBad,accuracy)
c additional predictionInitialLBD 7 110739 88142 0.60 0.75 0.66 82771 105368 0.73 0.69 0.71 0.66 (nbgoodclauses,nbtotalgood,precisionGood,recallGood,FGood,nbbadclause,nbtotalbad,precisionBad,recallBad,FBad,accuracy)
c additional predictionInitialLBD 8 126664 88142 0.57 0.82 0.67 66846 105368 0.76 0.58 0.66 0.64 (nbgoodclauses,nbtotalgood,precisionGood,recallGood,FGood,nbbadclause,nbtotalbad,precisionBad,recallBad,FBad,accuracy)
c additional predictionInitialLBD 10 151605 88142 0.53 0.91 0.67 41905 105368 0.82 0.39 0.53 0.59 (nbgoodclauses,nbtotalgood,precisionGood,recallGood,FGood,nbbadclause,nbtotalbad,precisionBad,recallBad,FBad,accuracy)
c additional predictionInitialLBD 14 178817 88142 0.49 0.98 0.65 14693 105368 0.90 0.15 0.26 0.52 (nbgoodclauses,nbtotalgood,precisionGood,recallGood,FGood,nbbadclause,nbtotalbad,precisionBad,recallBad,FBad,accuracy)
c additional predictionInitialLBD 18 188296 88142 0.47 1.00 0.64 5214 105368 0.94 0.06 0.11 0.48 (nbgoodclauses,nbtotalgood,precisionGood,recallGood,FGood,nbbadclause,nbtotalbad,precisionBad,recallBad,FBad,accuracy)
c additional predictionInitialLBD 22 191376 88142 0.46 1.00 0.63 2134 105368 0.97 0.02 0.05 0.47 (nbgoodclauses,nbtotalgood,precisionGood,recallGood,FGood,nbbadclause,nbtotalbad,precisionBad,recallBad,FBad,accuracy)
c additional predictionInitialLBD 30 193047 88142 0.46 1.00 0.63 463 105368 0.99 0.01 0.01 0.46 (nbgoodclauses,nbtotalgood,precisionGood,recallGood,FGood,nbbadclause,nbtotalbad,precisionBad,recallBad,FBad,accuracy)
c additional predictionInitialLBD 40 193323 88142 0.46 1.00 0.63 187 105368 1.00 0.00 0.00 0.46 (nbgoodclauses,nbtotalgood,precisionGood,recallGood,FGood,nbbadclause,nbtotalbad,precisionBad,recallBad,FBad,accuracy)
c additional predictionFinallLBD 1 16748 88142 0.94 0.18 0.30 176762 105368 0.59 0.99 0.74 0.62 (nbgoodclauses,nbtotalgood,precisionGood,recallGood,FGood,nbbadclause,nbtotalbad,precisionBad,recallBad,FBad,accuracy)
c additional predictionFinallLBD 2 39944 88142 0.88 0.40 0.55 153566 105368 0.66 0.96 0.78 0.70 (nbgoodclauses,nbtotalgood,precisionGood,recallGood,FGood,nbbadclause,nbtotalbad,precisionBad,recallBad,FBad,accuracy)
c additional predictionFinallLBD 3 58334 88142 0.81 0.54 0.65 135176 105368 0.70 0.90 0.78 0.73 (nbgoodclauses,nbtotalgood,precisionGood,recallGood,FGood,nbbadclause,nbtotalbad,precisionBad,recallBad,FBad,accuracy)
c additional predictionFinallLBD 4 78317 88142 0.73 0.65 0.69 115193 105368 0.73 0.80 0.76 0.73 (nbgoodclauses,nbtotalgood,precisionGood,recallGood,FGood,nbbadclause,nbtotalbad,precisionBad,recallBad,FBad,accuracy)
c additional predictionFinallLBD 5 96152 88142 0.67 0.74 0.70 97358 105368 0.76 0.70 0.73 0.72 (nbgoodclauses,nbtotalgood,precisionGood,recallGood,FGood,nbbadclause,nbtotalbad,precisionBad,recallBad,FBad,accuracy)
c additional predictionFinallLBD 6 112139 88142 0.63 0.80 0.71 81371 105368 0.79 0.61 0.69 0.70 (nbgoodclauses,nbtotalgood,precisionGood,recallGood,FGood,nbbadclause,nbtotalbad,precisionBad,recallBad,FBad,accuracy)
c additional predictionFinallLBD 7 126551 88142 0.60 0.86 0.71 66959 105368 0.81 0.52 0.63 0.67 (nbgoodclauses,nbtotalgood,precisionGood,recallGood,FGood,nbbadclause,nbtotalbad,precisionBad,recallBad,FBad,accuracy)
c additional predictionFinallLBD 8 139092 88142 0.57 0.90 0.70 54418 105368 0.84 0.43 0.57 0.65 (nbgoodclauses,nbtotalgood,precisionGood,recallGood,FGood,nbbadclause,nbtotalbad,precisionBad,recallBad,FBad,accuracy)
c additional predictionFinallLBD 10 158935 88142 0.53 0.95 0.68 34575 105368 0.88 0.29 0.44 0.59 (nbgoodclauses,nbtotalgood,precisionGood,recallGood,FGood,nbbadclause,nbtotalbad,precisionBad,recallBad,FBad,accuracy)
c additional predictionFinallLBD 14 180939 88142 0.48 0.99 0.65 12571 105368 0.94 0.11 0.20 0.51 (nbgoodclauses,nbtotalgood,precisionGood,recallGood,FGood,nbbadclause,nbtotalbad,precisionBad,recallBad,FBad,accuracy)
c additional predictionFinallLBD 18 188853 88142 0.47 1.00 0.64 4657 105368 0.97 0.04 0.08 0.48 (nbgoodclauses,nbtotalgood,precisionGood,recallGood,FGood,nbbadclause,nbtotalbad,precisionBad,recallBad,FBad,accuracy)
c additional predictionFinallLBD 22 191575 88142 0.46 1.00 0.63 1935 105368 0.98 0.02 0.04 0.47 (nbgoodclauses,nbtotalgood,precisionGood,recallGood,FGood,nbbadclause,nbtotalbad,precisionBad,recallBad,FBad,accuracy)
c additional predictionFinallLBD 30 193065 88142 0.46 1.00 0.63 445 105368 0.99 0.00 0.01 0.46 (nbgoodclauses,nbtotalgood,precisionGood,recallGood,FGood,nbbadclause,nbtotalbad,precisionBad,recallBad,FBad,accuracy)
c additional predictionFinallLBD 40 193327 88142 0.46 1.00 0.63 183 105368 1.00 0.00 0.00 0.46 (nbgoodclauses,nbtotalgood,precisionGood,recallGood,FGood,nbbadclause,nbtotalbad,precisionBad,recallBad,FBad,accuracy)
c additional predictionSize 1 107 88142 0.80 0.00 0.00 193403 105368 0.54 1.20 0.75 0.54 (nbgoodclauses,nbtotalgood,precisionGood,recallGood,FGood,nbbadclause,nbtotalbad,precisionBad,recallBad,FBad,accuracy)
c additional predictionSize 2 2651 88142 0.92 0.03 0.05 190859 105368 0.55 1.19 0.75 0.56 (nbgoodclauses,nbtotalgood,precisionGood,recallGood,FGood,nbbadclause,nbtotalbad,precisionBad,recallBad,FBad,accuracy)
c additional predictionSize 3 9059 88142 0.87 0.09 0.16 184451 105368 0.56 1.18 0.76 0.58 (nbgoodclauses,nbtotalgood,precisionGood,recallGood,FGood,nbbadclause,nbtotalbad,precisionBad,recallBad,FBad,accuracy)
c additional predictionSize 4 16661 88142 0.82 0.15 0.26 176849 105368 0.58 1.16 0.77 0.60 (nbgoodclauses,nbtotalgood,precisionGood,recallGood,FGood,nbbadclause,nbtotalbad,precisionBad,recallBad,FBad,accuracy)
c additional predictionSize 5 24345 88142 0.78 0.22 0.34 169165 105368 0.59 1.14 0.78 0.62 (nbgoodclauses,nbtotalgood,precisionGood,recallGood,FGood,nbbadclause,nbtotalbad,precisionBad,recallBad,FBad,accuracy)
c additional predictionSize 6 31238 88142 0.75 0.27 0.39 162272 105368 0.60 1.11 0.78 0.63 (nbgoodclauses,nbtotalgood,precisionGood,recallGood,FGood,nbbadclause,nbtotalbad,precisionBad,recallBad,FBad,accuracy)
c additional predictionSize 7 37381 88142 0.73 0.31 0.44 156129 105368 0.61 1.08 0.78 0.63 (nbgoodclauses,nbtotalgood,precisionGood,recallGood,FGood,nbbadclause,nbtotalbad,precisionBad,recallBad,FBad,accuracy)
c additional predictionSize 8 43405 88142 0.71 0.35 0.47 150105 105368 0.62 1.05 0.78 0.64 (nbgoodclauses,nbtotalgood,precisionGood,recallGood,FGood,nbbadclause,nbtotalbad,precisionBad,recallBad,FBad,accuracy)
c additional predictionSize 10 53069 88142 0.68 0.41 0.51 140441 105368 0.63 1.00 0.77 0.64 (nbgoodclauses,nbtotalgood,precisionGood,recallGood,FGood,nbbadclause,nbtotalbad,precisionBad,recallBad,FBad,accuracy)
c additional predictionSize 14 69196 88142 0.64 0.50 0.56 124314 105368 0.65 0.91 0.76 0.64 (nbgoodclauses,nbtotalgood,precisionGood,recallGood,FGood,nbbadclause,nbtotalbad,precisionBad,recallBad,FBad,accuracy)
c additional predictionSize 18 82433 88142 0.61 0.57 0.59 111077 105368 0.66 0.83 0.73 0.64 (nbgoodclauses,nbtotalgood,precisionGood,recallGood,FGood,nbbadclause,nbtotalbad,precisionBad,recallBad,FBad,accuracy)
c additional predictionSize 22 93582 88142 0.59 0.62 0.60 99928 105368 0.67 0.76 0.71 0.63 (nbgoodclauses,nbtotalgood,precisionGood,recallGood,FGood,nbbadclause,nbtotalbad,precisionBad,recallBad,FBad,accuracy)
c additional predictionSize 30 112177 88142 0.56 0.71 0.62 81333 105368 0.68 0.63 0.66 0.61 (nbgoodclauses,nbtotalgood,precisionGood,recallGood,FGood,nbbadclause,nbtotalbad,precisionBad,recallBad,FBad,accuracy)
c additional predictionSize 40 131355 88142 0.53 0.79 0.63 62155 105368 0.70 0.49 0.58 0.58 (nbgoodclauses,nbtotalgood,precisionGood,recallGood,FGood,nbbadclause,nbtotalbad,precisionBad,recallBad,FBad,accuracy)
c additional predictionAge 1 12841 88142 0.62 0.09 0.16 180669 105368 0.56 1.14 0.75 0.56 (nbgoodclauses,nbtotalgood,precisionGood,recallGood,FGood,nbbadclause,nbtotalbad,precisionBad,recallBad,FBad,accuracy)
c additional predictionAge 10 15521 88142 0.59 0.10 0.18 177989 105368 0.56 1.12 0.74 0.56 (nbgoodclauses,nbtotalgood,precisionGood,recallGood,FGood,nbbadclause,nbtotalbad,precisionBad,recallBad,FBad,accuracy)
c additional predictionAge 25 17193 88142 0.58 0.11 0.19 176317 105368 0.56 1.11 0.74 0.56 (nbgoodclauses,nbtotalgood,precisionGood,recallGood,FGood,nbbadclause,nbtotalbad,precisionBad,recallBad,FBad,accuracy)
c additional predictionAge 50 18061 88142 0.57 0.12 0.19 175449 105368 0.56 1.11 0.74 0.56 (nbgoodclauses,nbtotalgood,precisionGood,recallGood,FGood,nbbadclause,nbtotalbad,precisionBad,recallBad,FBad,accuracy)
c additional predictionAge 100 18862 88142 0.56 0.12 0.20 174648 105368 0.56 1.10 0.74 0.56 (nbgoodclauses,nbtotalgood,precisionGood,recallGood,FGood,nbbadclause,nbtotalbad,precisionBad,recallBad,FBad,accuracy)
c additional predictionAge 250 19753 88142 0.56 0.13 0.21 173757 105368 0.56 1.10 0.74 0.56 (nbgoodclauses,nbtotalgood,precisionGood,recallGood,FGood,nbbadclause,nbtotalbad,precisionBad,recallBad,FBad,accuracy)
c additional predictionAge 500 20426 88142 0.56 0.13 0.21 173084 105368 0.56 1.09 0.74 0.56 (nbgoodclauses,nbtotalgood,precisionGood,recallGood,FGood,nbbadclause,nbtotalbad,precisionBad,recallBad,FBad,accuracy)
c additional predictionAge 1000 21343 88142 0.56 0.14 0.22 172167 105368 0.56 1.09 0.74 0.56 (nbgoodclauses,nbtotalgood,precisionGood,recallGood,FGood,nbbadclause,nbtotalbad,precisionBad,recallBad,FBad,accuracy)
c additional predictionAge 2500 23685 88142 0.56 0.15 0.24 169825 105368 0.56 1.08 0.74 0.56 (nbgoodclauses,nbtotalgood,precisionGood,recallGood,FGood,nbbadclause,nbtotalbad,precisionBad,recallBad,FBad,accuracy)
c additional predictionAge 5000 27317 88142 0.55 0.17 0.26 166193 105368 0.56 1.06 0.73 0.56 (nbgoodclauses,nbtotalgood,precisionGood,recallGood,FGood,nbbadclause,nbtotalbad,precisionBad,recallBad,FBad,accuracy)
c additional predictionAge 10000 34481 88142 0.55 0.22 0.31 159029 105368 0.57 1.02 0.73 0.56 (nbgoodclauses,nbtotalgood,precisionGood,recallGood,FGood,nbbadclause,nbtotalbad,precisionBad,recallBad,FBad,accuracy)
c additional predictionAge 25000 51432 88142 0.54 0.31 0.40 142078 105368 0.57 0.93 0.71 0.56 (nbgoodclauses,nbtotalgood,precisionGood,recallGood,FGood,nbbadclause,nbtotalbad,precisionBad,recallBad,FBad,accuracy)
c additional predictionAge 50000 77057 88142 0.52 0.45 0.48 116453 105368 0.58 0.77 0.67 0.56 (nbgoodclauses,nbtotalgood,precisionGood,recallGood,FGood,nbbadclause,nbtotalbad,precisionBad,recallBad,FBad,accuracy)
c additional predictionAge 100000 123498 88142 0.48 0.68 0.56 70012 105368 0.59 0.47 0.52 0.52 (nbgoodclauses,nbtotalgood,precisionGood,recallGood,FGood,nbbadclause,nbtotalbad,precisionBad,recallBad,FBad,accuracy)
c additional predictionTicks 1 12864 88142 0.62 0.09 0.16 180646 105368 0.56 1.14 0.75 0.56 (nbgoodclauses,nbtotalgood,precisionGood,recallGood,FGood,nbbadclause,nbtotalbad,precisionBad,recallBad,FBad,accuracy)
c additional predictionTicks 10 22786 88142 0.59 0.15 0.24 170724 105368 0.56 1.09 0.74 0.56 (nbgoodclauses,nbtotalgood,precisionGood,recallGood,FGood,nbbadclause,nbtotalbad,precisionBad,recallBad,FBad,accuracy)
c additional predictionTicks 25 30528 88142 0.57 0.20 0.29 162982 105368 0.57 1.05 0.73 0.57 (nbgoodclauses,nbtotalgood,precisionGood,recallGood,FGood,nbbadclause,nbtotalbad,precisionBad,recallBad,FBad,accuracy)
c additional predictionTicks 50 36717 88142 0.56 0.23 0.33 156793 105368 0.57 1.01 0.73 0.57 (nbgoodclauses,nbtotalgood,precisionGood,recallGood,FGood,nbbadclause,nbtotalbad,precisionBad,recallBad,FBad,accuracy)
c additional predictionTicks 100 44248 88142 0.55 0.28 0.37 149262 105368 0.57 0.97 0.72 0.57 (nbgoodclauses,nbtotalgood,precisionGood,recallGood,FGood,nbbadclause,nbtotalbad,precisionBad,recallBad,FBad,accuracy)
c additional predictionTicks 250 55297 88142 0.54 0.34 0.41 138213 105368 0.58 0.90 0.70 0.57 (nbgoodclauses,nbtotalgood,precisionGood,recallGood,FGood,nbbadclause,nbtotalbad,precisionBad,recallBad,FBad,accuracy)
c additional predictionTicks 500 65552 88142 0.53 0.39 0.45 127958 105368 0.58 0.85 0.69 0.56 (nbgoodclauses,nbtotalgood,precisionGood,recallGood,FGood,nbbadclause,nbtotalbad,precisionBad,recallBad,FBad,accuracy)
c additional predictionTicks 1000 78210 88142 0.52 0.47 0.49 115300 105368 0.59 0.77 0.67 0.56 (nbgoodclauses,nbtotalgood,precisionGood,recallGood,FGood,nbbadclause,nbtotalbad,precisionBad,recallBad,FBad,accuracy)
c additional predictionTicks 2500 101779 88142 0.51 0.59 0.55 91731 105368 0.61 0.63 0.62 0.56 (nbgoodclauses,nbtotalgood,precisionGood,recallGood,FGood,nbbadclause,nbtotalbad,precisionBad,recallBad,FBad,accuracy)
c additional predictionTicks 5000 124612 88142 0.50 0.71 0.59 68898 105368 0.63 0.49 0.55 0.54 (nbgoodclauses,nbtotalgood,precisionGood,recallGood,FGood,nbbadclause,nbtotalbad,precisionBad,recallBad,FBad,accuracy)
c additional predictionTicks 10000 150050 88142 0.49 0.83 0.61 43460 105368 0.65 0.32 0.43 0.52 (nbgoodclauses,nbtotalgood,precisionGood,recallGood,FGood,nbbadclause,nbtotalbad,precisionBad,recallBad,FBad,accuracy)
c additional predictionTicks 25000 178416 88142 0.47 0.95 0.63 15094 105368 0.69 0.12 0.20 0.49 (nbgoodclauses,nbtotalgood,precisionGood,recallGood,FGood,nbbadclause,nbtotalbad,precisionBad,recallBad,FBad,accuracy)
c additional predictionTicks 50000 189601 88142 0.46 0.99 0.63 3909 105368 0.71 0.03 0.06 0.46 (nbgoodclauses,nbtotalgood,precisionGood,recallGood,FGood,nbbadclause,nbtotalbad,precisionBad,recallBad,FBad,accuracy)
c additional predictionTicks 100000 193054 88142 0.46 1.00 0.63 456 105368 0.73 0.00 0.01 0.46 (nbgoodclauses,nbtotalgood,precisionGood,recallGood,FGood,nbbadclause,nbtotalbad,precisionBad,recallBad,FBad,accuracy)
c additional lifetimeGood 1 4 16 444 9067 36191 84471 129955 150460 174587 193527 193609 (0,1,5,10,25,50,75,90,95,99,100-1,100)
c additional lifetimeBad 1 4 12 116 8495 36927 85184 127742 147396 171385 193746 193750 (0,1,5,10,25,50,75,90,95,99,100-1,100)
c additional lifetimeBadBad 3 4 4 4 8 28 1663 19720 37600 83396 183809 184123 (0,1,5,10,25,50,75,90,95,99,100-1,100)
c additional compositionBad 1 2 4 5 11 25 57 108 145 235 1120 1526 (0,1,5,10,25,50,75,90,95,99,100-1,100)
c additional compositionBadWithGood 0 0 0 1 3 7 16 30 41 66 357 373 (0,1,5,10,25,50,75,90,95,99,100-1,100)
c additional compositionBadWithBad 0 0 0 0 0 1 2 4 5 7 24 25 (0,1,5,10,25,50,75,90,95,99,100-1,100)
c additional compositionBadWithInitial 0 0 2 3 7 16 39 77 105 174 841 1299 (0,1,5,10,25,50,75,90,95,99,100-1,100)
c additional compositionGood 1 2 3 3 6 14 35 77 113 204 974 1143 (0,1,5,10,25,50,75,90,95,99,100-1,100)
c additional compositionGoodWithGood 0 0 0 1 2 5 12 25 36 65 301 349 (0,1,5,10,25,50,75,90,95,99,100-1,100)
c additional compositionGoodWithInitial 0 0 1 2 4 9 23 52 78 146 677 948 (0,1,5,10,25,50,75,90,95,99,100-1,100)
c additional propagationGood total 6337073 percentiles 0 1 1 1 2 6 36 165 376 1037 6375 6433 (0,1,5,10,25,50,75,90,95,99,100-1,100)
c additional propagationBad total 602680 percentiles 1 1 1 1 1 1 3 7 13 48 7734 8524 (0,1,5,10,25,50,75,90,95,99,100-1,100)
c additional resolutionGood total 1967899 percentiles 0 1 1 1 1 4 13 47 103 329 1413 1758 (0,1,5,10,25,50,75,90,95,99,100-1,100)
c additional resolutionBad total 158085 percentiles 0 0 0 0 1 1 2 3 5 10 80 81 (0,1,5,10,25,50,75,90,95,99,100-1,100)
No graph is dumped
c result of core 1 is UNSAT
c One thread has finished
c Core 1 said it finished
c result of core 2 is UNKNOWN
c result of core 0 is UNKNOWN
c result of core 3 is UNKNOWN
c restarts              : 266 (181 conflicts in avg)
c blocked restarts      : 242 (multiple: 88) 
c last block at restart : 254
c nb ReduceDB           : 4
c nb removed Clauses    : 32216
c nb learnts DL2        : 2699
c nb learnts size 2     : 595
c nb learnts size 1     : 30
c conflicts             : 48378          (1661 /sec)
c decisions             : 205929         (0.00 % random) (7070 /sec)
c propagations          : 15122286       (519210 /sec)
c conflict literals     : 1651128        (10.66 % deleted)
c nb reduced Clauses    : 2691
c CPU time              : 29.1256 s

s INDETERMINATE
