c
c This is glucose-proof 1.0 based on  2.1 --  (thanks to MiniSAT)
c
c EXPERIMENTAL EASY PARALLEL (ROUND ROBIN) VERSION
c
c WARNING: for repeatability, setting FPU to use double precision
c Parallel version 1 solvers created.
c ========================================[ Problem Statistics ]===========================================
c |                                                                                                       |
c |  Number of variables:          9362                                                                   |
c |  Number of clauses:           59769                                                                   |
c |  Parse time:                   0.03 s                                                                 |
c |                                                                                                       |
c ========================================[ MAGIC CONSTANTS ]==============================================
c | Constants are supposed to work well together :-)                                                      |
c | however, if you find better choices, please let us known...                                           |
c |-------------------------------------------------------------------------------------------------------|
c |                                |                                |                                     |
c | - Restarts:                    | - Reduce Clause DB:            | - Minimize Asserting:               |
c |   * LBD Queue    :     50      |   * First     :   4000         |    * size <  30                     |
c |   * Trail  Queue :   5000      |   * Inc       :    300         |    * lbd  <   6                     |
c |   * K            :   0.80      |   * Special   :   1000         |                                     |
c |   * R            :   1.40      |   * Protected :  (lbd)< 30     |                                     |
c |                                |                                |                                     |
c ==================================[ Search Statistics (every  10000 conflicts) ]=========================
c |                                                                                                       |
c |          RESTARTS           |          ORIGINAL         |              LEARNT              | Progress |
c |       NB   Blocked  Avg Cfc |    Vars  Clauses Literals |   Red   Learnts    LBD2  Removed |          |
c =========================================================================================================
c |       51         0      196 |    9297    59769   202070 |     1     7961      762     1918 |  0.694 % |
c |      155        34      129 |    9256    59769   202070 |     3     6948     1209    12842 |  1.133 % |
c |      247        63      121 |    9241    59769   202070 |     3    16911     1498    12842 |  1.293 % |
c |      373        70      107 |    9227    59769   202070 |     4    17641     1651    22081 |  1.442 % |
c |      471        89      106 |    9204    59769   202070 |     5    15863     1827    33817 |  1.688 % |
c |      583       105      102 |    9182    59769   202070 |     5    25823     1987    33817 |  1.923 % |
c |      700       118      100 |    9164    59769   202070 |     6    21425     2075    48198 |  2.115 % |
c |      805       128       99 |    9153    59769   202070 |     6    31398     2160    48198 |  2.233 % |
c |      917       134       98 |    9142    59769   202070 |     7    24407     2275    65168 |  2.350 % |
c |      975       160      102 |    9138    59769   202070 |     7    34399     2321    65168 |  2.393 % |
c |     1080       168      101 |    9133    59769   202070 |     8    24818     2403    84735 |  2.446 % |
c |     1195       177      100 |    9126    59769   202070 |     8    34805     2482    84735 |  2.521 % |
c |     1295       182      100 |    9125    59769   202070 |     9    22610     2522   106927 |  2.532 % |
c |     1393       190      100 |    9121    59769   202070 |     9    32596     2566   106927 |  2.575 % |
c |     1482       192      101 |    9116    59769   202070 |     9    42584     2605   106927 |  2.628 % |
c |     1573       198      101 |    9110    59769   202070 |    10    27811     2649   131690 |  2.692 % |
c |     1654       203      102 |    9106    59769   202070 |    10    37799     2676   131690 |  2.735 % |
c |     1758       205      102 |    9097    59769   202070 |    10    47780     2697   131690 |  2.831 % |
c |     1870       206      101 |    9085    59769   202070 |    11    30402     2713   159053 |  2.959 % |
c |     1986       206      100 |    9081    59769   202070 |    11    40380     2740   159053 |  3.002 % |
c |     2067       206      101 |    9078    59769   202070 |    11    50367     2750   159053 |  3.034 % |
c |     2140       210      102 |    9072    59769   202070 |    12    30395     2787   189020 |  3.098 % |
c |     2282       210      100 |    9071    59769   202070 |    12    40386     2801   189020 |  3.108 % |
c |     2326       224      103 |    9069    59769   202070 |    12    50378     2825   189020 |  3.130 % |
c |     2378       225      105 |    9065    59769   202070 |    12    60373     2851   189020 |  3.173 % |
c |     2455       239      105 |    9061    59769   202070 |    13    37796     2879   221595 |  3.215 % |
c |     2529       248      106 |    9059    59769   202070 |    13    47787     2904   221595 |  3.236 % |
c |     2687       249      104 |    9059    59769   202070 |    13    57786     2910   221595 |  3.237 % |
c |     2844       249      101 |    9057    59769   202070 |    13    67783     2918   221595 |  3.258 % |
c |     2943       249      101 |    9057    59769   202070 |    14    42604     2925   256773 |  3.258 % |
c |     3004       250      103 |    9057    59769   202070 |    14    52604     2930   256773 |  3.258 % |
c |     3140       250      101 |    9050    59769   202070 |    14    62602     2932   256773 |  3.333 % |
c |     3210       251      102 |    9050    59769   202070 |    14    72602     2938   256773 |  3.333 % |
c |     3273       251      103 |    9049    59769   202070 |    15    44794     2961   294569 |  3.343 % |
c |     3366       257      103 |    9041    59769   202070 |    15    54769     2979   294569 |  3.429 % |
c |     3416       258      105 |    9041    59769   202070 |    15    64769     2988   294569 |  3.429 % |
c |     3531       263      104 |    9041    59769   202070 |    15    74769     2991   294569 |  3.429 % |
c |     3652       265      104 |    9041    59769   202070 |    16    44401     2995   334937 |  3.429 % |
c |     3825       265      101 |    9041    59769   202070 |    16    54401     2996   334937 |  3.429 % |
c |     3928       265      101 |    9041    59769   202070 |    16    64401     3002   334937 |  3.429 % |
c |     3972       265      103 |    9039    59769   202070 |    16    74397     3010   334937 |  3.450 % |
c |     4023       265      104 |    9036    59769   202070 |    16    84394     3021   334937 |  3.483 % |
c |     4038       272      106 |    9031    59769   202070 |    17    51409     3034   377919 |  3.536 % |
c |     4088       272      107 |    9031    59769   202070 |    17    61389     3039   377919 |  3.536 % |
c |     4172       272      107 |    9030    59769   202070 |    17    71387     3048   377919 |  3.546 % |
c |     4227       272      108 |    9030    59769   202070 |    17    81387     3048   377919 |  3.547 % |
c |     4296       278      109 |    9030    59769   202070 |    18    45793     3050   423513 |  3.546 % |
c |     4332       280      110 |    9030    59769   202070 |    18    55793     3058   423513 |  3.547 % |
c |     4362       281      112 |    9028    59769   202070 |    18    65788     3063   423513 |  3.568 % |
c |     4362       281      114 |    9028    59769   202070 |    18    75788     3066   423513 |  3.568 % |
c |     4390       288      116 |    9021    59769   202070 |    18    85766     3079   423513 |  3.643 % |
c |     4487       295      115 |    9020    59769   202070 |    18    95765     3085   423513 |  3.654 % |
c |     4536       295      116 |    9020    59769   202070 |    19    57583     3086   471689 |  3.653 % |
c |     4637       298      116 |    9018    59769   202070 |    19    67573     3097   471689 |  3.675 % |
c |     4685       298      117 |    9016    59769   202070 |    19    77572     3101   471689 |  3.696 % |
c |     4725       299      118 |    9016    59769   202070 |    19    87572     3103   471689 |  3.696 % |
c |     4785       299      119 |    9016    59769   202070 |    19    97567     3105   471689 |  3.696 % |
c |     4816       306      120 |    9012    59769   202070 |    20    56798     3118   522455 |  3.739 % |
c |     4890       309      120 |    9011    59769   202070 |    20    66797     3118   522455 |  3.749 % |
c |     4903       351      122 |    9010    59769   202070 |    20    76796     3135   522455 |  3.760 % |
c |     4924       369      123 |    9009    59769   202070 |    20    86785     3143   522455 |  3.771 % |
c |     4936       371      125 |    9006    59769   202070 |    20    96783     3149   522455 |  3.803 % |
c |     4956       371      127 |    9006    59769   202070 |    20   106773     3154   522455 |  3.803 % |
c |     4980       371      128 |    9005    59769   202070 |    21    63392     3159   575835 |  3.814 % |
c |     5077       371      128 |    9005    59769   202070 |    21    73392     3167   575835 |  3.814 % |
c |     5082       371      129 |    9004    59769   202070 |    21    83391     3172   575835 |  3.824 % |
c |     5086       371      131 |    9004    59769   202070 |    21    93391     3179   575835 |  3.824 % |
c |     5127       371      132 |    9004    59769   202070 |    21   103388     3182   575835 |  3.824 % |
c |     5215       371      132 |    9003    59769   202070 |    22    57398     3183   631824 |  3.835 % |
c |     5280       371      132 |    9003    59769   202070 |    22    67398     3187   631824 |  3.835 % |
c |     5334       374      133 |    9003    59769   202070 |    22    77398     3191   631824 |  3.835 % |
c |     5342       389      134 |    9003    59769   202070 |    22    87398     3195   631824 |  3.835 % |
c |     5342       389      136 |    9003    59769   202070 |    22    97398     3195   631824 |  3.835 % |
c |     5342       390      138 |    9003    59769   202070 |    22   107398     3195   631824 |  3.835 % |
c |     5342       396      140 |    9003    59769   202070 |    23    58798     3195   690424 |  3.835 % |
c |     5342       396      142 |    9003    59769   202070 |    23    68798     3197   690424 |  3.835 % |
c |     5385       396      142 |    9001    59769   202070 |    23    78789     3201   690424 |  3.856 % |
c |     5410       404      144 |    9000    59769   202070 |    23    88788     3206   690424 |  3.867 % |
c |     5484       416      144 |    9000    59769   202070 |    23    98788     3211   690424 |  3.867 % |
c |     5512       416      145 |    9000    59769   202070 |    23   108788     3218   690424 |  3.867 % |
c |     5599       416      144 |    8995    59769   202070 |    23   118784     3225   690424 |  3.921 % |
c |     5630       416      145 |    8994    59769   202070 |    24    67594     3230   751613 |  3.931 % |
c |     5630       416      147 |    8994    59769   202070 |    24    77594     3231   751613 |  3.931 % |
c |     5708       416      147 |    8991    59769   202070 |    24    87577     3235   751613 |  3.963 % |
c |     5776       416      147 |    8991    59769   202070 |    24    97577     3236   751613 |  3.963 % |
c |     5905       416      145 |    8991    59769   202070 |    24   107565     3238   751613 |  3.963 % |
c |     5951       416      146 |    8991    59769   202070 |    24   117565     3239   751613 |  3.963 % |
c |     5966       416      147 |    8991    59769   202070 |    24   127565     3241   751613 |  3.963 % |
c |     6023       416      147 |    8976    59769   202070 |    25    73794     3254   815383 |  4.123 % |
c |     6073       419      148 |    8972    59769   202070 |    25    83791     3260   815383 |  4.166 % |
c |     6185       419      147 |    8970    59769   202070 |    25    93750     3263   815383 |  4.188 % |
c |     6307       419      145 |    8970    59769   202070 |    25   103750     3265   815383 |  4.187 % |
c |     6331       419      146 |    8960    59769   202070 |    25   113749     3265   815383 |  4.294 % |
c |     6331       419      148 |    8960    59769   202070 |    25   123749     3266   815383 |  4.294 % |
c |     6331       419      150 |    8960    59769   202070 |    26    67390     3266   881742 |  4.294 % |
c |     6359       434      150 |    8959    59769   202070 |    26    77372     3268   881742 |  4.305 % |
c |     6381       434      152 |    8959    59769   202070 |    26    87372     3268   881742 |  4.305 % |
c |     6381       434      153 |    8959    59769   202070 |    26    97372     3271   881742 |  4.305 % |
c |     6386       434      155 |    8957    59769   202070 |    26   107367     3277   881742 |  4.326 % |
c |     6476       436      154 |    8957    59769   202070 |    26   117367     3280   881742 |  4.326 % |
c |     6502       436      155 |    8957    59769   202070 |    26   127367     3283   881742 |  4.326 % |
c |     6551       437      155 |    8957    59769   202070 |    26   137367     3286   881742 |  4.326 % |
c |     6575       441      156 |    8956    59769   202070 |    27    78398     3291   950710 |  4.337 % |
c |     6679       446      155 |    8956    59769   202070 |    27    88396     3293   950710 |  4.337 % |
c |     6724       456      156 |    8953    59769   202070 |    27    98395     3300   950710 |  4.369 % |
c |     6725       468      157 |    8953    59769   202070 |    27   108395     3301   950710 |  4.369 % |
c |     6745       486      158 |    8951    59769   202070 |    27   118393     3303   950710 |  4.390 % |
c |     6749       499      160 |    8950    59769   202070 |    27   128392     3305   950710 |  4.401 % |
c |     6796       523      160 |    8950    59769   202070 |    27   138392     3308   950710 |  4.401 % |
c |     6915       523      159 |    8950    59769   202070 |    28    76818     3311  1022284 |  4.401 % |
c |     6973       524      159 |    8950    59769   202070 |    28    86818     3312  1022284 |  4.401 % |
c |     7002       525      159 |    8950    59769   202070 |    28    96818     3314  1022284 |  4.401 % |
c |     7096       526      159 |    8934    59769   202070 |    28   106815     3330  1022284 |  4.572 % |
c |     7198       528      158 |    8934    59769   202070 |    28   116760     3330  1022284 |  4.572 % |
c |     7222       529      159 |    8934    59769   202070 |    28   126760     3334  1022284 |  4.572 % |
c |     7235       532      160 |    8934    59769   202070 |    28   136760     3334  1022284 |  4.572 % |
c |     7243       533      161 |    8932    59769   202070 |    28   146758     3346  1022284 |  4.593 % |
c |     7256       545      162 |    8930    59769   202070 |    29    82581     3348  1096459 |  4.615 % |
c |     7315       553      162 |    8930    59769   202070 |    29    92581     3350  1096459 |  4.614 % |
c |     7326       556      163 |    8930    59769   202070 |    29   102573     3352  1096459 |  4.615 % |
c |     7330       556      165 |    8927    59769   202070 |    29   112571     3353  1096459 |  4.647 % |
c |     7330       556      166 |    8926    59769   202070 |    29   122570     3358  1096459 |  4.657 % |
c |     7379       556      166 |    8926    59769   202070 |    29   132570     3358  1096459 |  4.657 % |
c |     7460       556      166 |    8924    59769   202070 |    29   142554     3359  1096459 |  4.679 % |
c |     7487       561      166 |    8923    59769   202070 |    29   152553     3360  1096459 |  4.690 % |
c |     7489       561      168 |    8923    59769   202070 |    30    85783     3360  1173229 |  4.690 % |
c |     7508       561      169 |    8921    59769   202070 |    30    95782     3363  1173229 |  4.711 % |
c |     7544       563      169 |    8921    59769   202070 |    30   105782     3365  1173229 |  4.711 % |
c |     7564       563      170 |    8921    59769   202070 |    30   115782     3367  1173229 |  4.711 % |
c |     7565       563      171 |    8921    59769   202070 |    30   125782     3369  1173229 |  4.711 % |
c |     7565       563      173 |    8921    59769   202070 |    30   135782     3376  1173229 |  4.711 % |
c |     7565       563      174 |    8921    59769   202070 |    30   145782     3377  1173229 |  4.711 % |
c |     7565       563      175 |    8921    59769   202070 |    30   155782     3379  1173229 |  4.711 % |
c |     7580       564      176 |    8920    59769   202070 |    31    86388     3386  1252612 |  4.721 % |
c |     7581       567      178 |    8920    59769   202070 |    31    96388     3393  1252612 |  4.721 % |
c |     7581       567      179 |    8920    59769   202070 |    31   106388     3397  1252612 |  4.721 % |
c |     7605       574      180 |    8912    59769   202070 |    31   116387     3400  1252612 |  4.807 % |
c |     7618       574      181 |    8911    59769   202070 |    31   126386     3406  1252612 |  4.818 % |
c |     7688       575      180 |    8911    59769   202070 |    31   136386     3408  1252612 |  4.818 % |
c |     7704       578      181 |    8911    59769   202070 |    31   146386     3410  1252612 |  4.818 % |
c |     7724       579      182 |    8911    59769   202070 |    31   156386     3413  1252612 |  4.817 % |
c |     7754       579      183 |    8911    59769   202070 |    32    84387     3414  1334593 |  4.818 % |
c |     7802       579      183 |    8911    59769   202070 |    32    94387     3415  1334593 |  4.818 % |
c |     7807       579      184 |    8911    59769   202070 |    32   104387     3418  1334593 |  4.817 % |
c |     7840       579      184 |    8911    59769   202070 |    32   114387     3418  1334593 |  4.818 % |
c |     7851       583      185 |    8900    59769   202070 |    32   124385     3420  1334593 |  4.935 % |
c |     7865       583      186 |    8900    59769   202070 |    32   134385     3421  1334593 |  4.935 % |
c |     7866       584      188 |    8900    59769   202070 |    32   144385     3426  1334593 |  4.935 % |
c |     7866       584      189 |    8899    59769   202070 |    32   154384     3428  1334593 |  4.946 % |
c |     7871       590      190 |    8899    59769   202070 |    32   164384     3428  1334593 |  4.946 % |
c |     7871       591      191 |    8899    59769   202070 |    33    89801     3428  1419176 |  4.946 % |
c |     7909       591      192 |    8899    59769   202070 |    33    99773     3428  1419176 |  4.946 % |
c |     7909       600      193 |    8871    59769   202070 |    33   109769     3428  1419176 |  5.245 % |
c |     7926       611      194 |    8871    59769   202070 |    33   119769     3432  1419176 |  5.245 % |
c |     7926       617      195 |    8870    59769   202070 |    33   129768     3433  1419176 |  5.255 % |
c |     7950       628      196 |    8870    59769   202070 |    33   139727     3435  1419176 |  5.255 % |
c |     7958       644      197 |    8869    59769   202070 |    33   149726     3435  1419176 |  5.266 % |
c |     7961       644      198 |    8869    59769   202070 |    33   159726     3436  1419176 |  5.266 % |
c |     7961       644      199 |    8869    59769   202070 |    33   169726     3438  1419176 |  5.266 % |
c |     7961       644      200 |    8869    59769   202070 |    34    92570     3441  1506332 |  5.266 % |
c |     7961       644      202 |    8869    59769   202070 |    34   102570     3442  1506332 |  5.266 % |
c |     7961       647      203 |    8869    59769   202070 |    34   112570     3444  1506332 |  5.266 % |
c |     7966       650      204 |    8869    59769   202070 |    34   122570     3445  1506332 |  5.266 % |
c |     7973       650      205 |    8869    59769   202070 |    34   132570     3447  1506332 |  5.266 % |
c |     8006       650      206 |    8869    59769   202070 |    34   142567     3449  1506332 |  5.266 % |
c |     8022       653      206 |    8869    59769   202070 |    34   152567     3452  1506332 |  5.266 % |
c |     8075       653      206 |    8869    59769   202070 |    34   162567     3454  1506332 |  5.266 % |
c |     8076       657      208 |    8868    59769   202070 |    34   172566     3455  1506332 |  5.277 % |
c |     8119       662      208 |    8868    59769   202070 |    35    92795     3455  1596103 |  5.277 % |
c |     8128       667      209 |    8867    59769   202070 |    35   102794     3461  1596103 |  5.288 % |
c |     8137       676      210 |    8867    59769   202070 |    35   112794     3464  1596103 |  5.287 % |
c |     8137       676      211 |    8867    59769   202070 |    35   122794     3466  1596103 |  5.287 % |
c |     8137       676      212 |    8867    59769   202070 |    35   132794     3470  1596103 |  5.287 % |
c |     8166       678      213 |    8864    59769   202070 |    35   142783     3475  1596103 |  5.320 % |
c |     8170       678      214 |    8864    59769   202070 |    35   152783     3476  1596103 |  5.319 % |
c |     8174       678      215 |    8863    59769   202070 |    35   162782     3477  1596103 |  5.330 % |
c |     8179       678      216 |    8863    59769   202070 |    35   172782     3479  1596103 |  5.330 % |
c |     8179       678      217 |    8863    59769   202070 |    35   182782     3481  1596103 |  5.330 % |
c |     8179       678      218 |    8860    59769   202070 |    36   100407     3484  1688476 |  5.362 % |
c |     8179       679      220 |    8859    59769   202070 |    36   110394     3496  1688476 |  5.373 % |
c |     8186       684      221 |    8857    59769   202070 |    36   120393     3498  1688476 |  5.394 % |
c |     8191       685      222 |    8856    59769   202070 |    36   130392     3499  1688476 |  5.405 % |
c |     8201       686      223 |    8850    59769   202070 |    36   140382     3504  1688476 |  5.469 % |
c |     8203       687      224 |    8771    59769   202070 |    36   150381     3515  1688476 |  6.313 % |
c |     8203       688      225 |    8768    59769   202070 |    36   160379     3520  1688476 |  6.345 % |
c |     8211       693      226 |    8768    59769   202070 |    36   170379     3521  1688476 |  6.345 % |
c |     8212       693      227 |    8762    59769   202070 |    36   180376     3523  1688476 |  6.409 % |
c |     8212       695      228 |    8762    59769   202070 |    37    95397     3524  1783455 |  6.409 % |
c |     8212       701      230 |    8762    59769   202070 |    37   105397     3524  1783455 |  6.409 % |
c |     8212       701      231 |    8762    59769   202070 |    37   115397     3524  1783455 |  6.409 % |
c |     8212       701      232 |    8761    59769   202070 |    37   118657     3527  1783455 |  6.420 % |
c |     8212       703      233 |    8760    59769   202070 |    37   128656     3530  1783455 |  6.431 % |
c |     8212       705      235 |    8759    59769   202070 |    37   138655     3542  1783455 |  6.444 % |
c |     8212       707      236 |    8620    59769   202070 |    37   148654     3546  1783455 |  7.926 % |
c |     8212       707      237 |    7685    59769   202070 |    37   158651     3555  1783455 | 17.913 % |
c empty clause found by core 0 at conflict 1952389
*
c checking the resolution graph...OK
c All useful bySize 842935 clauses, percentiles 0 2 3 16 67 152 315 805 1185 1880 2956 2957 (0,1,5,10,25,50,75,90,95,99,100-1,100)
c All useless bySize 1169224 clauses, percentiles 0 5 26 44 80 165 324 701 991 1619 2884 2912 (0,1,5,10,25,50,75,90,95,99,100-1,100)
c ProofOnly useful bySize 796643 clauses, percentiles 0 3 17 41 78 164 334 839 1214 1899 2956 2957 (0,1,5,10,25,50,75,90,95,99,100-1,100)
c ProofOnly useless bySize 1155746 clauses, percentiles 2 7 33 46 83 168 327 706 995 1625 2884 2912 (0,1,5,10,25,50,75,90,95,99,100-1,100)
c All useful byFinalLBD 842935 clauses, percentiles 0 1 3 5 9 12 15 17 19 22 84 85 (0,1,5,10,25,50,75,90,95,99,100-1,100)
c All useless byFinalLBD 1169224 clauses, percentiles 0 4 8 10 14 17 20 23 25 30 82 84 (0,1,5,10,25,50,75,90,95,99,100-1,100)
c ProofOnly useful byFinalLBD 796643 clauses, percentiles 0 1 4 7 10 12 15 18 19 22 84 85 (0,1,5,10,25,50,75,90,95,99,100-1,100)
c ProofOnly useless byFinalLBD 1155746 clauses, percentiles 1 5 8 11 14 17 20 23 25 30 82 84 (0,1,5,10,25,50,75,90,95,99,100-1,100)
c All useful byInitialLBD 842935 clauses, percentiles 0 2 3 6 10 13 16 18 20 23 88 89 (0,1,5,10,25,50,75,90,95,99,100-1,100)
c All useless byInitialLBD 1169224 clauses, percentiles 0 4 8 11 14 17 20 23 26 31 84 85 (0,1,5,10,25,50,75,90,95,99,100-1,100)
c ProofOnly useful byInitialLBD 796643 clauses, percentiles 0 3 6 8 11 13 16 18 20 23 88 89 (0,1,5,10,25,50,75,90,95,99,100-1,100)
c ProofOnly useless byInitialLBD 1155746 clauses, percentiles 2 5 9 11 14 17 21 23 26 31 84 85 (0,1,5,10,25,50,75,90,95,99,100-1,100)
c Literals ProofOnly useful 246358944
c Literals ProofOnly useless 327562581
c additional windowsGood 1 1 1 1 1 2 5 12 19 42 342 360 (0,1,5,10,25,50,75,90,95,99,100-1,100)
c additional windowsBad 1 1 1 1 1 2 4 11 26 108 1692 2302 (0,1,5,10,25,50,75,90,95,99,100-1,100)
c additional 1WindowNoDecision 71576 38629 0.54 74184 17077 0.23 (nbWindowsGood,nbWindowsNoDecisionGood,nbWindowsBad,nbWindowsNoDecisionBad
c additional topclausessize all (10%,5%,1%,top) 1290.01 1597.98 2138.75 2957
c additional topclausessize proofonly (10%,5%,1%,top) 1303.47 1609.44 2145.94 2957
c additional topclausesinitialLBD all (10%,5%,1%,top) 1093.22 1432.62 2032.14 2957
c additional topclausesinitialLBD proofonly (10%,5%,1%,top) 944.66 1303.47 1946.94 2957
c additional topclausesfinalLBD all (10%,5%,1%,top) 825.79 1190.00 1871.22 2957
c additional topclausesfinalLBD proofonly (10%,5%,1%,top) 739.79 1098.18 1808.03 2957
c additional predictionInitialLBD 1 349 796643 1.00 0.00 0.00 1952040 1155746 0.59 1.45 0.84 0.59 (nbgoodclauses,nbtotalgood,precisionGood,recallGood,FGood,nbbadclause,nbtotalbad,precisionBad,recallBad,FBad,accuracy)
c additional predictionInitialLBD 2 3931 796643 0.97 0.00 0.01 1948458 1155746 0.59 1.45 0.84 0.59 (nbgoodclauses,nbtotalgood,precisionGood,recallGood,FGood,nbbadclause,nbtotalbad,precisionBad,recallBad,FBad,accuracy)
c additional predictionInitialLBD 3 15971 796643 0.91 0.02 0.04 1936418 1155746 0.60 1.45 0.84 0.60 (nbgoodclauses,nbtotalgood,precisionGood,recallGood,FGood,nbbadclause,nbtotalbad,precisionBad,recallBad,FBad,accuracy)
c additional predictionInitialLBD 4 30785 796643 0.76 0.03 0.06 1921604 1155746 0.60 1.44 0.84 0.60 (nbgoodclauses,nbtotalgood,precisionGood,recallGood,FGood,nbbadclause,nbtotalbad,precisionBad,recallBad,FBad,accuracy)
c additional predictionInitialLBD 5 50240 796643 0.69 0.04 0.08 1902149 1155746 0.60 1.43 0.84 0.60 (nbgoodclauses,nbtotalgood,precisionGood,recallGood,FGood,nbbadclause,nbtotalbad,precisionBad,recallBad,FBad,accuracy)
c additional predictionInitialLBD 6 71802 796643 0.66 0.06 0.11 1880587 1155746 0.60 1.42 0.85 0.60 (nbgoodclauses,nbtotalgood,precisionGood,recallGood,FGood,nbbadclause,nbtotalbad,precisionBad,recallBad,FBad,accuracy)
c additional predictionInitialLBD 7 100361 796643 0.66 0.08 0.15 1852028 1155746 0.61 1.41 0.85 0.61 (nbgoodclauses,nbtotalgood,precisionGood,recallGood,FGood,nbbadclause,nbtotalbad,precisionBad,recallBad,FBad,accuracy)
c additional predictionInitialLBD 8 140130 796643 0.67 0.12 0.20 1812259 1155746 0.61 1.39 0.85 0.62 (nbgoodclauses,nbtotalgood,precisionGood,recallGood,FGood,nbbadclause,nbtotalbad,precisionBad,recallBad,FBad,accuracy)
c additional predictionInitialLBD 10 275686 796643 0.67 0.23 0.35 1676703 1155746 0.64 1.34 0.86 0.64 (nbgoodclauses,nbtotalgood,precisionGood,recallGood,FGood,nbbadclause,nbtotalbad,precisionBad,recallBad,FBad,accuracy)
c additional predictionInitialLBD 14 796632 796643 0.62 0.62 0.62 1155757 1155746 0.74 1.07 0.87 0.69 (nbgoodclauses,nbtotalgood,precisionGood,recallGood,FGood,nbbadclause,nbtotalbad,precisionBad,recallBad,FBad,accuracy)
c additional predictionInitialLBD 18 1406172 796643 0.51 0.90 0.65 546217 1155746 0.86 0.59 0.70 0.61 (nbgoodclauses,nbtotalgood,precisionGood,recallGood,FGood,nbbadclause,nbtotalbad,precisionBad,recallBad,FBad,accuracy)
c additional predictionInitialLBD 22 1780461 796643 0.44 0.98 0.61 171928 1155746 0.92 0.20 0.33 0.48 (nbgoodclauses,nbtotalgood,precisionGood,recallGood,FGood,nbbadclause,nbtotalbad,precisionBad,recallBad,FBad,accuracy)
c additional predictionInitialLBD 30 1939041 796643 0.41 1.00 0.58 13348 1155746 0.98 0.02 0.03 0.41 (nbgoodclauses,nbtotalgood,precisionGood,recallGood,FGood,nbbadclause,nbtotalbad,precisionBad,recallBad,FBad,accuracy)
c additional predictionInitialLBD 40 1951493 796643 0.41 1.00 0.58 896 1155746 0.96 0.00 0.00 0.41 (nbgoodclauses,nbtotalgood,precisionGood,recallGood,FGood,nbbadclause,nbtotalbad,precisionBad,recallBad,FBad,accuracy)
c additional predictionFinallLBD 1 10103 796643 0.99 0.01 0.02 1942286 1155746 0.59 1.00 0.75 0.60 (nbgoodclauses,nbtotalgood,precisionGood,recallGood,FGood,nbbadclause,nbtotalbad,precisionBad,recallBad,FBad,accuracy)
c additional predictionFinallLBD 2 23112 796643 0.98 0.03 0.06 1929277 1155746 0.60 1.00 0.75 0.60 (nbgoodclauses,nbtotalgood,precisionGood,recallGood,FGood,nbbadclause,nbtotalbad,precisionBad,recallBad,FBad,accuracy)
c additional predictionFinallLBD 3 37627 796643 0.95 0.04 0.09 1914762 1155746 0.60 1.00 0.75 0.61 (nbgoodclauses,nbtotalgood,precisionGood,recallGood,FGood,nbbadclause,nbtotalbad,precisionBad,recallBad,FBad,accuracy)
c additional predictionFinallLBD 4 56831 796643 0.84 0.06 0.11 1895558 1155746 0.60 0.99 0.75 0.61 (nbgoodclauses,nbtotalgood,precisionGood,recallGood,FGood,nbbadclause,nbtotalbad,precisionBad,recallBad,FBad,accuracy)
c additional predictionFinallLBD 5 80044 796643 0.76 0.08 0.14 1872345 1155746 0.61 0.98 0.75 0.61 (nbgoodclauses,nbtotalgood,precisionGood,recallGood,FGood,nbbadclause,nbtotalbad,precisionBad,recallBad,FBad,accuracy)
c additional predictionFinallLBD 6 106777 796643 0.73 0.10 0.17 1845612 1155746 0.61 0.97 0.75 0.62 (nbgoodclauses,nbtotalgood,precisionGood,recallGood,FGood,nbbadclause,nbtotalbad,precisionBad,recallBad,FBad,accuracy)
c additional predictionFinallLBD 7 144746 796643 0.71 0.13 0.22 1807643 1155746 0.62 0.96 0.75 0.62 (nbgoodclauses,nbtotalgood,precisionGood,recallGood,FGood,nbbadclause,nbtotalbad,precisionBad,recallBad,FBad,accuracy)
c additional predictionFinallLBD 8 199985 796643 0.71 0.18 0.28 1752404 1155746 0.63 0.95 0.75 0.63 (nbgoodclauses,nbtotalgood,precisionGood,recallGood,FGood,nbbadclause,nbtotalbad,precisionBad,recallBad,FBad,accuracy)
c additional predictionFinallLBD 10 370500 796643 0.70 0.32 0.44 1581889 1155746 0.66 0.90 0.76 0.67 (nbgoodclauses,nbtotalgood,precisionGood,recallGood,FGood,nbbadclause,nbtotalbad,precisionBad,recallBad,FBad,accuracy)
c additional predictionFinallLBD 14 915252 796643 0.61 0.70 0.65 1037137 1155746 0.77 0.69 0.73 0.70 (nbgoodclauses,nbtotalgood,precisionGood,recallGood,FGood,nbbadclause,nbtotalbad,precisionBad,recallBad,FBad,accuracy)
c additional predictionFinallLBD 18 1482708 796643 0.50 0.93 0.65 469681 1155746 0.89 0.36 0.51 0.59 (nbgoodclauses,nbtotalgood,precisionGood,recallGood,FGood,nbbadclause,nbtotalbad,precisionBad,recallBad,FBad,accuracy)
c additional predictionFinallLBD 22 1809261 796643 0.44 0.99 0.61 143128 1155746 0.95 0.12 0.21 0.47 (nbgoodclauses,nbtotalgood,precisionGood,recallGood,FGood,nbbadclause,nbtotalbad,precisionBad,recallBad,FBad,accuracy)
c additional predictionFinallLBD 30 1940912 796643 0.41 1.00 0.58 11477 1155746 0.99 0.01 0.02 0.41 (nbgoodclauses,nbtotalgood,precisionGood,recallGood,FGood,nbbadclause,nbtotalbad,precisionBad,recallBad,FBad,accuracy)
c additional predictionFinallLBD 40 1951613 796643 0.41 1.00 0.58 776 1155746 0.98 0.00 0.00 0.41 (nbgoodclauses,nbtotalgood,precisionGood,recallGood,FGood,nbbadclause,nbtotalbad,precisionBad,recallBad,FBad,accuracy)
c additional predictionSize 1 349 796643 1.00 0.00 0.00 1952040 1155746 0.59 1.45 0.84 0.59 (nbgoodclauses,nbtotalgood,precisionGood,recallGood,FGood,nbbadclause,nbtotalbad,precisionBad,recallBad,FBad,accuracy)
c additional predictionSize 2 1561 796643 0.99 0.00 0.00 1950828 1155746 0.59 1.45 0.84 0.59 (nbgoodclauses,nbtotalgood,precisionGood,recallGood,FGood,nbbadclause,nbtotalbad,precisionBad,recallBad,FBad,accuracy)
c additional predictionSize 3 9102 796643 0.92 0.01 0.02 1943287 1155746 0.59 1.45 0.84 0.60 (nbgoodclauses,nbtotalgood,precisionGood,recallGood,FGood,nbbadclause,nbtotalbad,precisionBad,recallBad,FBad,accuracy)
c additional predictionSize 4 15049 796643 0.83 0.02 0.03 1937340 1155746 0.60 1.45 0.84 0.60 (nbgoodclauses,nbtotalgood,precisionGood,recallGood,FGood,nbbadclause,nbtotalbad,precisionBad,recallBad,FBad,accuracy)
c additional predictionSize 5 25559 796643 0.71 0.02 0.04 1926830 1155746 0.60 1.44 0.84 0.60 (nbgoodclauses,nbtotalgood,precisionGood,recallGood,FGood,nbbadclause,nbtotalbad,precisionBad,recallBad,FBad,accuracy)
c additional predictionSize 6 32134 796643 0.68 0.03 0.05 1920255 1155746 0.60 1.44 0.84 0.60 (nbgoodclauses,nbtotalgood,precisionGood,recallGood,FGood,nbbadclause,nbtotalbad,precisionBad,recallBad,FBad,accuracy)
c additional predictionSize 7 39722 796643 0.62 0.03 0.06 1912667 1155746 0.60 1.43 0.84 0.60 (nbgoodclauses,nbtotalgood,precisionGood,recallGood,FGood,nbbadclause,nbtotalbad,precisionBad,recallBad,FBad,accuracy)
c additional predictionSize 8 44144 796643 0.61 0.03 0.06 1908245 1155746 0.60 1.43 0.84 0.60 (nbgoodclauses,nbtotalgood,precisionGood,recallGood,FGood,nbbadclause,nbtotalbad,precisionBad,recallBad,FBad,accuracy)
c additional predictionSize 10 51178 796643 0.59 0.04 0.07 1901211 1155746 0.60 1.42 0.84 0.60 (nbgoodclauses,nbtotalgood,precisionGood,recallGood,FGood,nbbadclause,nbtotalbad,precisionBad,recallBad,FBad,accuracy)
c additional predictionSize 14 63442 796643 0.57 0.05 0.08 1888947 1155746 0.60 1.42 0.84 0.60 (nbgoodclauses,nbtotalgood,precisionGood,recallGood,FGood,nbbadclause,nbtotalbad,precisionBad,recallBad,FBad,accuracy)
c additional predictionSize 18 73887 796643 0.56 0.05 0.09 1878502 1155746 0.60 1.41 0.84 0.60 (nbgoodclauses,nbtotalgood,precisionGood,recallGood,FGood,nbbadclause,nbtotalbad,precisionBad,recallBad,FBad,accuracy)
c additional predictionSize 22 85082 796643 0.54 0.06 0.10 1867307 1155746 0.60 1.40 0.84 0.60 (nbgoodclauses,nbtotalgood,precisionGood,recallGood,FGood,nbbadclause,nbtotalbad,precisionBad,recallBad,FBad,accuracy)
c additional predictionSize 30 109266 796643 0.52 0.07 0.12 1843123 1155746 0.60 1.38 0.84 0.59 (nbgoodclauses,nbtotalgood,precisionGood,recallGood,FGood,nbbadclause,nbtotalbad,precisionBad,recallBad,FBad,accuracy)
c additional predictionSize 40 164926 796643 0.48 0.10 0.16 1787463 1155746 0.60 1.34 0.83 0.59 (nbgoodclauses,nbtotalgood,precisionGood,recallGood,FGood,nbbadclause,nbtotalbad,precisionBad,recallBad,FBad,accuracy)
c additional predictionAge 1 22805 796643 0.53 0.02 0.03 1929584 1155746 0.59 1.44 0.84 0.59 (nbgoodclauses,nbtotalgood,precisionGood,recallGood,FGood,nbbadclause,nbtotalbad,precisionBad,recallBad,FBad,accuracy)
c additional predictionAge 10 26659 796643 0.50 0.02 0.03 1925730 1155746 0.59 1.43 0.84 0.59 (nbgoodclauses,nbtotalgood,precisionGood,recallGood,FGood,nbbadclause,nbtotalbad,precisionBad,recallBad,FBad,accuracy)
c additional predictionAge 25 28254 796643 0.49 0.02 0.03 1924135 1155746 0.59 1.43 0.84 0.59 (nbgoodclauses,nbtotalgood,precisionGood,recallGood,FGood,nbbadclause,nbtotalbad,precisionBad,recallBad,FBad,accuracy)
c additional predictionAge 50 29643 796643 0.48 0.02 0.03 1922746 1155746 0.59 1.43 0.84 0.59 (nbgoodclauses,nbtotalgood,precisionGood,recallGood,FGood,nbbadclause,nbtotalbad,precisionBad,recallBad,FBad,accuracy)
c additional predictionAge 100 31109 796643 0.48 0.02 0.04 1921280 1155746 0.59 1.43 0.84 0.59 (nbgoodclauses,nbtotalgood,precisionGood,recallGood,FGood,nbbadclause,nbtotalbad,precisionBad,recallBad,FBad,accuracy)
c additional predictionAge 250 33200 796643 0.47 0.02 0.04 1919189 1155746 0.59 1.43 0.84 0.59 (nbgoodclauses,nbtotalgood,precisionGood,recallGood,FGood,nbbadclause,nbtotalbad,precisionBad,recallBad,FBad,accuracy)
c additional predictionAge 500 34948 796643 0.46 0.02 0.04 1917441 1155746 0.59 1.43 0.84 0.59 (nbgoodclauses,nbtotalgood,precisionGood,recallGood,FGood,nbbadclause,nbtotalbad,precisionBad,recallBad,FBad,accuracy)
c additional predictionAge 1000 36859 796643 0.45 0.02 0.04 1915530 1155746 0.59 1.43 0.84 0.59 (nbgoodclauses,nbtotalgood,precisionGood,recallGood,FGood,nbbadclause,nbtotalbad,precisionBad,recallBad,FBad,accuracy)
c additional predictionAge 2500 40107 796643 0.45 0.02 0.04 1912282 1155746 0.59 1.42 0.84 0.59 (nbgoodclauses,nbtotalgood,precisionGood,recallGood,FGood,nbbadclause,nbtotalbad,precisionBad,recallBad,FBad,accuracy)
c additional predictionAge 5000 43497 796643 0.44 0.02 0.05 1908892 1155746 0.59 1.42 0.84 0.59 (nbgoodclauses,nbtotalgood,precisionGood,recallGood,FGood,nbbadclause,nbtotalbad,precisionBad,recallBad,FBad,accuracy)
c additional predictionAge 10000 49086 796643 0.42 0.03 0.05 1903303 1155746 0.59 1.42 0.84 0.59 (nbgoodclauses,nbtotalgood,precisionGood,recallGood,FGood,nbbadclause,nbtotalbad,precisionBad,recallBad,FBad,accuracy)
c additional predictionAge 25000 64950 796643 0.38 0.03 0.06 1887439 1155746 0.59 1.40 0.83 0.58 (nbgoodclauses,nbtotalgood,precisionGood,recallGood,FGood,nbbadclause,nbtotalbad,precisionBad,recallBad,FBad,accuracy)
c additional predictionAge 50000 89674 796643 0.32 0.04 0.06 1862715 1155746 0.59 1.37 0.82 0.58 (nbgoodclauses,nbtotalgood,precisionGood,recallGood,FGood,nbbadclause,nbtotalbad,precisionBad,recallBad,FBad,accuracy)
c additional predictionAge 100000 138708 796643 0.26 0.05 0.08 1813681 1155746 0.58 1.32 0.81 0.56 (nbgoodclauses,nbtotalgood,precisionGood,recallGood,FGood,nbbadclause,nbtotalbad,precisionBad,recallBad,FBad,accuracy)
c additional predictionTicks 1 62710 796643 0.49 0.04 0.07 1889679 1155746 0.59 1.41 0.84 0.59 (nbgoodclauses,nbtotalgood,precisionGood,recallGood,FGood,nbbadclause,nbtotalbad,precisionBad,recallBad,FBad,accuracy)
c additional predictionTicks 10 166570 796643 0.45 0.09 0.16 1785819 1155746 0.60 1.34 0.82 0.58 (nbgoodclauses,nbtotalgood,precisionGood,recallGood,FGood,nbbadclause,nbtotalbad,precisionBad,recallBad,FBad,accuracy)
c additional predictionTicks 25 259162 796643 0.45 0.15 0.22 1693227 1155746 0.60 1.27 0.81 0.58 (nbgoodclauses,nbtotalgood,precisionGood,recallGood,FGood,nbbadclause,nbtotalbad,precisionBad,recallBad,FBad,accuracy)
c additional predictionTicks 50 359948 796643 0.45 0.20 0.28 1592441 1155746 0.60 1.20 0.80 0.57 (nbgoodclauses,nbtotalgood,precisionGood,recallGood,FGood,nbbadclause,nbtotalbad,precisionBad,recallBad,FBad,accuracy)
c additional predictionTicks 100 490304 796643 0.44 0.27 0.34 1462085 1155746 0.60 1.11 0.78 0.56 (nbgoodclauses,nbtotalgood,precisionGood,recallGood,FGood,nbbadclause,nbtotalbad,precisionBad,recallBad,FBad,accuracy)
c additional predictionTicks 250 684773 796643 0.43 0.37 0.40 1267616 1155746 0.60 0.96 0.74 0.54 (nbgoodclauses,nbtotalgood,precisionGood,recallGood,FGood,nbbadclause,nbtotalbad,precisionBad,recallBad,FBad,accuracy)
c additional predictionTicks 500 836778 796643 0.42 0.44 0.43 1115611 1155746 0.60 0.84 0.70 0.53 (nbgoodclauses,nbtotalgood,precisionGood,recallGood,FGood,nbbadclause,nbtotalbad,precisionBad,recallBad,FBad,accuracy)
c additional predictionTicks 1000 985673 796643 0.42 0.52 0.47 966716 1155746 0.61 0.73 0.66 0.51 (nbgoodclauses,nbtotalgood,precisionGood,recallGood,FGood,nbbadclause,nbtotalbad,precisionBad,recallBad,FBad,accuracy)
c additional predictionTicks 2500 1183208 796643 0.42 0.62 0.50 769181 1155746 0.61 0.59 0.60 0.49 (nbgoodclauses,nbtotalgood,precisionGood,recallGood,FGood,nbbadclause,nbtotalbad,precisionBad,recallBad,FBad,accuracy)
c additional predictionTicks 5000 1331689 796643 0.42 0.69 0.52 620700 1155746 0.61 0.47 0.53 0.48 (nbgoodclauses,nbtotalgood,precisionGood,recallGood,FGood,nbbadclause,nbtotalbad,precisionBad,recallBad,FBad,accuracy)
c additional predictionTicks 10000 1477040 796643 0.41 0.76 0.53 475349 1155746 0.60 0.36 0.45 0.46 (nbgoodclauses,nbtotalgood,precisionGood,recallGood,FGood,nbbadclause,nbtotalbad,precisionBad,recallBad,FBad,accuracy)
c additional predictionTicks 25000 1661011 796643 0.40 0.84 0.55 291378 1155746 0.57 0.21 0.31 0.43 (nbgoodclauses,nbtotalgood,precisionGood,recallGood,FGood,nbbadclause,nbtotalbad,precisionBad,recallBad,FBad,accuracy)
c additional predictionTicks 50000 1778530 796643 0.40 0.90 0.56 173859 1155746 0.54 0.12 0.20 0.42 (nbgoodclauses,nbtotalgood,precisionGood,recallGood,FGood,nbbadclause,nbtotalbad,precisionBad,recallBad,FBad,accuracy)
c additional predictionTicks 100000 1866934 796643 0.40 0.95 0.57 85455 1155746 0.52 0.06 0.10 0.41 (nbgoodclauses,nbtotalgood,precisionGood,recallGood,FGood,nbbadclause,nbtotalbad,precisionBad,recallBad,FBad,accuracy)
c additional lifetimeGood 1 1 420 75134 515292 1000071 1530452 1787064 1861073 1932814 1952295 1952324 (0,1,5,10,25,50,75,90,95,99,100-1,100)
c additional lifetimeBad 1 1 36 5186 158211 504711 1047192 1437994 1636116 1855491 1952279 1952280 (0,1,5,10,25,50,75,90,95,99,100-1,100)
c additional lifetimeBadBad 1 1 1 1 2 27 369 6194 22415 70640 1913165 1914054 (0,1,5,10,25,50,75,90,95,99,100-1,100)
c additional compositionBad 2 3 6 8 15 28 53 99 156 410 2770 3048 (0,1,5,10,25,50,75,90,95,99,100-1,100)
c additional compositionBadWithGood 0 0 2 3 7 13 25 48 76 181 950 1057 (0,1,5,10,25,50,75,90,95,99,100-1,100)
c additional compositionBadWithBad 0 0 0 0 0 1 3 5 7 11 49 62 (0,1,5,10,25,50,75,90,95,99,100-1,100)
c additional compositionBadWithInitial 0 0 2 3 6 13 26 49 78 235 1925 2180 (0,1,5,10,25,50,75,90,95,99,100-1,100)
c additional compositionGood 2 2 4 7 13 26 51 123 247 719 3409 3718 (0,1,5,10,25,50,75,90,95,99,100-1,100)
c additional compositionGoodWithGood 0 0 2 4 7 14 28 66 124 306 1049 1070 (0,1,5,10,25,50,75,90,95,99,100-1,100)
c additional compositionGoodWithInitial 0 0 1 2 5 11 23 56 122 420 2462 2648 (0,1,5,10,25,50,75,90,95,99,100-1,100)
c additional propagationGood total 217656874 percentiles 0 1 1 1 1 2 6 23 204 6785 157627 163134 (0,1,5,10,25,50,75,90,95,99,100-1,100)
c additional propagationBad total 8746804 percentiles 1 1 1 1 1 2 3 7 13 61 96658 115722 (0,1,5,10,25,50,75,90,95,99,100-1,100)
c additional resolutionGood total 24386454 percentiles 0 1 1 1 1 2 4 12 45 692 34871 37255 (0,1,5,10,25,50,75,90,95,99,100-1,100)
c additional resolutionBad total 2297900 percentiles 0 0 0 0 1 1 2 4 6 16 334 374 (0,1,5,10,25,50,75,90,95,99,100-1,100)
No graph is dumped
c =========================================================================================================
c result of core 0 is UNSAT
c One thread has finished
c Core 0 said it finished
c restarts              : 8212 (237 conflicts in avg)
c blocked restarts      : 707 (multiple: 277) 
c last block at restart : 8212
c nb ReduceDB           : 37
c nb removed Clauses    : 1783455
c nb learnts DL2        : 3582
c nb learnts size 2     : 1212
c nb learnts size 1     : 348
c conflicts             : 1952389        (4209 /sec)
c decisions             : 5711940        (0.00 % random) (12315 /sec)
c propagations          : 872991866      (1882164 /sec)
c conflict literals     : 573927853      (3.74 % deleted)
c nb reduced Clauses    : 5567
c CPU time              : 463.823 s

s INDETERMINATE
