c
c This is glucose-proof 1.0 based on  2.1 --  (thanks to MiniSAT)
c
c EXPERIMENTAL EASY PARALLEL (ROUND ROBIN) VERSION
c
c WARNING: for repeatability, setting FPU to use double precision
c Parallel version 14 solvers created.
c ========================================[ Problem Statistics ]===========================================
c |                                                                                                       |
c |  Number of variables:          1826                                                                   |
c |  Number of clauses:           10221                                                                   |
c |  Parse time:                   0.03 s                                                                 |
c |                                                                                                       |
c ========================================[ MAGIC CONSTANTS ]==============================================
c | Constants are supposed to work well together :-)                                                      |
c | however, if you find better choices, please let us known...                                           |
c |-------------------------------------------------------------------------------------------------------|
c |                                |                                |                                     |
c | - Restarts:                    | - Reduce Clause DB:            | - Minimize Asserting:               |
c |   * LBD Queue    :     50      |   * First     :   4000         |    * size <  30                     |
c |   * Trail  Queue :   5000      |   * Inc       :    300         |    * lbd  <   6                     |
c |   * K            :   0.80      |   * Special   :   1000         |                                     |
c |   * R            :   1.40      |   * Protected :  (lbd)< 30     |                                     |
c |                                |                                |                                     |
c ==================================[ Search Statistics (every  10000 conflicts) ]=========================
c |                                                                                                       |
c |          RESTARTS           |          ORIGINAL         |              LEARNT              | Progress |
c |       NB   Blocked  Avg Cfc |    Vars  Clauses Literals |   Red   Learnts    LBD2  Removed |          |
c =========================================================================================================
c empty clause found by core 6 at conflict 2394
*
c checking the resolution graph...OK
c All useful bySize 15480 clauses, percentiles 0 2 2 2 3 4 7 16 24 42 85 87 (0,1,5,10,25,50,75,90,95,99,100-1,100)
c All useless bySize 28903 clauses, percentiles 0 0 3 3 6 11 19 30 38 53 96 103 (0,1,5,10,25,50,75,90,95,99,100-1,100)
c ProofOnly useful bySize 9061 clauses, percentiles 0 2 3 3 4 6 11 22 30 49 85 87 (0,1,5,10,25,50,75,90,95,99,100-1,100)
c ProofOnly useless bySize 24448 clauses, percentiles 1 3 5 6 8 13 21 32 39 55 96 103 (0,1,5,10,25,50,75,90,95,99,100-1,100)
c All useful byFinalLBD 15480 clauses, percentiles 0 1 1 1 2 3 4 5 6 10 20 20 (0,1,5,10,25,50,75,90,95,99,100-1,100)
c All useless byFinalLBD 28903 clauses, percentiles 0 0 1 2 3 5 7 10 11 16 28 29 (0,1,5,10,25,50,75,90,95,99,100-1,100)
c ProofOnly useful byFinalLBD 9061 clauses, percentiles 0 1 1 1 1 2 4 6 8 11 16 16 (0,1,5,10,25,50,75,90,95,99,100-1,100)
c ProofOnly useless byFinalLBD 24448 clauses, percentiles 1 1 2 2 4 5 7 10 12 16 28 29 (0,1,5,10,25,50,75,90,95,99,100-1,100)
c All useful byInitialLBD 15480 clauses, percentiles 0 2 2 2 3 3 4 6 7 10 20 20 (0,1,5,10,25,50,75,90,95,99,100-1,100)
c All useless byInitialLBD 28903 clauses, percentiles 0 0 2 3 4 5 7 10 12 16 28 29 (0,1,5,10,25,50,75,90,95,99,100-1,100)
c ProofOnly useful byInitialLBD 9061 clauses, percentiles 0 2 2 2 3 3 5 7 8 11 18 18 (0,1,5,10,25,50,75,90,95,99,100-1,100)
c ProofOnly useless byInitialLBD 24448 clauses, percentiles 1 2 3 3 4 6 8 10 12 16 28 29 (0,1,5,10,25,50,75,90,95,99,100-1,100)
c Literals ProofOnly useful 89420
c Literals ProofOnly useless 396459
c additional windowsGood 1 1 1 1 1 1 2 2 3 4 7 9 (0,1,5,10,25,50,75,90,95,99,100-1,100)
c additional windowsBad 1 1 1 1 1 3 5 8 10 14 33 46 (0,1,5,10,25,50,75,90,95,99,100-1,100)
c additional 1WindowNoDecision 4669 2320 0.50 1779 694 0.39 (nbWindowsGood,nbWindowsNoDecisionGood,nbWindowsBad,nbWindowsNoDecisionBad
c additional topclausessize all (10%,5%,1%,top) 27.18 35.22 54.09 87
c additional topclausessize proofonly (10%,5%,1%,top) 29.86 37.87 56.73 87
c additional topclausesinitialLBD all (10%,5%,1%,top) 24.24 32.24 50.98 87
c additional topclausesinitialLBD proofonly (10%,5%,1%,top) 21.98 29.87 48.50 87
c additional topclausesfinalLBD all (10%,5%,1%,top) 19.20 26.71 45.24 87
c additional topclausesfinalLBD proofonly (10%,5%,1%,top) 18.00 25.22 43.69 87
c additional predictionInitialLBD 1 58 9061 0.98 0.01 0.01 33451 24448 0.73 2.70 1.15 0.73 (nbgoodclauses,nbtotalgood,precisionGood,recallGood,FGood,nbbadclause,nbtotalbad,precisionBad,recallBad,FBad,accuracy)
c additional predictionInitialLBD 2 2605 9061 0.66 0.19 0.29 30904 24448 0.76 2.60 1.18 0.75 (nbgoodclauses,nbtotalgood,precisionGood,recallGood,FGood,nbbadclause,nbtotalbad,precisionBad,recallBad,FBad,accuracy)
c additional predictionInitialLBD 3 8239 9061 0.58 0.53 0.56 25270 24448 0.83 2.32 1.22 0.77 (nbgoodclauses,nbtotalgood,precisionGood,recallGood,FGood,nbbadclause,nbtotalbad,precisionBad,recallBad,FBad,accuracy)
c additional predictionInitialLBD 4 14073 9061 0.44 0.69 0.54 19436 24448 0.85 1.83 1.17 0.68 (nbgoodclauses,nbtotalgood,precisionGood,recallGood,FGood,nbbadclause,nbtotalbad,precisionBad,recallBad,FBad,accuracy)
c additional predictionInitialLBD 5 19293 9061 0.38 0.80 0.51 14216 24448 0.87 1.37 1.07 0.59 (nbgoodclauses,nbtotalgood,precisionGood,recallGood,FGood,nbbadclause,nbtotalbad,precisionBad,recallBad,FBad,accuracy)
c additional predictionInitialLBD 6 23254 9061 0.34 0.88 0.49 10255 24448 0.89 1.01 0.95 0.51 (nbgoodclauses,nbtotalgood,precisionGood,recallGood,FGood,nbbadclause,nbtotalbad,precisionBad,recallBad,FBad,accuracy)
c additional predictionInitialLBD 7 26137 9061 0.32 0.92 0.48 7372 24448 0.91 0.74 0.81 0.45 (nbgoodclauses,nbtotalgood,precisionGood,recallGood,FGood,nbbadclause,nbtotalbad,precisionBad,recallBad,FBad,accuracy)
c additional predictionInitialLBD 8 28425 9061 0.31 0.96 0.46 5084 24448 0.92 0.52 0.66 0.40 (nbgoodclauses,nbtotalgood,precisionGood,recallGood,FGood,nbbadclause,nbtotalbad,precisionBad,recallBad,FBad,accuracy)
c additional predictionInitialLBD 10 31090 9061 0.29 0.98 0.44 2419 24448 0.94 0.25 0.40 0.33 (nbgoodclauses,nbtotalgood,precisionGood,recallGood,FGood,nbbadclause,nbtotalbad,precisionBad,recallBad,FBad,accuracy)
c additional predictionInitialLBD 14 32982 9061 0.27 1.00 0.43 527 24448 0.96 0.06 0.11 0.28 (nbgoodclauses,nbtotalgood,precisionGood,recallGood,FGood,nbbadclause,nbtotalbad,precisionBad,recallBad,FBad,accuracy)
c additional predictionInitialLBD 18 33404 9061 0.27 1.00 0.43 105 24448 1.00 0.01 0.02 0.27 (nbgoodclauses,nbtotalgood,precisionGood,recallGood,FGood,nbbadclause,nbtotalbad,precisionBad,recallBad,FBad,accuracy)
c additional predictionInitialLBD 22 33487 9061 0.27 1.00 0.43 22 24448 1.00 0.00 0.00 0.27 (nbgoodclauses,nbtotalgood,precisionGood,recallGood,FGood,nbbadclause,nbtotalbad,precisionBad,recallBad,FBad,accuracy)
c additional predictionInitialLBD 30 33509 9061 0.27 1.00 0.43 0 24448 -nan 0.00 -nan 0.27 (nbgoodclauses,nbtotalgood,precisionGood,recallGood,FGood,nbbadclause,nbtotalbad,precisionBad,recallBad,FBad,accuracy)
c additional predictionInitialLBD 40 33509 9061 0.27 1.00 0.43 0 24448 -nan 0.00 -nan 0.27 (nbgoodclauses,nbtotalgood,precisionGood,recallGood,FGood,nbbadclause,nbtotalbad,precisionBad,recallBad,FBad,accuracy)
c additional predictionFinallLBD 1 3613 9061 0.72 0.29 0.41 29896 24448 0.78 0.96 0.86 0.78 (nbgoodclauses,nbtotalgood,precisionGood,recallGood,FGood,nbbadclause,nbtotalbad,precisionBad,recallBad,FBad,accuracy)
c additional predictionFinallLBD 2 8257 9061 0.60 0.55 0.57 25252 24448 0.84 0.87 0.85 0.78 (nbgoodclauses,nbtotalgood,precisionGood,recallGood,FGood,nbbadclause,nbtotalbad,precisionBad,recallBad,FBad,accuracy)
c additional predictionFinallLBD 3 12225 9061 0.51 0.69 0.58 21284 24448 0.87 0.75 0.81 0.74 (nbgoodclauses,nbtotalgood,precisionGood,recallGood,FGood,nbbadclause,nbtotalbad,precisionBad,recallBad,FBad,accuracy)
c additional predictionFinallLBD 4 17215 9061 0.42 0.79 0.55 16294 24448 0.89 0.59 0.71 0.65 (nbgoodclauses,nbtotalgood,precisionGood,recallGood,FGood,nbbadclause,nbtotalbad,precisionBad,recallBad,FBad,accuracy)
c additional predictionFinallLBD 5 21410 9061 0.37 0.87 0.52 12099 24448 0.90 0.45 0.60 0.56 (nbgoodclauses,nbtotalgood,precisionGood,recallGood,FGood,nbbadclause,nbtotalbad,precisionBad,recallBad,FBad,accuracy)
c additional predictionFinallLBD 6 24679 9061 0.34 0.92 0.49 8830 24448 0.91 0.33 0.49 0.49 (nbgoodclauses,nbtotalgood,precisionGood,recallGood,FGood,nbbadclause,nbtotalbad,precisionBad,recallBad,FBad,accuracy)
c additional predictionFinallLBD 7 27173 9061 0.32 0.95 0.47 6336 24448 0.93 0.24 0.38 0.43 (nbgoodclauses,nbtotalgood,precisionGood,recallGood,FGood,nbbadclause,nbtotalbad,precisionBad,recallBad,FBad,accuracy)
c additional predictionFinallLBD 8 29112 9061 0.30 0.97 0.46 4397 24448 0.94 0.17 0.29 0.39 (nbgoodclauses,nbtotalgood,precisionGood,recallGood,FGood,nbbadclause,nbtotalbad,precisionBad,recallBad,FBad,accuracy)
c additional predictionFinallLBD 10 31351 9061 0.29 0.99 0.44 2158 24448 0.96 0.08 0.15 0.33 (nbgoodclauses,nbtotalgood,precisionGood,recallGood,FGood,nbbadclause,nbtotalbad,precisionBad,recallBad,FBad,accuracy)
c additional predictionFinallLBD 14 33034 9061 0.27 1.00 0.43 475 24448 0.98 0.02 0.04 0.28 (nbgoodclauses,nbtotalgood,precisionGood,recallGood,FGood,nbbadclause,nbtotalbad,precisionBad,recallBad,FBad,accuracy)
c additional predictionFinallLBD 18 33413 9061 0.27 1.00 0.43 96 24448 1.00 0.00 0.01 0.27 (nbgoodclauses,nbtotalgood,precisionGood,recallGood,FGood,nbbadclause,nbtotalbad,precisionBad,recallBad,FBad,accuracy)
c additional predictionFinallLBD 22 33489 9061 0.27 1.00 0.43 20 24448 1.00 0.00 0.00 0.27 (nbgoodclauses,nbtotalgood,precisionGood,recallGood,FGood,nbbadclause,nbtotalbad,precisionBad,recallBad,FBad,accuracy)
c additional predictionFinallLBD 30 33509 9061 0.27 1.00 0.43 0 24448 -nan 0.00 -nan 0.27 (nbgoodclauses,nbtotalgood,precisionGood,recallGood,FGood,nbbadclause,nbtotalbad,precisionBad,recallBad,FBad,accuracy)
c additional predictionFinallLBD 40 33509 9061 0.27 1.00 0.43 0 24448 -nan 0.00 -nan 0.27 (nbgoodclauses,nbtotalgood,precisionGood,recallGood,FGood,nbbadclause,nbtotalbad,precisionBad,recallBad,FBad,accuracy)
c additional predictionSize 1 58 9061 0.98 0.01 0.01 33451 24448 0.73 2.70 1.15 0.73 (nbgoodclauses,nbtotalgood,precisionGood,recallGood,FGood,nbbadclause,nbtotalbad,precisionBad,recallBad,FBad,accuracy)
c additional predictionSize 2 386 9061 0.86 0.04 0.07 33123 24448 0.74 2.69 1.16 0.74 (nbgoodclauses,nbtotalgood,precisionGood,recallGood,FGood,nbbadclause,nbtotalbad,precisionBad,recallBad,FBad,accuracy)
c additional predictionSize 3 1867 9061 0.82 0.17 0.28 31642 24448 0.76 2.66 1.19 0.77 (nbgoodclauses,nbtotalgood,precisionGood,recallGood,FGood,nbbadclause,nbtotalbad,precisionBad,recallBad,FBad,accuracy)
c additional predictionSize 4 3687 9061 0.72 0.29 0.42 29822 24448 0.79 2.58 1.20 0.78 (nbgoodclauses,nbtotalgood,precisionGood,recallGood,FGood,nbbadclause,nbtotalbad,precisionBad,recallBad,FBad,accuracy)
c additional predictionSize 5 5959 9061 0.61 0.40 0.49 27550 24448 0.80 2.44 1.21 0.77 (nbgoodclauses,nbtotalgood,precisionGood,recallGood,FGood,nbbadclause,nbtotalbad,precisionBad,recallBad,FBad,accuracy)
c additional predictionSize 6 8560 9061 0.55 0.52 0.53 24949 24448 0.82 2.27 1.21 0.75 (nbgoodclauses,nbtotalgood,precisionGood,recallGood,FGood,nbbadclause,nbtotalbad,precisionBad,recallBad,FBad,accuracy)
c additional predictionSize 7 10732 9061 0.50 0.60 0.55 22777 24448 0.84 2.11 1.20 0.73 (nbgoodclauses,nbtotalgood,precisionGood,recallGood,FGood,nbbadclause,nbtotalbad,precisionBad,recallBad,FBad,accuracy)
c additional predictionSize 8 12932 9061 0.45 0.65 0.53 20577 24448 0.84 1.92 1.17 0.69 (nbgoodclauses,nbtotalgood,precisionGood,recallGood,FGood,nbbadclause,nbtotalbad,precisionBad,recallBad,FBad,accuracy)
c additional predictionSize 10 16383 9061 0.40 0.72 0.51 17126 24448 0.85 1.61 1.11 0.63 (nbgoodclauses,nbtotalgood,precisionGood,recallGood,FGood,nbbadclause,nbtotalbad,precisionBad,recallBad,FBad,accuracy)
c additional predictionSize 14 21245 9061 0.35 0.81 0.49 12264 24448 0.86 1.17 0.99 0.53 (nbgoodclauses,nbtotalgood,precisionGood,recallGood,FGood,nbbadclause,nbtotalbad,precisionBad,recallBad,FBad,accuracy)
c additional predictionSize 18 24599 9061 0.32 0.87 0.47 8910 24448 0.87 0.85 0.86 0.46 (nbgoodclauses,nbtotalgood,precisionGood,recallGood,FGood,nbbadclause,nbtotalbad,precisionBad,recallBad,FBad,accuracy)
c additional predictionSize 22 27048 9061 0.30 0.91 0.45 6461 24448 0.87 0.62 0.72 0.41 (nbgoodclauses,nbtotalgood,precisionGood,recallGood,FGood,nbbadclause,nbtotalbad,precisionBad,recallBad,FBad,accuracy)
c additional predictionSize 30 30314 9061 0.28 0.95 0.44 3195 24448 0.87 0.31 0.45 0.34 (nbgoodclauses,nbtotalgood,precisionGood,recallGood,FGood,nbbadclause,nbtotalbad,precisionBad,recallBad,FBad,accuracy)
c additional predictionSize 40 32239 9061 0.28 0.98 0.43 1270 24448 0.86 0.12 0.21 0.30 (nbgoodclauses,nbtotalgood,precisionGood,recallGood,FGood,nbbadclause,nbtotalbad,precisionBad,recallBad,FBad,accuracy)
c additional predictionAge 1 2391 9061 0.46 0.12 0.19 31118 24448 0.74 2.56 1.15 0.72 (nbgoodclauses,nbtotalgood,precisionGood,recallGood,FGood,nbbadclause,nbtotalbad,precisionBad,recallBad,FBad,accuracy)
c additional predictionAge 10 2418 9061 0.46 0.12 0.20 31091 24448 0.74 2.56 1.15 0.72 (nbgoodclauses,nbtotalgood,precisionGood,recallGood,FGood,nbbadclause,nbtotalbad,precisionBad,recallBad,FBad,accuracy)
c additional predictionAge 25 2616 9061 0.44 0.13 0.20 30893 24448 0.74 2.54 1.15 0.72 (nbgoodclauses,nbtotalgood,precisionGood,recallGood,FGood,nbbadclause,nbtotalbad,precisionBad,recallBad,FBad,accuracy)
c additional predictionAge 50 2974 9061 0.40 0.13 0.20 30535 24448 0.74 2.50 1.15 0.71 (nbgoodclauses,nbtotalgood,precisionGood,recallGood,FGood,nbbadclause,nbtotalbad,precisionBad,recallBad,FBad,accuracy)
c additional predictionAge 100 3230 9061 0.39 0.14 0.20 30279 24448 0.74 2.48 1.14 0.71 (nbgoodclauses,nbtotalgood,precisionGood,recallGood,FGood,nbbadclause,nbtotalbad,precisionBad,recallBad,FBad,accuracy)
c additional predictionAge 250 3631 9061 0.38 0.15 0.22 29878 24448 0.74 2.45 1.14 0.70 (nbgoodclauses,nbtotalgood,precisionGood,recallGood,FGood,nbbadclause,nbtotalbad,precisionBad,recallBad,FBad,accuracy)
c additional predictionAge 500 4087 9061 0.37 0.16 0.23 29422 24448 0.74 2.41 1.14 0.70 (nbgoodclauses,nbtotalgood,precisionGood,recallGood,FGood,nbbadclause,nbtotalbad,precisionBad,recallBad,FBad,accuracy)
c additional predictionAge 1000 4767 9061 0.36 0.19 0.25 28742 24448 0.74 2.36 1.13 0.69 (nbgoodclauses,nbtotalgood,precisionGood,recallGood,FGood,nbbadclause,nbtotalbad,precisionBad,recallBad,FBad,accuracy)
c additional predictionAge 2500 6564 9061 0.33 0.24 0.28 26945 24448 0.74 2.21 1.11 0.66 (nbgoodclauses,nbtotalgood,precisionGood,recallGood,FGood,nbbadclause,nbtotalbad,precisionBad,recallBad,FBad,accuracy)
c additional predictionAge 5000 9629 9061 0.31 0.33 0.32 23880 24448 0.74 1.96 1.08 0.62 (nbgoodclauses,nbtotalgood,precisionGood,recallGood,FGood,nbbadclause,nbtotalbad,precisionBad,recallBad,FBad,accuracy)
c additional predictionAge 10000 14932 9061 0.29 0.47 0.36 18577 24448 0.74 1.53 1.00 0.54 (nbgoodclauses,nbtotalgood,precisionGood,recallGood,FGood,nbbadclause,nbtotalbad,precisionBad,recallBad,FBad,accuracy)
c additional predictionAge 25000 28490 9061 0.26 0.83 0.40 5019 24448 0.70 0.39 0.50 0.33 (nbgoodclauses,nbtotalgood,precisionGood,recallGood,FGood,nbbadclause,nbtotalbad,precisionBad,recallBad,FBad,accuracy)
c additional predictionAge 50000 33509 9061 0.27 1.00 0.43 0 24448 -nan 0.00 -nan 0.27 (nbgoodclauses,nbtotalgood,precisionGood,recallGood,FGood,nbbadclause,nbtotalbad,precisionBad,recallBad,FBad,accuracy)
c additional predictionAge 100000 33509 9061 0.27 1.00 0.43 0 24448 -nan 0.00 -nan 0.27 (nbgoodclauses,nbtotalgood,precisionGood,recallGood,FGood,nbbadclause,nbtotalbad,precisionBad,recallBad,FBad,accuracy)
c additional predictionTicks 1 2411 9061 0.46 0.12 0.20 31098 24448 0.74 2.56 1.15 0.72 (nbgoodclauses,nbtotalgood,precisionGood,recallGood,FGood,nbbadclause,nbtotalbad,precisionBad,recallBad,FBad,accuracy)
c additional predictionTicks 10 2623 9061 0.47 0.14 0.21 30886 24448 0.75 2.54 1.15 0.72 (nbgoodclauses,nbtotalgood,precisionGood,recallGood,FGood,nbbadclause,nbtotalbad,precisionBad,recallBad,FBad,accuracy)
c additional predictionTicks 25 4379 9061 0.41 0.20 0.27 29130 24448 0.75 2.41 1.14 0.71 (nbgoodclauses,nbtotalgood,precisionGood,recallGood,FGood,nbbadclause,nbtotalbad,precisionBad,recallBad,FBad,accuracy)
c additional predictionTicks 50 6653 9061 0.37 0.27 0.31 26856 24448 0.75 2.23 1.13 0.68 (nbgoodclauses,nbtotalgood,precisionGood,recallGood,FGood,nbbadclause,nbtotalbad,precisionBad,recallBad,FBad,accuracy)
c additional predictionTicks 100 9537 9061 0.35 0.36 0.35 23972 24448 0.76 2.01 1.10 0.64 (nbgoodclauses,nbtotalgood,precisionGood,recallGood,FGood,nbbadclause,nbtotalbad,precisionBad,recallBad,FBad,accuracy)
c additional predictionTicks 250 14279 9061 0.32 0.51 0.39 19230 24448 0.77 1.63 1.04 0.58 (nbgoodclauses,nbtotalgood,precisionGood,recallGood,FGood,nbbadclause,nbtotalbad,precisionBad,recallBad,FBad,accuracy)
c additional predictionTicks 500 18776 9061 0.31 0.63 0.41 14733 24448 0.77 1.26 0.96 0.51 (nbgoodclauses,nbtotalgood,precisionGood,recallGood,FGood,nbbadclause,nbtotalbad,precisionBad,recallBad,FBad,accuracy)
c additional predictionTicks 1000 23098 9061 0.30 0.75 0.42 10411 24448 0.79 0.90 0.84 0.45 (nbgoodclauses,nbtotalgood,precisionGood,recallGood,FGood,nbbadclause,nbtotalbad,precisionBad,recallBad,FBad,accuracy)
c additional predictionTicks 2500 28080 9061 0.28 0.87 0.43 5429 24448 0.79 0.47 0.59 0.36 (nbgoodclauses,nbtotalgood,precisionGood,recallGood,FGood,nbbadclause,nbtotalbad,precisionBad,recallBad,FBad,accuracy)
c additional predictionTicks 5000 30719 9061 0.28 0.94 0.43 2790 24448 0.80 0.25 0.37 0.32 (nbgoodclauses,nbtotalgood,precisionGood,recallGood,FGood,nbbadclause,nbtotalbad,precisionBad,recallBad,FBad,accuracy)
c additional predictionTicks 10000 32386 9061 0.27 0.97 0.43 1123 24448 0.79 0.10 0.17 0.29 (nbgoodclauses,nbtotalgood,precisionGood,recallGood,FGood,nbbadclause,nbtotalbad,precisionBad,recallBad,FBad,accuracy)
c additional predictionTicks 25000 33443 9061 0.27 1.00 0.43 66 24448 0.74 0.01 0.01 0.27 (nbgoodclauses,nbtotalgood,precisionGood,recallGood,FGood,nbbadclause,nbtotalbad,precisionBad,recallBad,FBad,accuracy)
c additional predictionTicks 50000 33509 9061 0.27 1.00 0.43 0 24448 -nan 0.00 -nan 0.27 (nbgoodclauses,nbtotalgood,precisionGood,recallGood,FGood,nbbadclause,nbtotalbad,precisionBad,recallBad,FBad,accuracy)
c additional predictionTicks 100000 33509 9061 0.27 1.00 0.43 0 24448 -nan 0.00 -nan 0.27 (nbgoodclauses,nbtotalgood,precisionGood,recallGood,FGood,nbbadclause,nbtotalbad,precisionBad,recallBad,FBad,accuracy)
c additional lifetimeGood 2 14 42 220 1844 7126 15263 24013 27726 31181 34135 34151 (0,1,5,10,25,50,75,90,95,99,100-1,100)
c additional lifetimeBad 1 14 28 84 1241 5799 13818 21244 25161 30347 34088 34088 (0,1,5,10,25,50,75,90,95,99,100-1,100)
c additional lifetimeBadBad 1 14 14 14 28 182 2086 9580 15017 23868 32689 33109 (0,1,5,10,25,50,75,90,95,99,100-1,100)
c additional compositionBad 1 2 3 5 10 22 41 69 90 140 400 442 (0,1,5,10,25,50,75,90,95,99,100-1,100)
c additional compositionBadWithGood 0 0 0 0 2 5 10 17 23 42 118 127 (0,1,5,10,25,50,75,90,95,99,100-1,100)
c additional compositionBadWithBad 0 0 0 0 0 1 3 5 6 11 31 31 (0,1,5,10,25,50,75,90,95,99,100-1,100)
c additional compositionBadWithInitial 0 0 1 2 6 15 29 50 66 103 265 295 (0,1,5,10,25,50,75,90,95,99,100-1,100)
c additional compositionGood 1 2 2 3 5 12 27 53 78 140 331 334 (0,1,5,10,25,50,75,90,95,99,100-1,100)
c additional compositionGoodWithGood 0 0 0 0 1 4 9 19 28 51 115 116 (0,1,5,10,25,50,75,90,95,99,100-1,100)
c additional compositionGoodWithInitial 0 0 0 1 3 8 18 35 54 97 219 225 (0,1,5,10,25,50,75,90,95,99,100-1,100)
c additional propagationGood total 722848 percentiles 0 1 1 1 2 9 63 239 413 947 2905 2983 (0,1,5,10,25,50,75,90,95,99,100-1,100)
c additional propagationBad total 112802 percentiles 1 1 1 1 1 1 3 7 13 58 1030 1081 (0,1,5,10,25,50,75,90,95,99,100-1,100)
c additional resolutionGood total 220726 percentiles 0 1 1 1 1 5 23 68 116 253 802 826 (0,1,5,10,25,50,75,90,95,99,100-1,100)
c additional resolutionBad total 44000 percentiles 0 0 0 0 1 1 2 4 6 16 127 136 (0,1,5,10,25,50,75,90,95,99,100-1,100)
No graph is dumped
c result of core 6 is UNSAT
c One thread has finished
c Core 6 said it finished
c result of core 0 is UNKNOWN
c result of core 9 is UNKNOWN
c result of core 2 is UNKNOWN
c result of core 4 is UNKNOWN
c result of core 8 is UNKNOWN
c result of core 10 is UNKNOWN
c result of core 3 is UNKNOWN
c result of core 12 is UNKNOWN
c result of core 7 is UNKNOWN
c result of core 11 is UNKNOWN
c result of core 5 is UNKNOWN
c result of core 1 is UNKNOWN
c result of core 13 is UNKNOWN
c restarts              : 14 (171 conflicts in avg)
c blocked restarts      : 0 (multiple: 0) 
c last block at restart : 0
c nb ReduceDB           : 0
c nb removed Clauses    : 0
c nb learnts DL2        : 219
c nb learnts size 2     : 27
c nb learnts size 1     : 2
c conflicts             : 2394           (1147 /sec)
c decisions             : 6801           (0.00 % random) (3258 /sec)
c propagations          : 297391         (142450 /sec)
c conflict literals     : 31989          (3.34 % deleted)
c nb reduced Clauses    : 79
c CPU time              : 2.08768 s

s INDETERMINATE
