c
c This is glucose-proof 1.0 based on  2.1 --  (thanks to MiniSAT)
c
c EXPERIMENTAL EASY PARALLEL (ROUND ROBIN) VERSION
c
c WARNING: for repeatability, setting FPU to use double precision
c Parallel version 6 solvers created.
c ========================================[ Problem Statistics ]===========================================
c |                                                                                                       |
c |  Number of variables:          1826                                                                   |
c |  Number of clauses:           10221                                                                   |
c |  Parse time:                   0.01 s                                                                 |
c |                                                                                                       |
c ========================================[ MAGIC CONSTANTS ]==============================================
c | Constants are supposed to work well together :-)                                                      |
c | however, if you find better choices, please let us known...                                           |
c |-------------------------------------------------------------------------------------------------------|
c |                                |                                |                                     |
c | - Restarts:                    | - Reduce Clause DB:            | - Minimize Asserting:               |
c |   * LBD Queue    :     50      |   * First     :   4000         |    * size <  30                     |
c |   * Trail  Queue :   5000      |   * Inc       :    300         |    * lbd  <   6                     |
c |   * K            :   0.80      |   * Special   :   1000         |                                     |
c |   * R            :   1.40      |   * Protected :  (lbd)< 30     |                                     |
c |                                |                                |                                     |
c ==================================[ Search Statistics (every  10000 conflicts) ]=========================
c |                                                                                                       |
c |          RESTARTS           |          ORIGINAL         |              LEARNT              | Progress |
c |       NB   Blocked  Avg Cfc |    Vars  Clauses Literals |   Red   Learnts    LBD2  Removed |          |
c =========================================================================================================
c empty clause found by core 4 at conflict 5161
*
c checking the resolution graph...OK
c All useful bySize 17594 clauses, percentiles 0 2 2 2 3 5 10 20 29 49 86 87 (0,1,5,10,25,50,75,90,95,99,100-1,100)
c All useless bySize 23919 clauses, percentiles 0 0 3 3 6 11 21 33 41 59 87 88 (0,1,5,10,25,50,75,90,95,99,100-1,100)
c ProofOnly useful bySize 11426 clauses, percentiles 0 2 3 3 5 8 15 26 35 53 86 87 (0,1,5,10,25,50,75,90,95,99,100-1,100)
c ProofOnly useless bySize 19539 clauses, percentiles 2 3 5 6 9 14 24 35 43 60 87 88 (0,1,5,10,25,50,75,90,95,99,100-1,100)
c All useful byFinalLBD 17594 clauses, percentiles 0 1 1 1 2 3 4 6 8 11 20 20 (0,1,5,10,25,50,75,90,95,99,100-1,100)
c All useless byFinalLBD 23919 clauses, percentiles 0 0 2 2 3 5 7 10 12 17 37 39 (0,1,5,10,25,50,75,90,95,99,100-1,100)
c ProofOnly useful byFinalLBD 11426 clauses, percentiles 0 1 1 1 2 3 5 7 9 12 19 20 (0,1,5,10,25,50,75,90,95,99,100-1,100)
c ProofOnly useless byFinalLBD 19539 clauses, percentiles 1 1 2 2 4 5 8 11 13 17 37 39 (0,1,5,10,25,50,75,90,95,99,100-1,100)
c All useful byInitialLBD 17594 clauses, percentiles 0 2 2 2 3 3 5 7 9 12 20 20 (0,1,5,10,25,50,75,90,95,99,100-1,100)
c All useless byInitialLBD 23919 clauses, percentiles 0 0 2 3 4 5 8 10 12 17 38 39 (0,1,5,10,25,50,75,90,95,99,100-1,100)
c ProofOnly useful byInitialLBD 11426 clauses, percentiles 0 2 2 2 3 4 6 8 10 12 20 20 (0,1,5,10,25,50,75,90,95,99,100-1,100)
c ProofOnly useless byInitialLBD 19539 clauses, percentiles 2 2 3 3 4 6 8 11 13 17 38 39 (0,1,5,10,25,50,75,90,95,99,100-1,100)
c Literals ProofOnly useful 134234
c Literals ProofOnly useless 350508
c additional windowsGood 1 1 1 1 1 1 2 3 4 5 10 10 (0,1,5,10,25,50,75,90,95,99,100-1,100)
c additional windowsBad 1 1 1 1 1 2 4 5 8 15 29 33 (0,1,5,10,25,50,75,90,95,99,100-1,100)
c additional 1WindowNoDecision 4057 2096 0.52 2302 958 0.42 (nbWindowsGood,nbWindowsNoDecisionGood,nbWindowsBad,nbWindowsNoDecisionBad
c additional topclausessize all (10%,5%,1%,top) 32.63 41.07 58.33 87
c additional topclausessize proofonly (10%,5%,1%,top) 35.00 43.27 60.09 87
c additional topclausesinitialLBD all (10%,5%,1%,top) 29.16 37.70 55.57 87
c additional topclausesinitialLBD proofonly (10%,5%,1%,top) 26.50 35.00 53.37 87
c additional topclausesfinalLBD all (10%,5%,1%,top) 23.40 31.75 50.59 87
c additional topclausesfinalLBD proofonly (10%,5%,1%,top) 21.87 30.01 49.02 87
c additional predictionInitialLBD 1 69 11426 1.00 0.01 0.01 30896 19539 0.63 1.71 0.92 0.63 (nbgoodclauses,nbtotalgood,precisionGood,recallGood,FGood,nbbadclause,nbtotalbad,precisionBad,recallBad,FBad,accuracy)
c additional predictionInitialLBD 2 2376 11426 0.69 0.14 0.24 28589 19539 0.66 1.65 0.94 0.66 (nbgoodclauses,nbtotalgood,precisionGood,recallGood,FGood,nbbadclause,nbtotalbad,precisionBad,recallBad,FBad,accuracy)
c additional predictionInitialLBD 3 7150 11426 0.64 0.40 0.49 23815 19539 0.71 1.48 0.96 0.69 (nbgoodclauses,nbtotalgood,precisionGood,recallGood,FGood,nbbadclause,nbtotalbad,precisionBad,recallBad,FBad,accuracy)
c additional predictionInitialLBD 4 12380 11426 0.54 0.59 0.57 18585 19539 0.75 1.22 0.93 0.67 (nbgoodclauses,nbtotalgood,precisionGood,recallGood,FGood,nbbadclause,nbtotalbad,precisionBad,recallBad,FBad,accuracy)
c additional predictionInitialLBD 5 16801 11426 0.49 0.72 0.58 14164 19539 0.77 0.96 0.86 0.62 (nbgoodclauses,nbtotalgood,precisionGood,recallGood,FGood,nbbadclause,nbtotalbad,precisionBad,recallBad,FBad,accuracy)
c additional predictionInitialLBD 6 20347 11426 0.46 0.81 0.59 10618 19539 0.80 0.74 0.77 0.57 (nbgoodclauses,nbtotalgood,precisionGood,recallGood,FGood,nbbadclause,nbtotalbad,precisionBad,recallBad,FBad,accuracy)
c additional predictionInitialLBD 7 23109 11426 0.43 0.88 0.58 7856 19539 0.82 0.57 0.67 0.53 (nbgoodclauses,nbtotalgood,precisionGood,recallGood,FGood,nbbadclause,nbtotalbad,precisionBad,recallBad,FBad,accuracy)
c additional predictionInitialLBD 8 25276 11426 0.42 0.92 0.57 5689 19539 0.84 0.42 0.56 0.49 (nbgoodclauses,nbtotalgood,precisionGood,recallGood,FGood,nbbadclause,nbtotalbad,precisionBad,recallBad,FBad,accuracy)
c additional predictionInitialLBD 10 28246 11426 0.39 0.97 0.56 2719 19539 0.87 0.21 0.34 0.43 (nbgoodclauses,nbtotalgood,precisionGood,recallGood,FGood,nbbadclause,nbtotalbad,precisionBad,recallBad,FBad,accuracy)
c additional predictionInitialLBD 14 30383 11426 0.38 1.00 0.55 582 19539 0.95 0.05 0.09 0.39 (nbgoodclauses,nbtotalgood,precisionGood,recallGood,FGood,nbbadclause,nbtotalbad,precisionBad,recallBad,FBad,accuracy)
c additional predictionInitialLBD 18 30829 11426 0.37 1.00 0.54 136 19539 0.97 0.01 0.02 0.37 (nbgoodclauses,nbtotalgood,precisionGood,recallGood,FGood,nbbadclause,nbtotalbad,precisionBad,recallBad,FBad,accuracy)
c additional predictionInitialLBD 22 30942 11426 0.37 1.00 0.54 23 19539 1.00 0.00 0.00 0.37 (nbgoodclauses,nbtotalgood,precisionGood,recallGood,FGood,nbbadclause,nbtotalbad,precisionBad,recallBad,FBad,accuracy)
c additional predictionInitialLBD 30 30955 11426 0.37 1.00 0.54 10 19539 1.00 0.00 0.00 0.37 (nbgoodclauses,nbtotalgood,precisionGood,recallGood,FGood,nbbadclause,nbtotalbad,precisionBad,recallBad,FBad,accuracy)
c additional predictionInitialLBD 40 30965 11426 0.37 1.00 0.54 0 19539 -nan 0.00 -nan 0.37 (nbgoodclauses,nbtotalgood,precisionGood,recallGood,FGood,nbbadclause,nbtotalbad,precisionBad,recallBad,FBad,accuracy)
c additional predictionFinallLBD 1 3504 11426 0.76 0.23 0.36 27461 19539 0.68 0.96 0.80 0.69 (nbgoodclauses,nbtotalgood,precisionGood,recallGood,FGood,nbbadclause,nbtotalbad,precisionBad,recallBad,FBad,accuracy)
c additional predictionFinallLBD 2 7969 11426 0.68 0.48 0.56 22996 19539 0.74 0.87 0.80 0.72 (nbgoodclauses,nbtotalgood,precisionGood,recallGood,FGood,nbbadclause,nbtotalbad,precisionBad,recallBad,FBad,accuracy)
c additional predictionFinallLBD 3 11468 11426 0.61 0.61 0.61 19497 19539 0.77 0.77 0.77 0.71 (nbgoodclauses,nbtotalgood,precisionGood,recallGood,FGood,nbbadclause,nbtotalbad,precisionBad,recallBad,FBad,accuracy)
c additional predictionFinallLBD 4 15562 11426 0.54 0.73 0.62 15403 19539 0.80 0.63 0.70 0.67 (nbgoodclauses,nbtotalgood,precisionGood,recallGood,FGood,nbbadclause,nbtotalbad,precisionBad,recallBad,FBad,accuracy)
c additional predictionFinallLBD 5 19028 11426 0.49 0.81 0.61 11937 19539 0.82 0.50 0.62 0.61 (nbgoodclauses,nbtotalgood,precisionGood,recallGood,FGood,nbbadclause,nbtotalbad,precisionBad,recallBad,FBad,accuracy)
c additional predictionFinallLBD 6 21889 11426 0.45 0.87 0.60 9076 19539 0.84 0.39 0.53 0.57 (nbgoodclauses,nbtotalgood,precisionGood,recallGood,FGood,nbbadclause,nbtotalbad,precisionBad,recallBad,FBad,accuracy)
c additional predictionFinallLBD 7 24187 11426 0.43 0.91 0.59 6778 19539 0.85 0.30 0.44 0.52 (nbgoodclauses,nbtotalgood,precisionGood,recallGood,FGood,nbbadclause,nbtotalbad,precisionBad,recallBad,FBad,accuracy)
c additional predictionFinallLBD 8 26049 11426 0.41 0.94 0.58 4916 19539 0.87 0.22 0.35 0.49 (nbgoodclauses,nbtotalgood,precisionGood,recallGood,FGood,nbbadclause,nbtotalbad,precisionBad,recallBad,FBad,accuracy)
c additional predictionFinallLBD 10 28596 11426 0.39 0.98 0.56 2369 19539 0.90 0.11 0.20 0.43 (nbgoodclauses,nbtotalgood,precisionGood,recallGood,FGood,nbbadclause,nbtotalbad,precisionBad,recallBad,FBad,accuracy)
c additional predictionFinallLBD 14 30440 11426 0.37 1.00 0.54 525 19539 0.96 0.03 0.05 0.38 (nbgoodclauses,nbtotalgood,precisionGood,recallGood,FGood,nbbadclause,nbtotalbad,precisionBad,recallBad,FBad,accuracy)
c additional predictionFinallLBD 18 30846 11426 0.37 1.00 0.54 119 19539 0.98 0.01 0.01 0.37 (nbgoodclauses,nbtotalgood,precisionGood,recallGood,FGood,nbbadclause,nbtotalbad,precisionBad,recallBad,FBad,accuracy)
c additional predictionFinallLBD 22 30945 11426 0.37 1.00 0.54 20 19539 1.00 0.00 0.00 0.37 (nbgoodclauses,nbtotalgood,precisionGood,recallGood,FGood,nbbadclause,nbtotalbad,precisionBad,recallBad,FBad,accuracy)
c additional predictionFinallLBD 30 30955 11426 0.37 1.00 0.54 10 19539 1.00 0.00 0.00 0.37 (nbgoodclauses,nbtotalgood,precisionGood,recallGood,FGood,nbbadclause,nbtotalbad,precisionBad,recallBad,FBad,accuracy)
c additional predictionFinallLBD 40 30965 11426 0.37 1.00 0.54 0 19539 -nan 0.00 -nan 0.37 (nbgoodclauses,nbtotalgood,precisionGood,recallGood,FGood,nbbadclause,nbtotalbad,precisionBad,recallBad,FBad,accuracy)
c additional predictionSize 1 69 11426 1.00 0.01 0.01 30896 19539 0.63 1.71 0.92 0.63 (nbgoodclauses,nbtotalgood,precisionGood,recallGood,FGood,nbbadclause,nbtotalbad,precisionBad,recallBad,FBad,accuracy)
c additional predictionSize 2 316 11426 0.91 0.03 0.05 30649 19539 0.64 1.71 0.93 0.64 (nbgoodclauses,nbtotalgood,precisionGood,recallGood,FGood,nbbadclause,nbtotalbad,precisionBad,recallBad,FBad,accuracy)
c additional predictionSize 3 1620 11426 0.82 0.12 0.20 29345 19539 0.66 1.68 0.94 0.66 (nbgoodclauses,nbtotalgood,precisionGood,recallGood,FGood,nbbadclause,nbtotalbad,precisionBad,recallBad,FBad,accuracy)
c additional predictionSize 4 3202 11426 0.75 0.21 0.33 27763 19539 0.67 1.64 0.96 0.68 (nbgoodclauses,nbtotalgood,precisionGood,recallGood,FGood,nbbadclause,nbtotalbad,precisionBad,recallBad,FBad,accuracy)
c additional predictionSize 5 5186 11426 0.69 0.31 0.43 25779 19539 0.70 1.57 0.96 0.70 (nbgoodclauses,nbtotalgood,precisionGood,recallGood,FGood,nbbadclause,nbtotalbad,precisionBad,recallBad,FBad,accuracy)
c additional predictionSize 6 7355 11426 0.64 0.41 0.50 23610 19539 0.71 1.48 0.96 0.70 (nbgoodclauses,nbtotalgood,precisionGood,recallGood,FGood,nbbadclause,nbtotalbad,precisionBad,recallBad,FBad,accuracy)
c additional predictionSize 7 9141 11426 0.60 0.48 0.53 21824 19539 0.73 1.39 0.95 0.69 (nbgoodclauses,nbtotalgood,precisionGood,recallGood,FGood,nbbadclause,nbtotalbad,precisionBad,recallBad,FBad,accuracy)
c additional predictionSize 8 10918 11426 0.57 0.54 0.55 20047 19539 0.74 1.30 0.94 0.68 (nbgoodclauses,nbtotalgood,precisionGood,recallGood,FGood,nbbadclause,nbtotalbad,precisionBad,recallBad,FBad,accuracy)
c additional predictionSize 10 14033 11426 0.51 0.63 0.57 16932 19539 0.75 1.11 0.90 0.64 (nbgoodclauses,nbtotalgood,precisionGood,recallGood,FGood,nbbadclause,nbtotalbad,precisionBad,recallBad,FBad,accuracy)
c additional predictionSize 14 18505 11426 0.46 0.75 0.57 12460 19539 0.77 0.84 0.80 0.59 (nbgoodclauses,nbtotalgood,precisionGood,recallGood,FGood,nbbadclause,nbtotalbad,precisionBad,recallBad,FBad,accuracy)
c additional predictionSize 18 21654 11426 0.43 0.82 0.57 9311 19539 0.78 0.64 0.70 0.54 (nbgoodclauses,nbtotalgood,precisionGood,recallGood,FGood,nbbadclause,nbtotalbad,precisionBad,recallBad,FBad,accuracy)
c additional predictionSize 22 24002 11426 0.41 0.87 0.56 6963 19539 0.79 0.48 0.60 0.50 (nbgoodclauses,nbtotalgood,precisionGood,recallGood,FGood,nbbadclause,nbtotalbad,precisionBad,recallBad,FBad,accuracy)
c additional predictionSize 30 27204 11426 0.39 0.93 0.55 3761 19539 0.78 0.26 0.39 0.44 (nbgoodclauses,nbtotalgood,precisionGood,recallGood,FGood,nbbadclause,nbtotalbad,precisionBad,recallBad,FBad,accuracy)
c additional predictionSize 40 29403 11426 0.38 0.97 0.54 1562 19539 0.77 0.11 0.19 0.40 (nbgoodclauses,nbtotalgood,precisionGood,recallGood,FGood,nbbadclause,nbtotalbad,precisionBad,recallBad,FBad,accuracy)
c additional predictionAge 1 2178 11426 0.53 0.10 0.17 28787 19539 0.64 1.62 0.92 0.63 (nbgoodclauses,nbtotalgood,precisionGood,recallGood,FGood,nbbadclause,nbtotalbad,precisionBad,recallBad,FBad,accuracy)
c additional predictionAge 10 2370 11426 0.51 0.10 0.17 28595 19539 0.64 1.61 0.92 0.63 (nbgoodclauses,nbtotalgood,precisionGood,recallGood,FGood,nbbadclause,nbtotalbad,precisionBad,recallBad,FBad,accuracy)
c additional predictionAge 25 2821 11426 0.46 0.11 0.18 28144 19539 0.64 1.58 0.91 0.62 (nbgoodclauses,nbtotalgood,precisionGood,recallGood,FGood,nbbadclause,nbtotalbad,precisionBad,recallBad,FBad,accuracy)
c additional predictionAge 50 3019 11426 0.45 0.12 0.19 27946 19539 0.64 1.56 0.91 0.62 (nbgoodclauses,nbtotalgood,precisionGood,recallGood,FGood,nbbadclause,nbtotalbad,precisionBad,recallBad,FBad,accuracy)
c additional predictionAge 100 3229 11426 0.44 0.12 0.19 27736 19539 0.64 1.55 0.91 0.62 (nbgoodclauses,nbtotalgood,precisionGood,recallGood,FGood,nbbadclause,nbtotalbad,precisionBad,recallBad,FBad,accuracy)
c additional predictionAge 250 3622 11426 0.42 0.13 0.20 27343 19539 0.64 1.53 0.90 0.61 (nbgoodclauses,nbtotalgood,precisionGood,recallGood,FGood,nbbadclause,nbtotalbad,precisionBad,recallBad,FBad,accuracy)
c additional predictionAge 500 4069 11426 0.41 0.14 0.21 26896 19539 0.64 1.50 0.89 0.61 (nbgoodclauses,nbtotalgood,precisionGood,recallGood,FGood,nbbadclause,nbtotalbad,precisionBad,recallBad,FBad,accuracy)
c additional predictionAge 1000 4771 11426 0.39 0.16 0.23 26194 19539 0.63 1.45 0.88 0.60 (nbgoodclauses,nbtotalgood,precisionGood,recallGood,FGood,nbbadclause,nbtotalbad,precisionBad,recallBad,FBad,accuracy)
c additional predictionAge 2500 6675 11426 0.36 0.21 0.26 24290 19539 0.63 1.33 0.85 0.57 (nbgoodclauses,nbtotalgood,precisionGood,recallGood,FGood,nbbadclause,nbtotalbad,precisionBad,recallBad,FBad,accuracy)
c additional predictionAge 5000 9778 11426 0.34 0.29 0.31 21187 19539 0.62 1.14 0.80 0.53 (nbgoodclauses,nbtotalgood,precisionGood,recallGood,FGood,nbbadclause,nbtotalbad,precisionBad,recallBad,FBad,accuracy)
c additional predictionAge 10000 15389 11426 0.34 0.46 0.40 15576 19539 0.61 0.83 0.70 0.48 (nbgoodclauses,nbtotalgood,precisionGood,recallGood,FGood,nbbadclause,nbtotalbad,precisionBad,recallBad,FBad,accuracy)
c additional predictionAge 25000 28280 11426 0.36 0.88 0.51 2685 19539 0.49 0.11 0.19 0.37 (nbgoodclauses,nbtotalgood,precisionGood,recallGood,FGood,nbbadclause,nbtotalbad,precisionBad,recallBad,FBad,accuracy)
c additional predictionAge 50000 30965 11426 0.37 1.00 0.54 0 19539 -nan 0.00 -nan 0.37 (nbgoodclauses,nbtotalgood,precisionGood,recallGood,FGood,nbbadclause,nbtotalbad,precisionBad,recallBad,FBad,accuracy)
c additional predictionAge 100000 30965 11426 0.37 1.00 0.54 0 19539 -nan 0.00 -nan 0.37 (nbgoodclauses,nbtotalgood,precisionGood,recallGood,FGood,nbbadclause,nbtotalbad,precisionBad,recallBad,FBad,accuracy)
c additional predictionTicks 1 2201 11426 0.53 0.10 0.17 28764 19539 0.64 1.62 0.92 0.63 (nbgoodclauses,nbtotalgood,precisionGood,recallGood,FGood,nbbadclause,nbtotalbad,precisionBad,recallBad,FBad,accuracy)
c additional predictionTicks 10 3662 11426 0.48 0.15 0.23 27303 19539 0.65 1.54 0.91 0.63 (nbgoodclauses,nbtotalgood,precisionGood,recallGood,FGood,nbbadclause,nbtotalbad,precisionBad,recallBad,FBad,accuracy)
c additional predictionTicks 25 5993 11426 0.44 0.23 0.30 24972 19539 0.65 1.41 0.89 0.61 (nbgoodclauses,nbtotalgood,precisionGood,recallGood,FGood,nbbadclause,nbtotalbad,precisionBad,recallBad,FBad,accuracy)
c additional predictionTicks 50 7864 11426 0.42 0.29 0.34 23101 19539 0.65 1.31 0.87 0.59 (nbgoodclauses,nbtotalgood,precisionGood,recallGood,FGood,nbbadclause,nbtotalbad,precisionBad,recallBad,FBad,accuracy)
c additional predictionTicks 100 10362 11426 0.40 0.37 0.39 20603 19539 0.65 1.17 0.83 0.57 (nbgoodclauses,nbtotalgood,precisionGood,recallGood,FGood,nbbadclause,nbtotalbad,precisionBad,recallBad,FBad,accuracy)
c additional predictionTicks 250 14495 11426 0.39 0.50 0.44 16470 19539 0.65 0.94 0.77 0.53 (nbgoodclauses,nbtotalgood,precisionGood,recallGood,FGood,nbbadclause,nbtotalbad,precisionBad,recallBad,FBad,accuracy)
c additional predictionTicks 500 18127 11426 0.39 0.61 0.47 12838 19539 0.65 0.73 0.69 0.50 (nbgoodclauses,nbtotalgood,precisionGood,recallGood,FGood,nbbadclause,nbtotalbad,precisionBad,recallBad,FBad,accuracy)
c additional predictionTicks 1000 21795 11426 0.38 0.73 0.50 9170 19539 0.66 0.53 0.59 0.46 (nbgoodclauses,nbtotalgood,precisionGood,recallGood,FGood,nbbadclause,nbtotalbad,precisionBad,recallBad,FBad,accuracy)
c additional predictionTicks 2500 25944 11426 0.38 0.85 0.52 5021 19539 0.67 0.29 0.41 0.42 (nbgoodclauses,nbtotalgood,precisionGood,recallGood,FGood,nbbadclause,nbtotalbad,precisionBad,recallBad,FBad,accuracy)
c additional predictionTicks 5000 28598 11426 0.37 0.94 0.54 2367 19539 0.70 0.15 0.24 0.40 (nbgoodclauses,nbtotalgood,precisionGood,recallGood,FGood,nbbadclause,nbtotalbad,precisionBad,recallBad,FBad,accuracy)
c additional predictionTicks 10000 30221 11426 0.37 0.98 0.54 744 19539 0.77 0.05 0.09 0.38 (nbgoodclauses,nbtotalgood,precisionGood,recallGood,FGood,nbbadclause,nbtotalbad,precisionBad,recallBad,FBad,accuracy)
c additional predictionTicks 25000 30958 11426 0.37 1.00 0.54 7 19539 0.71 0.00 0.00 0.37 (nbgoodclauses,nbtotalgood,precisionGood,recallGood,FGood,nbbadclause,nbtotalbad,precisionBad,recallBad,FBad,accuracy)
c additional predictionTicks 50000 30965 11426 0.37 1.00 0.54 0 19539 -nan 0.00 -nan 0.37 (nbgoodclauses,nbtotalgood,precisionGood,recallGood,FGood,nbbadclause,nbtotalbad,precisionBad,recallBad,FBad,accuracy)
c additional predictionTicks 100000 30965 11426 0.37 1.00 0.54 0 19539 -nan 0.00 -nan 0.37 (nbgoodclauses,nbtotalgood,precisionGood,recallGood,FGood,nbbadclause,nbtotalbad,precisionBad,recallBad,FBad,accuracy)
c additional lifetimeGood 1 6 18 125 1795 6118 12681 20112 23574 27896 31039 31059 (0,1,5,10,25,50,75,90,95,99,100-1,100)
c additional lifetimeBad 1 6 12 36 770 4286 10578 17261 20956 26411 30967 31063 (0,1,5,10,25,50,75,90,95,99,100-1,100)
c additional lifetimeBadBad 1 6 6 6 12 90 1212 6569 11664 21550 29846 29948 (0,1,5,10,25,50,75,90,95,99,100-1,100)
c additional compositionBad 1 2 3 5 10 22 44 75 98 154 453 473 (0,1,5,10,25,50,75,90,95,99,100-1,100)
c additional compositionBadWithGood 0 0 0 0 2 4 10 18 25 44 95 100 (0,1,5,10,25,50,75,90,95,99,100-1,100)
c additional compositionBadWithBad 0 0 0 0 0 1 3 5 6 11 31 36 (0,1,5,10,25,50,75,90,95,99,100-1,100)
c additional compositionBadWithInitial 0 0 1 2 7 15 32 55 73 114 358 378 (0,1,5,10,25,50,75,90,95,99,100-1,100)
c additional compositionGood 1 2 2 3 6 13 30 58 81 142 268 274 (0,1,5,10,25,50,75,90,95,99,100-1,100)
c additional compositionGoodWithGood 0 0 0 0 2 4 11 22 31 55 110 111 (0,1,5,10,25,50,75,90,95,99,100-1,100)
c additional compositionGoodWithInitial 0 0 0 1 3 8 20 37 54 94 172 176 (0,1,5,10,25,50,75,90,95,99,100-1,100)
c additional propagationGood total 612793 percentiles 0 1 1 1 2 6 29 133 275 802 2162 2255 (0,1,5,10,25,50,75,90,95,99,100-1,100)
c additional propagationBad total 88934 percentiles 1 1 1 1 1 1 3 7 14 54 714 739 (0,1,5,10,25,50,75,90,95,99,100-1,100)
c additional resolutionGood total 215314 percentiles 0 1 1 1 1 3 13 46 91 249 671 674 (0,1,5,10,25,50,75,90,95,99,100-1,100)
c additional resolutionBad total 36127 percentiles 0 0 0 0 1 1 2 4 6 16 108 206 (0,1,5,10,25,50,75,90,95,99,100-1,100)
No graph is dumped
c result of core 4 is UNSAT
c One thread has finished
c Core 4 said it finished
c result of core 2 is UNKNOWN
c result of core 0 is UNKNOWN
c result of core 1 is UNKNOWN
c result of core 3 is UNKNOWN
c result of core 5 is UNKNOWN
c restarts              : 26 (198 conflicts in avg)
c blocked restarts      : 0 (multiple: 0) 
c last block at restart : 0
c nb ReduceDB           : 1
c nb removed Clauses    : 3319
c nb learnts DL2        : 436
c nb learnts size 2     : 41
c nb learnts size 1     : 13
c conflicts             : 5161           (2498 /sec)
c decisions             : 12548          (0.00 % random) (6074 /sec)
c propagations          : 582940         (282202 /sec)
c conflict literals     : 83537          (3.66 % deleted)
c nb reduced Clauses    : 149
c CPU time              : 2.06569 s

s INDETERMINATE
