c
c This is glucose-proof 1.0 based on  2.1 --  (thanks to MiniSAT)
c
c EXPERIMENTAL EASY PARALLEL (ROUND ROBIN) VERSION
c
c WARNING: for repeatability, setting FPU to use double precision
c Parallel version 10 solvers created.
c ========================================[ Problem Statistics ]===========================================
c |                                                                                                       |
c |  Number of variables:         23407                                                                   |
c |  Number of clauses:          135139                                                                   |
c |  Parse time:                   0.44 s                                                                 |
c |                                                                                                       |
c ========================================[ MAGIC CONSTANTS ]==============================================
c | Constants are supposed to work well together :-)                                                      |
c | however, if you find better choices, please let us known...                                           |
c |-------------------------------------------------------------------------------------------------------|
c |                                |                                |                                     |
c | - Restarts:                    | - Reduce Clause DB:            | - Minimize Asserting:               |
c |   * LBD Queue    :     50      |   * First     :   4000         |    * size <  30                     |
c |   * Trail  Queue :   5000      |   * Inc       :    300         |    * lbd  <   6                     |
c |   * K            :   0.80      |   * Special   :   1000         |                                     |
c |   * R            :   1.40      |   * Protected :  (lbd)< 30     |                                     |
c |                                |                                |                                     |
c ==================================[ Search Statistics (every  10000 conflicts) ]=========================
c |                                                                                                       |
c |          RESTARTS           |          ORIGINAL         |              LEARNT              | Progress |
c |       NB   Blocked  Avg Cfc |    Vars  Clauses Literals |   Red   Learnts    LBD2  Removed |          |
c =========================================================================================================
c |       66         0      151 |   23183   135139   456442 |     1     7983     1045     8353 |  0.957 % |
c |      116        77      172 |   23119   135139   456442 |     3     6952     1664    38488 |  1.230 % |
c |      184       143      163 |   23033   135139   456442 |     3    16933     2110    38488 |  1.598 % |
c |      242       203      165 |   22999   135139   456442 |     4    15720     2509    58147 |  1.743 % |
c |      298       276      167 |   22956   135139   456442 |     4    25379     2757    58147 |  1.927 % |
c |      364       348      164 |   22909   135139   456442 |     5    22184     3032    78574 |  2.128 % |
c |      437       397      160 |   22844   135139   456442 |     6    16571     3232   100228 |  2.405 % |
c |      511       450      156 |   22792   135139   456442 |     6    26470     3382   100228 |  2.627 % |
c |      577       510      155 |   22743   135139   456442 |     7    18384     3516   123841 |  2.837 % |
c |      630       572      158 |   22693   135139   456442 |     7    28219     3687   123841 |  3.050 % |
c |      703       630      156 |   22622   135139   456442 |     7    38092     3819   123841 |  3.354 % |
c |      763       687      157 |   22556   135139   456442 |     8    27618     3936   150102 |  3.636 % |
c |      815       746      159 |   22544   135139   456442 |     8    37034     4056   150102 |  3.687 % |
c |      884       805      158 |   22531   135139   456442 |     9    24222     4174   177847 |  3.743 % |
c |      945       863      158 |   22522   135139   456442 |     9    34201     4285   177847 |  3.781 % |
c |      978       920      163 |   22520   135139   456442 |     9    44188     4366   177847 |  3.789 % |
c |     1027       982      165 |   22353   135139   456442 |    10    29042     4463   206504 |  4.503 % |
c |     1081      1047      166 |   22350   135139   456442 |    10    39029     4570   206504 |  4.516 % |
c |     1148      1099      165 |   22344   135139   456442 |    10    49024     4652   206504 |  4.541 % |
c |     1219      1167      164 |   22338   135139   456442 |    11    30682     4735   239168 |  4.567 % |
c |     1285      1223      163 |   22283   135139   456442 |    11    40529     4815   239168 |  4.802 % |
c |     1352      1274      162 |   22248   135139   456442 |    11    50516     4886   239168 |  4.952 % |
c |     1418      1330      162 |   22246   135139   456442 |    11    60079     4962   239168 |  4.960 % |
c |     1468      1396      163 |   22227   135139   456442 |    12    39775     5039   273035 |  5.041 % |
c |     1509      1457      165 |   22157   135139   456442 |    12    47451     5117   273035 |  5.340 % |
c |     1581      1508      164 |   22153   135139   456442 |    12    57421     5171   273035 |  5.357 % |
c |     1650      1574      163 |   22145   135139   456442 |    13    36407     5212   307368 |  5.392 % |
c |     1711      1632      163 |   22143   135139   456442 |    13    46319     5261   307368 |  5.400 % |
c |     1773      1677      163 |   22127   135139   456442 |    13    56071     5315   307368 |  5.471 % |
c |     1850      1709      162 |   22109   135139   456442 |    13    66055     5354   307368 |  5.545 % |
c |     1893      1794      163 |   22087   135139   456442 |    14    40690     5396   345058 |  5.639 % |
c |     1960      1865      163 |   22084   135139   456442 |    14    50678     5435   345058 |  5.652 % |
c |     2012      1920      164 |   22074   135139   456442 |    14    60672     5460   345058 |  5.695 % |
c |     2069      1969      164 |   22072   135139   456442 |    14    70644     5494   345058 |  5.703 % |
c |     2143      2029      163 |   22012   135139   456442 |    15    42130     5533   385249 |  5.960 % |
c |     2212      2090      162 |   21975   135139   456442 |    15    51364     5581   385249 |  6.118 % |
c |     2285      2152      161 |   21887   135139   456442 |    15    59151     5630   385249 |  6.494 % |
c empty clause found by core 8 at conflict 376926
*
c checking the resolution graph...OK
c All useful bySize 902512 clauses, percentiles 0 2 3 3 5 17 73 190 308 759 3300 3358 (0,1,5,10,25,50,75,90,95,99,100-1,100)
c All useless bySize 3006393 clauses, percentiles 0 4 7 10 26 78 196 377 523 925 3212 3288 (0,1,5,10,25,50,75,90,95,99,100-1,100)
c ProofOnly useful bySize 804450 clauses, percentiles 0 2 3 4 7 23 86 208 331 802 3300 3358 (0,1,5,10,25,50,75,90,95,99,100-1,100)
c ProofOnly useless bySize 2964809 clauses, percentiles 1 4 8 11 28 80 199 379 526 929 3212 3288 (0,1,5,10,25,50,75,90,95,99,100-1,100)
c All useful byFinalLBD 902512 clauses, percentiles 0 1 1 1 2 4 7 11 14 21 90 91 (0,1,5,10,25,50,75,90,95,99,100-1,100)
c All useless byFinalLBD 3006393 clauses, percentiles 0 2 3 4 6 11 17 25 32 51 217 217 (0,1,5,10,25,50,75,90,95,99,100-1,100)
c ProofOnly useful byFinalLBD 804450 clauses, percentiles 0 1 1 1 2 4 8 12 15 22 90 91 (0,1,5,10,25,50,75,90,95,99,100-1,100)
c ProofOnly useless byFinalLBD 2964809 clauses, percentiles 1 2 3 4 7 11 17 25 32 51 217 217 (0,1,5,10,25,50,75,90,95,99,100-1,100)
c All useful byInitialLBD 902512 clauses, percentiles 0 2 2 3 4 6 10 14 17 26 116 119 (0,1,5,10,25,50,75,90,95,99,100-1,100)
c All useless byInitialLBD 3006393 clauses, percentiles 0 3 4 5 7 12 17 26 33 52 217 219 (0,1,5,10,25,50,75,90,95,99,100-1,100)
c ProofOnly useful byInitialLBD 804450 clauses, percentiles 0 2 2 3 4 6 10 14 17 26 116 119 (0,1,5,10,25,50,75,90,95,99,100-1,100)
c ProofOnly useless byInitialLBD 2964809 clauses, percentiles 1 3 4 5 8 12 18 26 33 52 217 219 (0,1,5,10,25,50,75,90,95,99,100-1,100)
c Literals ProofOnly useful 65320746
c Literals ProofOnly useless 448324671
c additional windowsGood 1 1 1 1 1 1 1 2 3 4 11 11 (0,1,5,10,25,50,75,90,95,99,100-1,100)
c additional windowsBad 1 1 1 1 2 3 6 9 13 27 219 237 (0,1,5,10,25,50,75,90,95,99,100-1,100)
c additional 1WindowNoDecision 483632 255337 0.53 141684 60223 0.43 (nbWindowsGood,nbWindowsNoDecisionGood,nbWindowsBad,nbWindowsNoDecisionBad
c additional topclausessize all (10%,5%,1%,top) 418.55 597.17 1178.60 3358
c additional topclausessize proofonly (10%,5%,1%,top) 431.45 613.45 1202.15 3358
c additional topclausesinitialLBD all (10%,5%,1%,top) 339.39 497.03 1028.46 3358
c additional topclausesinitialLBD proofonly (10%,5%,1%,top) 287.78 431.45 924.24 3358
c additional topclausesfinalLBD all (10%,5%,1%,top) 246.52 378.89 837.00 3358
c additional topclausesfinalLBD proofonly (10%,5%,1%,top) 218.58 343.22 776.65 3358
c additional predictionInitialLBD 1 523 804450 0.99 0.00 0.00 3768736 2964809 0.79 3.69 1.30 0.79 (nbgoodclauses,nbtotalgood,precisionGood,recallGood,FGood,nbbadclause,nbtotalbad,precisionBad,recallBad,FBad,accuracy)
c additional predictionInitialLBD 2 57948 804450 0.82 0.06 0.11 3711311 2964809 0.80 3.67 1.31 0.80 (nbgoodclauses,nbtotalgood,precisionGood,recallGood,FGood,nbbadclause,nbtotalbad,precisionBad,recallBad,FBad,accuracy)
c additional predictionInitialLBD 3 217722 804450 0.69 0.19 0.29 3551537 2964809 0.82 3.60 1.33 0.81 (nbgoodclauses,nbtotalgood,precisionGood,recallGood,FGood,nbbadclause,nbtotalbad,precisionBad,recallBad,FBad,accuracy)
c additional predictionInitialLBD 4 449340 804450 0.54 0.30 0.39 3319919 2964809 0.83 3.43 1.34 0.80 (nbgoodclauses,nbtotalgood,precisionGood,recallGood,FGood,nbbadclause,nbtotalbad,precisionBad,recallBad,FBad,accuracy)
c additional predictionInitialLBD 5 707724 804450 0.47 0.41 0.44 3061535 2964809 0.85 3.22 1.34 0.78 (nbgoodclauses,nbtotalgood,precisionGood,recallGood,FGood,nbbadclause,nbtotalbad,precisionBad,recallBad,FBad,accuracy)
c additional predictionInitialLBD 6 961980 804450 0.42 0.51 0.46 2807279 2964809 0.86 3.00 1.34 0.75 (nbgoodclauses,nbtotalgood,precisionGood,recallGood,FGood,nbbadclause,nbtotalbad,precisionBad,recallBad,FBad,accuracy)
c additional predictionInitialLBD 7 1213755 804450 0.39 0.59 0.47 2555504 2964809 0.87 2.77 1.32 0.72 (nbgoodclauses,nbtotalgood,precisionGood,recallGood,FGood,nbbadclause,nbtotalbad,precisionBad,recallBad,FBad,accuracy)
c additional predictionInitialLBD 8 1455933 804450 0.36 0.66 0.47 2313326 2964809 0.88 2.54 1.31 0.68 (nbgoodclauses,nbtotalgood,precisionGood,recallGood,FGood,nbbadclause,nbtotalbad,precisionBad,recallBad,FBad,accuracy)
c additional predictionInitialLBD 10 1902906 804450 0.33 0.77 0.46 1866353 2964809 0.90 2.09 1.26 0.61 (nbgoodclauses,nbtotalgood,precisionGood,recallGood,FGood,nbbadclause,nbtotalbad,precisionBad,recallBad,FBad,accuracy)
c additional predictionInitialLBD 14 2618554 804450 0.28 0.90 0.42 1150705 2964809 0.93 1.33 1.10 0.48 (nbgoodclauses,nbtotalgood,precisionGood,recallGood,FGood,nbbadclause,nbtotalbad,precisionBad,recallBad,FBad,accuracy)
c additional predictionInitialLBD 18 3070723 804450 0.25 0.96 0.40 698536 2964809 0.95 0.83 0.89 0.38 (nbgoodclauses,nbtotalgood,precisionGood,recallGood,FGood,nbbadclause,nbtotalbad,precisionBad,recallBad,FBad,accuracy)
c additional predictionInitialLBD 22 3333534 804450 0.24 0.98 0.38 435725 2964809 0.97 0.52 0.68 0.32 (nbgoodclauses,nbtotalgood,precisionGood,recallGood,FGood,nbbadclause,nbtotalbad,precisionBad,recallBad,FBad,accuracy)
c additional predictionInitialLBD 30 3580546 804450 0.22 0.99 0.36 188713 2964809 0.98 0.23 0.37 0.26 (nbgoodclauses,nbtotalgood,precisionGood,recallGood,FGood,nbbadclause,nbtotalbad,precisionBad,recallBad,FBad,accuracy)
c additional predictionInitialLBD 40 3693040 804450 0.22 1.00 0.36 76219 2964809 0.98 0.09 0.17 0.23 (nbgoodclauses,nbtotalgood,precisionGood,recallGood,FGood,nbbadclause,nbtotalbad,precisionBad,recallBad,FBad,accuracy)
c additional predictionFinallLBD 1 140414 804450 0.89 0.15 0.26 3628845 2964809 0.81 0.99 0.89 0.82 (nbgoodclauses,nbtotalgood,precisionGood,recallGood,FGood,nbbadclause,nbtotalbad,precisionBad,recallBad,FBad,accuracy)
c additional predictionFinallLBD 2 349297 804450 0.83 0.36 0.50 3419962 2964809 0.85 0.98 0.91 0.85 (nbgoodclauses,nbtotalgood,precisionGood,recallGood,FGood,nbbadclause,nbtotalbad,precisionBad,recallBad,FBad,accuracy)
c additional predictionFinallLBD 3 546811 804450 0.69 0.47 0.56 3222448 2964809 0.87 0.94 0.90 0.84 (nbgoodclauses,nbtotalgood,precisionGood,recallGood,FGood,nbbadclause,nbtotalbad,precisionBad,recallBad,FBad,accuracy)
c additional predictionFinallLBD 4 800244 804450 0.56 0.56 0.56 2969015 2964809 0.88 0.88 0.88 0.81 (nbgoodclauses,nbtotalgood,precisionGood,recallGood,FGood,nbbadclause,nbtotalbad,precisionBad,recallBad,FBad,accuracy)
c additional predictionFinallLBD 5 1045267 804450 0.49 0.63 0.55 2723992 2964809 0.89 0.82 0.85 0.78 (nbgoodclauses,nbtotalgood,precisionGood,recallGood,FGood,nbbadclause,nbtotalbad,precisionBad,recallBad,FBad,accuracy)
c additional predictionFinallLBD 6 1278180 804450 0.44 0.69 0.54 2491079 2964809 0.90 0.76 0.82 0.74 (nbgoodclauses,nbtotalgood,precisionGood,recallGood,FGood,nbbadclause,nbtotalbad,precisionBad,recallBad,FBad,accuracy)
c additional predictionFinallLBD 7 1504395 804450 0.40 0.75 0.52 2264864 2964809 0.91 0.70 0.79 0.71 (nbgoodclauses,nbtotalgood,precisionGood,recallGood,FGood,nbbadclause,nbtotalbad,precisionBad,recallBad,FBad,accuracy)
c additional predictionFinallLBD 8 1721073 804450 0.37 0.79 0.50 2048186 2964809 0.92 0.63 0.75 0.67 (nbgoodclauses,nbtotalgood,precisionGood,recallGood,FGood,nbbadclause,nbtotalbad,precisionBad,recallBad,FBad,accuracy)
c additional predictionFinallLBD 10 2118286 804450 0.33 0.86 0.47 1650973 2964809 0.93 0.52 0.67 0.59 (nbgoodclauses,nbtotalgood,precisionGood,recallGood,FGood,nbbadclause,nbtotalbad,precisionBad,recallBad,FBad,accuracy)
c additional predictionFinallLBD 14 2746991 804450 0.28 0.95 0.43 1022268 2964809 0.96 0.33 0.49 0.46 (nbgoodclauses,nbtotalgood,precisionGood,recallGood,FGood,nbbadclause,nbtotalbad,precisionBad,recallBad,FBad,accuracy)
c additional predictionFinallLBD 18 3143957 804450 0.25 0.98 0.40 625302 2964809 0.97 0.21 0.34 0.37 (nbgoodclauses,nbtotalgood,precisionGood,recallGood,FGood,nbbadclause,nbtotalbad,precisionBad,recallBad,FBad,accuracy)
c additional predictionFinallLBD 22 3376666 804450 0.24 0.99 0.38 392593 2964809 0.98 0.13 0.23 0.31 (nbgoodclauses,nbtotalgood,precisionGood,recallGood,FGood,nbbadclause,nbtotalbad,precisionBad,recallBad,FBad,accuracy)
c additional predictionFinallLBD 30 3597304 804450 0.22 1.00 0.36 171955 2964809 0.99 0.06 0.11 0.26 (nbgoodclauses,nbtotalgood,precisionGood,recallGood,FGood,nbbadclause,nbtotalbad,precisionBad,recallBad,FBad,accuracy)
c additional predictionFinallLBD 40 3699665 804450 0.22 1.00 0.36 69594 2964809 0.99 0.02 0.05 0.23 (nbgoodclauses,nbtotalgood,precisionGood,recallGood,FGood,nbbadclause,nbtotalbad,precisionBad,recallBad,FBad,accuracy)
c additional predictionSize 1 523 804450 0.99 0.00 0.00 3768736 2964809 0.79 3.69 1.30 0.79 (nbgoodclauses,nbtotalgood,precisionGood,recallGood,FGood,nbbadclause,nbtotalbad,precisionBad,recallBad,FBad,accuracy)
c additional predictionSize 2 10690 804450 0.98 0.01 0.03 3758569 2964809 0.79 3.69 1.30 0.79 (nbgoodclauses,nbtotalgood,precisionGood,recallGood,FGood,nbbadclause,nbtotalbad,precisionBad,recallBad,FBad,accuracy)
c additional predictionSize 3 54571 804450 0.86 0.06 0.11 3714688 2964809 0.80 3.68 1.31 0.80 (nbgoodclauses,nbtotalgood,precisionGood,recallGood,FGood,nbbadclause,nbtotalbad,precisionBad,recallBad,FBad,accuracy)
c additional predictionSize 4 120382 804450 0.74 0.11 0.19 3648877 2964809 0.80 3.65 1.32 0.80 (nbgoodclauses,nbtotalgood,precisionGood,recallGood,FGood,nbbadclause,nbtotalbad,precisionBad,recallBad,FBad,accuracy)
c additional predictionSize 5 194929 804450 0.67 0.16 0.26 3574330 2964809 0.81 3.61 1.33 0.80 (nbgoodclauses,nbtotalgood,precisionGood,recallGood,FGood,nbbadclause,nbtotalbad,precisionBad,recallBad,FBad,accuracy)
c additional predictionSize 6 270369 804450 0.63 0.21 0.32 3498890 2964809 0.82 3.56 1.33 0.80 (nbgoodclauses,nbtotalgood,precisionGood,recallGood,FGood,nbbadclause,nbtotalbad,precisionBad,recallBad,FBad,accuracy)
c additional predictionSize 7 340637 804450 0.59 0.25 0.35 3428622 2964809 0.82 3.51 1.34 0.80 (nbgoodclauses,nbtotalgood,precisionGood,recallGood,FGood,nbbadclause,nbtotalbad,precisionBad,recallBad,FBad,accuracy)
c additional predictionSize 8 406772 804450 0.56 0.28 0.37 3362487 2964809 0.83 3.46 1.34 0.80 (nbgoodclauses,nbtotalgood,precisionGood,recallGood,FGood,nbbadclause,nbtotalbad,precisionBad,recallBad,FBad,accuracy)
c additional predictionSize 10 526404 804450 0.51 0.33 0.40 3242855 2964809 0.83 3.36 1.34 0.79 (nbgoodclauses,nbtotalgood,precisionGood,recallGood,FGood,nbbadclause,nbtotalbad,precisionBad,recallBad,FBad,accuracy)
c additional predictionSize 14 726470 804450 0.45 0.40 0.43 3042789 2964809 0.84 3.19 1.33 0.77 (nbgoodclauses,nbtotalgood,precisionGood,recallGood,FGood,nbbadclause,nbtotalbad,precisionBad,recallBad,FBad,accuracy)
c additional predictionSize 18 886438 804450 0.41 0.46 0.43 2882821 2964809 0.85 3.04 1.33 0.75 (nbgoodclauses,nbtotalgood,precisionGood,recallGood,FGood,nbbadclause,nbtotalbad,precisionBad,recallBad,FBad,accuracy)
c additional predictionSize 22 1020518 804450 0.39 0.49 0.44 2748741 2964809 0.85 2.91 1.32 0.73 (nbgoodclauses,nbtotalgood,precisionGood,recallGood,FGood,nbbadclause,nbtotalbad,precisionBad,recallBad,FBad,accuracy)
c additional predictionSize 30 1241066 804450 0.36 0.55 0.43 2528193 2964809 0.86 2.70 1.30 0.69 (nbgoodclauses,nbtotalgood,precisionGood,recallGood,FGood,nbbadclause,nbtotalbad,precisionBad,recallBad,FBad,accuracy)
c additional predictionSize 40 1465874 804450 0.33 0.61 0.43 2303385 2964809 0.86 2.47 1.28 0.66 (nbgoodclauses,nbtotalgood,precisionGood,recallGood,FGood,nbbadclause,nbtotalbad,precisionBad,recallBad,FBad,accuracy)
c additional predictionAge 1 78598 804450 0.42 0.04 0.07 3690661 2964809 0.79 3.63 1.30 0.78 (nbgoodclauses,nbtotalgood,precisionGood,recallGood,FGood,nbbadclause,nbtotalbad,precisionBad,recallBad,FBad,accuracy)
c additional predictionAge 10 82801 804450 0.41 0.04 0.08 3686458 2964809 0.79 3.62 1.30 0.78 (nbgoodclauses,nbtotalgood,precisionGood,recallGood,FGood,nbbadclause,nbtotalbad,precisionBad,recallBad,FBad,accuracy)
c additional predictionAge 25 88113 804450 0.40 0.04 0.08 3681146 2964809 0.79 3.62 1.30 0.78 (nbgoodclauses,nbtotalgood,precisionGood,recallGood,FGood,nbbadclause,nbtotalbad,precisionBad,recallBad,FBad,accuracy)
c additional predictionAge 50 93410 804450 0.39 0.04 0.08 3675849 2964809 0.79 3.61 1.30 0.78 (nbgoodclauses,nbtotalgood,precisionGood,recallGood,FGood,nbbadclause,nbtotalbad,precisionBad,recallBad,FBad,accuracy)
c additional predictionAge 100 97186 804450 0.38 0.05 0.08 3672073 2964809 0.79 3.61 1.30 0.78 (nbgoodclauses,nbtotalgood,precisionGood,recallGood,FGood,nbbadclause,nbtotalbad,precisionBad,recallBad,FBad,accuracy)
c additional predictionAge 250 102145 804450 0.37 0.05 0.08 3667114 2964809 0.79 3.61 1.30 0.78 (nbgoodclauses,nbtotalgood,precisionGood,recallGood,FGood,nbbadclause,nbtotalbad,precisionBad,recallBad,FBad,accuracy)
c additional predictionAge 500 105644 804450 0.37 0.05 0.09 3663615 2964809 0.79 3.60 1.30 0.78 (nbgoodclauses,nbtotalgood,precisionGood,recallGood,FGood,nbbadclause,nbtotalbad,precisionBad,recallBad,FBad,accuracy)
c additional predictionAge 1000 109002 804450 0.37 0.05 0.09 3660257 2964809 0.79 3.60 1.30 0.78 (nbgoodclauses,nbtotalgood,precisionGood,recallGood,FGood,nbbadclause,nbtotalbad,precisionBad,recallBad,FBad,accuracy)
c additional predictionAge 2500 113562 804450 0.36 0.05 0.09 3655697 2964809 0.79 3.60 1.30 0.78 (nbgoodclauses,nbtotalgood,precisionGood,recallGood,FGood,nbbadclause,nbtotalbad,precisionBad,recallBad,FBad,accuracy)
c additional predictionAge 5000 118000 804450 0.36 0.05 0.09 3651259 2964809 0.79 3.59 1.30 0.78 (nbgoodclauses,nbtotalgood,precisionGood,recallGood,FGood,nbbadclause,nbtotalbad,precisionBad,recallBad,FBad,accuracy)
c additional predictionAge 10000 125214 804450 0.36 0.06 0.10 3644045 2964809 0.79 3.59 1.30 0.78 (nbgoodclauses,nbtotalgood,precisionGood,recallGood,FGood,nbbadclause,nbtotalbad,precisionBad,recallBad,FBad,accuracy)
c additional predictionAge 25000 144394 804450 0.36 0.07 0.11 3624865 2964809 0.79 3.57 1.30 0.78 (nbgoodclauses,nbtotalgood,precisionGood,recallGood,FGood,nbbadclause,nbtotalbad,precisionBad,recallBad,FBad,accuracy)
c additional predictionAge 50000 172919 804450 0.36 0.08 0.13 3596340 2964809 0.79 3.55 1.30 0.77 (nbgoodclauses,nbtotalgood,precisionGood,recallGood,FGood,nbbadclause,nbtotalbad,precisionBad,recallBad,FBad,accuracy)
c additional predictionAge 100000 228729 804450 0.33 0.09 0.15 3540530 2964809 0.79 3.50 1.29 0.77 (nbgoodclauses,nbtotalgood,precisionGood,recallGood,FGood,nbbadclause,nbtotalbad,precisionBad,recallBad,FBad,accuracy)
c additional predictionTicks 1 78813 804450 0.42 0.04 0.07 3690446 2964809 0.79 3.63 1.30 0.78 (nbgoodclauses,nbtotalgood,precisionGood,recallGood,FGood,nbbadclause,nbtotalbad,precisionBad,recallBad,FBad,accuracy)
c additional predictionTicks 10 142279 804450 0.39 0.07 0.12 3626980 2964809 0.79 3.58 1.30 0.78 (nbgoodclauses,nbtotalgood,precisionGood,recallGood,FGood,nbbadclause,nbtotalbad,precisionBad,recallBad,FBad,accuracy)
c additional predictionTicks 25 182411 804450 0.38 0.09 0.14 3586848 2964809 0.79 3.54 1.30 0.77 (nbgoodclauses,nbtotalgood,precisionGood,recallGood,FGood,nbbadclause,nbtotalbad,precisionBad,recallBad,FBad,accuracy)
c additional predictionTicks 50 256757 804450 0.36 0.12 0.18 3512502 2964809 0.80 3.48 1.30 0.77 (nbgoodclauses,nbtotalgood,precisionGood,recallGood,FGood,nbbadclause,nbtotalbad,precisionBad,recallBad,FBad,accuracy)
c additional predictionTicks 100 338097 804450 0.35 0.15 0.21 3431162 2964809 0.80 3.41 1.30 0.76 (nbgoodclauses,nbtotalgood,precisionGood,recallGood,FGood,nbbadclause,nbtotalbad,precisionBad,recallBad,FBad,accuracy)
c additional predictionTicks 250 482669 804450 0.33 0.20 0.25 3286590 2964809 0.80 3.29 1.29 0.74 (nbgoodclauses,nbtotalgood,precisionGood,recallGood,FGood,nbbadclause,nbtotalbad,precisionBad,recallBad,FBad,accuracy)
c additional predictionTicks 500 617143 804450 0.32 0.25 0.28 3152116 2964809 0.81 3.17 1.29 0.73 (nbgoodclauses,nbtotalgood,precisionGood,recallGood,FGood,nbbadclause,nbtotalbad,precisionBad,recallBad,FBad,accuracy)
c additional predictionTicks 1000 774006 804450 0.31 0.30 0.31 2995253 2964809 0.81 3.03 1.28 0.71 (nbgoodclauses,nbtotalgood,precisionGood,recallGood,FGood,nbbadclause,nbtotalbad,precisionBad,recallBad,FBad,accuracy)
c additional predictionTicks 2500 1021068 804450 0.30 0.39 0.34 2748191 2964809 0.82 2.80 1.27 0.68 (nbgoodclauses,nbtotalgood,precisionGood,recallGood,FGood,nbbadclause,nbtotalbad,precisionBad,recallBad,FBad,accuracy)
c additional predictionTicks 5000 1246084 804450 0.30 0.46 0.36 2523175 2964809 0.83 2.59 1.25 0.65 (nbgoodclauses,nbtotalgood,precisionGood,recallGood,FGood,nbbadclause,nbtotalbad,precisionBad,recallBad,FBad,accuracy)
c additional predictionTicks 10000 1519589 804450 0.28 0.54 0.37 2249670 2964809 0.83 2.33 1.23 0.61 (nbgoodclauses,nbtotalgood,precisionGood,recallGood,FGood,nbbadclause,nbtotalbad,precisionBad,recallBad,FBad,accuracy)
c additional predictionTicks 25000 1978909 804450 0.27 0.66 0.38 1790350 2964809 0.85 1.88 1.17 0.54 (nbgoodclauses,nbtotalgood,precisionGood,recallGood,FGood,nbbadclause,nbtotalbad,precisionBad,recallBad,FBad,accuracy)
c additional predictionTicks 50000 2414079 804450 0.25 0.75 0.38 1355180 2964809 0.85 1.44 1.07 0.47 (nbgoodclauses,nbtotalgood,precisionGood,recallGood,FGood,nbbadclause,nbtotalbad,precisionBad,recallBad,FBad,accuracy)
c additional predictionTicks 100000 2904056 804450 0.24 0.85 0.37 865203 2964809 0.86 0.92 0.89 0.38 (nbgoodclauses,nbtotalgood,precisionGood,recallGood,FGood,nbbadclause,nbtotalbad,precisionBad,recallBad,FBad,accuracy)
c additional lifetimeGood 1 657 118837 316657 979899 2041824 2852249 3313288 3503882 3694762 3773736 3773748 (0,1,5,10,25,50,75,90,95,99,100-1,100)
c additional lifetimeBad 1 120 74856 202769 638912 1487020 2467541 3140265 3402177 3664795 3773742 3773743 (0,1,5,10,25,50,75,90,95,99,100-1,100)
c additional lifetimeBadBad 2 10 10 10 30 1040 165027 476251 899954 2372682 3763692 3763762 (0,1,5,10,25,50,75,90,95,99,100-1,100)
c additional compositionBad 1 3 6 9 21 64 201 478 766 1859 9949 10010 (0,1,5,10,25,50,75,90,95,99,100-1,100)
c additional compositionBadWithGood 0 0 1 3 9 31 109 271 438 1021 4433 4525 (0,1,5,10,25,50,75,90,95,99,100-1,100)
c additional compositionBadWithBad 0 0 0 0 1 1 3 6 8 15 112 116 (0,1,5,10,25,50,75,90,95,99,100-1,100)
c additional compositionBadWithInitial 0 0 2 3 10 30 88 204 328 836 6744 6812 (0,1,5,10,25,50,75,90,95,99,100-1,100)
c additional compositionGood 1 2 3 4 7 21 97 320 573 1590 9355 10395 (0,1,5,10,25,50,75,90,95,99,100-1,100)
c additional compositionGoodWithGood 0 0 1 1 3 12 56 187 337 927 4453 4595 (0,1,5,10,25,50,75,90,95,99,100-1,100)
c additional compositionGoodWithInitial 0 0 0 1 3 10 41 133 238 665 5030 6503 (0,1,5,10,25,50,75,90,95,99,100-1,100)
c additional propagationGood total 1036191945 percentiles 0 1 1 1 2 18 210 1531 4372 27201 272058 281310 (0,1,5,10,25,50,75,90,95,99,100-1,100)
c additional propagationBad total 33573690 percentiles 1 1 1 1 1 1 3 10 22 117 234814 242477 (0,1,5,10,25,50,75,90,95,99,100-1,100)
c additional resolutionGood total 175000366 percentiles 0 1 1 1 2 9 54 293 770 4179 68579 72264 (0,1,5,10,25,50,75,90,95,99,100-1,100)
c additional resolutionBad total 7240381 percentiles 0 0 0 0 1 1 2 5 8 26 905 1018 (0,1,5,10,25,50,75,90,95,99,100-1,100)
No graph is dumped
c result of core 8 is UNSAT
c One thread has finished
c Core 8 said it finished
c result of core 0 is UNKNOWN
c result of core 6 is UNKNOWN
c result of core 5 is UNKNOWN
c result of core 1 is UNKNOWN
c result of core 3 is UNKNOWN
c result of core 9 is UNKNOWN
c result of core 7 is UNKNOWN
c result of core 2 is UNKNOWN
c result of core 4 is UNKNOWN
c restarts              : 2332 (161 conflicts in avg)
c blocked restarts      : 2211 (multiple: 843) 
c last block at restart : 2332
c nb ReduceDB           : 15
c nb removed Clauses    : 385249
c nb learnts DL2        : 5668
c nb learnts size 2     : 1043
c nb learnts size 1     : 58
c conflicts             : 376926         (111 /sec)
c decisions             : 1168693        (0.00 % random) (345 /sec)
c propagations          : 323906517      (95514 /sec)
c conflict literals     : 49094721       (16.97 % deleted)
c nb reduced Clauses    : 6313
c CPU time              : 3391.18 s

s INDETERMINATE
