c
c This is glucose-proof 1.0 based on  2.1 --  (thanks to MiniSAT)
c
c EXPERIMENTAL EASY PARALLEL (ROUND ROBIN) VERSION
c
c WARNING: for repeatability, setting FPU to use double precision
c Parallel version 1 solvers created.
c ========================================[ Problem Statistics ]===========================================
c |                                                                                                       |
c |  Number of variables:         14772                                                                   |
c |  Number of clauses:          131379                                                                   |
c |  Parse time:                   0.09 s                                                                 |
c |                                                                                                       |
c ========================================[ MAGIC CONSTANTS ]==============================================
c | Constants are supposed to work well together :-)                                                      |
c | however, if you find better choices, please let us known...                                           |
c |-------------------------------------------------------------------------------------------------------|
c |                                |                                |                                     |
c | - Restarts:                    | - Reduce Clause DB:            | - Minimize Asserting:               |
c |   * LBD Queue    :     50      |   * First     :   4000         |    * size <  30                     |
c |   * Trail  Queue :   5000      |   * Inc       :    300         |    * lbd  <   6                     |
c |   * K            :   0.80      |   * Special   :   1000         |                                     |
c |   * R            :   1.40      |   * Protected :  (lbd)< 30     |                                     |
c |                                |                                |                                     |
c ==================================[ Search Statistics (every  10000 conflicts) ]=========================
c |                                                                                                       |
c |          RESTARTS           |          ORIGINAL         |              LEARNT              | Progress |
c |       NB   Blocked  Avg Cfc |    Vars  Clauses Literals |   Red   Learnts    LBD2  Removed |          |
c =========================================================================================================
c |       78         0      128 |   14544   131379   445885 |     1     7940      849     1961 |  1.544 % |
c |      136        61      147 |   14486   131379   445885 |     3     6947     1232    12925 |  1.936 % |
c |      210       102      142 |   14467   131379   445885 |     3    16932     1536    12925 |  2.065 % |
c |      275       143      145 |   14443   131379   445885 |     4    17649     1777    22160 |  2.227 % |
c |      350       148      142 |   14415   131379   445885 |     5    15738     2011    33953 |  2.417 % |
c |      422       150      142 |   14368   131379   445885 |     5    25422     2191    33953 |  2.735 % |
c |      478       177      146 |   14353   131379   445885 |     6    21211     2353    48149 |  2.836 % |
c |      546       182      146 |   14334   131379   445885 |     6    31173     2455    48149 |  2.965 % |
c |      594       190      151 |   14327   131379   445885 |     7    24285     2556    65025 |  3.012 % |
c |      668       197      149 |   14319   131379   445885 |     7    34276     2647    65025 |  3.067 % |
c |      716       230      153 |   14305   131379   445885 |     8    24744     2736    84543 |  3.161 % |
c |      763       231      157 |   14294   131379   445885 |     8    34733     2828    84543 |  3.236 % |
c |      826       232      157 |   14282   131379   445885 |     9    22579     2923   106689 |  3.317 % |
c |      894       249      156 |   14273   131379   445885 |     9    32569     3008   106689 |  3.378 % |
c |      974       254      154 |   14269   131379   445885 |     9    42564     3076   106689 |  3.405 % |
c |     1000       289      160 |   14265   131379   445885 |    10    27799     3120   131450 |  3.432 % |
c |     1032       314      164 |   14255   131379   445885 |    10    37793     3175   131450 |  3.500 % |
c |     1085       369      165 |   14239   131379   445885 |    10    47727     3259   131450 |  3.608 % |
c |     1120       427      169 |   14237   131379   445885 |    11    30372     3304   158803 |  3.622 % |
c |     1171       433      170 |   14232   131379   445885 |    11    40366     3364   158803 |  3.656 % |
c |     1199       489      175 |   14227   131379   445885 |    11    50361     3408   158803 |  3.689 % |
c |     1248       525      176 |   14223   131379   445885 |    12    29831     3442   188234 |  3.717 % |
c |     1292       565      178 |   14216   131379   445885 |    12    39824     3508   188234 |  3.764 % |
c |     1348       579      178 |   14209   131379   445885 |    12    49816     3564   188234 |  3.811 % |
c |     1401       634      178 |   14204   131379   445885 |    12    59805     3627   188234 |  3.845 % |
c |     1454       659      178 |   14197   131379   445885 |    13    37516     3674   220516 |  3.893 % |
c |     1489       689      181 |   14195   131379   445885 |    13    47509     3716   220516 |  3.906 % |
c |     1557       713      179 |   14191   131379   445885 |    13    57505     3755   220516 |  3.933 % |
c |     1567       781      185 |   14188   131379   445885 |    13    67502     3776   220516 |  3.953 % |
c |     1610       822      186 |   14187   131379   445885 |    14    42453     3818   255563 |  3.960 % |
c |     1671       832      185 |   14187   131379   445885 |    14    52453     3852   255563 |  3.960 % |
c |     1765       839      181 |   14184   131379   445885 |    14    62449     3880   255563 |  3.981 % |
c |     1851       866      178 |   14176   131379   445885 |    14    72331     3912   255563 |  4.035 % |
c |     1863       925      182 |   14176   131379   445885 |    15    44674     3927   293220 |  4.035 % |
c |     1931       940      181 |   14174   131379   445885 |    15    54672     3963   293220 |  4.048 % |
c |     1974       969      182 |   14172   131379   445885 |    15    64670     3994   293220 |  4.062 % |
c |     2020       969      183 |   14172   131379   445885 |    15    74670     4015   293220 |  4.062 % |
c |     2042       969      186 |   14171   131379   445885 |    16    44342     4051   333547 |  4.069 % |
c |     2083       991      187 |   14168   131379   445885 |    16    54339     4074   333547 |  4.089 % |
c |     2139      1017      187 |   14166   131379   445885 |    16    64338     4102   333547 |  4.102 % |
c |     2181      1021      187 |   14166   131379   445885 |    16    74322     4129   333547 |  4.103 % |
c |     2236      1028      187 |   14165   131379   445885 |    16    84321     4163   333547 |  4.109 % |
c |     2263      1057      190 |   14164   131379   445885 |    17    51376     4192   376491 |  4.116 % |
c |     2295      1090      191 |   14163   131379   445885 |    17    61375     4221   376491 |  4.123 % |
c |     2310      1123      194 |   14162   131379   445885 |    17    71374     4236   376491 |  4.129 % |
c |     2358      1170      195 |   14155   131379   445885 |    17    81371     4269   376491 |  4.177 % |
c |     2415      1175      194 |   14155   131379   445885 |    18    45645     4283   421920 |  4.177 % |
c |     2446      1190      196 |   14152   131379   445885 |    18    55641     4317   421920 |  4.197 % |
c |     2491      1196      196 |   14149   131379   445885 |    18    65638     4337   421920 |  4.218 % |
c |     2558      1196      195 |   14146   131379   445885 |    18    75635     4348   421920 |  4.238 % |
c |     2602      1214      196 |   14144   131379   445885 |    18    85633     4378   421920 |  4.251 % |
c |     2655      1237      195 |   14143   131379   445885 |    18    95632     4396   421920 |  4.258 % |
c |     2692      1243      196 |   14142   131379   445885 |    19    57537     4407   470013 |  4.265 % |
c |     2701      1278      199 |   14141   131379   445885 |    19    67536     4427   470013 |  4.272 % |
c |     2731      1305      201 |   14139   131379   445885 |    19    77529     4452   470013 |  4.285 % |
c |     2775      1335      201 |   14138   131379   445885 |    19    87528     4464   470013 |  4.292 % |
c |     2838      1335      200 |   14137   131379   445885 |    19    97527     4474   470013 |  4.299 % |
c |     2892      1336      200 |   14137   131379   445885 |    20    56773     4490   520767 |  4.299 % |
c |     2929      1340      201 |   14136   131379   445885 |    20    66772     4503   520767 |  4.305 % |
c |     2954      1340      203 |   14134   131379   445885 |    20    76770     4509   520767 |  4.319 % |
c |     2997      1342      203 |   14133   131379   445885 |    20    86769     4518   520767 |  4.326 % |
c |     3018      1416      205 |   14133   131379   445885 |    20    96769     4533   520767 |  4.326 % |
c |     3050      1489      206 |   14132   131379   445885 |    20   106768     4547   520767 |  4.333 % |
c |     3119      1489      205 |   14130   131379   445885 |    21    63389     4560   574144 |  4.346 % |
c |     3123      1531      208 |   14128   131379   445885 |    21    73385     4574   574144 |  4.360 % |
c |     3138      1576      210 |   14127   131379   445885 |    21    83384     4582   574144 |  4.367 % |
c |     3177      1583      210 |   14125   131379   445885 |    21    93382     4595   574144 |  4.380 % |
c |     3231      1602      210 |   14125   131379   445885 |    21   103381     4608   574144 |  4.380 % |
c |     3253      1653      212 |   14125   131379   445885 |    22    57404     4624   630121 |  4.380 % |
c |     3275      1663      213 |   14125   131379   445885 |    22    67404     4634   630121 |  4.380 % |
c |     3296      1663      215 |   14125   131379   445885 |    22    77404     4642   630121 |  4.380 % |
c |     3323      1670      216 |   14125   131379   445885 |    22    87404     4650   630121 |  4.380 % |
c |     3357      1673      217 |   14124   131379   445885 |    22    97403     4657   630121 |  4.387 % |
c |     3399      1689      217 |   14123   131379   445885 |    22   107402     4664   630121 |  4.393 % |
c |     3429      1699      218 |   14123   131379   445885 |    23    58817     4681   688706 |  4.393 % |
c |     3457      1718      219 |   14122   131379   445885 |    23    68816     4684   688706 |  4.400 % |
c |     3481      1767      221 |   14122   131379   445885 |    23    78816     4690   688706 |  4.400 % |
c |     3525      1772      221 |   14121   131379   445885 |    23    88815     4697   688706 |  4.407 % |
c |     3567      1782      221 |   14119   131379   445885 |    23    98813     4702   688706 |  4.421 % |
c |     3627      1803      220 |   14119   131379   445885 |    23   108813     4713   688706 |  4.421 % |
c |     3650      1817      221 |   14117   131379   445885 |    23   118811     4718   688706 |  4.434 % |
c |     3676      1818      223 |   14111   131379   445885 |    24    67615     4729   749901 |  4.475 % |
c |     3719      1826      223 |   14111   131379   445885 |    24    77615     4749   749901 |  4.475 % |
c |     3735      1865      224 |   14110   131379   445885 |    24    87385     4756   749901 |  4.482 % |
c |     3742      1872      227 |   14110   131379   445885 |    24    97385     4766   749901 |  4.482 % |
c |     3769      1876      228 |   14110   131379   445885 |    24   107385     4776   749901 |  4.481 % |
c |     3770      1888      230 |   14109   131379   445885 |    24   117384     4790   749901 |  4.488 % |
c |     3786      1912      232 |   14109   131379   445885 |    24   127384     4799   749901 |  4.488 % |
c |     3821      1937      232 |   14106   131379   445885 |    25    73701     4807   813581 |  4.509 % |
c |     3845      1974      234 |   14105   131379   445885 |    25    83700     4817   813581 |  4.515 % |
c |     3879      2015      234 |   14104   131379   445885 |    25    93699     4833   813581 |  4.522 % |
c |     3917      2034      234 |   14104   131379   445885 |    25   103699     4848   813581 |  4.522 % |
c |     3943      2059      235 |   14102   131379   445885 |    25   113681     4858   813581 |  4.536 % |
c |     3990      2071      235 |   14100   131379   445885 |    25   123679     4869   813581 |  4.550 % |
c |     4019      2099      236 |   14098   131379   445885 |    26    67352     4877   879906 |  4.563 % |
c |     4044      2134      237 |   14098   131379   445885 |    26    77352     4884   879906 |  4.563 % |
c |     4078      2157      237 |   14097   131379   445885 |    26    87351     4889   879906 |  4.569 % |
c |     4117      2190      238 |   14095   131379   445885 |    26    97349     4898   879906 |  4.583 % |
c |     4131      2221      239 |   14094   131379   445885 |    26   107348     4901   879906 |  4.590 % |
c |     4163      2282      240 |   14094   131379   445885 |    26   117348     4908   879906 |  4.590 % |
c |     4201      2315      240 |   14094   131379   445885 |    26   127348     4914   879906 |  4.590 % |
c |     4237      2349      240 |   14017   131379   445885 |    26   137347     4926   879906 |  5.111 % |
c |     4262      2394      241 |   14017   131379   445885 |    27    75108     4931   948876 |  5.111 % |
c |     4273      2440      243 |   14017   131379   445885 |    27    85108     4944   948876 |  5.111 % |
c |     4296      2491      244 |   14015   131379   445885 |    27    95106     4949   948876 |  5.125 % |
c |     4318      2574      245 |   14015   131379   445885 |    27   105106     4957   948876 |  5.125 % |
c |     4321      2663      247 |   14014   131379   445885 |    27   115105     4974   948876 |  5.131 % |
c |     4332      2712      249 |   13721   131379   445885 |    27   125103     5000   948876 |  7.115 % |
c empty clause found by core 0 at conflict 1081696
*
c checking the resolution graph...OK
c All useful bySize 628790 clauses, percentiles 0 2 2 4 55 280 689 1267 1615 2085 2892 2900 (0,1,5,10,25,50,75,90,95,99,100-1,100)
c All useless bySize 584286 clauses, percentiles 0 2 2 8 66 220 505 878 1161 1727 2872 2934 (0,1,5,10,25,50,75,90,95,99,100-1,100)
c ProofOnly useful bySize 558859 clauses, percentiles 0 4 13 29 114 350 762 1334 1661 2110 2892 2900 (0,1,5,10,25,50,75,90,95,99,100-1,100)
c ProofOnly useless bySize 522837 clauses, percentiles 1 10 23 40 107 264 550 923 1206 1760 2872 2934 (0,1,5,10,25,50,75,90,95,99,100-1,100)
c All useful byFinalLBD 628790 clauses, percentiles 0 1 2 2 6 10 14 17 18 23 76 79 (0,1,5,10,25,50,75,90,95,99,100-1,100)
c All useless byFinalLBD 584286 clauses, percentiles 0 2 2 4 9 14 18 24 29 49 183 184 (0,1,5,10,25,50,75,90,95,99,100-1,100)
c ProofOnly useful byFinalLBD 558859 clauses, percentiles 0 1 2 4 7 11 14 17 19 23 76 79 (0,1,5,10,25,50,75,90,95,99,100-1,100)
c ProofOnly useless byFinalLBD 522837 clauses, percentiles 1 4 6 7 10 14 19 25 30 50 183 184 (0,1,5,10,25,50,75,90,95,99,100-1,100)
c All useful byInitialLBD 628790 clauses, percentiles 0 2 2 3 8 11 15 17 19 25 139 140 (0,1,5,10,25,50,75,90,95,99,100-1,100)
c All useless byInitialLBD 584286 clauses, percentiles 0 2 2 5 10 14 19 24 30 50 183 184 (0,1,5,10,25,50,75,90,95,99,100-1,100)
c ProofOnly useful byInitialLBD 558859 clauses, percentiles 0 3 5 6 9 12 15 18 20 26 139 140 (0,1,5,10,25,50,75,90,95,99,100-1,100)
c ProofOnly useless byInitialLBD 522837 clauses, percentiles 1 4 7 8 11 15 19 25 31 52 183 184 (0,1,5,10,25,50,75,90,95,99,100-1,100)
c Literals ProofOnly useful 291733515
c Literals ProofOnly useless 204738938
c additional windowsGood 1 1 1 1 1 1 2 17 39 98 421 461 (0,1,5,10,25,50,75,90,95,99,100-1,100)
c additional windowsBad 1 1 1 1 1 3 8 16 23 44 195 304 (0,1,5,10,25,50,75,90,95,99,100-1,100)
c additional 1WindowNoDecision 50431 27860 0.55 22606 7687 0.34 (nbWindowsGood,nbWindowsNoDecisionGood,nbWindowsBad,nbWindowsNoDecisionBad
c additional topclausessize all (10%,5%,1%,top) 1667.69 1904.26 2257.07 2900
c additional topclausessize proofonly (10%,5%,1%,top) 1690.37 1920.64 2266.85 2900
c additional topclausesinitialLBD all (10%,5%,1%,top) 1507.08 1788.62 2191.03 2900
c additional topclausesinitialLBD proofonly (10%,5%,1%,top) 1375.31 1690.37 2138.59 2900
c additional topclausesfinalLBD all (10%,5%,1%,top) 1252.41 1593.44 2089.36 2900
c additional topclausesfinalLBD proofonly (10%,5%,1%,top) 1159.91 1516.21 2051.04 2900
c additional predictionInitialLBD 1 386 558859 1.00 0.00 0.00 1081310 522837 0.48 0.94 0.64 0.48 (nbgoodclauses,nbtotalgood,precisionGood,recallGood,FGood,nbbadclause,nbtotalbad,precisionBad,recallBad,FBad,accuracy)
c additional predictionInitialLBD 2 5392 558859 0.97 0.01 0.02 1076304 522837 0.49 0.94 0.64 0.49 (nbgoodclauses,nbtotalgood,precisionGood,recallGood,FGood,nbbadclause,nbtotalbad,precisionBad,recallBad,FBad,accuracy)
c additional predictionInitialLBD 3 14489 558859 0.95 0.02 0.05 1067207 522837 0.49 0.93 0.64 0.50 (nbgoodclauses,nbtotalgood,precisionGood,recallGood,FGood,nbbadclause,nbtotalbad,precisionBad,recallBad,FBad,accuracy)
c additional predictionInitialLBD 4 30110 558859 0.82 0.04 0.08 1051586 522837 0.49 0.93 0.64 0.50 (nbgoodclauses,nbtotalgood,precisionGood,recallGood,FGood,nbbadclause,nbtotalbad,precisionBad,recallBad,FBad,accuracy)
c additional predictionInitialLBD 5 53465 558859 0.75 0.07 0.13 1028231 522837 0.50 0.91 0.64 0.51 (nbgoodclauses,nbtotalgood,precisionGood,recallGood,FGood,nbbadclause,nbtotalbad,precisionBad,recallBad,FBad,accuracy)
c additional predictionInitialLBD 6 85300 558859 0.69 0.11 0.18 996396 522837 0.50 0.89 0.64 0.51 (nbgoodclauses,nbtotalgood,precisionGood,recallGood,FGood,nbbadclause,nbtotalbad,precisionBad,recallBad,FBad,accuracy)
c additional predictionInitialLBD 7 128218 558859 0.67 0.15 0.25 953478 522837 0.50 0.86 0.64 0.52 (nbgoodclauses,nbtotalgood,precisionGood,recallGood,FGood,nbbadclause,nbtotalbad,precisionBad,recallBad,FBad,accuracy)
c additional predictionInitialLBD 8 181511 558859 0.65 0.21 0.32 900185 522837 0.51 0.82 0.63 0.53 (nbgoodclauses,nbtotalgood,precisionGood,recallGood,FGood,nbbadclause,nbtotalbad,precisionBad,recallBad,FBad,accuracy)
c additional predictionInitialLBD 10 318615 558859 0.64 0.36 0.46 763081 522837 0.53 0.73 0.62 0.56 (nbgoodclauses,nbtotalgood,precisionGood,recallGood,FGood,nbbadclause,nbtotalbad,precisionBad,recallBad,FBad,accuracy)
c additional predictionInitialLBD 14 650389 558859 0.61 0.71 0.66 431307 522837 0.63 0.48 0.55 0.62 (nbgoodclauses,nbtotalgood,precisionGood,recallGood,FGood,nbbadclause,nbtotalbad,precisionBad,recallBad,FBad,accuracy)
c additional predictionInitialLBD 18 893436 558859 0.58 0.92 0.71 188260 522837 0.77 0.26 0.39 0.61 (nbgoodclauses,nbtotalgood,precisionGood,recallGood,FGood,nbbadclause,nbtotalbad,precisionBad,recallBad,FBad,accuracy)
c additional predictionInitialLBD 22 994991 558859 0.55 0.98 0.70 86705 522837 0.87 0.13 0.23 0.58 (nbgoodclauses,nbtotalgood,precisionGood,recallGood,FGood,nbbadclause,nbtotalbad,precisionBad,recallBad,FBad,accuracy)
c additional predictionInitialLBD 30 1053013 558859 0.53 1.00 0.69 28683 522837 0.92 0.05 0.09 0.54 (nbgoodclauses,nbtotalgood,precisionGood,recallGood,FGood,nbbadclause,nbtotalbad,precisionBad,recallBad,FBad,accuracy)
c additional predictionInitialLBD 40 1070719 558859 0.52 1.00 0.69 10977 522837 0.95 0.02 0.04 0.53 (nbgoodclauses,nbtotalgood,precisionGood,recallGood,FGood,nbbadclause,nbtotalbad,precisionBad,recallBad,FBad,accuracy)
c additional predictionFinallLBD 1 12141 558859 0.99 0.02 0.04 1069555 522837 0.49 1.00 0.66 0.49 (nbgoodclauses,nbtotalgood,precisionGood,recallGood,FGood,nbbadclause,nbtotalbad,precisionBad,recallBad,FBad,accuracy)
c additional predictionFinallLBD 2 31773 558859 0.98 0.06 0.11 1049923 522837 0.50 1.00 0.66 0.51 (nbgoodclauses,nbtotalgood,precisionGood,recallGood,FGood,nbbadclause,nbtotalbad,precisionBad,recallBad,FBad,accuracy)
c additional predictionFinallLBD 3 49811 558859 0.97 0.09 0.16 1031885 522837 0.51 1.00 0.67 0.53 (nbgoodclauses,nbtotalgood,precisionGood,recallGood,FGood,nbbadclause,nbtotalbad,precisionBad,recallBad,FBad,accuracy)
c additional predictionFinallLBD 4 78036 558859 0.87 0.12 0.21 1003660 522837 0.51 0.98 0.67 0.54 (nbgoodclauses,nbtotalgood,precisionGood,recallGood,FGood,nbbadclause,nbtotalbad,precisionBad,recallBad,FBad,accuracy)
c additional predictionFinallLBD 5 115533 558859 0.80 0.16 0.27 966163 522837 0.52 0.95 0.67 0.55 (nbgoodclauses,nbtotalgood,precisionGood,recallGood,FGood,nbbadclause,nbtotalbad,precisionBad,recallBad,FBad,accuracy)
c additional predictionFinallLBD 6 159101 558859 0.75 0.21 0.33 922595 522837 0.52 0.92 0.67 0.56 (nbgoodclauses,nbtotalgood,precisionGood,recallGood,FGood,nbbadclause,nbtotalbad,precisionBad,recallBad,FBad,accuracy)
c additional predictionFinallLBD 7 208970 558859 0.72 0.27 0.39 872726 522837 0.53 0.89 0.66 0.57 (nbgoodclauses,nbtotalgood,precisionGood,recallGood,FGood,nbbadclause,nbtotalbad,precisionBad,recallBad,FBad,accuracy)
c additional predictionFinallLBD 8 265699 558859 0.69 0.33 0.45 815997 522837 0.54 0.84 0.66 0.58 (nbgoodclauses,nbtotalgood,precisionGood,recallGood,FGood,nbbadclause,nbtotalbad,precisionBad,recallBad,FBad,accuracy)
c additional predictionFinallLBD 10 398712 558859 0.66 0.47 0.55 682984 522837 0.57 0.74 0.64 0.60 (nbgoodclauses,nbtotalgood,precisionGood,recallGood,FGood,nbbadclause,nbtotalbad,precisionBad,recallBad,FBad,accuracy)
c additional predictionFinallLBD 14 701759 558859 0.62 0.78 0.69 379937 522837 0.67 0.49 0.57 0.64 (nbgoodclauses,nbtotalgood,precisionGood,recallGood,FGood,nbbadclause,nbtotalbad,precisionBad,recallBad,FBad,accuracy)
c additional predictionFinallLBD 18 915812 558859 0.58 0.95 0.72 165884 522837 0.82 0.26 0.40 0.62 (nbgoodclauses,nbtotalgood,precisionGood,recallGood,FGood,nbbadclause,nbtotalbad,precisionBad,recallBad,FBad,accuracy)
c additional predictionFinallLBD 22 1004106 558859 0.55 0.99 0.71 77590 522837 0.91 0.14 0.24 0.58 (nbgoodclauses,nbtotalgood,precisionGood,recallGood,FGood,nbbadclause,nbtotalbad,precisionBad,recallBad,FBad,accuracy)
c additional predictionFinallLBD 30 1055830 558859 0.53 1.00 0.69 25866 522837 0.95 0.05 0.09 0.54 (nbgoodclauses,nbtotalgood,precisionGood,recallGood,FGood,nbbadclause,nbtotalbad,precisionBad,recallBad,FBad,accuracy)
c additional predictionFinallLBD 40 1071791 558859 0.52 1.00 0.69 9905 522837 0.98 0.02 0.04 0.53 (nbgoodclauses,nbtotalgood,precisionGood,recallGood,FGood,nbbadclause,nbtotalbad,precisionBad,recallBad,FBad,accuracy)
c additional predictionSize 1 386 558859 1.00 0.00 0.00 1081310 522837 0.48 0.94 0.64 0.48 (nbgoodclauses,nbtotalgood,precisionGood,recallGood,FGood,nbbadclause,nbtotalbad,precisionBad,recallBad,FBad,accuracy)
c additional predictionSize 2 2905 558859 0.98 0.01 0.01 1078791 522837 0.48 0.94 0.64 0.49 (nbgoodclauses,nbtotalgood,precisionGood,recallGood,FGood,nbbadclause,nbtotalbad,precisionBad,recallBad,FBad,accuracy)
c additional predictionSize 3 5734 558859 0.97 0.01 0.02 1075962 522837 0.49 0.94 0.64 0.49 (nbgoodclauses,nbtotalgood,precisionGood,recallGood,FGood,nbbadclause,nbtotalbad,precisionBad,recallBad,FBad,accuracy)
c additional predictionSize 4 8612 558859 0.95 0.01 0.03 1073084 522837 0.49 0.93 0.64 0.49 (nbgoodclauses,nbtotalgood,precisionGood,recallGood,FGood,nbbadclause,nbtotalbad,precisionBad,recallBad,FBad,accuracy)
c additional predictionSize 5 11581 558859 0.92 0.02 0.04 1070115 522837 0.49 0.93 0.64 0.49 (nbgoodclauses,nbtotalgood,precisionGood,recallGood,FGood,nbbadclause,nbtotalbad,precisionBad,recallBad,FBad,accuracy)
c additional predictionSize 6 14701 558859 0.89 0.02 0.05 1066995 522837 0.49 0.93 0.64 0.49 (nbgoodclauses,nbtotalgood,precisionGood,recallGood,FGood,nbbadclause,nbtotalbad,precisionBad,recallBad,FBad,accuracy)
c additional predictionSize 7 18127 558859 0.86 0.03 0.05 1063569 522837 0.49 0.93 0.64 0.50 (nbgoodclauses,nbtotalgood,precisionGood,recallGood,FGood,nbbadclause,nbtotalbad,precisionBad,recallBad,FBad,accuracy)
c additional predictionSize 8 21800 558859 0.83 0.03 0.06 1059896 522837 0.49 0.93 0.64 0.50 (nbgoodclauses,nbtotalgood,precisionGood,recallGood,FGood,nbbadclause,nbtotalbad,precisionBad,recallBad,FBad,accuracy)
c additional predictionSize 10 29349 558859 0.79 0.04 0.08 1052347 522837 0.49 0.92 0.64 0.50 (nbgoodclauses,nbtotalgood,precisionGood,recallGood,FGood,nbbadclause,nbtotalbad,precisionBad,recallBad,FBad,accuracy)
c additional predictionSize 14 44130 558859 0.72 0.06 0.11 1037566 522837 0.49 0.91 0.64 0.50 (nbgoodclauses,nbtotalgood,precisionGood,recallGood,FGood,nbbadclause,nbtotalbad,precisionBad,recallBad,FBad,accuracy)
c additional predictionSize 18 58671 558859 0.67 0.07 0.13 1023025 522837 0.49 0.90 0.64 0.50 (nbgoodclauses,nbtotalgood,precisionGood,recallGood,FGood,nbbadclause,nbtotalbad,precisionBad,recallBad,FBad,accuracy)
c additional predictionSize 22 72038 558859 0.64 0.08 0.15 1009658 522837 0.49 0.89 0.63 0.50 (nbgoodclauses,nbtotalgood,precisionGood,recallGood,FGood,nbbadclause,nbtotalbad,precisionBad,recallBad,FBad,accuracy)
c additional predictionSize 30 96012 558859 0.60 0.10 0.18 985684 522837 0.49 0.87 0.63 0.50 (nbgoodclauses,nbtotalgood,precisionGood,recallGood,FGood,nbbadclause,nbtotalbad,precisionBad,recallBad,FBad,accuracy)
c additional predictionSize 40 123217 558859 0.57 0.13 0.21 958479 522837 0.49 0.84 0.62 0.50 (nbgoodclauses,nbtotalgood,precisionGood,recallGood,FGood,nbbadclause,nbtotalbad,precisionBad,recallBad,FBad,accuracy)
c additional predictionAge 1 7443 558859 0.70 0.01 0.02 1074253 522837 0.48 0.93 0.64 0.49 (nbgoodclauses,nbtotalgood,precisionGood,recallGood,FGood,nbbadclause,nbtotalbad,precisionBad,recallBad,FBad,accuracy)
c additional predictionAge 10 9283 558859 0.61 0.01 0.02 1072413 522837 0.48 0.93 0.64 0.49 (nbgoodclauses,nbtotalgood,precisionGood,recallGood,FGood,nbbadclause,nbtotalbad,precisionBad,recallBad,FBad,accuracy)
c additional predictionAge 25 9961 558859 0.59 0.01 0.02 1071735 522837 0.48 0.93 0.64 0.49 (nbgoodclauses,nbtotalgood,precisionGood,recallGood,FGood,nbbadclause,nbtotalbad,precisionBad,recallBad,FBad,accuracy)
c additional predictionAge 50 10414 558859 0.58 0.01 0.02 1071282 522837 0.48 0.93 0.64 0.48 (nbgoodclauses,nbtotalgood,precisionGood,recallGood,FGood,nbbadclause,nbtotalbad,precisionBad,recallBad,FBad,accuracy)
c additional predictionAge 100 10845 558859 0.57 0.01 0.02 1070851 522837 0.48 0.93 0.64 0.48 (nbgoodclauses,nbtotalgood,precisionGood,recallGood,FGood,nbbadclause,nbtotalbad,precisionBad,recallBad,FBad,accuracy)
c additional predictionAge 250 11415 558859 0.57 0.01 0.02 1070281 522837 0.48 0.93 0.64 0.48 (nbgoodclauses,nbtotalgood,precisionGood,recallGood,FGood,nbbadclause,nbtotalbad,precisionBad,recallBad,FBad,accuracy)
c additional predictionAge 500 11911 558859 0.56 0.01 0.02 1069785 522837 0.48 0.93 0.64 0.48 (nbgoodclauses,nbtotalgood,precisionGood,recallGood,FGood,nbbadclause,nbtotalbad,precisionBad,recallBad,FBad,accuracy)
c additional predictionAge 1000 12606 558859 0.55 0.01 0.02 1069090 522837 0.48 0.93 0.64 0.48 (nbgoodclauses,nbtotalgood,precisionGood,recallGood,FGood,nbbadclause,nbtotalbad,precisionBad,recallBad,FBad,accuracy)
c additional predictionAge 2500 14275 558859 0.53 0.01 0.03 1067421 522837 0.48 0.92 0.63 0.48 (nbgoodclauses,nbtotalgood,precisionGood,recallGood,FGood,nbbadclause,nbtotalbad,precisionBad,recallBad,FBad,accuracy)
c additional predictionAge 5000 16961 558859 0.49 0.01 0.03 1064735 522837 0.48 0.92 0.63 0.48 (nbgoodclauses,nbtotalgood,precisionGood,recallGood,FGood,nbbadclause,nbtotalbad,precisionBad,recallBad,FBad,accuracy)
c additional predictionAge 10000 22361 558859 0.44 0.02 0.03 1059335 522837 0.48 0.91 0.63 0.48 (nbgoodclauses,nbtotalgood,precisionGood,recallGood,FGood,nbbadclause,nbtotalbad,precisionBad,recallBad,FBad,accuracy)
c additional predictionAge 25000 37865 558859 0.36 0.02 0.05 1043831 522837 0.48 0.89 0.62 0.47 (nbgoodclauses,nbtotalgood,precisionGood,recallGood,FGood,nbbadclause,nbtotalbad,precisionBad,recallBad,FBad,accuracy)
c additional predictionAge 50000 63182 558859 0.29 0.03 0.06 1018514 522837 0.47 0.86 0.61 0.46 (nbgoodclauses,nbtotalgood,precisionGood,recallGood,FGood,nbbadclause,nbtotalbad,precisionBad,recallBad,FBad,accuracy)
c additional predictionAge 100000 113613 558859 0.24 0.05 0.08 968083 522837 0.45 0.78 0.57 0.43 (nbgoodclauses,nbtotalgood,precisionGood,recallGood,FGood,nbbadclause,nbtotalbad,precisionBad,recallBad,FBad,accuracy)
c additional predictionTicks 1 20031 558859 0.62 0.02 0.04 1061665 522837 0.49 0.92 0.64 0.49 (nbgoodclauses,nbtotalgood,precisionGood,recallGood,FGood,nbbadclause,nbtotalbad,precisionBad,recallBad,FBad,accuracy)
c additional predictionTicks 10 54788 558859 0.56 0.06 0.10 1026908 522837 0.49 0.89 0.63 0.49 (nbgoodclauses,nbtotalgood,precisionGood,recallGood,FGood,nbbadclause,nbtotalbad,precisionBad,recallBad,FBad,accuracy)
c additional predictionTicks 25 81546 558859 0.55 0.08 0.14 1000150 522837 0.49 0.87 0.62 0.49 (nbgoodclauses,nbtotalgood,precisionGood,recallGood,FGood,nbbadclause,nbtotalbad,precisionBad,recallBad,FBad,accuracy)
c additional predictionTicks 50 107691 558859 0.55 0.11 0.18 974005 522837 0.49 0.85 0.62 0.49 (nbgoodclauses,nbtotalgood,precisionGood,recallGood,FGood,nbbadclause,nbtotalbad,precisionBad,recallBad,FBad,accuracy)
c additional predictionTicks 100 140085 558859 0.55 0.14 0.22 941611 522837 0.49 0.82 0.61 0.50 (nbgoodclauses,nbtotalgood,precisionGood,recallGood,FGood,nbbadclause,nbtotalbad,precisionBad,recallBad,FBad,accuracy)
c additional predictionTicks 250 194477 558859 0.56 0.19 0.29 887219 522837 0.49 0.78 0.60 0.50 (nbgoodclauses,nbtotalgood,precisionGood,recallGood,FGood,nbbadclause,nbtotalbad,precisionBad,recallBad,FBad,accuracy)
c additional predictionTicks 500 245021 558859 0.56 0.24 0.34 836675 522837 0.50 0.74 0.59 0.51 (nbgoodclauses,nbtotalgood,precisionGood,recallGood,FGood,nbbadclause,nbtotalbad,precisionBad,recallBad,FBad,accuracy)
c additional predictionTicks 1000 305202 558859 0.55 0.30 0.39 776494 522837 0.50 0.69 0.58 0.51 (nbgoodclauses,nbtotalgood,precisionGood,recallGood,FGood,nbbadclause,nbtotalbad,precisionBad,recallBad,FBad,accuracy)
c additional predictionTicks 2500 411884 558859 0.54 0.40 0.46 669812 522837 0.50 0.60 0.55 0.52 (nbgoodclauses,nbtotalgood,precisionGood,recallGood,FGood,nbbadclause,nbtotalbad,precisionBad,recallBad,FBad,accuracy)
c additional predictionTicks 5000 525260 558859 0.53 0.50 0.51 556436 522837 0.49 0.49 0.49 0.51 (nbgoodclauses,nbtotalgood,precisionGood,recallGood,FGood,nbbadclause,nbtotalbad,precisionBad,recallBad,FBad,accuracy)
c additional predictionTicks 10000 668098 558859 0.52 0.62 0.56 413598 522837 0.48 0.36 0.41 0.50 (nbgoodclauses,nbtotalgood,precisionGood,recallGood,FGood,nbbadclause,nbtotalbad,precisionBad,recallBad,FBad,accuracy)
c additional predictionTicks 25000 884485 558859 0.51 0.80 0.62 197211 522837 0.44 0.16 0.23 0.50 (nbgoodclauses,nbtotalgood,precisionGood,recallGood,FGood,nbbadclause,nbtotalbad,precisionBad,recallBad,FBad,accuracy)
c additional predictionTicks 50000 1007183 558859 0.51 0.92 0.66 74513 522837 0.40 0.05 0.09 0.50 (nbgoodclauses,nbtotalgood,precisionGood,recallGood,FGood,nbbadclause,nbtotalbad,precisionBad,recallBad,FBad,accuracy)
c additional predictionTicks 100000 1063107 558859 0.51 0.98 0.67 18589 522837 0.37 0.01 0.02 0.51 (nbgoodclauses,nbtotalgood,precisionGood,recallGood,FGood,nbbadclause,nbtotalbad,precisionBad,recallBad,FBad,accuracy)
c additional lifetimeGood 1 3 22859 78204 274299 555985 799266 948662 1002049 1057698 1081689 1081691 (0,1,5,10,25,50,75,90,95,99,100-1,100)
c additional lifetimeBad 1 2 4133 23329 94283 253844 472899 707848 826848 980308 1081404 1081528 (0,1,5,10,25,50,75,90,95,99,100-1,100)
c additional lifetimeBadBad 1 1 1 1 2 8 801 22921 40131 76151 996798 1016113 (0,1,5,10,25,50,75,90,95,99,100-1,100)
c additional compositionBad 2 4 8 13 32 81 184 345 487 895 3557 3881 (0,1,5,10,25,50,75,90,95,99,100-1,100)
c additional compositionBadWithGood 0 1 3 5 12 29 62 112 154 270 859 881 (0,1,5,10,25,50,75,90,95,99,100-1,100)
c additional compositionBadWithBad 0 0 0 0 0 1 2 4 6 9 26 27 (0,1,5,10,25,50,75,90,95,99,100-1,100)
c additional compositionBadWithInitial 0 1 3 6 17 50 120 233 335 637 2862 3011 (0,1,5,10,25,50,75,90,95,99,100-1,100)
c additional compositionGood 2 3 6 9 26 81 209 424 626 1202 4198 4211 (0,1,5,10,25,50,75,90,95,99,100-1,100)
c additional compositionGoodWithGood 0 1 3 4 12 34 82 156 220 392 1095 1129 (0,1,5,10,25,50,75,90,95,99,100-1,100)
c additional compositionGoodWithInitial 0 0 2 4 13 46 127 271 411 821 3082 3199 (0,1,5,10,25,50,75,90,95,99,100-1,100)
c additional propagationGood total 187611375 percentiles 0 1 1 1 1 1 7 64 428 7729 159912 171419 (0,1,5,10,25,50,75,90,95,99,100-1,100)
c additional propagationBad total 3251373 percentiles 1 1 1 1 1 1 2 5 10 41 118237 185158 (0,1,5,10,25,50,75,90,95,99,100-1,100)
c additional resolutionGood total 36215068 percentiles 0 1 1 1 1 1 5 30 124 1375 67360 69304 (0,1,5,10,25,50,75,90,95,99,100-1,100)
c additional resolutionBad total 912028 percentiles 0 0 0 0 1 1 1 3 5 15 236 237 (0,1,5,10,25,50,75,90,95,99,100-1,100)
No graph is dumped
c =========================================================================================================
c result of core 0 is UNSAT
c One thread has finished
c Core 0 said it finished
c restarts              : 4332 (249 conflicts in avg)
c blocked restarts      : 2730 (multiple: 595) 
c last block at restart : 4332
c nb ReduceDB           : 27
c nb removed Clauses    : 948876
c nb learnts DL2        : 5006
c nb learnts size 2     : 2519
c nb learnts size 1     : 385
c conflicts             : 1081696        (1244 /sec)
c decisions             : 1782650        (0.00 % random) (2050 /sec)
c propagations          : 1608953805     (1850359 /sec)
c conflict literals     : 496492318      (4.55 % deleted)
c nb reduced Clauses    : 9918
c CPU time              : 869.536 s

s INDETERMINATE
