c
c This is glucose-proof 1.0 based on  2.1 --  (thanks to MiniSAT)
c
c EXPERIMENTAL EASY PARALLEL (ROUND ROBIN) VERSION
c
c WARNING: for repeatability, setting FPU to use double precision
c Parallel version 16 solvers created.
c ========================================[ Problem Statistics ]===========================================
c |                                                                                                       |
c |  Number of variables:         14772                                                                   |
c |  Number of clauses:          131379                                                                   |
c |  Parse time:                   0.52 s                                                                 |
c |                                                                                                       |
c ========================================[ MAGIC CONSTANTS ]==============================================
c | Constants are supposed to work well together :-)                                                      |
c | however, if you find better choices, please let us known...                                           |
c |-------------------------------------------------------------------------------------------------------|
c |                                |                                |                                     |
c | - Restarts:                    | - Reduce Clause DB:            | - Minimize Asserting:               |
c |   * LBD Queue    :     50      |   * First     :   4000         |    * size <  30                     |
c |   * Trail  Queue :   5000      |   * Inc       :    300         |    * lbd  <   6                     |
c |   * K            :   0.80      |   * Special   :   1000         |                                     |
c |   * R            :   1.40      |   * Protected :  (lbd)< 30     |                                     |
c |                                |                                |                                     |
c ==================================[ Search Statistics (every  10000 conflicts) ]=========================
c |                                                                                                       |
c |          RESTARTS           |          ORIGINAL         |              LEARNT              | Progress |
c |       NB   Blocked  Avg Cfc |    Vars  Clauses Literals |   Red   Learnts    LBD2  Removed |          |
c =========================================================================================================
c |       67         0      149 |   13929   131379   445885 |     1     7811      388     4622 |  5.707 % |
c |      148        40      135 |   13748   131379   445885 |     3     6905      521    19996 |  6.932 % |
c |      220        40      136 |   13685   131379   445885 |     3    16860      606    19996 |  7.359 % |
c |      294        40      136 |   13645   131379   445885 |     4    17635      676    31071 |  7.630 % |
c |      368        40      135 |   13623   131379   445885 |     5    15829      728    44197 |  7.778 % |
c |      406        40      147 |   13611   131379   445885 |     5    25828      774    44197 |  7.860 % |
c |      444        40      157 |   13556   131379   445885 |     6    21284      807    59756 |  8.232 % |
c |      478        43      167 |   13544   131379   445885 |     6    31283      821    59756 |  8.313 % |
c |      509        81      176 |   13541   131379   445885 |     7    24350      847    77661 |  8.334 % |
c |      540       109      185 |   13514   131379   445885 |     7    34257      862    77661 |  8.516 % |
c |      555       149      198 |   13511   131379   445885 |     8    24732      881    98107 |  8.536 % |
c |      589       191      203 |   13504   131379   445885 |     8    34732      896    98107 |  8.584 % |
c |      622       212      209 |   13502   131379   445885 |     9    22569      917   121037 |  8.597 % |
c |      662       220      211 |   13486   131379   445885 |     9    32012      947   121037 |  8.706 % |
c |      699       234      214 |   13481   131379   445885 |     9    42012      961   121037 |  8.740 % |
c |      738       239      216 |   13480   131379   445885 |    10    26213      983   145038 |  8.746 % |
c |      758       239      224 |   13469   131379   445885 |    10    36062      986   145038 |  8.821 % |
c |      774       271      232 |   13462   131379   445885 |    10    46061      995   145038 |  8.868 % |
c |      806       285      235 |   13458   131379   445885 |    11    29542     1005   172351 |  8.895 % |
c |      828       290      241 |   13452   131379   445885 |    11    39541     1012   172351 |  8.936 % |
c |      857       315      245 |   13440   131379   445885 |    11    49431     1026   172351 |  9.017 % |
c |      888       318      247 |   13437   131379   445885 |    12    29919     1040   202478 |  9.037 % |
c |      899       318      255 |   13435   131379   445885 |    12    39919     1052   202478 |  9.051 % |
c |      914       338      262 |   13432   131379   445885 |    12    49919     1058   202478 |  9.071 % |
c |      960       381      260 |   13429   131379   445885 |    12    59919     1074   202478 |  9.092 % |
c |      973       410      267 |   13428   131379   445885 |    13    37563     1086   235339 |  9.098 % |
c |     1001       435      269 |   13426   131379   445885 |    13    47562     1094   235339 |  9.112 % |
c |     1031       468      271 |   13423   131379   445885 |    13    57562     1098   235339 |  9.132 % |
c |     1036       488      279 |   13421   131379   445885 |    13    67562     1107   235339 |  9.146 % |
c |     1088       508      275 |   13416   131379   445885 |    14    42483     1111   270919 |  9.180 % |
c |     1128       521      274 |   13414   131379   445885 |    14    52423     1114   270919 |  9.193 % |
c |     1170       546      273 |   13414   131379   445885 |    14    62423     1121   270919 |  9.193 % |
c |     1204       574      274 |   13299   131379   445885 |    14    72423     1131   270919 |  9.972 % |
c |     1231       635      276 |   13294   131379   445885 |    15    43642     1140   309058 | 10.005 % |
c |     1242       683      281 |   13047   131379   445885 |    15    52075     1147   309058 | 11.677 % |
c |     1268       716      283 |   13039   131379   445885 |    15    62075     1156   309058 | 11.732 % |
c |     1284       754      288 |   12920   131379   445885 |    15    68054     1169   309058 | 12.538 % |
c |     1296       796      293 |   12666   131379   445885 |    16    38554     1195   344012 | 14.257 % |
c empty clause found by core 11 at conflict 388652
*
c checking the resolution graph...OK
c All useful bySize 2741315 clauses, percentiles 0 2 6 14 59 217 514 900 1151 1544 2495 2503 (0,1,5,10,25,50,75,90,95,99,100-1,100)
c All useless bySize 3622175 clauses, percentiles 0 2 17 31 88 227 468 782 1007 1418 2467 2528 (0,1,5,10,25,50,75,90,95,99,100-1,100)
c ProofOnly useful bySize 2662098 clauses, percentiles 0 4 10 18 69 230 527 912 1161 1549 2495 2503 (0,1,5,10,25,50,75,90,95,99,100-1,100)
c ProofOnly useless bySize 3556330 clauses, percentiles 1 10 21 36 94 234 474 788 1013 1421 2467 2528 (0,1,5,10,25,50,75,90,95,99,100-1,100)
c All useful byFinalLBD 2741315 clauses, percentiles 0 1 2 3 6 10 13 16 17 21 84 103 (0,1,5,10,25,50,75,90,95,99,100-1,100)
c All useless byFinalLBD 3622175 clauses, percentiles 0 2 5 7 9 13 17 22 26 40 182 184 (0,1,5,10,25,50,75,90,95,99,100-1,100)
c ProofOnly useful byFinalLBD 2662098 clauses, percentiles 0 1 2 3 6 10 13 16 17 21 84 103 (0,1,5,10,25,50,75,90,95,99,100-1,100)
c ProofOnly useless byFinalLBD 3556330 clauses, percentiles 1 3 6 7 10 13 17 22 26 40 182 184 (0,1,5,10,25,50,75,90,95,99,100-1,100)
c All useful byInitialLBD 2741315 clauses, percentiles 0 2 4 5 8 11 14 17 18 23 110 112 (0,1,5,10,25,50,75,90,95,99,100-1,100)
c All useless byInitialLBD 3622175 clauses, percentiles 0 2 6 7 10 14 17 22 26 41 184 187 (0,1,5,10,25,50,75,90,95,99,100-1,100)
c ProofOnly useful byInitialLBD 2662098 clauses, percentiles 0 3 4 6 8 11 14 17 18 23 110 112 (0,1,5,10,25,50,75,90,95,99,100-1,100)
c ProofOnly useless byInitialLBD 3556330 clauses, percentiles 1 5 6 8 10 14 18 22 26 41 184 187 (0,1,5,10,25,50,75,90,95,99,100-1,100)
c Literals ProofOnly useful 952730827
c Literals ProofOnly useless 1192005325
c additional windowsGood 1 1 1 1 1 1 2 4 6 10 15 15 (0,1,5,10,25,50,75,90,95,99,100-1,100)
c additional windowsBad 1 1 1 1 1 2 3 6 8 15 113 319 (0,1,5,10,25,50,75,90,95,99,100-1,100)
c additional 1WindowNoDecision 794194 427003 0.54 626925 302907 0.48 (nbWindowsGood,nbWindowsNoDecisionGood,nbWindowsBad,nbWindowsNoDecisionBad
c additional topclausessize all (10%,5%,1%,top) 1203.51 1391.32 1694.93 2503
c additional topclausessize proofonly (10%,5%,1%,top) 1207.91 1394.81 1697.13 2503
c additional topclausesinitialLBD all (10%,5%,1%,top) 1076.50 1289.47 1632.41 2503
c additional topclausesinitialLBD proofonly (10%,5%,1%,top) 977.53 1207.91 1583.82 2503
c additional topclausesfinalLBD all (10%,5%,1%,top) 894.28 1137.36 1542.18 2503
c additional topclausesfinalLBD proofonly (10%,5%,1%,top) 826.21 1078.15 1507.04 2503
c additional predictionInitialLBD 1 925 2662098 0.99 0.00 0.00 6217503 3556330 0.57 1.34 0.80 0.57 (nbgoodclauses,nbtotalgood,precisionGood,recallGood,FGood,nbbadclause,nbtotalbad,precisionBad,recallBad,FBad,accuracy)
c additional predictionInitialLBD 2 19824 2662098 0.93 0.01 0.01 6198604 3556330 0.57 1.34 0.80 0.57 (nbgoodclauses,nbtotalgood,precisionGood,recallGood,FGood,nbbadclause,nbtotalbad,precisionBad,recallBad,FBad,accuracy)
c additional predictionInitialLBD 3 72649 2662098 0.89 0.02 0.05 6145779 3556330 0.58 1.33 0.81 0.58 (nbgoodclauses,nbtotalgood,precisionGood,recallGood,FGood,nbbadclause,nbtotalbad,precisionBad,recallBad,FBad,accuracy)
c additional predictionInitialLBD 4 178307 2662098 0.83 0.06 0.10 6040121 3556330 0.58 1.32 0.81 0.59 (nbgoodclauses,nbtotalgood,precisionGood,recallGood,FGood,nbbadclause,nbtotalbad,precisionBad,recallBad,FBad,accuracy)
c additional predictionInitialLBD 5 346256 2662098 0.75 0.10 0.17 5872172 3556330 0.59 1.30 0.81 0.60 (nbgoodclauses,nbtotalgood,precisionGood,recallGood,FGood,nbbadclause,nbtotalbad,precisionBad,recallBad,FBad,accuracy)
c additional predictionInitialLBD 6 573339 2662098 0.68 0.15 0.24 5645089 3556330 0.60 1.27 0.81 0.60 (nbgoodclauses,nbtotalgood,precisionGood,recallGood,FGood,nbbadclause,nbtotalbad,precisionBad,recallBad,FBad,accuracy)
c additional predictionInitialLBD 7 872178 2662098 0.63 0.21 0.31 5346250 3556330 0.60 1.21 0.81 0.61 (nbgoodclauses,nbtotalgood,precisionGood,recallGood,FGood,nbbadclause,nbtotalbad,precisionBad,recallBad,FBad,accuracy)
c additional predictionInitialLBD 8 1236666 2662098 0.60 0.28 0.38 4981762 3556330 0.61 1.15 0.80 0.61 (nbgoodclauses,nbtotalgood,precisionGood,recallGood,FGood,nbbadclause,nbtotalbad,precisionBad,recallBad,FBad,accuracy)
c additional predictionInitialLBD 10 2125057 2662098 0.56 0.45 0.50 4093371 3556330 0.64 0.98 0.78 0.61 (nbgoodclauses,nbtotalgood,precisionGood,recallGood,FGood,nbbadclause,nbtotalbad,precisionBad,recallBad,FBad,accuracy)
c additional predictionInitialLBD 14 4089895 2662098 0.51 0.78 0.62 2128533 3556330 0.73 0.58 0.65 0.59 (nbgoodclauses,nbtotalgood,precisionGood,recallGood,FGood,nbbadclause,nbtotalbad,precisionBad,recallBad,FBad,accuracy)
c additional predictionInitialLBD 18 5359990 2662098 0.47 0.95 0.63 858438 3556330 0.85 0.27 0.42 0.53 (nbgoodclauses,nbtotalgood,precisionGood,recallGood,FGood,nbbadclause,nbtotalbad,precisionBad,recallBad,FBad,accuracy)
c additional predictionInitialLBD 22 5853781 2662098 0.45 0.99 0.62 364647 3556330 0.92 0.13 0.22 0.48 (nbgoodclauses,nbtotalgood,precisionGood,recallGood,FGood,nbbadclause,nbtotalbad,precisionBad,recallBad,FBad,accuracy)
c additional predictionInitialLBD 30 6115103 2662098 0.43 1.00 0.61 103325 3556330 0.96 0.04 0.07 0.44 (nbgoodclauses,nbtotalgood,precisionGood,recallGood,FGood,nbbadclause,nbtotalbad,precisionBad,recallBad,FBad,accuracy)
c additional predictionInitialLBD 40 6180728 2662098 0.43 1.00 0.60 37700 3556330 0.97 0.01 0.03 0.43 (nbgoodclauses,nbtotalgood,precisionGood,recallGood,FGood,nbbadclause,nbtotalbad,precisionBad,recallBad,FBad,accuracy)
c additional predictionFinallLBD 1 65790 2662098 0.92 0.02 0.04 6152638 3556330 0.58 1.00 0.73 0.58 (nbgoodclauses,nbtotalgood,precisionGood,recallGood,FGood,nbbadclause,nbtotalbad,precisionBad,recallBad,FBad,accuracy)
c additional predictionFinallLBD 2 205628 2662098 0.89 0.07 0.13 6012800 3556330 0.59 0.99 0.74 0.60 (nbgoodclauses,nbtotalgood,precisionGood,recallGood,FGood,nbbadclause,nbtotalbad,precisionBad,recallBad,FBad,accuracy)
c additional predictionFinallLBD 3 343903 2662098 0.87 0.11 0.20 5874525 3556330 0.60 0.99 0.74 0.61 (nbgoodclauses,nbtotalgood,precisionGood,recallGood,FGood,nbbadclause,nbtotalbad,precisionBad,recallBad,FBad,accuracy)
c additional predictionFinallLBD 4 500519 2662098 0.84 0.16 0.27 5717909 3556330 0.61 0.98 0.75 0.63 (nbgoodclauses,nbtotalgood,precisionGood,recallGood,FGood,nbbadclause,nbtotalbad,precisionBad,recallBad,FBad,accuracy)
c additional predictionFinallLBD 5 726890 2662098 0.77 0.21 0.33 5491538 3556330 0.62 0.95 0.75 0.64 (nbgoodclauses,nbtotalgood,precisionGood,recallGood,FGood,nbbadclause,nbtotalbad,precisionBad,recallBad,FBad,accuracy)
c additional predictionFinallLBD 6 1015524 2662098 0.70 0.27 0.39 5202904 3556330 0.63 0.92 0.74 0.64 (nbgoodclauses,nbtotalgood,precisionGood,recallGood,FGood,nbbadclause,nbtotalbad,precisionBad,recallBad,FBad,accuracy)
c additional predictionFinallLBD 7 1347443 2662098 0.66 0.33 0.44 4870985 3556330 0.63 0.87 0.73 0.64 (nbgoodclauses,nbtotalgood,precisionGood,recallGood,FGood,nbbadclause,nbtotalbad,precisionBad,recallBad,FBad,accuracy)
c additional predictionFinallLBD 8 1718177 2662098 0.62 0.40 0.49 4500251 3556330 0.65 0.82 0.72 0.64 (nbgoodclauses,nbtotalgood,precisionGood,recallGood,FGood,nbbadclause,nbtotalbad,precisionBad,recallBad,FBad,accuracy)
c additional predictionFinallLBD 10 2564379 2662098 0.57 0.55 0.56 3654049 3556330 0.67 0.69 0.68 0.63 (nbgoodclauses,nbtotalgood,precisionGood,recallGood,FGood,nbbadclause,nbtotalbad,precisionBad,recallBad,FBad,accuracy)
c additional predictionFinallLBD 14 4349316 2662098 0.51 0.84 0.64 1869112 3556330 0.77 0.40 0.53 0.59 (nbgoodclauses,nbtotalgood,precisionGood,recallGood,FGood,nbbadclause,nbtotalbad,precisionBad,recallBad,FBad,accuracy)
c additional predictionFinallLBD 18 5461871 2662098 0.47 0.97 0.63 756557 3556330 0.89 0.19 0.31 0.52 (nbgoodclauses,nbtotalgood,precisionGood,recallGood,FGood,nbbadclause,nbtotalbad,precisionBad,recallBad,FBad,accuracy)
c additional predictionFinallLBD 22 5891586 2662098 0.45 0.99 0.62 326842 3556330 0.95 0.09 0.16 0.48 (nbgoodclauses,nbtotalgood,precisionGood,recallGood,FGood,nbbadclause,nbtotalbad,precisionBad,recallBad,FBad,accuracy)
c additional predictionFinallLBD 30 6124702 2662098 0.43 1.00 0.61 93726 3556330 0.98 0.03 0.05 0.44 (nbgoodclauses,nbtotalgood,precisionGood,recallGood,FGood,nbbadclause,nbtotalbad,precisionBad,recallBad,FBad,accuracy)
c additional predictionFinallLBD 40 6184136 2662098 0.43 1.00 0.60 34292 3556330 0.98 0.01 0.02 0.43 (nbgoodclauses,nbtotalgood,precisionGood,recallGood,FGood,nbbadclause,nbtotalbad,precisionBad,recallBad,FBad,accuracy)
c additional predictionSize 1 925 2662098 0.99 0.00 0.00 6217503 3556330 0.57 1.34 0.80 0.57 (nbgoodclauses,nbtotalgood,precisionGood,recallGood,FGood,nbbadclause,nbtotalbad,precisionBad,recallBad,FBad,accuracy)
c additional predictionSize 2 8321 2662098 0.98 0.00 0.01 6210107 3556330 0.57 1.34 0.80 0.57 (nbgoodclauses,nbtotalgood,precisionGood,recallGood,FGood,nbbadclause,nbtotalbad,precisionBad,recallBad,FBad,accuracy)
c additional predictionSize 3 20671 2662098 0.95 0.01 0.01 6197757 3556330 0.57 1.34 0.80 0.57 (nbgoodclauses,nbtotalgood,precisionGood,recallGood,FGood,nbbadclause,nbtotalbad,precisionBad,recallBad,FBad,accuracy)
c additional predictionSize 4 36391 2662098 0.93 0.01 0.03 6182037 3556330 0.57 1.33 0.80 0.58 (nbgoodclauses,nbtotalgood,precisionGood,recallGood,FGood,nbbadclause,nbtotalbad,precisionBad,recallBad,FBad,accuracy)
c additional predictionSize 5 55631 2662098 0.90 0.02 0.04 6162797 3556330 0.58 1.33 0.80 0.58 (nbgoodclauses,nbtotalgood,precisionGood,recallGood,FGood,nbbadclause,nbtotalbad,precisionBad,recallBad,FBad,accuracy)
c additional predictionSize 6 78631 2662098 0.87 0.03 0.05 6139797 3556330 0.58 1.33 0.81 0.58 (nbgoodclauses,nbtotalgood,precisionGood,recallGood,FGood,nbbadclause,nbtotalbad,precisionBad,recallBad,FBad,accuracy)
c additional predictionSize 7 103717 2662098 0.84 0.03 0.06 6114711 3556330 0.58 1.33 0.81 0.58 (nbgoodclauses,nbtotalgood,precisionGood,recallGood,FGood,nbbadclause,nbtotalbad,precisionBad,recallBad,FBad,accuracy)
c additional predictionSize 8 131000 2662098 0.82 0.04 0.08 6087428 3556330 0.58 1.33 0.81 0.59 (nbgoodclauses,nbtotalgood,precisionGood,recallGood,FGood,nbbadclause,nbtotalbad,precisionBad,recallBad,FBad,accuracy)
c additional predictionSize 10 186616 2662098 0.77 0.05 0.10 6031812 3556330 0.58 1.32 0.81 0.59 (nbgoodclauses,nbtotalgood,precisionGood,recallGood,FGood,nbbadclause,nbtotalbad,precisionBad,recallBad,FBad,accuracy)
c additional predictionSize 14 300008 2662098 0.70 0.08 0.14 5918420 3556330 0.59 1.30 0.81 0.59 (nbgoodclauses,nbtotalgood,precisionGood,recallGood,FGood,nbbadclause,nbtotalbad,precisionBad,recallBad,FBad,accuracy)
c additional predictionSize 18 408511 2662098 0.65 0.10 0.17 5809917 3556330 0.59 1.28 0.81 0.59 (nbgoodclauses,nbtotalgood,precisionGood,recallGood,FGood,nbbadclause,nbtotalbad,precisionBad,recallBad,FBad,accuracy)
c additional predictionSize 22 510424 2662098 0.62 0.12 0.20 5708004 3556330 0.59 1.26 0.80 0.59 (nbgoodclauses,nbtotalgood,precisionGood,recallGood,FGood,nbbadclause,nbtotalbad,precisionBad,recallBad,FBad,accuracy)
c additional predictionSize 30 691507 2662098 0.58 0.15 0.24 5526921 3556330 0.59 1.23 0.80 0.59 (nbgoodclauses,nbtotalgood,precisionGood,recallGood,FGood,nbbadclause,nbtotalbad,precisionBad,recallBad,FBad,accuracy)
c additional predictionSize 40 891581 2662098 0.54 0.18 0.27 5326847 3556330 0.59 1.18 0.79 0.58 (nbgoodclauses,nbtotalgood,precisionGood,recallGood,FGood,nbbadclause,nbtotalbad,precisionBad,recallBad,FBad,accuracy)
c additional predictionAge 1 22937 2662098 0.71 0.01 0.01 6195491 3556330 0.57 1.33 0.80 0.57 (nbgoodclauses,nbtotalgood,precisionGood,recallGood,FGood,nbbadclause,nbtotalbad,precisionBad,recallBad,FBad,accuracy)
c additional predictionAge 10 22952 2662098 0.71 0.01 0.01 6195476 3556330 0.57 1.33 0.80 0.57 (nbgoodclauses,nbtotalgood,precisionGood,recallGood,FGood,nbbadclause,nbtotalbad,precisionBad,recallBad,FBad,accuracy)
c additional predictionAge 25 24259 2662098 0.70 0.01 0.01 6194169 3556330 0.57 1.33 0.80 0.57 (nbgoodclauses,nbtotalgood,precisionGood,recallGood,FGood,nbbadclause,nbtotalbad,precisionBad,recallBad,FBad,accuracy)
c additional predictionAge 50 27521 2662098 0.65 0.01 0.01 6190907 3556330 0.57 1.33 0.80 0.57 (nbgoodclauses,nbtotalgood,precisionGood,recallGood,FGood,nbbadclause,nbtotalbad,precisionBad,recallBad,FBad,accuracy)
c additional predictionAge 100 29194 2662098 0.63 0.01 0.01 6189234 3556330 0.57 1.33 0.80 0.57 (nbgoodclauses,nbtotalgood,precisionGood,recallGood,FGood,nbbadclause,nbtotalbad,precisionBad,recallBad,FBad,accuracy)
c additional predictionAge 250 31632 2662098 0.61 0.01 0.01 6186796 3556330 0.57 1.33 0.80 0.57 (nbgoodclauses,nbtotalgood,precisionGood,recallGood,FGood,nbbadclause,nbtotalbad,precisionBad,recallBad,FBad,accuracy)
c additional predictionAge 500 33559 2662098 0.60 0.01 0.01 6184869 3556330 0.57 1.33 0.80 0.57 (nbgoodclauses,nbtotalgood,precisionGood,recallGood,FGood,nbbadclause,nbtotalbad,precisionBad,recallBad,FBad,accuracy)
c additional predictionAge 1000 35350 2662098 0.59 0.01 0.02 6183078 3556330 0.57 1.33 0.80 0.57 (nbgoodclauses,nbtotalgood,precisionGood,recallGood,FGood,nbbadclause,nbtotalbad,precisionBad,recallBad,FBad,accuracy)
c additional predictionAge 2500 38288 2662098 0.58 0.01 0.02 6180140 3556330 0.57 1.33 0.80 0.57 (nbgoodclauses,nbtotalgood,precisionGood,recallGood,FGood,nbbadclause,nbtotalbad,precisionBad,recallBad,FBad,accuracy)
c additional predictionAge 5000 41585 2662098 0.57 0.01 0.02 6176843 3556330 0.57 1.33 0.80 0.57 (nbgoodclauses,nbtotalgood,precisionGood,recallGood,FGood,nbbadclause,nbtotalbad,precisionBad,recallBad,FBad,accuracy)
c additional predictionAge 10000 47067 2662098 0.55 0.01 0.02 6171361 3556330 0.57 1.33 0.80 0.57 (nbgoodclauses,nbtotalgood,precisionGood,recallGood,FGood,nbbadclause,nbtotalbad,precisionBad,recallBad,FBad,accuracy)
c additional predictionAge 25000 62761 2662098 0.51 0.01 0.02 6155667 3556330 0.57 1.32 0.80 0.57 (nbgoodclauses,nbtotalgood,precisionGood,recallGood,FGood,nbbadclause,nbtotalbad,precisionBad,recallBad,FBad,accuracy)
c additional predictionAge 50000 88200 2662098 0.45 0.01 0.03 6130228 3556330 0.57 1.32 0.80 0.57 (nbgoodclauses,nbtotalgood,precisionGood,recallGood,FGood,nbbadclause,nbtotalbad,precisionBad,recallBad,FBad,accuracy)
c additional predictionAge 100000 138539 2662098 0.39 0.02 0.04 6079889 3556330 0.57 1.30 0.79 0.57 (nbgoodclauses,nbtotalgood,precisionGood,recallGood,FGood,nbbadclause,nbtotalbad,precisionBad,recallBad,FBad,accuracy)
c additional predictionTicks 1 23523 2662098 0.71 0.01 0.01 6194905 3556330 0.57 1.33 0.80 0.57 (nbgoodclauses,nbtotalgood,precisionGood,recallGood,FGood,nbbadclause,nbtotalbad,precisionBad,recallBad,FBad,accuracy)
c additional predictionTicks 10 26684 2662098 0.71 0.01 0.01 6191744 3556330 0.57 1.33 0.80 0.57 (nbgoodclauses,nbtotalgood,precisionGood,recallGood,FGood,nbbadclause,nbtotalbad,precisionBad,recallBad,FBad,accuracy)
c additional predictionTicks 25 108497 2662098 0.57 0.02 0.04 6109931 3556330 0.57 1.32 0.80 0.57 (nbgoodclauses,nbtotalgood,precisionGood,recallGood,FGood,nbbadclause,nbtotalbad,precisionBad,recallBad,FBad,accuracy)
c additional predictionTicks 50 187986 2662098 0.54 0.04 0.07 6030442 3556330 0.58 1.30 0.80 0.57 (nbgoodclauses,nbtotalgood,precisionGood,recallGood,FGood,nbbadclause,nbtotalbad,precisionBad,recallBad,FBad,accuracy)
c additional predictionTicks 100 281966 2662098 0.52 0.06 0.10 5936462 3556330 0.58 1.29 0.80 0.57 (nbgoodclauses,nbtotalgood,precisionGood,recallGood,FGood,nbbadclause,nbtotalbad,precisionBad,recallBad,FBad,accuracy)
c additional predictionTicks 250 475445 2662098 0.50 0.09 0.15 5742983 3556330 0.58 1.25 0.79 0.57 (nbgoodclauses,nbtotalgood,precisionGood,recallGood,FGood,nbbadclause,nbtotalbad,precisionBad,recallBad,FBad,accuracy)
c additional predictionTicks 500 685676 2662098 0.49 0.13 0.20 5532752 3556330 0.58 1.20 0.78 0.57 (nbgoodclauses,nbtotalgood,precisionGood,recallGood,FGood,nbbadclause,nbtotalbad,precisionBad,recallBad,FBad,accuracy)
c additional predictionTicks 1000 938881 2662098 0.48 0.17 0.25 5279547 3556330 0.58 1.15 0.77 0.57 (nbgoodclauses,nbtotalgood,precisionGood,recallGood,FGood,nbbadclause,nbtotalbad,precisionBad,recallBad,FBad,accuracy)
c additional predictionTicks 2500 1356047 2662098 0.47 0.24 0.32 4862381 3556330 0.58 1.07 0.75 0.56 (nbgoodclauses,nbtotalgood,precisionGood,recallGood,FGood,nbbadclause,nbtotalbad,precisionBad,recallBad,FBad,accuracy)
c additional predictionTicks 5000 1721713 2662098 0.47 0.30 0.37 4496715 3556330 0.59 0.99 0.74 0.55 (nbgoodclauses,nbtotalgood,precisionGood,recallGood,FGood,nbbadclause,nbtotalbad,precisionBad,recallBad,FBad,accuracy)
c additional predictionTicks 10000 2123029 2662098 0.46 0.37 0.41 4095399 3556330 0.59 0.91 0.71 0.55 (nbgoodclauses,nbtotalgood,precisionGood,recallGood,FGood,nbbadclause,nbtotalbad,precisionBad,recallBad,FBad,accuracy)
c additional predictionTicks 25000 2728640 2662098 0.45 0.46 0.46 3489788 3556330 0.59 0.78 0.67 0.53 (nbgoodclauses,nbtotalgood,precisionGood,recallGood,FGood,nbbadclause,nbtotalbad,precisionBad,recallBad,FBad,accuracy)
c additional predictionTicks 50000 3300098 2662098 0.44 0.55 0.49 2918330 3556330 0.59 0.64 0.61 0.51 (nbgoodclauses,nbtotalgood,precisionGood,recallGood,FGood,nbbadclause,nbtotalbad,precisionBad,recallBad,FBad,accuracy)
c additional predictionTicks 100000 4025591 2662098 0.43 0.65 0.52 2192837 3556330 0.58 0.47 0.52 0.48 (nbgoodclauses,nbtotalgood,precisionGood,recallGood,FGood,nbbadclause,nbtotalbad,precisionBad,recallBad,FBad,accuracy)
c additional lifetimeGood 1 128 230306 676202 1952302 3477026 4768130 5536633 5784228 6064688 6231965 6232084 (0,1,5,10,25,50,75,90,95,99,100-1,100)
c additional lifetimeBad 1 48 77663 249020 846825 2110978 3862156 5379815 5805601 6107183 6231943 6232028 (0,1,5,10,25,50,75,90,95,99,100-1,100)
c additional lifetimeBadBad 3 16 16 16 64 36234 883843 2521998 3589513 5145343 6221984 6222224 (0,1,5,10,25,50,75,90,95,99,100-1,100)
c additional compositionBad 1 4 8 14 32 81 179 336 472 848 3034 3124 (0,1,5,10,25,50,75,90,95,99,100-1,100)
c additional compositionBadWithGood 0 1 4 6 16 40 90 171 241 431 1389 1439 (0,1,5,10,25,50,75,90,95,99,100-1,100)
c additional compositionBadWithBad 0 0 0 0 1 1 3 6 11 27 134 146 (0,1,5,10,25,50,75,90,95,99,100-1,100)
c additional compositionBadWithInitial 0 0 2 5 13 36 85 163 233 432 2243 2274 (0,1,5,10,25,50,75,90,95,99,100-1,100)
c additional compositionGood 1 3 5 8 22 69 180 366 529 960 3343 3382 (0,1,5,10,25,50,75,90,95,99,100-1,100)
c additional compositionGoodWithGood 0 1 3 5 13 39 101 203 291 513 1642 1730 (0,1,5,10,25,50,75,90,95,99,100-1,100)
c additional compositionGoodWithInitial 0 0 1 3 8 28 78 165 245 469 1910 1955 (0,1,5,10,25,50,75,90,95,99,100-1,100)
c additional propagationGood total 1615845450 percentiles 0 1 1 1 1 2 10 93 386 5805 955467 980052 (0,1,5,10,25,50,75,90,95,99,100-1,100)
c additional propagationBad total 39069185 percentiles 1 1 1 1 1 1 2 5 12 84 629776 810908 (0,1,5,10,25,50,75,90,95,99,100-1,100)
c additional resolutionGood total 230366529 percentiles 0 1 1 1 1 2 7 36 102 910 266751 283048 (0,1,5,10,25,50,75,90,95,99,100-1,100)
c additional resolutionBad total 10262857 percentiles 0 0 0 0 1 1 2 3 6 28 6627 6991 (0,1,5,10,25,50,75,90,95,99,100-1,100)
No graph is dumped
c result of core 11 is UNSAT
c One thread has finished
c Core 11 said it finished
c result of core 0 is UNKNOWN
c result of core 2 is UNKNOWN
c result of core 1 is UNKNOWN
c result of core 3 is UNKNOWN
c result of core 5 is UNKNOWN
c result of core 4 is UNKNOWN
c result of core 6 is UNKNOWN
c result of core 9 is UNKNOWN
c result of core 7 is UNKNOWN
c result of core 10 is UNKNOWN
c result of core 8 is UNKNOWN
c result of core 13 is UNKNOWN
c result of core 12 is UNKNOWN
c result of core 14 is UNKNOWN
c result of core 15 is UNKNOWN
c restarts              : 1299 (299 conflicts in avg)
c blocked restarts      : 851 (multiple: 183) 
c last block at restart : 1299
c nb ReduceDB           : 16
c nb removed Clauses    : 344012
c nb learnts DL2        : 1213
c nb learnts size 2     : 485
c nb learnts size 1     : 61
c conflicts             : 388652         (55 /sec)
c decisions             : 647578         (0.00 % random) (91 /sec)
c propagations          : 550511887      (77260 /sec)
c conflict literals     : 133539319      (6.02 % deleted)
c nb reduced Clauses    : 4136
c CPU time              : 7125.48 s

s INDETERMINATE
