c
c This is glucose-proof 1.0 based on  2.1 --  (thanks to MiniSAT)
c
c EXPERIMENTAL EASY PARALLEL (ROUND ROBIN) VERSION
c
c WARNING: for repeatability, setting FPU to use double precision
c Parallel version 16 solvers created.
c ========================================[ Problem Statistics ]===========================================
c |                                                                                                       |
c |  Number of variables:          3373                                                                   |
c |  Number of clauses:           14034                                                                   |
c |  Parse time:                   0.08 s                                                                 |
c |                                                                                                       |
c ========================================[ MAGIC CONSTANTS ]==============================================
c | Constants are supposed to work well together :-)                                                      |
c | however, if you find better choices, please let us known...                                           |
c |-------------------------------------------------------------------------------------------------------|
c |                                |                                |                                     |
c | - Restarts:                    | - Reduce Clause DB:            | - Minimize Asserting:               |
c |   * LBD Queue    :     50      |   * First     :   4000         |    * size <  30                     |
c |   * Trail  Queue :   5000      |   * Inc       :    300         |    * lbd  <   6                     |
c |   * K            :   0.80      |   * Special   :   1000         |                                     |
c |   * R            :   1.40      |   * Protected :  (lbd)< 30     |                                     |
c |                                |                                |                                     |
c ==================================[ Search Statistics (every  10000 conflicts) ]=========================
c |                                                                                                       |
c |          RESTARTS           |          ORIGINAL         |              LEARNT              | Progress |
c |       NB   Blocked  Avg Cfc |    Vars  Clauses Literals |   Red   Learnts    LBD2  Removed |          |
c =========================================================================================================
c |        3         0     3333 |    3289    14034    40744 |     1     8001       13     2240 |  2.491 % |
c |        3         0     6666 |    3289    14034    40744 |     3     6953       19    13822 |  2.491 % |
c |        4         0     7500 |    3289    14034    40744 |     3    16953       24    13822 |  2.490 % |
c |       11         0     3636 |    3289    14034    40744 |     4    17677       29    23374 |  2.490 % |
c |       11         0     4545 |    3289    14034    40744 |     5    15840       31    35513 |  2.490 % |
c |       11         0     5454 |    3289    14034    40744 |     5    25840       37    35513 |  2.490 % |
c |       11         0     6363 |    3289    14034    40744 |     6    21422       47    50209 |  2.490 % |
c |       11         0     7272 |    3289    14034    40744 |     6    31422       58    50209 |  2.490 % |
c |       26         0     3461 |    3289    14034    40744 |     7    24411       64    67514 |  2.491 % |
c |       84         0     1190 |    3289    14034    40744 |     7    34411       71    67514 |  2.490 % |
c |      121         0      909 |    3289    14034    40744 |     8    24811       73    87303 |  2.490 % |
c |      177         0      677 |    3289    14034    40744 |     8    34811       80    87303 |  2.490 % |
c |      211         0      616 |    3289    14034    40744 |     9    22608       82   109794 |  2.491 % |
c |      216         0      648 |    3289    14034    40744 |     9    32608       83   109794 |  2.491 % |
c |      216         0      694 |    3289    14034    40744 |     9    42608       86   109794 |  2.491 % |
c |      216         0      740 |    3289    14034    40744 |    10    27811       88   135007 |  2.491 % |
c |      217         0      783 |    3289    14034    40744 |    10    37811       92   135007 |  2.492 % |
c |      221         0      814 |    3289    14034    40744 |    10    47811       94   135007 |  2.491 % |
c |      221         0      859 |    3288    14034    40744 |    11    30412       97   162746 |  2.521 % |
c |      222         0      900 |    3288    14034    40744 |    11    40412      103   162746 |  2.521 % |
c |      227         0      925 |    3284    14034    40744 |    11    50396      103   162746 |  2.639 % |
c |      232         0      948 |    3284    14034    40744 |    12    30406      109   192923 |  2.640 % |
c |      232         0      991 |    3284    14034    40744 |    12    40406      110   192923 |  2.640 % |
c |      233         0     1030 |    3268    14034    40744 |    12    43880      112   192923 |  3.117 % |
c Contradiction found while importing a unary clause clauses.
c Contradiction found while importing a unary clause clauses.
c empty clause found by core 11 at conflict 243754
*
c checking the resolution graph...OK
c All useful bySize 2513329 clauses, percentiles 0 5 11 17 36 96 401 509 566 668 1173 1208 (0,1,5,10,25,50,75,90,95,99,100-1,100)
c All useless bySize 1400965 clauses, percentiles 0 8 14 20 42 106 401 512 569 670 1001 1013 (0,1,5,10,25,50,75,90,95,99,100-1,100)
c ProofOnly useful bySize 2499878 clauses, percentiles 0 7 12 17 37 98 402 510 566 668 1173 1208 (0,1,5,10,25,50,75,90,95,99,100-1,100)
c ProofOnly useless bySize 1400182 clauses, percentiles 2 8 15 20 42 106 402 512 569 670 1001 1013 (0,1,5,10,25,50,75,90,95,99,100-1,100)
c All useful byFinalLBD 2513329 clauses, percentiles 0 2 3 5 8 10 12 14 15 17 42 42 (0,1,5,10,25,50,75,90,95,99,100-1,100)
c All useless byFinalLBD 1400965 clauses, percentiles 0 2 4 6 8 10 12 15 16 19 43 43 (0,1,5,10,25,50,75,90,95,99,100-1,100)
c ProofOnly useful byFinalLBD 2499878 clauses, percentiles 0 2 3 5 8 10 12 14 15 17 42 42 (0,1,5,10,25,50,75,90,95,99,100-1,100)
c ProofOnly useless byFinalLBD 1400182 clauses, percentiles 1 2 5 6 8 10 12 15 16 19 43 43 (0,1,5,10,25,50,75,90,95,99,100-1,100)
c All useful byInitialLBD 2513329 clauses, percentiles 0 4 6 7 9 11 13 14 16 18 42 42 (0,1,5,10,25,50,75,90,95,99,100-1,100)
c All useless byInitialLBD 1400965 clauses, percentiles 0 4 6 7 9 11 13 15 16 19 43 43 (0,1,5,10,25,50,75,90,95,99,100-1,100)
c ProofOnly useful byInitialLBD 2499878 clauses, percentiles 0 4 6 7 9 11 13 14 16 18 42 42 (0,1,5,10,25,50,75,90,95,99,100-1,100)
c ProofOnly useless byInitialLBD 1400182 clauses, percentiles 2 5 6 7 9 11 13 15 16 19 43 43 (0,1,5,10,25,50,75,90,95,99,100-1,100)
c Literals ProofOnly useful 521665873
c Literals ProofOnly useless 297778729
c additional windowsGood 1 1 1 1 1 2 5 5 6 8 15 15 (0,1,5,10,25,50,75,90,95,99,100-1,100)
c additional windowsBad 1 1 1 1 1 1 2 3 4 6 15 15 (0,1,5,10,25,50,75,90,95,99,100-1,100)
c additional 1WindowNoDecision 334561 170431 0.51 617221 308819 0.5 (nbWindowsGood,nbWindowsNoDecisionGood,nbWindowsBad,nbWindowsNoDecisionBad
c additional topclausessize all (10%,5%,1%,top) 582.20 629.13 720.67 1208
c additional topclausessize proofonly (10%,5%,1%,top) 582.39 629.30 720.81 1208
c additional topclausesinitialLBD all (10%,5%,1%,top) 551.07 602.64 699.03 1208
c additional topclausesinitialLBD proofonly (10%,5%,1%,top) 526.36 582.39 683.28 1208
c additional topclausesfinalLBD all (10%,5%,1%,top) 504.67 565.59 670.70 1208
c additional topclausesfinalLBD proofonly (10%,5%,1%,top) 484.39 551.15 660.23 1208
c additional predictionInitialLBD 1 15 2499878 1.00 0.00 0.00 3900045 1400182 0.36 0.56 0.44 0.36 (nbgoodclauses,nbtotalgood,precisionGood,recallGood,FGood,nbbadclause,nbtotalbad,precisionBad,recallBad,FBad,accuracy)
c additional predictionInitialLBD 2 1806 2499878 0.90 0.00 0.00 3898254 1400182 0.36 0.56 0.44 0.36 (nbgoodclauses,nbtotalgood,precisionGood,recallGood,FGood,nbbadclause,nbtotalbad,precisionBad,recallBad,FBad,accuracy)
c additional predictionInitialLBD 3 13765 2499878 0.86 0.00 0.01 3886295 1400182 0.36 0.56 0.44 0.36 (nbgoodclauses,nbtotalgood,precisionGood,recallGood,FGood,nbbadclause,nbtotalbad,precisionBad,recallBad,FBad,accuracy)
c additional predictionInitialLBD 4 56366 2499878 0.76 0.02 0.03 3843694 1400182 0.36 0.55 0.44 0.37 (nbgoodclauses,nbtotalgood,precisionGood,recallGood,FGood,nbbadclause,nbtotalbad,precisionBad,recallBad,FBad,accuracy)
c additional predictionInitialLBD 5 149460 2499878 0.72 0.04 0.08 3750600 1400182 0.36 0.54 0.43 0.38 (nbgoodclauses,nbtotalgood,precisionGood,recallGood,FGood,nbbadclause,nbtotalbad,precisionBad,recallBad,FBad,accuracy)
c additional predictionInitialLBD 6 307444 2499878 0.69 0.08 0.15 3592616 1400182 0.36 0.52 0.43 0.39 (nbgoodclauses,nbtotalgood,precisionGood,recallGood,FGood,nbbadclause,nbtotalbad,precisionBad,recallBad,FBad,accuracy)
c additional predictionInitialLBD 7 560295 2499878 0.67 0.15 0.25 3339765 1400182 0.36 0.49 0.42 0.41 (nbgoodclauses,nbtotalgood,precisionGood,recallGood,FGood,nbbadclause,nbtotalbad,precisionBad,recallBad,FBad,accuracy)
c additional predictionInitialLBD 8 919286 2499878 0.66 0.24 0.35 2980774 1400182 0.36 0.43 0.40 0.43 (nbgoodclauses,nbtotalgood,precisionGood,recallGood,FGood,nbbadclause,nbtotalbad,precisionBad,recallBad,FBad,accuracy)
c additional predictionInitialLBD 10 1886502 2499878 0.65 0.49 0.56 2013558 1400182 0.37 0.29 0.33 0.50 (nbgoodclauses,nbtotalgood,precisionGood,recallGood,FGood,nbbadclause,nbtotalbad,precisionBad,recallBad,FBad,accuracy)
c additional predictionInitialLBD 14 3498722 2499878 0.65 0.91 0.75 401338 1400182 0.41 0.07 0.11 0.62 (nbgoodclauses,nbtotalgood,precisionGood,recallGood,FGood,nbbadclause,nbtotalbad,precisionBad,recallBad,FBad,accuracy)
c additional predictionInitialLBD 18 3863420 2499878 0.64 0.99 0.78 36640 1400182 0.53 0.01 0.02 0.64 (nbgoodclauses,nbtotalgood,precisionGood,recallGood,FGood,nbbadclause,nbtotalbad,precisionBad,recallBad,FBad,accuracy)
c additional predictionInitialLBD 22 3895732 2499878 0.64 1.00 0.78 4328 1400182 0.60 0.00 0.00 0.64 (nbgoodclauses,nbtotalgood,precisionGood,recallGood,FGood,nbbadclause,nbtotalbad,precisionBad,recallBad,FBad,accuracy)
c additional predictionInitialLBD 30 3899843 2499878 0.64 1.00 0.78 217 1400182 0.54 0.00 0.00 0.64 (nbgoodclauses,nbtotalgood,precisionGood,recallGood,FGood,nbbadclause,nbtotalbad,precisionBad,recallBad,FBad,accuracy)
c additional predictionInitialLBD 40 3900052 2499878 0.64 1.00 0.78 8 1400182 0.50 0.00 0.00 0.64 (nbgoodclauses,nbtotalgood,precisionGood,recallGood,FGood,nbbadclause,nbtotalbad,precisionBad,recallBad,FBad,accuracy)
c additional predictionFinallLBD 1 19940 2499878 0.86 0.01 0.01 3880120 1400182 0.36 1.00 0.53 0.36 (nbgoodclauses,nbtotalgood,precisionGood,recallGood,FGood,nbbadclause,nbtotalbad,precisionBad,recallBad,FBad,accuracy)
c additional predictionFinallLBD 2 80212 2499878 0.81 0.03 0.05 3819848 1400182 0.36 0.99 0.53 0.37 (nbgoodclauses,nbtotalgood,precisionGood,recallGood,FGood,nbbadclause,nbtotalbad,precisionBad,recallBad,FBad,accuracy)
c additional predictionFinallLBD 3 170520 2499878 0.78 0.05 0.10 3729540 1400182 0.37 0.97 0.53 0.38 (nbgoodclauses,nbtotalgood,precisionGood,recallGood,FGood,nbbadclause,nbtotalbad,precisionBad,recallBad,FBad,accuracy)
c additional predictionFinallLBD 4 279121 2499878 0.75 0.08 0.15 3620939 1400182 0.37 0.95 0.53 0.39 (nbgoodclauses,nbtotalgood,precisionGood,recallGood,FGood,nbbadclause,nbtotalbad,precisionBad,recallBad,FBad,accuracy)
c additional predictionFinallLBD 5 404172 2499878 0.72 0.12 0.20 3495888 1400182 0.37 0.92 0.53 0.41 (nbgoodclauses,nbtotalgood,precisionGood,recallGood,FGood,nbbadclause,nbtotalbad,precisionBad,recallBad,FBad,accuracy)
c additional predictionFinallLBD 6 571157 2499878 0.70 0.16 0.26 3328903 1400182 0.37 0.88 0.52 0.42 (nbgoodclauses,nbtotalgood,precisionGood,recallGood,FGood,nbbadclause,nbtotalbad,precisionBad,recallBad,FBad,accuracy)
c additional predictionFinallLBD 7 821033 2499878 0.68 0.22 0.34 3079027 1400182 0.37 0.81 0.51 0.43 (nbgoodclauses,nbtotalgood,precisionGood,recallGood,FGood,nbbadclause,nbtotalbad,precisionBad,recallBad,FBad,accuracy)
c additional predictionFinallLBD 8 1164272 2499878 0.66 0.31 0.42 2735788 1400182 0.37 0.72 0.49 0.46 (nbgoodclauses,nbtotalgood,precisionGood,recallGood,FGood,nbbadclause,nbtotalbad,precisionBad,recallBad,FBad,accuracy)
c additional predictionFinallLBD 10 2074460 2499878 0.65 0.54 0.59 1825600 1400182 0.37 0.48 0.42 0.52 (nbgoodclauses,nbtotalgood,precisionGood,recallGood,FGood,nbbadclause,nbtotalbad,precisionBad,recallBad,FBad,accuracy)
c additional predictionFinallLBD 14 3559103 2499878 0.65 0.92 0.76 340957 1400182 0.42 0.10 0.17 0.63 (nbgoodclauses,nbtotalgood,precisionGood,recallGood,FGood,nbbadclause,nbtotalbad,precisionBad,recallBad,FBad,accuracy)
c additional predictionFinallLBD 18 3872453 2499878 0.64 1.00 0.78 27607 1400182 0.57 0.01 0.02 0.64 (nbgoodclauses,nbtotalgood,precisionGood,recallGood,FGood,nbbadclause,nbtotalbad,precisionBad,recallBad,FBad,accuracy)
c additional predictionFinallLBD 22 3897067 2499878 0.64 1.00 0.78 2993 1400182 0.66 0.00 0.00 0.64 (nbgoodclauses,nbtotalgood,precisionGood,recallGood,FGood,nbbadclause,nbtotalbad,precisionBad,recallBad,FBad,accuracy)
c additional predictionFinallLBD 30 3899904 2499878 0.64 1.00 0.78 156 1400182 0.56 0.00 0.00 0.64 (nbgoodclauses,nbtotalgood,precisionGood,recallGood,FGood,nbbadclause,nbtotalbad,precisionBad,recallBad,FBad,accuracy)
c additional predictionFinallLBD 40 3900053 2499878 0.64 1.00 0.78 7 1400182 0.57 0.00 0.00 0.64 (nbgoodclauses,nbtotalgood,precisionGood,recallGood,FGood,nbbadclause,nbtotalbad,precisionBad,recallBad,FBad,accuracy)
c additional predictionSize 1 15 2499878 1.00 0.00 0.00 3900045 1400182 0.36 0.56 0.44 0.36 (nbgoodclauses,nbtotalgood,precisionGood,recallGood,FGood,nbbadclause,nbtotalbad,precisionBad,recallBad,FBad,accuracy)
c additional predictionSize 2 302 2499878 0.94 0.00 0.00 3899758 1400182 0.36 0.56 0.44 0.36 (nbgoodclauses,nbtotalgood,precisionGood,recallGood,FGood,nbbadclause,nbtotalbad,precisionBad,recallBad,FBad,accuracy)
c additional predictionSize 3 1395 2499878 0.97 0.00 0.00 3898665 1400182 0.36 0.56 0.44 0.36 (nbgoodclauses,nbtotalgood,precisionGood,recallGood,FGood,nbbadclause,nbtotalbad,precisionBad,recallBad,FBad,accuracy)
c additional predictionSize 4 4516 2499878 0.91 0.00 0.00 3895544 1400182 0.36 0.56 0.44 0.36 (nbgoodclauses,nbtotalgood,precisionGood,recallGood,FGood,nbbadclause,nbtotalbad,precisionBad,recallBad,FBad,accuracy)
c additional predictionSize 5 15715 2499878 0.86 0.01 0.01 3884345 1400182 0.36 0.56 0.44 0.36 (nbgoodclauses,nbtotalgood,precisionGood,recallGood,FGood,nbbadclause,nbtotalbad,precisionBad,recallBad,FBad,accuracy)
c additional predictionSize 6 29345 2499878 0.83 0.01 0.02 3870715 1400182 0.36 0.56 0.44 0.36 (nbgoodclauses,nbtotalgood,precisionGood,recallGood,FGood,nbbadclause,nbtotalbad,precisionBad,recallBad,FBad,accuracy)
c additional predictionSize 7 46221 2499878 0.81 0.01 0.03 3853839 1400182 0.36 0.56 0.44 0.37 (nbgoodclauses,nbtotalgood,precisionGood,recallGood,FGood,nbbadclause,nbtotalbad,precisionBad,recallBad,FBad,accuracy)
c additional predictionSize 8 68753 2499878 0.79 0.02 0.04 3831307 1400182 0.36 0.55 0.44 0.37 (nbgoodclauses,nbtotalgood,precisionGood,recallGood,FGood,nbbadclause,nbtotalbad,precisionBad,recallBad,FBad,accuracy)
c additional predictionSize 10 123773 2499878 0.76 0.04 0.07 3776287 1400182 0.36 0.55 0.44 0.38 (nbgoodclauses,nbtotalgood,precisionGood,recallGood,FGood,nbbadclause,nbtotalbad,precisionBad,recallBad,FBad,accuracy)
c additional predictionSize 14 256897 2499878 0.73 0.07 0.14 3643163 1400182 0.37 0.53 0.43 0.39 (nbgoodclauses,nbtotalgood,precisionGood,recallGood,FGood,nbbadclause,nbtotalbad,precisionBad,recallBad,FBad,accuracy)
c additional predictionSize 18 400257 2499878 0.71 0.11 0.20 3499803 1400182 0.37 0.51 0.43 0.40 (nbgoodclauses,nbtotalgood,precisionGood,recallGood,FGood,nbbadclause,nbtotalbad,precisionBad,recallBad,FBad,accuracy)
c additional predictionSize 22 537396 2499878 0.69 0.15 0.25 3362664 1400182 0.37 0.49 0.42 0.41 (nbgoodclauses,nbtotalgood,precisionGood,recallGood,FGood,nbbadclause,nbtotalbad,precisionBad,recallBad,FBad,accuracy)
c additional predictionSize 30 775375 2499878 0.68 0.21 0.32 3124685 1400182 0.37 0.46 0.41 0.43 (nbgoodclauses,nbtotalgood,precisionGood,recallGood,FGood,nbbadclause,nbtotalbad,precisionBad,recallBad,FBad,accuracy)
c additional predictionSize 40 1022805 2499878 0.67 0.27 0.39 2877255 1400182 0.37 0.42 0.39 0.45 (nbgoodclauses,nbtotalgood,precisionGood,recallGood,FGood,nbbadclause,nbtotalbad,precisionBad,recallBad,FBad,accuracy)
c additional predictionAge 1 46560 2499878 0.79 0.01 0.03 3853500 1400182 0.36 0.56 0.44 0.37 (nbgoodclauses,nbtotalgood,precisionGood,recallGood,FGood,nbbadclause,nbtotalbad,precisionBad,recallBad,FBad,accuracy)
c additional predictionAge 10 46578 2499878 0.79 0.01 0.03 3853482 1400182 0.36 0.56 0.44 0.37 (nbgoodclauses,nbtotalgood,precisionGood,recallGood,FGood,nbbadclause,nbtotalbad,precisionBad,recallBad,FBad,accuracy)
c additional predictionAge 25 51606 2499878 0.78 0.02 0.03 3848454 1400182 0.36 0.56 0.44 0.37 (nbgoodclauses,nbtotalgood,precisionGood,recallGood,FGood,nbbadclause,nbtotalbad,precisionBad,recallBad,FBad,accuracy)
c additional predictionAge 50 65177 2499878 0.76 0.02 0.04 3834883 1400182 0.36 0.55 0.44 0.37 (nbgoodclauses,nbtotalgood,precisionGood,recallGood,FGood,nbbadclause,nbtotalbad,precisionBad,recallBad,FBad,accuracy)
c additional predictionAge 100 69816 2499878 0.75 0.02 0.04 3830244 1400182 0.36 0.55 0.44 0.37 (nbgoodclauses,nbtotalgood,precisionGood,recallGood,FGood,nbbadclause,nbtotalbad,precisionBad,recallBad,FBad,accuracy)
c additional predictionAge 250 75832 2499878 0.74 0.02 0.04 3824228 1400182 0.36 0.55 0.44 0.37 (nbgoodclauses,nbtotalgood,precisionGood,recallGood,FGood,nbbadclause,nbtotalbad,precisionBad,recallBad,FBad,accuracy)
c additional predictionAge 500 81181 2499878 0.74 0.02 0.05 3818879 1400182 0.36 0.55 0.44 0.37 (nbgoodclauses,nbtotalgood,precisionGood,recallGood,FGood,nbbadclause,nbtotalbad,precisionBad,recallBad,FBad,accuracy)
c additional predictionAge 1000 87161 2499878 0.73 0.03 0.05 3812899 1400182 0.36 0.55 0.44 0.37 (nbgoodclauses,nbtotalgood,precisionGood,recallGood,FGood,nbbadclause,nbtotalbad,precisionBad,recallBad,FBad,accuracy)
c additional predictionAge 2500 97480 2499878 0.73 0.03 0.05 3802580 1400182 0.36 0.55 0.44 0.37 (nbgoodclauses,nbtotalgood,precisionGood,recallGood,FGood,nbbadclause,nbtotalbad,precisionBad,recallBad,FBad,accuracy)
c additional predictionAge 5000 108553 2499878 0.72 0.03 0.06 3791507 1400182 0.36 0.55 0.44 0.37 (nbgoodclauses,nbtotalgood,precisionGood,recallGood,FGood,nbbadclause,nbtotalbad,precisionBad,recallBad,FBad,accuracy)
c additional predictionAge 10000 123856 2499878 0.72 0.04 0.07 3776204 1400182 0.36 0.55 0.43 0.37 (nbgoodclauses,nbtotalgood,precisionGood,recallGood,FGood,nbbadclause,nbtotalbad,precisionBad,recallBad,FBad,accuracy)
c additional predictionAge 25000 157487 2499878 0.72 0.05 0.08 3742573 1400182 0.36 0.54 0.43 0.38 (nbgoodclauses,nbtotalgood,precisionGood,recallGood,FGood,nbbadclause,nbtotalbad,precisionBad,recallBad,FBad,accuracy)
c additional predictionAge 50000 201800 2499878 0.72 0.06 0.11 3698260 1400182 0.36 0.54 0.43 0.38 (nbgoodclauses,nbtotalgood,precisionGood,recallGood,FGood,nbbadclause,nbtotalbad,precisionBad,recallBad,FBad,accuracy)
c additional predictionAge 100000 275275 2499878 0.72 0.08 0.14 3624785 1400182 0.36 0.53 0.43 0.39 (nbgoodclauses,nbtotalgood,precisionGood,recallGood,FGood,nbbadclause,nbtotalbad,precisionBad,recallBad,FBad,accuracy)
c additional predictionTicks 1 48222 2499878 0.79 0.02 0.03 3851838 1400182 0.36 0.56 0.44 0.37 (nbgoodclauses,nbtotalgood,precisionGood,recallGood,FGood,nbbadclause,nbtotalbad,precisionBad,recallBad,FBad,accuracy)
c additional predictionTicks 10 52691 2499878 0.79 0.02 0.03 3847369 1400182 0.36 0.56 0.44 0.37 (nbgoodclauses,nbtotalgood,precisionGood,recallGood,FGood,nbbadclause,nbtotalbad,precisionBad,recallBad,FBad,accuracy)
c additional predictionTicks 25 125952 2499878 0.73 0.04 0.07 3774108 1400182 0.36 0.55 0.44 0.37 (nbgoodclauses,nbtotalgood,precisionGood,recallGood,FGood,nbbadclause,nbtotalbad,precisionBad,recallBad,FBad,accuracy)
c additional predictionTicks 50 214681 2499878 0.70 0.06 0.11 3685379 1400182 0.36 0.53 0.43 0.38 (nbgoodclauses,nbtotalgood,precisionGood,recallGood,FGood,nbbadclause,nbtotalbad,precisionBad,recallBad,FBad,accuracy)
c additional predictionTicks 100 307400 2499878 0.69 0.08 0.15 3592660 1400182 0.36 0.52 0.43 0.39 (nbgoodclauses,nbtotalgood,precisionGood,recallGood,FGood,nbbadclause,nbtotalbad,precisionBad,recallBad,FBad,accuracy)
c additional predictionTicks 250 480992 2499878 0.68 0.13 0.22 3419068 1400182 0.36 0.50 0.42 0.40 (nbgoodclauses,nbtotalgood,precisionGood,recallGood,FGood,nbbadclause,nbtotalbad,precisionBad,recallBad,FBad,accuracy)
c additional predictionTicks 500 666231 2499878 0.68 0.18 0.28 3233829 1400182 0.37 0.47 0.41 0.42 (nbgoodclauses,nbtotalgood,precisionGood,recallGood,FGood,nbbadclause,nbtotalbad,precisionBad,recallBad,FBad,accuracy)
c additional predictionTicks 1000 892313 2499878 0.67 0.24 0.35 3007747 1400182 0.37 0.44 0.40 0.44 (nbgoodclauses,nbtotalgood,precisionGood,recallGood,FGood,nbbadclause,nbtotalbad,precisionBad,recallBad,FBad,accuracy)
c additional predictionTicks 2500 1272577 2499878 0.67 0.34 0.45 2627483 1400182 0.37 0.39 0.38 0.47 (nbgoodclauses,nbtotalgood,precisionGood,recallGood,FGood,nbbadclause,nbtotalbad,precisionBad,recallBad,FBad,accuracy)
c additional predictionTicks 5000 1610514 2499878 0.66 0.43 0.52 2289546 1400182 0.37 0.34 0.36 0.49 (nbgoodclauses,nbtotalgood,precisionGood,recallGood,FGood,nbbadclause,nbtotalbad,precisionBad,recallBad,FBad,accuracy)
c additional predictionTicks 10000 1980262 2499878 0.66 0.52 0.58 1919798 1400182 0.38 0.29 0.33 0.52 (nbgoodclauses,nbtotalgood,precisionGood,recallGood,FGood,nbbadclause,nbtotalbad,precisionBad,recallBad,FBad,accuracy)
c additional predictionTicks 25000 2473988 2499878 0.66 0.65 0.65 1426072 1400182 0.38 0.22 0.28 0.56 (nbgoodclauses,nbtotalgood,precisionGood,recallGood,FGood,nbbadclause,nbtotalbad,precisionBad,recallBad,FBad,accuracy)
c additional predictionTicks 50000 2823622 2499878 0.65 0.74 0.69 1076438 1400182 0.39 0.17 0.24 0.58 (nbgoodclauses,nbtotalgood,precisionGood,recallGood,FGood,nbbadclause,nbtotalbad,precisionBad,recallBad,FBad,accuracy)
c additional predictionTicks 100000 3131273 2499878 0.65 0.82 0.73 768787 1400182 0.40 0.12 0.19 0.60 (nbgoodclauses,nbtotalgood,precisionGood,recallGood,FGood,nbbadclause,nbtotalbad,precisionBad,recallBad,FBad,accuracy)
c additional lifetimeGood 1 16 624 23728 208448 763786 1622058 2414235 2834831 3461068 3900205 3900243 (0,1,5,10,25,50,75,90,95,99,100-1,100)
c additional lifetimeBad 1 16 1760 40960 329646 1064223 2066350 2862961 3242636 3684700 3900230 3900240 (0,1,5,10,25,50,75,90,95,99,100-1,100)
c additional lifetimeBadBad 1 16 16 48 11120 302944 1195904 2192623 2686656 3404238 3898570 3898872 (0,1,5,10,25,50,75,90,95,99,100-1,100)
c additional compositionBad 1 3 6 10 22 83 585 1211 1447 1796 2717 2753 (0,1,5,10,25,50,75,90,95,99,100-1,100)
c additional compositionBadWithGood 0 0 0 1 3 8 27 61 84 129 274 281 (0,1,5,10,25,50,75,90,95,99,100-1,100)
c additional compositionBadWithBad 0 0 0 0 1 3 8 17 24 41 93 99 (0,1,5,10,25,50,75,90,95,99,100-1,100)
c additional compositionBadWithInitial 0 1 3 6 16 70 539 1142 1363 1683 2488 2527 (0,1,5,10,25,50,75,90,95,99,100-1,100)
c additional compositionGood 1 3 6 8 20 79 593 1224 1455 1805 2769 2794 (0,1,5,10,25,50,75,90,95,99,100-1,100)
c additional compositionGoodWithGood 0 0 1 2 4 11 31 65 88 135 298 317 (0,1,5,10,25,50,75,90,95,99,100-1,100)
c additional compositionGoodWithInitial 0 1 3 5 15 68 553 1166 1384 1705 2604 2619 (0,1,5,10,25,50,75,90,95,99,100-1,100)
c additional propagationGood total 170687297 percentiles 0 1 1 1 1 1 2 20 93 787 285135 308971 (0,1,5,10,25,50,75,90,95,99,100-1,100)
c additional propagationBad total 16556749 percentiles 1 1 1 1 1 1 2 6 23 226 16523 18070 (0,1,5,10,25,50,75,90,95,99,100-1,100)
c additional resolutionGood total 81751655 percentiles 0 1 1 1 1 1 2 13 49 358 144146 265780 (0,1,5,10,25,50,75,90,95,99,100-1,100)
c additional resolutionBad total 8870729 percentiles 0 0 1 1 1 1 1 5 14 113 8765 8981 (0,1,5,10,25,50,75,90,95,99,100-1,100)
No graph is dumped
c result of core 11 is UNSAT
c One thread has finished
c Core 11 said it finished
c result of core 1 is UNKNOWN
c result of core 7 is UNKNOWN
c result of core 0 is UNKNOWN
c result of core 3 is UNKNOWN
c result of core 4 is UNKNOWN
c result of core 15 is UNKNOWN
c result of core 8 is UNKNOWN
c result of core 5 is UNKNOWN
c result of core 14 is UNKNOWN
c result of core 9 is UNKNOWN
c result of core 6 is UNKNOWN
c result of core 13 is UNKNOWN
c result of core 12 is UNKNOWN
c result of core 10 is UNKNOWN
c result of core 2 is UNKNOWN
c restarts              : 233 (1046 conflicts in avg)
c blocked restarts      : 0 (multiple: 0) 
c last block at restart : 0
c nb ReduceDB           : 12
c nb removed Clauses    : 192923
c nb learnts DL2        : 114
c nb learnts size 2     : 24
c nb learnts size 1     : 0
c conflicts             : 243754         (82 /sec)
c decisions             : 293948         (0.00 % random) (99 /sec)
c propagations          : 128946891      (43423 /sec)
c conflict literals     : 50570534       (16.03 % deleted)
c nb reduced Clauses    : 1345
c CPU time              : 2969.54 s

s INDETERMINATE
