c
c This is glucose-proof 1.0 based on  2.1 --  (thanks to MiniSAT)
c
c EXPERIMENTAL EASY PARALLEL (ROUND ROBIN) VERSION
c
c WARNING: for repeatability, setting FPU to use double precision
c Parallel version 16 solvers created.
c ========================================[ Problem Statistics ]===========================================
c |                                                                                                       |
c |  Number of variables:          9929                                                                   |
c |  Number of clauses:          303750                                                                   |
c |  Parse time:                   2.07 s                                                                 |
c |                                                                                                       |
c ========================================[ MAGIC CONSTANTS ]==============================================
c | Constants are supposed to work well together :-)                                                      |
c | however, if you find better choices, please let us known...                                           |
c |-------------------------------------------------------------------------------------------------------|
c |                                |                                |                                     |
c | - Restarts:                    | - Reduce Clause DB:            | - Minimize Asserting:               |
c |   * LBD Queue    :     50      |   * First     :   4000         |    * size <  30                     |
c |   * Trail  Queue :   5000      |   * Inc       :    300         |    * lbd  <   6                     |
c |   * K            :   0.80      |   * Special   :   1000         |                                     |
c |   * R            :   1.40      |   * Protected :  (lbd)< 30     |                                     |
c |                                |                                |                                     |
c ==================================[ Search Statistics (every  10000 conflicts) ]=========================
c |                                                                                                       |
c |          RESTARTS           |          ORIGINAL         |              LEARNT              | Progress |
c |       NB   Blocked  Avg Cfc |    Vars  Clauses Literals |   Red   Learnts    LBD2  Removed |          |
c =========================================================================================================
c |        9         0     1111 |    9929   303750  1080048 |     1     7999        0     2000 |  0.000 % |
c |       23         0      869 |    9929   303750  1080048 |     3     6956        1    13043 |  0.000 % |
c |       36         0      833 |    9929   303750  1080048 |     3    16956        2    13043 |  0.000 % |
c |       61         0      655 |    9929   303750  1080048 |     4    17685        3    22314 |  0.000 % |
c |       89         0      561 |    9929   303750  1080048 |     5    15845        3    34154 |  0.000 % |
c |      120         1      500 |    9929   303750  1080048 |     5    25845        4    34154 |  0.000 % |
c |      139         2      503 |    9928   303750  1080048 |     6    21408        4    48563 |  0.010 % |
c |      151        17      529 |    9928   303750  1080048 |     6    31408        6    48563 |  0.010 % |
c |      181        18      497 |    9928   303750  1080048 |     7    24406        6    65568 |  0.010 % |
c |      203        22      492 |    9926   303750  1080048 |     7    33626        7    65568 |  0.030 % |
c |      213        26      516 |    9925   303750  1080048 |     8    24413        7    84815 |  0.040 % |
c |      226        37      530 |    9921   303750  1080048 |     8    30012       13    84815 |  0.081 % |
c empty clause found by core 2 at conflict 129101
*
c checking the resolution graph...OK
c All useful bySize 1059717 clauses, percentiles 0 12 15 18 24 33 43 54 59 69 103 105 (0,1,5,10,25,50,75,90,95,99,100-1,100)
c All useless bySize 1310160 clauses, percentiles 0 2 2 2 15 35 78 223 358 674 1384 1387 (0,1,5,10,25,50,75,90,95,99,100-1,100)
c ProofOnly useful bySize 1057844 clauses, percentiles 0 13 15 18 24 33 43 54 59 69 103 105 (0,1,5,10,25,50,75,90,95,99,100-1,100)
c ProofOnly useless bySize 1007759 clauses, percentiles 2 14 15 20 29 47 113 273 412 722 1384 1387 (0,1,5,10,25,50,75,90,95,99,100-1,100)
c All useful byFinalLBD 1059717 clauses, percentiles 0 3 5 6 8 10 13 17 19 23 42 42 (0,1,5,10,25,50,75,90,95,99,100-1,100)
c All useless byFinalLBD 1310160 clauses, percentiles 0 2 2 2 8 13 21 30 36 51 249 250 (0,1,5,10,25,50,75,90,95,99,100-1,100)
c ProofOnly useful byFinalLBD 1057844 clauses, percentiles 0 3 5 6 8 10 13 17 19 23 42 42 (0,1,5,10,25,50,75,90,95,99,100-1,100)
c ProofOnly useless byFinalLBD 1007759 clauses, percentiles 1 5 7 8 11 16 24 32 38 54 249 250 (0,1,5,10,25,50,75,90,95,99,100-1,100)
c All useful byInitialLBD 1059717 clauses, percentiles 0 4 6 7 9 11 14 17 19 24 42 42 (0,1,5,10,25,50,75,90,95,99,100-1,100)
c All useless byInitialLBD 1310160 clauses, percentiles 0 2 2 2 9 14 22 31 37 52 249 250 (0,1,5,10,25,50,75,90,95,99,100-1,100)
c ProofOnly useful byInitialLBD 1057844 clauses, percentiles 0 5 6 7 9 11 14 17 19 24 42 42 (0,1,5,10,25,50,75,90,95,99,100-1,100)
c ProofOnly useless byInitialLBD 1007759 clauses, percentiles 2 6 8 9 12 17 25 33 39 55 249 250 (0,1,5,10,25,50,75,90,95,99,100-1,100)
c Literals ProofOnly useful 36615359
c Literals ProofOnly useless 106122171
c additional windowsGood 1 1 1 1 1 2 3 6 7 12 215 216 (0,1,5,10,25,50,75,90,95,99,100-1,100)
c additional windowsBad 1 1 1 1 1 2 3 5 12 14 1775 1839 (0,1,5,10,25,50,75,90,95,99,100-1,100)
c additional 1WindowNoDecision 134282 66143 0.49 185210 94134 0.51 (nbWindowsGood,nbWindowsNoDecisionGood,nbWindowsBad,nbWindowsNoDecisionBad
c additional topclausessize all (10%,5%,1%,top) 60.96 65.59 73.98 105
c additional topclausessize proofonly (10%,5%,1%,top) 60.97 65.59 73.98 105
c additional topclausesinitialLBD all (10%,5%,1%,top) 57.80 62.98 72.08 105
c additional topclausesinitialLBD proofonly (10%,5%,1%,top) 55.28 60.97 70.67 105
c additional topclausesfinalLBD all (10%,5%,1%,top) 53.17 59.27 69.52 105
c additional topclausesfinalLBD proofonly (10%,5%,1%,top) 51.33 57.80 68.53 105
c additional predictionInitialLBD 1 37 1057844 1.00 0.00 0.00 2065566 1007759 0.49 0.95 0.65 0.49 (nbgoodclauses,nbtotalgood,precisionGood,recallGood,FGood,nbbadclause,nbtotalbad,precisionBad,recallBad,FBad,accuracy)
c additional predictionInitialLBD 2 496 1057844 0.82 0.00 0.00 2065107 1007759 0.49 0.95 0.65 0.49 (nbgoodclauses,nbtotalgood,precisionGood,recallGood,FGood,nbbadclause,nbtotalbad,precisionBad,recallBad,FBad,accuracy)
c additional predictionInitialLBD 3 2532 1057844 0.81 0.00 0.00 2063071 1007759 0.49 0.95 0.65 0.49 (nbgoodclauses,nbtotalgood,precisionGood,recallGood,FGood,nbbadclause,nbtotalbad,precisionBad,recallBad,FBad,accuracy)
c additional predictionInitialLBD 4 11790 1057844 0.79 0.01 0.02 2053813 1007759 0.49 0.95 0.65 0.49 (nbgoodclauses,nbtotalgood,precisionGood,recallGood,FGood,nbbadclause,nbtotalbad,precisionBad,recallBad,FBad,accuracy)
c additional predictionInitialLBD 5 42081 1057844 0.79 0.03 0.06 2023522 1007759 0.49 0.94 0.65 0.50 (nbgoodclauses,nbtotalgood,precisionGood,recallGood,FGood,nbbadclause,nbtotalbad,precisionBad,recallBad,FBad,accuracy)
c additional predictionInitialLBD 6 103725 1057844 0.78 0.08 0.14 1961878 1007759 0.50 0.93 0.65 0.52 (nbgoodclauses,nbtotalgood,precisionGood,recallGood,FGood,nbbadclause,nbtotalbad,precisionBad,recallBad,FBad,accuracy)
c additional predictionInitialLBD 7 209931 1057844 0.77 0.15 0.25 1855672 1007759 0.52 0.91 0.66 0.54 (nbgoodclauses,nbtotalgood,precisionGood,recallGood,FGood,nbbadclause,nbtotalbad,precisionBad,recallBad,FBad,accuracy)
c additional predictionInitialLBD 8 347038 1057844 0.75 0.25 0.37 1718565 1007759 0.54 0.87 0.66 0.57 (nbgoodclauses,nbtotalgood,precisionGood,recallGood,FGood,nbbadclause,nbtotalbad,precisionBad,recallBad,FBad,accuracy)
c additional predictionInitialLBD 10 661421 1057844 0.73 0.45 0.56 1404182 1007759 0.59 0.78 0.67 0.63 (nbgoodclauses,nbtotalgood,precisionGood,recallGood,FGood,nbbadclause,nbtotalbad,precisionBad,recallBad,FBad,accuracy)
c additional predictionInitialLBD 14 1215040 1057844 0.68 0.78 0.72 850563 1007759 0.72 0.58 0.65 0.70 (nbgoodclauses,nbtotalgood,precisionGood,recallGood,FGood,nbbadclause,nbtotalbad,precisionBad,recallBad,FBad,accuracy)
c additional predictionInitialLBD 18 1555960 1057844 0.64 0.93 0.76 509643 1007759 0.86 0.42 0.56 0.69 (nbgoodclauses,nbtotalgood,precisionGood,recallGood,FGood,nbbadclause,nbtotalbad,precisionBad,recallBad,FBad,accuracy)
c additional predictionInitialLBD 22 1743674 1057844 0.60 0.98 0.74 321929 1007759 0.95 0.29 0.44 0.65 (nbgoodclauses,nbtotalgood,precisionGood,recallGood,FGood,nbbadclause,nbtotalbad,precisionBad,recallBad,FBad,accuracy)
c additional predictionInitialLBD 30 1931913 1057844 0.55 1.00 0.71 133690 1007759 1.00 0.13 0.22 0.58 (nbgoodclauses,nbtotalgood,precisionGood,recallGood,FGood,nbbadclause,nbtotalbad,precisionBad,recallBad,FBad,accuracy)
c additional predictionInitialLBD 40 2024958 1057844 0.52 1.00 0.69 40645 1007759 1.00 0.04 0.07 0.53 (nbgoodclauses,nbtotalgood,precisionGood,recallGood,FGood,nbbadclause,nbtotalbad,precisionBad,recallBad,FBad,accuracy)
c additional predictionFinallLBD 1 327 1057844 0.94 0.00 0.00 2065276 1007759 0.49 1.00 0.66 0.49 (nbgoodclauses,nbtotalgood,precisionGood,recallGood,FGood,nbbadclause,nbtotalbad,precisionBad,recallBad,FBad,accuracy)
c additional predictionFinallLBD 2 2860 1057844 0.85 0.00 0.00 2062743 1007759 0.49 1.00 0.66 0.49 (nbgoodclauses,nbtotalgood,precisionGood,recallGood,FGood,nbbadclause,nbtotalbad,precisionBad,recallBad,FBad,accuracy)
c additional predictionFinallLBD 3 15456 1057844 0.85 0.01 0.02 2050147 1007759 0.49 1.00 0.66 0.49 (nbgoodclauses,nbtotalgood,precisionGood,recallGood,FGood,nbbadclause,nbtotalbad,precisionBad,recallBad,FBad,accuracy)
c additional predictionFinallLBD 4 53154 1057844 0.85 0.04 0.08 2012449 1007759 0.50 0.99 0.66 0.51 (nbgoodclauses,nbtotalgood,precisionGood,recallGood,FGood,nbbadclause,nbtotalbad,precisionBad,recallBad,FBad,accuracy)
c additional predictionFinallLBD 5 124732 1057844 0.82 0.10 0.17 1940871 1007759 0.51 0.98 0.67 0.53 (nbgoodclauses,nbtotalgood,precisionGood,recallGood,FGood,nbbadclause,nbtotalbad,precisionBad,recallBad,FBad,accuracy)
c additional predictionFinallLBD 6 220812 1057844 0.80 0.17 0.28 1844791 1007759 0.52 0.96 0.68 0.55 (nbgoodclauses,nbtotalgood,precisionGood,recallGood,FGood,nbbadclause,nbtotalbad,precisionBad,recallBad,FBad,accuracy)
c additional predictionFinallLBD 7 341903 1057844 0.77 0.25 0.38 1723700 1007759 0.54 0.92 0.68 0.58 (nbgoodclauses,nbtotalgood,precisionGood,recallGood,FGood,nbbadclause,nbtotalbad,precisionBad,recallBad,FBad,accuracy)
c additional predictionFinallLBD 8 479578 1057844 0.75 0.34 0.47 1586025 1007759 0.56 0.88 0.68 0.60 (nbgoodclauses,nbtotalgood,precisionGood,recallGood,FGood,nbbadclause,nbtotalbad,precisionBad,recallBad,FBad,accuracy)
c additional predictionFinallLBD 10 772038 1057844 0.72 0.52 0.60 1293565 1007759 0.61 0.78 0.69 0.65 (nbgoodclauses,nbtotalgood,precisionGood,recallGood,FGood,nbbadclause,nbtotalbad,precisionBad,recallBad,FBad,accuracy)
c additional predictionFinallLBD 14 1275481 1057844 0.67 0.81 0.73 790122 1007759 0.74 0.58 0.65 0.70 (nbgoodclauses,nbtotalgood,precisionGood,recallGood,FGood,nbbadclause,nbtotalbad,precisionBad,recallBad,FBad,accuracy)
c additional predictionFinallLBD 18 1586958 1057844 0.63 0.94 0.75 478645 1007759 0.87 0.42 0.56 0.69 (nbgoodclauses,nbtotalgood,precisionGood,recallGood,FGood,nbbadclause,nbtotalbad,precisionBad,recallBad,FBad,accuracy)
c additional predictionFinallLBD 22 1760968 1057844 0.59 0.99 0.74 304635 1007759 0.95 0.29 0.44 0.65 (nbgoodclauses,nbtotalgood,precisionGood,recallGood,FGood,nbbadclause,nbtotalbad,precisionBad,recallBad,FBad,accuracy)
c additional predictionFinallLBD 30 1939252 1057844 0.55 1.00 0.71 126351 1007759 1.00 0.12 0.22 0.57 (nbgoodclauses,nbtotalgood,precisionGood,recallGood,FGood,nbbadclause,nbtotalbad,precisionBad,recallBad,FBad,accuracy)
c additional predictionFinallLBD 40 2027101 1057844 0.52 1.00 0.69 38502 1007759 1.00 0.04 0.07 0.53 (nbgoodclauses,nbtotalgood,precisionGood,recallGood,FGood,nbbadclause,nbtotalbad,precisionBad,recallBad,FBad,accuracy)
c additional predictionSize 1 37 1057844 1.00 0.00 0.00 2065566 1007759 0.49 0.95 0.65 0.49 (nbgoodclauses,nbtotalgood,precisionGood,recallGood,FGood,nbbadclause,nbtotalbad,precisionBad,recallBad,FBad,accuracy)
c additional predictionSize 2 211 1057844 0.79 0.00 0.00 2065392 1007759 0.49 0.95 0.65 0.49 (nbgoodclauses,nbtotalgood,precisionGood,recallGood,FGood,nbbadclause,nbtotalbad,precisionBad,recallBad,FBad,accuracy)
c additional predictionSize 3 421 1057844 0.86 0.00 0.00 2065182 1007759 0.49 0.95 0.65 0.49 (nbgoodclauses,nbtotalgood,precisionGood,recallGood,FGood,nbbadclause,nbtotalbad,precisionBad,recallBad,FBad,accuracy)
c additional predictionSize 4 541 1057844 0.87 0.00 0.00 2065062 1007759 0.49 0.95 0.65 0.49 (nbgoodclauses,nbtotalgood,precisionGood,recallGood,FGood,nbbadclause,nbtotalbad,precisionBad,recallBad,FBad,accuracy)
c additional predictionSize 5 701 1057844 0.83 0.00 0.00 2064902 1007759 0.49 0.95 0.65 0.49 (nbgoodclauses,nbtotalgood,precisionGood,recallGood,FGood,nbbadclause,nbtotalbad,precisionBad,recallBad,FBad,accuracy)
c additional predictionSize 6 981 1057844 0.81 0.00 0.00 2064622 1007759 0.49 0.95 0.65 0.49 (nbgoodclauses,nbtotalgood,precisionGood,recallGood,FGood,nbbadclause,nbtotalbad,precisionBad,recallBad,FBad,accuracy)
c additional predictionSize 7 1449 1057844 0.82 0.00 0.00 2064154 1007759 0.49 0.95 0.65 0.49 (nbgoodclauses,nbtotalgood,precisionGood,recallGood,FGood,nbbadclause,nbtotalbad,precisionBad,recallBad,FBad,accuracy)
c additional predictionSize 8 2409 1057844 0.84 0.00 0.00 2063194 1007759 0.49 0.95 0.65 0.49 (nbgoodclauses,nbtotalgood,precisionGood,recallGood,FGood,nbbadclause,nbtotalbad,precisionBad,recallBad,FBad,accuracy)
c additional predictionSize 10 4705 1057844 0.83 0.00 0.01 2060898 1007759 0.49 0.95 0.65 0.49 (nbgoodclauses,nbtotalgood,precisionGood,recallGood,FGood,nbbadclause,nbtotalbad,precisionBad,recallBad,FBad,accuracy)
c additional predictionSize 14 62427 1057844 0.74 0.04 0.08 2003176 1007759 0.50 0.94 0.65 0.50 (nbgoodclauses,nbtotalgood,precisionGood,recallGood,FGood,nbbadclause,nbtotalbad,precisionBad,recallBad,FBad,accuracy)
c additional predictionSize 18 185548 1057844 0.59 0.10 0.18 1880055 1007759 0.50 0.88 0.63 0.50 (nbgoodclauses,nbtotalgood,precisionGood,recallGood,FGood,nbbadclause,nbtotalbad,precisionBad,recallBad,FBad,accuracy)
c additional predictionSize 22 378460 1057844 0.58 0.21 0.31 1687143 1007759 0.50 0.80 0.62 0.52 (nbgoodclauses,nbtotalgood,precisionGood,recallGood,FGood,nbbadclause,nbtotalbad,precisionBad,recallBad,FBad,accuracy)
c additional predictionSize 30 722683 1057844 0.62 0.42 0.50 1342920 1007759 0.55 0.69 0.61 0.57 (nbgoodclauses,nbtotalgood,precisionGood,recallGood,FGood,nbbadclause,nbtotalbad,precisionBad,recallBad,FBad,accuracy)
c additional predictionSize 40 1155633 1057844 0.63 0.69 0.66 909970 1007759 0.64 0.55 0.59 0.63 (nbgoodclauses,nbtotalgood,precisionGood,recallGood,FGood,nbbadclause,nbtotalbad,precisionBad,recallBad,FBad,accuracy)
c additional predictionAge 1 243655 1057844 0.22 0.05 0.08 1821948 1007759 0.45 0.77 0.57 0.42 (nbgoodclauses,nbtotalgood,precisionGood,recallGood,FGood,nbbadclause,nbtotalbad,precisionBad,recallBad,FBad,accuracy)
c additional predictionAge 10 243676 1057844 0.22 0.05 0.08 1821927 1007759 0.45 0.77 0.57 0.42 (nbgoodclauses,nbtotalgood,precisionGood,recallGood,FGood,nbbadclause,nbtotalbad,precisionBad,recallBad,FBad,accuracy)
c additional predictionAge 25 296794 1057844 0.22 0.06 0.10 1768809 1007759 0.44 0.73 0.55 0.41 (nbgoodclauses,nbtotalgood,precisionGood,recallGood,FGood,nbbadclause,nbtotalbad,precisionBad,recallBad,FBad,accuracy)
c additional predictionAge 50 351813 1057844 0.22 0.07 0.11 1713790 1007759 0.43 0.69 0.53 0.39 (nbgoodclauses,nbtotalgood,precisionGood,recallGood,FGood,nbbadclause,nbtotalbad,precisionBad,recallBad,FBad,accuracy)
c additional predictionAge 100 387530 1057844 0.22 0.08 0.12 1678073 1007759 0.42 0.67 0.52 0.38 (nbgoodclauses,nbtotalgood,precisionGood,recallGood,FGood,nbbadclause,nbtotalbad,precisionBad,recallBad,FBad,accuracy)
c additional predictionAge 250 439045 1057844 0.22 0.09 0.13 1626558 1007759 0.41 0.63 0.50 0.37 (nbgoodclauses,nbtotalgood,precisionGood,recallGood,FGood,nbbadclause,nbtotalbad,precisionBad,recallBad,FBad,accuracy)
c additional predictionAge 500 487030 1057844 0.22 0.10 0.14 1578573 1007759 0.40 0.59 0.48 0.36 (nbgoodclauses,nbtotalgood,precisionGood,recallGood,FGood,nbbadclause,nbtotalbad,precisionBad,recallBad,FBad,accuracy)
c additional predictionAge 1000 540802 1057844 0.22 0.11 0.15 1524801 1007759 0.39 0.56 0.45 0.34 (nbgoodclauses,nbtotalgood,precisionGood,recallGood,FGood,nbbadclause,nbtotalbad,precisionBad,recallBad,FBad,accuracy)
c additional predictionAge 2500 628039 1057844 0.23 0.13 0.17 1437564 1007759 0.36 0.49 0.42 0.32 (nbgoodclauses,nbtotalgood,precisionGood,recallGood,FGood,nbbadclause,nbtotalbad,precisionBad,recallBad,FBad,accuracy)
c additional predictionAge 5000 706855 1057844 0.23 0.16 0.19 1358748 1007759 0.34 0.44 0.39 0.31 (nbgoodclauses,nbtotalgood,precisionGood,recallGood,FGood,nbbadclause,nbtotalbad,precisionBad,recallBad,FBad,accuracy)
c additional predictionAge 10000 796165 1057844 0.25 0.19 0.21 1269438 1007759 0.32 0.39 0.35 0.29 (nbgoodclauses,nbtotalgood,precisionGood,recallGood,FGood,nbbadclause,nbtotalbad,precisionBad,recallBad,FBad,accuracy)
c additional predictionAge 25000 931272 1057844 0.27 0.24 0.26 1134331 1007759 0.29 0.31 0.30 0.28 (nbgoodclauses,nbtotalgood,precisionGood,recallGood,FGood,nbbadclause,nbtotalbad,precisionBad,recallBad,FBad,accuracy)
c additional predictionAge 50000 1051517 1057844 0.31 0.30 0.31 1014086 1007759 0.27 0.26 0.27 0.29 (nbgoodclauses,nbtotalgood,precisionGood,recallGood,FGood,nbbadclause,nbtotalbad,precisionBad,recallBad,FBad,accuracy)
c additional predictionAge 100000 1190558 1057844 0.34 0.39 0.36 875045 1007759 0.26 0.21 0.24 0.31 (nbgoodclauses,nbtotalgood,precisionGood,recallGood,FGood,nbbadclause,nbtotalbad,precisionBad,recallBad,FBad,accuracy)
c additional predictionTicks 1 246332 1057844 0.22 0.05 0.08 1819271 1007759 0.45 0.77 0.57 0.42 (nbgoodclauses,nbtotalgood,precisionGood,recallGood,FGood,nbbadclause,nbtotalbad,precisionBad,recallBad,FBad,accuracy)
c additional predictionTicks 10 258796 1057844 0.25 0.06 0.10 1806807 1007759 0.45 0.77 0.57 0.43 (nbgoodclauses,nbtotalgood,precisionGood,recallGood,FGood,nbbadclause,nbtotalbad,precisionBad,recallBad,FBad,accuracy)
c additional predictionTicks 25 386446 1057844 0.29 0.11 0.15 1679157 1007759 0.44 0.69 0.54 0.41 (nbgoodclauses,nbtotalgood,precisionGood,recallGood,FGood,nbbadclause,nbtotalbad,precisionBad,recallBad,FBad,accuracy)
c additional predictionTicks 50 527334 1057844 0.32 0.16 0.21 1538269 1007759 0.42 0.61 0.50 0.39 (nbgoodclauses,nbtotalgood,precisionGood,recallGood,FGood,nbbadclause,nbtotalbad,precisionBad,recallBad,FBad,accuracy)
c additional predictionTicks 100 641349 1057844 0.34 0.20 0.25 1424254 1007759 0.41 0.55 0.47 0.39 (nbgoodclauses,nbtotalgood,precisionGood,recallGood,FGood,nbbadclause,nbtotalbad,precisionBad,recallBad,FBad,accuracy)
c additional predictionTicks 250 814664 1057844 0.36 0.28 0.31 1250939 1007759 0.39 0.46 0.42 0.38 (nbgoodclauses,nbtotalgood,precisionGood,recallGood,FGood,nbbadclause,nbtotalbad,precisionBad,recallBad,FBad,accuracy)
c additional predictionTicks 500 963653 1057844 0.38 0.35 0.36 1101950 1007759 0.37 0.39 0.38 0.38 (nbgoodclauses,nbtotalgood,precisionGood,recallGood,FGood,nbbadclause,nbtotalbad,precisionBad,recallBad,FBad,accuracy)
c additional predictionTicks 1000 1109811 1057844 0.40 0.42 0.41 955792 1007759 0.35 0.32 0.34 0.38 (nbgoodclauses,nbtotalgood,precisionGood,recallGood,FGood,nbbadclause,nbtotalbad,precisionBad,recallBad,FBad,accuracy)
c additional predictionTicks 2500 1306379 1057844 0.42 0.52 0.47 759224 1007759 0.33 0.24 0.28 0.39 (nbgoodclauses,nbtotalgood,precisionGood,recallGood,FGood,nbbadclause,nbtotalbad,precisionBad,recallBad,FBad,accuracy)
c additional predictionTicks 5000 1449036 1057844 0.44 0.60 0.51 616567 1007759 0.32 0.18 0.23 0.40 (nbgoodclauses,nbtotalgood,precisionGood,recallGood,FGood,nbbadclause,nbtotalbad,precisionBad,recallBad,FBad,accuracy)
c additional predictionTicks 10000 1580433 1057844 0.45 0.68 0.54 485170 1007759 0.30 0.14 0.19 0.42 (nbgoodclauses,nbtotalgood,precisionGood,recallGood,FGood,nbbadclause,nbtotalbad,precisionBad,recallBad,FBad,accuracy)
c additional predictionTicks 25000 1736277 1057844 0.47 0.78 0.59 329326 1007759 0.29 0.09 0.14 0.44 (nbgoodclauses,nbtotalgood,precisionGood,recallGood,FGood,nbbadclause,nbtotalbad,precisionBad,recallBad,FBad,accuracy)
c additional predictionTicks 50000 1832321 1057844 0.49 0.84 0.62 233282 1007759 0.28 0.06 0.10 0.46 (nbgoodclauses,nbtotalgood,precisionGood,recallGood,FGood,nbbadclause,nbtotalbad,precisionBad,recallBad,FBad,accuracy)
c additional predictionTicks 100000 1913540 1057844 0.50 0.90 0.64 152063 1007759 0.28 0.04 0.07 0.48 (nbgoodclauses,nbtotalgood,precisionGood,recallGood,FGood,nbbadclause,nbtotalbad,precisionBad,recallBad,FBad,accuracy)
c additional lifetimeGood 1 16 16 16 128 29392 199759 508479 799420 1287128 2009377 2009697 (0,1,5,10,25,50,75,90,95,99,100-1,100)
c additional lifetimeBad 1 16 16 16 64 1581 33248 231982 497274 1140068 2062864 2062880 (0,1,5,10,25,50,75,90,95,99,100-1,100)
c additional lifetimeBadBad 3 16 16 16 32 352 5760 37471 101120 392976 2001667 2043298 (0,1,5,10,25,50,75,90,95,99,100-1,100)
c additional compositionBad 1 3 4 4 7 12 23 46 68 134 856 906 (0,1,5,10,25,50,75,90,95,99,100-1,100)
c additional compositionBadWithGood 0 0 0 0 0 0 1 2 4 8 41 44 (0,1,5,10,25,50,75,90,95,99,100-1,100)
c additional compositionBadWithBad 0 0 0 0 0 1 3 5 7 12 58 61 (0,1,5,10,25,50,75,90,95,99,100-1,100)
c additional compositionBadWithInitial 0 1 2 3 5 10 20 41 62 124 822 873 (0,1,5,10,25,50,75,90,95,99,100-1,100)
c additional compositionGood 1 2 3 4 6 10 15 22 27 40 105 113 (0,1,5,10,25,50,75,90,95,99,100-1,100)
c additional compositionGoodWithGood 0 0 1 1 2 3 5 7 9 14 41 45 (0,1,5,10,25,50,75,90,95,99,100-1,100)
c additional compositionGoodWithInitial 0 0 2 2 4 6 10 16 20 31 93 103 (0,1,5,10,25,50,75,90,95,99,100-1,100)
c additional propagationGood total 6896618 percentiles 0 1 1 1 1 1 3 10 23 94 14062 20119 (0,1,5,10,25,50,75,90,95,99,100-1,100)
c additional propagationBad total 3999679 percentiles 1 1 1 1 1 1 3 7 13 45 1549 1695 (0,1,5,10,25,50,75,90,95,99,100-1,100)
c additional resolutionGood total 3673721 percentiles 0 1 1 1 1 1 2 5 11 43 6764 8268 (0,1,5,10,25,50,75,90,95,99,100-1,100)
c additional resolutionBad total 2154483 percentiles 0 0 0 1 1 1 2 4 6 19 546 794 (0,1,5,10,25,50,75,90,95,99,100-1,100)
No graph is dumped
c result of core 2 is UNSAT
c One thread has finished
c Core 2 said it finished
c result of core 0 is UNKNOWN
c result of core 1 is UNKNOWN
c result of core 4 is UNKNOWN
c result of core 8 is UNKNOWN
c result of core 6 is UNKNOWN
c result of core 10 is UNKNOWN
c result of core 12 is UNKNOWN
c result of core 3 is UNKNOWN
c result of core 15 is UNKNOWN
c result of core 13 is UNKNOWN
c result of core 14 is UNKNOWN
c result of core 7 is UNKNOWN
c result of core 5 is UNKNOWN
c result of core 11 is UNKNOWN
c result of core 9 is UNKNOWN
c restarts              : 240 (537 conflicts in avg)
c blocked restarts      : 66 (multiple: 20) 
c last block at restart : 240
c nb ReduceDB           : 8
c nb removed Clauses    : 84815
c nb learnts DL2        : 26
c nb learnts size 2     : 15
c nb learnts size 1     : 1
c conflicts             : 129101         (205 /sec)
c decisions             : 161738         (0.00 % random) (257 /sec)
c propagations          : 10137589       (16125 /sec)
c conflict literals     : 4782499        (0.98 % deleted)
c nb reduced Clauses    : 1125
c CPU time              : 628.671 s

s INDETERMINATE
