c
c This is glucose-proof 1.0 based on  2.1 --  (thanks to MiniSAT)
c
c EXPERIMENTAL EASY PARALLEL (ROUND ROBIN) VERSION
c
c WARNING: for repeatability, setting FPU to use double precision
c Parallel version 12 solvers created.
c ========================================[ Problem Statistics ]===========================================
c |                                                                                                       |
c |  Number of variables:         57291                                                                   |
c |  Number of clauses:          356555                                                                   |
c |  Parse time:                   1.61 s                                                                 |
c |                                                                                                       |
c ========================================[ MAGIC CONSTANTS ]==============================================
c | Constants are supposed to work well together :-)                                                      |
c | however, if you find better choices, please let us known...                                           |
c |-------------------------------------------------------------------------------------------------------|
c |                                |                                |                                     |
c | - Restarts:                    | - Reduce Clause DB:            | - Minimize Asserting:               |
c |   * LBD Queue    :     50      |   * First     :   4000         |    * size <  30                     |
c |   * Trail  Queue :   5000      |   * Inc       :    300         |    * lbd  <   6                     |
c |   * K            :   0.80      |   * Special   :   1000         |                                     |
c |   * R            :   1.40      |   * Protected :  (lbd)< 30     |                                     |
c |                                |                                |                                     |
c ==================================[ Search Statistics (every  10000 conflicts) ]=========================
c |                                                                                                       |
c |          RESTARTS           |          ORIGINAL         |              LEARNT              | Progress |
c |       NB   Blocked  Avg Cfc |    Vars  Clauses Literals |   Red   Learnts    LBD2  Removed |          |
c =========================================================================================================
c |       57         0      175 |   54670   356555  1563208 |     1     8018      185     4603 |  4.575 % |
c |       82        85      243 |   54357   356555  1563208 |     3     6915      265    25893 |  5.121 % |
c |      109       131      275 |   54297   356555  1563208 |     3    16907      353    25893 |  5.226 % |
c |      140       178      285 |   54165   356555  1563208 |     4    17660      461    41754 |  5.456 % |
c |      182       219      274 |   54133   356555  1563208 |     5    15846      533    61080 |  5.512 % |
c |      218       285      275 |   53719   356555  1563208 |     5    25815      593    61080 |  6.235 % |
c |      255       338      274 |   53653   356555  1563208 |     6    18962      732    81900 |  6.350 % |
c |      272       410      294 |   53601   356555  1563208 |     6    28759      831    81900 |  6.441 % |
c |      292       467      308 |   53561   356555  1563208 |     7    23138      987   108480 |  6.511 % |
c |      321       541      311 |   53554   356555  1563208 |     7    33137     1057   108480 |  6.523 % |
c |      363       606      303 |   53550   356555  1563208 |     8    24175     1179   139673 |  6.530 % |
c |      394       662      304 |   53546   356555  1563208 |     8    34175     1248   139673 |  6.537 % |
c |      417       719      311 |   53531   356555  1563208 |     9    22290     1345   174306 |  6.563 % |
c |      446       774      313 |   53528   356555  1563208 |     9    32289     1450   174306 |  6.568 % |
c |      481       839      311 |   53528   356555  1563208 |     9    42289     1513   174306 |  6.568 % |
c |      510       911      313 |   53522   356555  1563208 |    10    27746     1559   211416 |  6.579 % |
c |      537       956      316 |   53521   356555  1563208 |    10    37745     1644   211416 |  6.580 % |
c |      567      1027      317 |   53012   356555  1563208 |    10    38958     1724   211416 |  7.469 % |
c empty clause found by core 5 at conflict 186025
*
c checking the resolution graph...OK
c All useful bySize 358382 clauses, percentiles 0 2 2 3 4 7 14 29 43 92 603 624 (0,1,5,10,25,50,75,90,95,99,100-1,100)
c All useless bySize 2232719 clauses, percentiles 0 2 3 4 8 16 33 60 89 188 827 835 (0,1,5,10,25,50,75,90,95,99,100-1,100)
c ProofOnly useful bySize 274991 clauses, percentiles 0 3 3 4 5 9 18 34 48 105 603 624 (0,1,5,10,25,50,75,90,95,99,100-1,100)
c ProofOnly useless bySize 1957303 clauses, percentiles 1 3 5 7 10 18 37 65 95 198 827 835 (0,1,5,10,25,50,75,90,95,99,100-1,100)
c All useful byFinalLBD 358382 clauses, percentiles 0 1 1 2 3 4 5 8 10 14 34 35 (0,1,5,10,25,50,75,90,95,99,100-1,100)
c All useless byFinalLBD 2232719 clauses, percentiles 0 1 2 3 4 7 11 16 19 31 133 134 (0,1,5,10,25,50,75,90,95,99,100-1,100)
c ProofOnly useful byFinalLBD 274991 clauses, percentiles 0 1 1 1 2 4 6 8 10 14 34 35 (0,1,5,10,25,50,75,90,95,99,100-1,100)
c ProofOnly useless byFinalLBD 1957303 clauses, percentiles 1 1 3 4 5 7 11 16 20 32 133 134 (0,1,5,10,25,50,75,90,95,99,100-1,100)
c All useful byInitialLBD 358382 clauses, percentiles 0 2 2 3 3 4 6 9 11 15 35 37 (0,1,5,10,25,50,75,90,95,99,100-1,100)
c All useless byInitialLBD 2232719 clauses, percentiles 0 2 3 3 5 7 11 16 20 31 133 134 (0,1,5,10,25,50,75,90,95,99,100-1,100)
c ProofOnly useful byInitialLBD 274991 clauses, percentiles 0 2 3 3 3 5 7 9 11 16 35 37 (0,1,5,10,25,50,75,90,95,99,100-1,100)
c ProofOnly useless byInitialLBD 1957303 clauses, percentiles 1 3 4 4 6 8 12 16 21 32 133 134 (0,1,5,10,25,50,75,90,95,99,100-1,100)
c Literals ProofOnly useful 4395198
c Literals ProofOnly useless 61065385
c additional windowsGood 1 1 1 1 1 1 1 2 2 3 6 7 (0,1,5,10,25,50,75,90,95,99,100-1,100)
c additional windowsBad 1 1 1 1 3 6 11 13 23 53 405 541 (0,1,5,10,25,50,75,90,95,99,100-1,100)
c additional 1WindowNoDecision 210677 99190 0.47 28381 11434 0.4 (nbWindowsGood,nbWindowsNoDecisionGood,nbWindowsBad,nbWindowsNoDecisionBad
c additional topclausessize all (10%,5%,1%,top) 56.12 76.95 154.19 624
c additional topclausessize proofonly (10%,5%,1%,top) 59.49 81.27 161.99 624
c additional topclausesinitialLBD all (10%,5%,1%,top) 47.80 66.58 135.02 624
c additional topclausesinitialLBD proofonly (10%,5%,1%,top) 42.02 59.49 121.83 624
c additional topclausesfinalLBD all (10%,5%,1%,top) 36.64 52.82 109.42 624
c additional topclausesfinalLBD proofonly (10%,5%,1%,top) 33.57 48.88 102.12 624
c additional predictionInitialLBD 1 217 274991 0.93 0.00 0.00 2232077 1957303 0.88 7.12 1.56 0.88 (nbgoodclauses,nbtotalgood,precisionGood,recallGood,FGood,nbbadclause,nbtotalbad,precisionBad,recallBad,FBad,accuracy)
c additional predictionInitialLBD 2 23076 274991 0.50 0.04 0.08 2209218 1957303 0.88 7.08 1.57 0.88 (nbgoodclauses,nbtotalgood,precisionGood,recallGood,FGood,nbbadclause,nbtotalbad,precisionBad,recallBad,FBad,accuracy)
c additional predictionInitialLBD 3 163800 274991 0.44 0.26 0.33 2068494 1957303 0.90 6.79 1.59 0.87 (nbgoodclauses,nbtotalgood,precisionGood,recallGood,FGood,nbbadclause,nbtotalbad,precisionBad,recallBad,FBad,accuracy)
c additional predictionInitialLBD 4 402221 274991 0.33 0.48 0.39 1830073 1957303 0.92 6.13 1.60 0.81 (nbgoodclauses,nbtotalgood,precisionGood,recallGood,FGood,nbbadclause,nbtotalbad,precisionBad,recallBad,FBad,accuracy)
c additional predictionInitialLBD 5 658074 274991 0.26 0.62 0.36 1574220 1957303 0.93 5.34 1.59 0.73 (nbgoodclauses,nbtotalgood,precisionGood,recallGood,FGood,nbbadclause,nbtotalbad,precisionBad,recallBad,FBad,accuracy)
c additional predictionInitialLBD 6 898514 274991 0.22 0.72 0.34 1333780 1957303 0.94 4.57 1.56 0.65 (nbgoodclauses,nbtotalgood,precisionGood,recallGood,FGood,nbbadclause,nbtotalbad,precisionBad,recallBad,FBad,accuracy)
c additional predictionInitialLBD 7 1114648 274991 0.20 0.80 0.32 1117646 1957303 0.95 3.86 1.53 0.57 (nbgoodclauses,nbtotalgood,precisionGood,recallGood,FGood,nbbadclause,nbtotalbad,precisionBad,recallBad,FBad,accuracy)
c additional predictionInitialLBD 8 1304729 274991 0.18 0.86 0.30 927565 1957303 0.96 3.23 1.48 0.50 (nbgoodclauses,nbtotalgood,precisionGood,recallGood,FGood,nbbadclause,nbtotalbad,precisionBad,recallBad,FBad,accuracy)
c additional predictionInitialLBD 10 1608262 274991 0.16 0.93 0.27 624032 1957303 0.97 2.20 1.35 0.39 (nbgoodclauses,nbtotalgood,precisionGood,recallGood,FGood,nbbadclause,nbtotalbad,precisionBad,recallBad,FBad,accuracy)
c additional predictionInitialLBD 14 1948681 274991 0.14 0.99 0.24 283613 1957303 0.99 1.02 1.00 0.25 (nbgoodclauses,nbtotalgood,precisionGood,recallGood,FGood,nbbadclause,nbtotalbad,precisionBad,recallBad,FBad,accuracy)
c additional predictionInitialLBD 18 2095078 274991 0.13 1.00 0.23 137216 1957303 0.99 0.49 0.66 0.18 (nbgoodclauses,nbtotalgood,precisionGood,recallGood,FGood,nbbadclause,nbtotalbad,precisionBad,recallBad,FBad,accuracy)
c additional predictionInitialLBD 22 2159940 274991 0.13 1.00 0.23 72354 1957303 0.99 0.26 0.41 0.16 (nbgoodclauses,nbtotalgood,precisionGood,recallGood,FGood,nbbadclause,nbtotalbad,precisionBad,recallBad,FBad,accuracy)
c additional predictionInitialLBD 30 2208072 274991 0.12 1.00 0.22 24222 1957303 1.00 0.09 0.16 0.13 (nbgoodclauses,nbtotalgood,precisionGood,recallGood,FGood,nbbadclause,nbtotalbad,precisionBad,recallBad,FBad,accuracy)
c additional predictionInitialLBD 40 2224108 274991 0.12 1.00 0.22 8186 1957303 1.00 0.03 0.06 0.13 (nbgoodclauses,nbtotalgood,precisionGood,recallGood,FGood,nbbadclause,nbtotalbad,precisionBad,recallBad,FBad,accuracy)
c additional predictionFinallLBD 1 52180 274991 0.58 0.11 0.19 2180114 1957303 0.89 0.99 0.94 0.88 (nbgoodclauses,nbtotalgood,precisionGood,recallGood,FGood,nbbadclause,nbtotalbad,precisionBad,recallBad,FBad,accuracy)
c additional predictionFinallLBD 2 152450 274991 0.46 0.25 0.33 2079844 1957303 0.90 0.96 0.93 0.87 (nbgoodclauses,nbtotalgood,precisionGood,recallGood,FGood,nbbadclause,nbtotalbad,precisionBad,recallBad,FBad,accuracy)
c additional predictionFinallLBD 3 303064 274991 0.38 0.42 0.40 1929230 1957303 0.92 0.90 0.91 0.84 (nbgoodclauses,nbtotalgood,precisionGood,recallGood,FGood,nbbadclause,nbtotalbad,precisionBad,recallBad,FBad,accuracy)
c additional predictionFinallLBD 4 552245 274991 0.31 0.62 0.41 1680049 1957303 0.94 0.80 0.87 0.78 (nbgoodclauses,nbtotalgood,precisionGood,recallGood,FGood,nbbadclause,nbtotalbad,precisionBad,recallBad,FBad,accuracy)
c additional predictionFinallLBD 5 803679 274991 0.25 0.73 0.37 1428615 1957303 0.95 0.69 0.80 0.70 (nbgoodclauses,nbtotalgood,precisionGood,recallGood,FGood,nbbadclause,nbtotalbad,precisionBad,recallBad,FBad,accuracy)
c additional predictionFinallLBD 6 1029769 274991 0.22 0.81 0.34 1202525 1957303 0.96 0.59 0.73 0.62 (nbgoodclauses,nbtotalgood,precisionGood,recallGood,FGood,nbbadclause,nbtotalbad,precisionBad,recallBad,FBad,accuracy)
c additional predictionFinallLBD 7 1226226 274991 0.19 0.87 0.32 1006068 1957303 0.96 0.50 0.65 0.54 (nbgoodclauses,nbtotalgood,precisionGood,recallGood,FGood,nbbadclause,nbtotalbad,precisionBad,recallBad,FBad,accuracy)
c additional predictionFinallLBD 8 1396667 274991 0.18 0.91 0.30 835627 1957303 0.97 0.41 0.58 0.48 (nbgoodclauses,nbtotalgood,precisionGood,recallGood,FGood,nbbadclause,nbtotalbad,precisionBad,recallBad,FBad,accuracy)
c additional predictionFinallLBD 10 1665712 274991 0.16 0.96 0.27 566582 1957303 0.98 0.28 0.44 0.37 (nbgoodclauses,nbtotalgood,precisionGood,recallGood,FGood,nbbadclause,nbtotalbad,precisionBad,recallBad,FBad,accuracy)
c additional predictionFinallLBD 14 1969552 274991 0.14 0.99 0.24 262742 1957303 0.99 0.13 0.23 0.24 (nbgoodclauses,nbtotalgood,precisionGood,recallGood,FGood,nbbadclause,nbtotalbad,precisionBad,recallBad,FBad,accuracy)
c additional predictionFinallLBD 18 2103125 274991 0.13 1.00 0.23 129169 1957303 0.99 0.07 0.12 0.18 (nbgoodclauses,nbtotalgood,precisionGood,recallGood,FGood,nbbadclause,nbtotalbad,precisionBad,recallBad,FBad,accuracy)
c additional predictionFinallLBD 22 2163450 274991 0.13 1.00 0.23 68844 1957303 1.00 0.04 0.07 0.15 (nbgoodclauses,nbtotalgood,precisionGood,recallGood,FGood,nbbadclause,nbtotalbad,precisionBad,recallBad,FBad,accuracy)
c additional predictionFinallLBD 30 2208922 274991 0.12 1.00 0.22 23372 1957303 1.00 0.01 0.02 0.13 (nbgoodclauses,nbtotalgood,precisionGood,recallGood,FGood,nbbadclause,nbtotalbad,precisionBad,recallBad,FBad,accuracy)
c additional predictionFinallLBD 40 2224309 274991 0.12 1.00 0.22 7985 1957303 1.00 0.00 0.01 0.13 (nbgoodclauses,nbtotalgood,precisionGood,recallGood,FGood,nbbadclause,nbtotalbad,precisionBad,recallBad,FBad,accuracy)
c additional predictionSize 1 217 274991 0.93 0.00 0.00 2232077 1957303 0.88 7.12 1.56 0.88 (nbgoodclauses,nbtotalgood,precisionGood,recallGood,FGood,nbbadclause,nbtotalbad,precisionBad,recallBad,FBad,accuracy)
c additional predictionSize 2 3180 274991 0.80 0.01 0.02 2229114 1957303 0.88 7.12 1.56 0.88 (nbgoodclauses,nbtotalgood,precisionGood,recallGood,FGood,nbbadclause,nbtotalbad,precisionBad,recallBad,FBad,accuracy)
c additional predictionSize 3 48132 274991 0.53 0.09 0.16 2184162 1957303 0.89 7.03 1.57 0.88 (nbgoodclauses,nbtotalgood,precisionGood,recallGood,FGood,nbbadclause,nbtotalbad,precisionBad,recallBad,FBad,accuracy)
c additional predictionSize 4 126573 274991 0.42 0.19 0.27 2105721 1957303 0.89 6.85 1.58 0.87 (nbgoodclauses,nbtotalgood,precisionGood,recallGood,FGood,nbbadclause,nbtotalbad,precisionBad,recallBad,FBad,accuracy)
c additional predictionSize 5 194466 274991 0.36 0.25 0.30 2037828 1957303 0.90 6.66 1.58 0.85 (nbgoodclauses,nbtotalgood,precisionGood,recallGood,FGood,nbbadclause,nbtotalbad,precisionBad,recallBad,FBad,accuracy)
c additional predictionSize 6 273441 274991 0.32 0.32 0.32 1958853 1957303 0.90 6.44 1.59 0.83 (nbgoodclauses,nbtotalgood,precisionGood,recallGood,FGood,nbbadclause,nbtotalbad,precisionBad,recallBad,FBad,accuracy)
c additional predictionSize 7 380661 274991 0.29 0.40 0.34 1851633 1957303 0.91 6.14 1.59 0.81 (nbgoodclauses,nbtotalgood,precisionGood,recallGood,FGood,nbbadclause,nbtotalbad,precisionBad,recallBad,FBad,accuracy)
c additional predictionSize 8 477840 274991 0.26 0.46 0.34 1754454 1957303 0.92 5.84 1.58 0.78 (nbgoodclauses,nbtotalgood,precisionGood,recallGood,FGood,nbbadclause,nbtotalbad,precisionBad,recallBad,FBad,accuracy)
c additional predictionSize 10 650481 274991 0.23 0.55 0.33 1581813 1957303 0.92 5.31 1.57 0.72 (nbgoodclauses,nbtotalgood,precisionGood,recallGood,FGood,nbbadclause,nbtotalbad,precisionBad,recallBad,FBad,accuracy)
c additional predictionSize 14 938810 274991 0.20 0.68 0.31 1293484 1957303 0.93 4.39 1.54 0.62 (nbgoodclauses,nbtotalgood,precisionGood,recallGood,FGood,nbbadclause,nbtotalbad,precisionBad,recallBad,FBad,accuracy)
c additional predictionSize 18 1188806 274991 0.18 0.76 0.29 1043488 1957303 0.94 3.56 1.48 0.53 (nbgoodclauses,nbtotalgood,precisionGood,recallGood,FGood,nbbadclause,nbtotalbad,precisionBad,recallBad,FBad,accuracy)
c additional predictionSize 22 1349831 274991 0.17 0.81 0.28 882463 1957303 0.94 3.02 1.44 0.47 (nbgoodclauses,nbtotalgood,precisionGood,recallGood,FGood,nbbadclause,nbtotalbad,precisionBad,recallBad,FBad,accuracy)
c additional predictionSize 30 1580607 274991 0.15 0.88 0.26 651687 1957303 0.95 2.25 1.33 0.38 (nbgoodclauses,nbtotalgood,precisionGood,recallGood,FGood,nbbadclause,nbtotalbad,precisionBad,recallBad,FBad,accuracy)
c additional predictionSize 40 1778195 274991 0.14 0.93 0.25 454099 1957303 0.96 1.58 1.19 0.31 (nbgoodclauses,nbtotalgood,precisionGood,recallGood,FGood,nbbadclause,nbtotalbad,precisionBad,recallBad,FBad,accuracy)
c additional predictionAge 1 359503 274991 0.16 0.22 0.19 1872791 1957303 0.88 6.03 1.54 0.77 (nbgoodclauses,nbtotalgood,precisionGood,recallGood,FGood,nbbadclause,nbtotalbad,precisionBad,recallBad,FBad,accuracy)
c additional predictionAge 10 359573 274991 0.16 0.22 0.19 1872721 1957303 0.88 6.03 1.54 0.77 (nbgoodclauses,nbtotalgood,precisionGood,recallGood,FGood,nbbadclause,nbtotalbad,precisionBad,recallBad,FBad,accuracy)
c additional predictionAge 25 558863 274991 0.17 0.35 0.23 1673431 1957303 0.89 5.43 1.53 0.71 (nbgoodclauses,nbtotalgood,precisionGood,recallGood,FGood,nbbadclause,nbtotalbad,precisionBad,recallBad,FBad,accuracy)
c additional predictionAge 50 580036 274991 0.17 0.35 0.23 1652258 1957303 0.89 5.36 1.53 0.70 (nbgoodclauses,nbtotalgood,precisionGood,recallGood,FGood,nbbadclause,nbtotalbad,precisionBad,recallBad,FBad,accuracy)
c additional predictionAge 100 602028 274991 0.17 0.36 0.23 1630266 1957303 0.89 5.29 1.53 0.70 (nbgoodclauses,nbtotalgood,precisionGood,recallGood,FGood,nbbadclause,nbtotalbad,precisionBad,recallBad,FBad,accuracy)
c additional predictionAge 250 631141 274991 0.16 0.37 0.23 1601153 1957303 0.89 5.20 1.52 0.69 (nbgoodclauses,nbtotalgood,precisionGood,recallGood,FGood,nbbadclause,nbtotalbad,precisionBad,recallBad,FBad,accuracy)
c additional predictionAge 500 652201 274991 0.16 0.38 0.23 1580093 1957303 0.89 5.13 1.52 0.68 (nbgoodclauses,nbtotalgood,precisionGood,recallGood,FGood,nbbadclause,nbtotalbad,precisionBad,recallBad,FBad,accuracy)
c additional predictionAge 1000 671259 274991 0.16 0.39 0.23 1561035 1957303 0.89 5.07 1.52 0.67 (nbgoodclauses,nbtotalgood,precisionGood,recallGood,FGood,nbbadclause,nbtotalbad,precisionBad,recallBad,FBad,accuracy)
c additional predictionAge 2500 694510 274991 0.16 0.40 0.23 1537784 1957303 0.89 5.00 1.52 0.67 (nbgoodclauses,nbtotalgood,precisionGood,recallGood,FGood,nbbadclause,nbtotalbad,precisionBad,recallBad,FBad,accuracy)
c additional predictionAge 5000 710592 274991 0.16 0.41 0.23 1521702 1957303 0.89 4.94 1.51 0.66 (nbgoodclauses,nbtotalgood,precisionGood,recallGood,FGood,nbbadclause,nbtotalbad,precisionBad,recallBad,FBad,accuracy)
c additional predictionAge 10000 727460 274991 0.16 0.42 0.23 1504834 1957303 0.89 4.89 1.51 0.65 (nbgoodclauses,nbtotalgood,precisionGood,recallGood,FGood,nbbadclause,nbtotalbad,precisionBad,recallBad,FBad,accuracy)
c additional predictionAge 25000 761374 274991 0.16 0.44 0.23 1470920 1957303 0.90 4.79 1.51 0.64 (nbgoodclauses,nbtotalgood,precisionGood,recallGood,FGood,nbbadclause,nbtotalbad,precisionBad,recallBad,FBad,accuracy)
c additional predictionAge 50000 809826 274991 0.16 0.46 0.23 1422468 1957303 0.90 4.64 1.50 0.63 (nbgoodclauses,nbtotalgood,precisionGood,recallGood,FGood,nbbadclause,nbtotalbad,precisionBad,recallBad,FBad,accuracy)
c additional predictionAge 100000 894827 274991 0.15 0.50 0.24 1337467 1957303 0.90 4.36 1.49 0.60 (nbgoodclauses,nbtotalgood,precisionGood,recallGood,FGood,nbbadclause,nbtotalbad,precisionBad,recallBad,FBad,accuracy)
c additional predictionTicks 1 361923 274991 0.16 0.22 0.19 1870371 1957303 0.88 6.02 1.54 0.77 (nbgoodclauses,nbtotalgood,precisionGood,recallGood,FGood,nbbadclause,nbtotalbad,precisionBad,recallBad,FBad,accuracy)
c additional predictionTicks 10 376815 274991 0.16 0.22 0.19 1855479 1957303 0.89 5.97 1.54 0.76 (nbgoodclauses,nbtotalgood,precisionGood,recallGood,FGood,nbbadclause,nbtotalbad,precisionBad,recallBad,FBad,accuracy)
c additional predictionTicks 25 820651 274991 0.16 0.48 0.24 1411643 1957303 0.90 4.61 1.50 0.63 (nbgoodclauses,nbtotalgood,precisionGood,recallGood,FGood,nbbadclause,nbtotalbad,precisionBad,recallBad,FBad,accuracy)
c additional predictionTicks 50 921324 274991 0.16 0.52 0.24 1310970 1957303 0.90 4.29 1.49 0.59 (nbgoodclauses,nbtotalgood,precisionGood,recallGood,FGood,nbbadclause,nbtotalbad,precisionBad,recallBad,FBad,accuracy)
c additional predictionTicks 100 1030821 274991 0.15 0.57 0.24 1201473 1957303 0.90 3.94 1.47 0.56 (nbgoodclauses,nbtotalgood,precisionGood,recallGood,FGood,nbbadclause,nbtotalbad,precisionBad,recallBad,FBad,accuracy)
c additional predictionTicks 250 1182124 274991 0.15 0.63 0.24 1050170 1957303 0.90 3.45 1.43 0.50 (nbgoodclauses,nbtotalgood,precisionGood,recallGood,FGood,nbbadclause,nbtotalbad,precisionBad,recallBad,FBad,accuracy)
c additional predictionTicks 500 1288836 274991 0.14 0.68 0.24 943458 1957303 0.91 3.11 1.40 0.47 (nbgoodclauses,nbtotalgood,precisionGood,recallGood,FGood,nbbadclause,nbtotalbad,precisionBad,recallBad,FBad,accuracy)
c additional predictionTicks 1000 1378216 274991 0.14 0.72 0.24 854078 1957303 0.91 2.82 1.38 0.44 (nbgoodclauses,nbtotalgood,precisionGood,recallGood,FGood,nbbadclause,nbtotalbad,precisionBad,recallBad,FBad,accuracy)
c additional predictionTicks 2500 1480785 274991 0.14 0.76 0.24 751509 1957303 0.91 2.50 1.34 0.40 (nbgoodclauses,nbtotalgood,precisionGood,recallGood,FGood,nbbadclause,nbtotalbad,precisionBad,recallBad,FBad,accuracy)
c additional predictionTicks 5000 1554787 274991 0.14 0.80 0.24 677507 1957303 0.92 2.26 1.30 0.38 (nbgoodclauses,nbtotalgood,precisionGood,recallGood,FGood,nbbadclause,nbtotalbad,precisionBad,recallBad,FBad,accuracy)
c additional predictionTicks 10000 1634585 274991 0.14 0.83 0.24 597709 1957303 0.92 2.00 1.26 0.35 (nbgoodclauses,nbtotalgood,precisionGood,recallGood,FGood,nbbadclause,nbtotalbad,precisionBad,recallBad,FBad,accuracy)
c additional predictionTicks 25000 1755024 274991 0.14 0.87 0.24 477270 1957303 0.93 1.61 1.18 0.31 (nbgoodclauses,nbtotalgood,precisionGood,recallGood,FGood,nbbadclause,nbtotalbad,precisionBad,recallBad,FBad,accuracy)
c additional predictionTicks 50000 1864403 274991 0.13 0.91 0.23 367891 1957303 0.93 1.25 1.07 0.27 (nbgoodclauses,nbtotalgood,precisionGood,recallGood,FGood,nbbadclause,nbtotalbad,precisionBad,recallBad,FBad,accuracy)
c additional predictionTicks 100000 1984754 274991 0.13 0.94 0.23 247540 1957303 0.94 0.84 0.89 0.22 (nbgoodclauses,nbtotalgood,precisionGood,recallGood,FGood,nbbadclause,nbtotalbad,precisionBad,recallBad,FBad,accuracy)
c additional lifetimeGood 1 12 12 72 37444 366259 1077813 1716180 2000558 2208003 2234425 2234437 (0,1,5,10,25,50,75,90,95,99,100-1,100)
c additional lifetimeBad 1 12 24 96 48346 361286 1023335 1633793 1910305 2149474 2234410 2234417 (0,1,5,10,25,50,75,90,95,99,100-1,100)
c additional lifetimeBadBad 1 12 12 12 36 1068 124482 452780 781756 1492947 2230290 2230490 (0,1,5,10,25,50,75,90,95,99,100-1,100)
c additional compositionBad 1 2 3 4 6 15 32 69 100 197 1391 1441 (0,1,5,10,25,50,75,90,95,99,100-1,100)
c additional compositionBadWithGood 0 0 0 0 0 2 7 16 24 57 453 488 (0,1,5,10,25,50,75,90,95,99,100-1,100)
c additional compositionBadWithBad 0 0 0 0 0 1 3 6 8 16 112 114 (0,1,5,10,25,50,75,90,95,99,100-1,100)
c additional compositionBadWithInitial 0 0 2 3 4 10 23 49 73 137 1129 1184 (0,1,5,10,25,50,75,90,95,99,100-1,100)
c additional compositionGood 1 2 3 3 4 7 17 37 66 131 1180 1258 (0,1,5,10,25,50,75,90,95,99,100-1,100)
c additional compositionGoodWithGood 0 0 0 0 1 2 5 12 18 50 476 517 (0,1,5,10,25,50,75,90,95,99,100-1,100)
c additional compositionGoodWithInitial 0 0 1 2 3 5 12 26 48 92 704 741 (0,1,5,10,25,50,75,90,95,99,100-1,100)
c additional propagationGood total 85664519 percentiles 0 1 1 1 1 6 51 489 1394 6083 68213 68551 (0,1,5,10,25,50,75,90,95,99,100-1,100)
c additional propagationBad total 34319587 percentiles 1 1 1 1 1 2 4 16 43 303 46906 49963 (0,1,5,10,25,50,75,90,95,99,100-1,100)
c additional resolutionGood total 6583293 percentiles 0 1 1 1 1 3 10 44 97 369 5957 6668 (0,1,5,10,25,50,75,90,95,99,100-1,100)
c additional resolutionBad total 4265601 percentiles 0 0 0 0 1 1 2 4 7 23 547 1184 (0,1,5,10,25,50,75,90,95,99,100-1,100)
No graph is dumped
c result of core 5 is UNSAT
c One thread has finished
c Core 5 said it finished
c result of core 1 is UNKNOWN
c result of core 0 is UNKNOWN
c result of core 9 is UNKNOWN
c result of core 8 is UNKNOWN
c result of core 10 is UNKNOWN
c result of core 3 is UNKNOWN
c result of core 11 is UNKNOWN
c result of core 6 is UNKNOWN
c result of core 7 is UNKNOWN
c result of core 2 is UNKNOWN
c result of core 4 is UNKNOWN
c restarts              : 576 (322 conflicts in avg)
c blocked restarts      : 1060 (multiple: 257) 
c last block at restart : 576
c nb ReduceDB           : 10
c nb removed Clauses    : 211416
c nb learnts DL2        : 1799
c nb learnts size 2     : 214
c nb learnts size 1     : 15
c conflicts             : 186025         (241 /sec)
c decisions             : 1765033        (0.00 % random) (2284 /sec)
c propagations          : 119918436      (155156 /sec)
c conflict literals     : 5578006        (6.52 % deleted)
c nb reduced Clauses    : 1362
c CPU time              : 772.889 s

s INDETERMINATE
