c
c This is glucose-proof 1.0 based on  2.1 --  (thanks to MiniSAT)
c
c EXPERIMENTAL EASY PARALLEL (ROUND ROBIN) VERSION
c
c WARNING: for repeatability, setting FPU to use double precision
c Parallel version 16 solvers created.
c ========================================[ Problem Statistics ]===========================================
c |                                                                                                       |
c |  Number of variables:         93075                                                                   |
c |  Number of clauses:          577387                                                                   |
c |  Parse time:                   4.19 s                                                                 |
c |                                                                                                       |
c ========================================[ MAGIC CONSTANTS ]==============================================
c | Constants are supposed to work well together :-)                                                      |
c | however, if you find better choices, please let us known...                                           |
c |-------------------------------------------------------------------------------------------------------|
c |                                |                                |                                     |
c | - Restarts:                    | - Reduce Clause DB:            | - Minimize Asserting:               |
c |   * LBD Queue    :     50      |   * First     :   4000         |    * size <  30                     |
c |   * Trail  Queue :   5000      |   * Inc       :    300         |    * lbd  <   6                     |
c |   * K            :   0.80      |   * Special   :   1000         |                                     |
c |   * R            :   1.40      |   * Protected :  (lbd)< 30     |                                     |
c |                                |                                |                                     |
c ==================================[ Search Statistics (every  10000 conflicts) ]=========================
c |                                                                                                       |
c |          RESTARTS           |          ORIGINAL         |              LEARNT              | Progress |
c |       NB   Blocked  Avg Cfc |    Vars  Clauses Literals |   Red   Learnts    LBD2  Removed |          |
c =========================================================================================================
c |       69         0      144 |   86369   577387  2580844 |     1     8019      231     5334 |  7.205 % |
c |      112        65      178 |   86040   577387  2580844 |     3     6972      365    30759 |  7.558 % |
c |      161       113      186 |   85907   577387  2580844 |     3    16477      501    30759 |  7.701 % |
c |      194       184      206 |   85901   577387  2580844 |     4    17445      601    50127 |  7.708 % |
c |      225       218      222 |   85546   577387  2580844 |     5    15725      684    73300 |  8.089 % |
c |      266       248      225 |   85498   577387  2580844 |     5    25725      749    73300 |  8.141 % |
c |      300       292      233 |   85396   577387  2580844 |     6    21389      921    99705 |  8.250 % |
c |      345       341      231 |   85352   577387  2580844 |     6    31388     1015    99705 |  8.298 % |
c |      384       400      234 |   84926   577387  2580844 |     7    21330     1204   127408 |  8.755 % |
c |      422       444      236 |   84905   577387  2580844 |     7    31111     1416   127408 |  8.778 % |
c |      462       501      238 |   84829   577387  2580844 |     8    23188     1547   163708 |  8.860 % |
c |      508       578      236 |   84778   577387  2580844 |     8    33186     1644   163708 |  8.914 % |
c |      549       633      236 |   84731   577387  2580844 |     9    21794     1718   205527 |  8.965 % |
c |      583       684      240 |   84651   577387  2580844 |     9    31789     1821   205527 |  9.051 % |
c |      608       741      246 |   84647   577387  2580844 |     9    41788     1915   205527 |  9.055 % |
c |      656       799      243 |   84647   577387  2580844 |    10    27525     2014   250786 |  9.055 % |
c |      696       856      244 |   84640   577387  2580844 |    10    37519     2102   250786 |  9.063 % |
c |      755       911      238 |   84640   577387  2580844 |    10    47519     2171   250786 |  9.063 % |
c |      794       970      239 |   84640   577387  2580844 |    11    30274     2264   300952 |  9.063 % |
c |      831      1044      240 |   84590   577387  2580844 |    11    40272     2348   300952 |  9.116 % |
c |      867      1109      242 |   84583   577387  2580844 |    11    50272     2437   300952 |  9.124 % |
c |      899      1158      244 |   84583   577387  2580844 |    12    30353     2532   352831 |  9.124 % |
c |      922      1211      249 |   84581   577387  2580844 |    12    40349     2627   352831 |  9.126 % |
c |      963      1258      249 |   84571   577387  2580844 |    12    50332     2693   352831 |  9.137 % |
c |      986      1322      253 |   84567   577387  2580844 |    12    60331     2753   352831 |  9.141 % |
c |     1032      1378      251 |   84068   577387  2580844 |    13    33657     2897   404122 |  9.677 % |
c |     1063      1425      253 |   83962   577387  2580844 |    13    42953     3004   404122 |  9.791 % |
c empty clause found by core 3 at conflict 270717
*
c checking the resolution graph...OK
c All useful bySize 469984 clauses, percentiles 0 2 2 3 3 6 12 27 41 90 610 623 (0,1,5,10,25,50,75,90,95,99,100-1,100)
c All useless bySize 4443271 clauses, percentiles 0 2 3 4 8 17 34 64 92 183 960 969 (0,1,5,10,25,50,75,90,95,99,100-1,100)
c ProofOnly useful bySize 346323 clauses, percentiles 0 2 3 3 5 8 16 33 47 107 610 623 (0,1,5,10,25,50,75,90,95,99,100-1,100)
c ProofOnly useless bySize 3985137 clauses, percentiles 1 3 5 6 10 19 38 68 98 190 960 969 (0,1,5,10,25,50,75,90,95,99,100-1,100)
c All useful byFinalLBD 469984 clauses, percentiles 0 1 1 2 2 3 5 8 10 14 56 56 (0,1,5,10,25,50,75,90,95,99,100-1,100)
c All useless byFinalLBD 4443271 clauses, percentiles 0 1 2 3 4 7 11 17 21 35 274 279 (0,1,5,10,25,50,75,90,95,99,100-1,100)
c ProofOnly useful byFinalLBD 346323 clauses, percentiles 0 1 1 1 2 4 5 8 10 14 56 56 (0,1,5,10,25,50,75,90,95,99,100-1,100)
c ProofOnly useless byFinalLBD 3985137 clauses, percentiles 1 1 3 3 5 8 12 17 22 36 274 279 (0,1,5,10,25,50,75,90,95,99,100-1,100)
c All useful byInitialLBD 469984 clauses, percentiles 0 2 2 3 3 4 6 9 11 15 56 56 (0,1,5,10,25,50,75,90,95,99,100-1,100)
c All useless byInitialLBD 4443271 clauses, percentiles 0 2 3 3 5 8 12 17 21 35 274 279 (0,1,5,10,25,50,75,90,95,99,100-1,100)
c ProofOnly useful byInitialLBD 346323 clauses, percentiles 0 2 2 3 3 4 6 9 11 16 56 56 (0,1,5,10,25,50,75,90,95,99,100-1,100)
c ProofOnly useless byInitialLBD 3985137 clauses, percentiles 1 3 3 4 5 8 12 18 22 36 274 279 (0,1,5,10,25,50,75,90,95,99,100-1,100)
c Literals ProofOnly useful 5259192
c Literals ProofOnly useless 124960074
c additional windowsGood 1 1 1 1 1 1 1 1 2 2 6 6 (0,1,5,10,25,50,75,90,95,99,100-1,100)
c additional windowsBad 1 1 1 2 4 8 15 23 39 92 766 769 (0,1,5,10,25,50,75,90,95,99,100-1,100)
c additional 1WindowNoDecision 289604 133993 0.46 25860 10329 0.4 (nbWindowsGood,nbWindowsNoDecisionGood,nbWindowsBad,nbWindowsNoDecisionBad
c additional topclausessize all (10%,5%,1%,top) 54.67 76.38 158.60 623
c additional topclausessize proofonly (10%,5%,1%,top) 58.70 81.53 168.37 623
c additional topclausesinitialLBD all (10%,5%,1%,top) 46.34 65.92 138.25 623
c additional topclausesinitialLBD proofonly (10%,5%,1%,top) 40.61 58.71 124.22 623
c additional topclausesfinalLBD all (10%,5%,1%,top) 35.13 51.62 110.64 623
c additional topclausesfinalLBD proofonly (10%,5%,1%,top) 32.16 47.63 103.15 623
c additional predictionInitialLBD 1 316 346323 0.85 0.00 0.00 4331144 3985137 0.92 11.51 1.70 0.92 (nbgoodclauses,nbtotalgood,precisionGood,recallGood,FGood,nbbadclause,nbtotalbad,precisionBad,recallBad,FBad,accuracy)
c additional predictionInitialLBD 2 45487 346323 0.40 0.05 0.09 4285973 3985137 0.92 11.43 1.71 0.92 (nbgoodclauses,nbtotalgood,precisionGood,recallGood,FGood,nbbadclause,nbtotalbad,precisionBad,recallBad,FBad,accuracy)
c additional predictionInitialLBD 3 323740 346323 0.33 0.31 0.32 4007720 3985137 0.94 10.89 1.73 0.90 (nbgoodclauses,nbtotalgood,precisionGood,recallGood,FGood,nbbadclause,nbtotalbad,precisionBad,recallBad,FBad,accuracy)
c additional predictionInitialLBD 4 782450 346323 0.23 0.53 0.32 3549010 3985137 0.95 9.78 1.74 0.82 (nbgoodclauses,nbtotalgood,precisionGood,recallGood,FGood,nbbadclause,nbtotalbad,precisionBad,recallBad,FBad,accuracy)
c additional predictionInitialLBD 5 1256804 346323 0.18 0.66 0.29 3074656 3985137 0.96 8.54 1.73 0.74 (nbgoodclauses,nbtotalgood,precisionGood,recallGood,FGood,nbbadclause,nbtotalbad,precisionBad,recallBad,FBad,accuracy)
c additional predictionInitialLBD 6 1698743 346323 0.15 0.75 0.26 2632717 3985137 0.97 7.35 1.71 0.65 (nbgoodclauses,nbtotalgood,precisionGood,recallGood,FGood,nbbadclause,nbtotalbad,precisionBad,recallBad,FBad,accuracy)
c additional predictionInitialLBD 7 2092582 346323 0.14 0.82 0.23 2238878 3985137 0.97 6.28 1.68 0.57 (nbgoodclauses,nbtotalgood,precisionGood,recallGood,FGood,nbbadclause,nbtotalbad,precisionBad,recallBad,FBad,accuracy)
c additional predictionInitialLBD 8 2437841 346323 0.12 0.87 0.22 1893619 3985137 0.98 5.34 1.65 0.50 (nbgoodclauses,nbtotalgood,precisionGood,recallGood,FGood,nbbadclause,nbtotalbad,precisionBad,recallBad,FBad,accuracy)
c additional predictionInitialLBD 10 2996500 346323 0.11 0.93 0.19 1334960 3985137 0.98 3.79 1.56 0.38 (nbgoodclauses,nbtotalgood,precisionGood,recallGood,FGood,nbbadclause,nbtotalbad,precisionBad,recallBad,FBad,accuracy)
c additional predictionInitialLBD 14 3677030 346323 0.09 0.98 0.17 654430 3985137 0.99 1.87 1.30 0.23 (nbgoodclauses,nbtotalgood,precisionGood,recallGood,FGood,nbbadclause,nbtotalbad,precisionBad,recallBad,FBad,accuracy)
c additional predictionInitialLBD 18 3983994 346323 0.09 1.00 0.16 347466 3985137 1.00 1.00 1.00 0.16 (nbgoodclauses,nbtotalgood,precisionGood,recallGood,FGood,nbbadclause,nbtotalbad,precisionBad,recallBad,FBad,accuracy)
c additional predictionInitialLBD 22 4138505 346323 0.08 1.00 0.15 192955 3985137 1.00 0.56 0.71 0.12 (nbgoodclauses,nbtotalgood,precisionGood,recallGood,FGood,nbbadclause,nbtotalbad,precisionBad,recallBad,FBad,accuracy)
c additional predictionInitialLBD 30 4259060 346323 0.08 1.00 0.15 72400 3985137 1.00 0.21 0.35 0.10 (nbgoodclauses,nbtotalgood,precisionGood,recallGood,FGood,nbbadclause,nbtotalbad,precisionBad,recallBad,FBad,accuracy)
c additional predictionInitialLBD 40 4304885 346323 0.08 1.00 0.15 26575 3985137 1.00 0.08 0.14 0.09 (nbgoodclauses,nbtotalgood,precisionGood,recallGood,FGood,nbbadclause,nbtotalbad,precisionBad,recallBad,FBad,accuracy)
c additional predictionFinallLBD 1 100257 346323 0.46 0.13 0.21 4231203 3985137 0.93 0.99 0.96 0.92 (nbgoodclauses,nbtotalgood,precisionGood,recallGood,FGood,nbbadclause,nbtotalbad,precisionBad,recallBad,FBad,accuracy)
c additional predictionFinallLBD 2 279270 346323 0.36 0.29 0.32 4052190 3985137 0.94 0.95 0.95 0.90 (nbgoodclauses,nbtotalgood,precisionGood,recallGood,FGood,nbbadclause,nbtotalbad,precisionBad,recallBad,FBad,accuracy)
c additional predictionFinallLBD 3 558380 346323 0.28 0.45 0.35 3773080 3985137 0.95 0.90 0.92 0.86 (nbgoodclauses,nbtotalgood,precisionGood,recallGood,FGood,nbbadclause,nbtotalbad,precisionBad,recallBad,FBad,accuracy)
c additional predictionFinallLBD 4 1039652 346323 0.22 0.66 0.33 3291808 3985137 0.96 0.80 0.87 0.79 (nbgoodclauses,nbtotalgood,precisionGood,recallGood,FGood,nbbadclause,nbtotalbad,precisionBad,recallBad,FBad,accuracy)
c additional predictionFinallLBD 5 1508941 346323 0.18 0.77 0.29 2822519 3985137 0.97 0.69 0.81 0.69 (nbgoodclauses,nbtotalgood,precisionGood,recallGood,FGood,nbbadclause,nbtotalbad,precisionBad,recallBad,FBad,accuracy)
c additional predictionFinallLBD 6 1929188 346323 0.15 0.84 0.25 2402272 3985137 0.98 0.59 0.73 0.61 (nbgoodclauses,nbtotalgood,precisionGood,recallGood,FGood,nbbadclause,nbtotalbad,precisionBad,recallBad,FBad,accuracy)
c additional predictionFinallLBD 7 2293378 346323 0.13 0.88 0.23 2038082 3985137 0.98 0.50 0.66 0.53 (nbgoodclauses,nbtotalgood,precisionGood,recallGood,FGood,nbbadclause,nbtotalbad,precisionBad,recallBad,FBad,accuracy)
c additional predictionFinallLBD 8 2607173 346323 0.12 0.92 0.22 1724287 3985137 0.98 0.43 0.59 0.46 (nbgoodclauses,nbtotalgood,precisionGood,recallGood,FGood,nbbadclause,nbtotalbad,precisionBad,recallBad,FBad,accuracy)
c additional predictionFinallLBD 10 3110253 346323 0.11 0.96 0.19 1221207 3985137 0.99 0.30 0.46 0.36 (nbgoodclauses,nbtotalgood,precisionGood,recallGood,FGood,nbbadclause,nbtotalbad,precisionBad,recallBad,FBad,accuracy)
c additional predictionFinallLBD 14 3721435 346323 0.09 0.99 0.17 610025 3985137 1.00 0.15 0.26 0.22 (nbgoodclauses,nbtotalgood,precisionGood,recallGood,FGood,nbbadclause,nbtotalbad,precisionBad,recallBad,FBad,accuracy)
c additional predictionFinallLBD 18 4003012 346323 0.09 1.00 0.16 328448 3985137 1.00 0.08 0.15 0.16 (nbgoodclauses,nbtotalgood,precisionGood,recallGood,FGood,nbbadclause,nbtotalbad,precisionBad,recallBad,FBad,accuracy)
c additional predictionFinallLBD 22 4147132 346323 0.08 1.00 0.15 184328 3985137 1.00 0.05 0.09 0.12 (nbgoodclauses,nbtotalgood,precisionGood,recallGood,FGood,nbbadclause,nbtotalbad,precisionBad,recallBad,FBad,accuracy)
c additional predictionFinallLBD 30 4261611 346323 0.08 1.00 0.15 69849 3985137 1.00 0.02 0.03 0.10 (nbgoodclauses,nbtotalgood,precisionGood,recallGood,FGood,nbbadclause,nbtotalbad,precisionBad,recallBad,FBad,accuracy)
c additional predictionFinallLBD 40 4305618 346323 0.08 1.00 0.15 25842 3985137 1.00 0.01 0.01 0.09 (nbgoodclauses,nbtotalgood,precisionGood,recallGood,FGood,nbbadclause,nbtotalbad,precisionBad,recallBad,FBad,accuracy)
c additional predictionSize 1 316 346323 0.85 0.00 0.00 4331144 3985137 0.92 11.51 1.70 0.92 (nbgoodclauses,nbtotalgood,precisionGood,recallGood,FGood,nbbadclause,nbtotalbad,precisionBad,recallBad,FBad,accuracy)
c additional predictionSize 2 6153 346323 0.73 0.01 0.03 4325307 3985137 0.92 11.50 1.71 0.92 (nbgoodclauses,nbtotalgood,precisionGood,recallGood,FGood,nbbadclause,nbtotalbad,precisionBad,recallBad,FBad,accuracy)
c additional predictionSize 3 99378 346323 0.40 0.12 0.18 4232082 3985137 0.93 11.34 1.71 0.92 (nbgoodclauses,nbtotalgood,precisionGood,recallGood,FGood,nbbadclause,nbtotalbad,precisionBad,recallBad,FBad,accuracy)
c additional predictionSize 4 263402 346323 0.31 0.24 0.27 4068058 3985137 0.94 10.98 1.72 0.90 (nbgoodclauses,nbtotalgood,precisionGood,recallGood,FGood,nbbadclause,nbtotalbad,precisionBad,recallBad,FBad,accuracy)
c additional predictionSize 5 398342 346323 0.26 0.30 0.28 3933118 3985137 0.94 10.66 1.72 0.88 (nbgoodclauses,nbtotalgood,precisionGood,recallGood,FGood,nbbadclause,nbtotalbad,precisionBad,recallBad,FBad,accuracy)
c additional predictionSize 6 548302 346323 0.23 0.37 0.29 3783158 3985137 0.94 10.29 1.73 0.85 (nbgoodclauses,nbtotalgood,precisionGood,recallGood,FGood,nbbadclause,nbtotalbad,precisionBad,recallBad,FBad,accuracy)
c additional predictionSize 7 748547 346323 0.21 0.46 0.29 3582913 3985137 0.95 9.80 1.73 0.82 (nbgoodclauses,nbtotalgood,precisionGood,recallGood,FGood,nbbadclause,nbtotalbad,precisionBad,recallBad,FBad,accuracy)
c additional predictionSize 8 932341 346323 0.19 0.51 0.28 3399119 3985137 0.95 9.33 1.72 0.79 (nbgoodclauses,nbtotalgood,precisionGood,recallGood,FGood,nbbadclause,nbtotalbad,precisionBad,recallBad,FBad,accuracy)
c additional predictionSize 10 1252697 346323 0.16 0.59 0.26 3078763 3985137 0.95 8.48 1.72 0.73 (nbgoodclauses,nbtotalgood,precisionGood,recallGood,FGood,nbbadclause,nbtotalbad,precisionBad,recallBad,FBad,accuracy)
c additional predictionSize 14 1799093 346323 0.14 0.72 0.23 2532367 3985137 0.96 7.03 1.69 0.62 (nbgoodclauses,nbtotalgood,precisionGood,recallGood,FGood,nbbadclause,nbtotalbad,precisionBad,recallBad,FBad,accuracy)
c additional predictionSize 18 2210981 346323 0.12 0.79 0.21 2120479 3985137 0.96 5.91 1.66 0.54 (nbgoodclauses,nbtotalgood,precisionGood,recallGood,FGood,nbbadclause,nbtotalbad,precisionBad,recallBad,FBad,accuracy)
c additional predictionSize 22 2584341 346323 0.11 0.83 0.20 1747119 3985137 0.97 4.87 1.61 0.46 (nbgoodclauses,nbtotalgood,precisionGood,recallGood,FGood,nbbadclause,nbtotalbad,precisionBad,recallBad,FBad,accuracy)
c additional predictionSize 30 3024900 346323 0.10 0.89 0.18 1306560 3985137 0.97 3.66 1.53 0.36 (nbgoodclauses,nbtotalgood,precisionGood,recallGood,FGood,nbbadclause,nbtotalbad,precisionBad,recallBad,FBad,accuracy)
c additional predictionSize 40 3393834 346323 0.09 0.93 0.17 937626 3985137 0.97 2.64 1.42 0.29 (nbgoodclauses,nbtotalgood,precisionGood,recallGood,FGood,nbbadclause,nbtotalbad,precisionBad,recallBad,FBad,accuracy)
c additional predictionAge 1 676643 346323 0.11 0.22 0.15 3654817 3985137 0.93 9.77 1.69 0.80 (nbgoodclauses,nbtotalgood,precisionGood,recallGood,FGood,nbbadclause,nbtotalbad,precisionBad,recallBad,FBad,accuracy)
c additional predictionAge 10 676730 346323 0.11 0.22 0.15 3654730 3985137 0.93 9.77 1.69 0.80 (nbgoodclauses,nbtotalgood,precisionGood,recallGood,FGood,nbbadclause,nbtotalbad,precisionBad,recallBad,FBad,accuracy)
c additional predictionAge 25 970392 346323 0.12 0.33 0.17 3361068 3985137 0.93 9.03 1.69 0.75 (nbgoodclauses,nbtotalgood,precisionGood,recallGood,FGood,nbbadclause,nbtotalbad,precisionBad,recallBad,FBad,accuracy)
c additional predictionAge 50 1062807 346323 0.11 0.35 0.17 3268653 3985137 0.93 8.79 1.68 0.73 (nbgoodclauses,nbtotalgood,precisionGood,recallGood,FGood,nbbadclause,nbtotalbad,precisionBad,recallBad,FBad,accuracy)
c additional predictionAge 100 1100988 346323 0.11 0.36 0.17 3230472 3985137 0.93 8.69 1.68 0.72 (nbgoodclauses,nbtotalgood,precisionGood,recallGood,FGood,nbbadclause,nbtotalbad,precisionBad,recallBad,FBad,accuracy)
c additional predictionAge 250 1151426 346323 0.11 0.37 0.17 3180034 3985137 0.93 8.56 1.68 0.71 (nbgoodclauses,nbtotalgood,precisionGood,recallGood,FGood,nbbadclause,nbtotalbad,precisionBad,recallBad,FBad,accuracy)
c additional predictionAge 500 1188930 346323 0.11 0.38 0.17 3142530 3985137 0.93 8.46 1.68 0.71 (nbgoodclauses,nbtotalgood,precisionGood,recallGood,FGood,nbbadclause,nbtotalbad,precisionBad,recallBad,FBad,accuracy)
c additional predictionAge 1000 1220451 346323 0.11 0.39 0.17 3111009 3985137 0.93 8.37 1.68 0.70 (nbgoodclauses,nbtotalgood,precisionGood,recallGood,FGood,nbbadclause,nbtotalbad,precisionBad,recallBad,FBad,accuracy)
c additional predictionAge 2500 1256133 346323 0.11 0.40 0.17 3075327 3985137 0.93 8.28 1.68 0.69 (nbgoodclauses,nbtotalgood,precisionGood,recallGood,FGood,nbbadclause,nbtotalbad,precisionBad,recallBad,FBad,accuracy)
c additional predictionAge 5000 1279150 346323 0.11 0.41 0.17 3052310 3985137 0.93 8.22 1.68 0.69 (nbgoodclauses,nbtotalgood,precisionGood,recallGood,FGood,nbbadclause,nbtotalbad,precisionBad,recallBad,FBad,accuracy)
c additional predictionAge 10000 1300751 346323 0.11 0.41 0.17 3030709 3985137 0.93 8.16 1.67 0.69 (nbgoodclauses,nbtotalgood,precisionGood,recallGood,FGood,nbbadclause,nbtotalbad,precisionBad,recallBad,FBad,accuracy)
c additional predictionAge 25000 1339733 346323 0.11 0.42 0.17 2991727 3985137 0.93 8.06 1.67 0.68 (nbgoodclauses,nbtotalgood,precisionGood,recallGood,FGood,nbbadclause,nbtotalbad,precisionBad,recallBad,FBad,accuracy)
c additional predictionAge 50000 1392557 346323 0.11 0.44 0.18 2938903 3985137 0.93 7.93 1.67 0.67 (nbgoodclauses,nbtotalgood,precisionGood,recallGood,FGood,nbbadclause,nbtotalbad,precisionBad,recallBad,FBad,accuracy)
c additional predictionAge 100000 1489092 346323 0.11 0.47 0.18 2842368 3985137 0.94 7.67 1.67 0.65 (nbgoodclauses,nbtotalgood,precisionGood,recallGood,FGood,nbbadclause,nbtotalbad,precisionBad,recallBad,FBad,accuracy)
c additional predictionTicks 1 680332 346323 0.11 0.22 0.15 3651128 3985137 0.93 9.76 1.69 0.80 (nbgoodclauses,nbtotalgood,precisionGood,recallGood,FGood,nbbadclause,nbtotalbad,precisionBad,recallBad,FBad,accuracy)
c additional predictionTicks 10 702265 346323 0.11 0.22 0.15 3629195 3985137 0.93 9.70 1.69 0.79 (nbgoodclauses,nbtotalgood,precisionGood,recallGood,FGood,nbbadclause,nbtotalbad,precisionBad,recallBad,FBad,accuracy)
c additional predictionTicks 25 1376954 346323 0.11 0.43 0.17 2954506 3985137 0.93 7.96 1.67 0.67 (nbgoodclauses,nbtotalgood,precisionGood,recallGood,FGood,nbbadclause,nbtotalbad,precisionBad,recallBad,FBad,accuracy)
c additional predictionTicks 50 1672947 346323 0.11 0.51 0.17 2658513 3985137 0.94 7.18 1.66 0.62 (nbgoodclauses,nbtotalgood,precisionGood,recallGood,FGood,nbbadclause,nbtotalbad,precisionBad,recallBad,FBad,accuracy)
c additional predictionTicks 100 1873779 346323 0.10 0.55 0.17 2457681 3985137 0.94 6.65 1.64 0.58 (nbgoodclauses,nbtotalgood,precisionGood,recallGood,FGood,nbbadclause,nbtotalbad,precisionBad,recallBad,FBad,accuracy)
c additional predictionTicks 250 2155229 346323 0.10 0.61 0.17 2176231 3985137 0.94 5.90 1.62 0.52 (nbgoodclauses,nbtotalgood,precisionGood,recallGood,FGood,nbbadclause,nbtotalbad,precisionBad,recallBad,FBad,accuracy)
c additional predictionTicks 500 2361498 346323 0.10 0.66 0.17 1969962 3985137 0.94 5.35 1.60 0.48 (nbgoodclauses,nbtotalgood,precisionGood,recallGood,FGood,nbbadclause,nbtotalbad,precisionBad,recallBad,FBad,accuracy)
c additional predictionTicks 1000 2532672 346323 0.10 0.70 0.17 1798788 3985137 0.94 4.90 1.58 0.45 (nbgoodclauses,nbtotalgood,precisionGood,recallGood,FGood,nbbadclause,nbtotalbad,precisionBad,recallBad,FBad,accuracy)
c additional predictionTicks 2500 2730352 346323 0.10 0.75 0.17 1601108 3985137 0.95 4.37 1.56 0.41 (nbgoodclauses,nbtotalgood,precisionGood,recallGood,FGood,nbbadclause,nbtotalbad,precisionBad,recallBad,FBad,accuracy)
c additional predictionTicks 5000 2868277 346323 0.09 0.79 0.17 1463183 3985137 0.95 4.01 1.54 0.38 (nbgoodclauses,nbtotalgood,precisionGood,recallGood,FGood,nbbadclause,nbtotalbad,precisionBad,recallBad,FBad,accuracy)
c additional predictionTicks 10000 3013452 346323 0.09 0.82 0.17 1318008 3985137 0.95 3.62 1.51 0.36 (nbgoodclauses,nbtotalgood,precisionGood,recallGood,FGood,nbbadclause,nbtotalbad,precisionBad,recallBad,FBad,accuracy)
c additional predictionTicks 25000 3238009 346323 0.09 0.86 0.17 1093451 3985137 0.96 3.02 1.45 0.31 (nbgoodclauses,nbtotalgood,precisionGood,recallGood,FGood,nbbadclause,nbtotalbad,precisionBad,recallBad,FBad,accuracy)
c additional predictionTicks 50000 3440613 346323 0.09 0.90 0.16 890847 3985137 0.96 2.47 1.38 0.27 (nbgoodclauses,nbtotalgood,precisionGood,recallGood,FGood,nbbadclause,nbtotalbad,precisionBad,recallBad,FBad,accuracy)
c additional predictionTicks 100000 3668836 346323 0.09 0.93 0.16 662624 3985137 0.96 1.84 1.27 0.22 (nbgoodclauses,nbtotalgood,precisionGood,recallGood,FGood,nbbadclause,nbtotalbad,precisionBad,recallBad,FBad,accuracy)
c additional lifetimeGood 1 16 16 80 59938 589631 1807468 3136110 3857324 4265755 4335856 4335861 (0,1,5,10,25,50,75,90,95,99,100-1,100)
c additional lifetimeBad 1 16 32 160 100711 685499 1994348 3163195 3751351 4213531 4335831 4335833 (0,1,5,10,25,50,75,90,95,99,100-1,100)
c additional lifetimeBadBad 1 16 16 16 64 5087 287245 995796 1704467 3006605 4334292 4335152 (0,1,5,10,25,50,75,90,95,99,100-1,100)
c additional compositionBad 1 2 3 3 6 15 35 79 115 215 1961 2002 (0,1,5,10,25,50,75,90,95,99,100-1,100)
c additional compositionBadWithGood 0 0 0 0 0 2 7 16 24 52 503 586 (0,1,5,10,25,50,75,90,95,99,100-1,100)
c additional compositionBadWithBad 0 0 0 0 0 1 3 6 9 17 157 164 (0,1,5,10,25,50,75,90,95,99,100-1,100)
c additional compositionBadWithInitial 0 0 2 3 4 10 26 59 89 161 1812 1861 (0,1,5,10,25,50,75,90,95,99,100-1,100)
c additional compositionGood 1 2 3 3 4 7 17 39 68 141 1047 1060 (0,1,5,10,25,50,75,90,95,99,100-1,100)
c additional compositionGoodWithGood 0 0 0 0 1 2 5 12 18 43 370 376 (0,1,5,10,25,50,75,90,95,99,100-1,100)
c additional compositionGoodWithInitial 0 0 1 2 3 5 12 28 51 108 705 712 (0,1,5,10,25,50,75,90,95,99,100-1,100)
c additional propagationGood total 203700215 percentiles 0 1 1 1 1 7 91 931 2514 10854 143957 150248 (0,1,5,10,25,50,75,90,95,99,100-1,100)
c additional propagationBad total 103432524 percentiles 1 1 1 1 1 2 4 18 54 466 109609 113588 (0,1,5,10,25,50,75,90,95,99,100-1,100)
c additional resolutionGood total 11778241 percentiles 0 1 1 1 1 3 13 65 142 543 8613 8650 (0,1,5,10,25,50,75,90,95,99,100-1,100)
c additional resolutionBad total 9276782 percentiles 0 0 0 0 1 1 2 4 8 27 846 859 (0,1,5,10,25,50,75,90,95,99,100-1,100)
No graph is dumped
c result of core 3 is UNSAT
c One thread has finished
c Core 3 said it finished
c result of core 1 is UNKNOWN
c result of core 0 is UNKNOWN
c result of core 11 is UNKNOWN
c result of core 2 is UNKNOWN
c result of core 5 is UNKNOWN
c result of core 7 is UNKNOWN
c result of core 14 is UNKNOWN
c result of core 9 is UNKNOWN
c result of core 15 is UNKNOWN
c result of core 13 is UNKNOWN
c result of core 12 is UNKNOWN
c result of core 4 is UNKNOWN
c result of core 10 is UNKNOWN
c result of core 6 is UNKNOWN
c result of core 8 is UNKNOWN
c restarts              : 1064 (254 conflicts in avg)
c blocked restarts      : 1429 (multiple: 438) 
c last block at restart : 1064
c nb ReduceDB           : 13
c nb removed Clauses    : 404122
c nb learnts DL2        : 3016
c nb learnts size 2     : 377
c nb learnts size 1     : 21
c conflicts             : 270717         (78 /sec)
c decisions             : 2884129        (0.00 % random) (826 /sec)
c propagations          : 250627912      (71787 /sec)
c conflict literals     : 7848335        (6.22 % deleted)
c nb reduced Clauses    : 1763
c CPU time              : 3491.29 s

s INDETERMINATE
