c
c This is glucose-proof 1.0 based on  2.1 --  (thanks to MiniSAT)
c
c EXPERIMENTAL EASY PARALLEL (ROUND ROBIN) VERSION
c
c WARNING: for repeatability, setting FPU to use double precision
c Parallel version 10 solvers created.
c ========================================[ Problem Statistics ]===========================================
c |                                                                                                       |
c |  Number of variables:          4745                                                                   |
c |  Number of clauses:           21877                                                                   |
c |  Parse time:                   0.07 s                                                                 |
c |                                                                                                       |
c ========================================[ MAGIC CONSTANTS ]==============================================
c | Constants are supposed to work well together :-)                                                      |
c | however, if you find better choices, please let us known...                                           |
c |-------------------------------------------------------------------------------------------------------|
c |                                |                                |                                     |
c | - Restarts:                    | - Reduce Clause DB:            | - Minimize Asserting:               |
c |   * LBD Queue    :     50      |   * First     :   4000         |    * size <  30                     |
c |   * Trail  Queue :   5000      |   * Inc       :    300         |    * lbd  <   6                     |
c |   * K            :   0.80      |   * Special   :   1000         |                                     |
c |   * R            :   1.40      |   * Protected :  (lbd)< 30     |                                     |
c |                                |                                |                                     |
c ==================================[ Search Statistics (every  10000 conflicts) ]=========================
c |                                                                                                       |
c |          RESTARTS           |          ORIGINAL         |              LEARNT              | Progress |
c |       NB   Blocked  Avg Cfc |    Vars  Clauses Literals |   Red   Learnts    LBD2  Removed |          |
c =========================================================================================================
c |       73         0      136 |    4743    21877    73645 |     1     7973      486     4448 |  0.042 % |
c |       97        90      206 |    4742    21877    73645 |     3     6830      625    20345 |  0.063 % |
c |      162       138      185 |    4740    21877    73645 |     3    16791      716    20345 |  0.105 % |
c |      235       198      170 |    4737    21877    73645 |     4    17547      801    31787 |  0.169 % |
c |      327       247      152 |    4737    21877    73645 |     5    15725      859    45605 |  0.169 % |
c |      399       313      150 |    4736    21877    73645 |     5    25666      902    45605 |  0.190 % |
c |      504       358      138 |    4735    21877    73645 |     6    21278      980    62006 |  0.211 % |
c |      609       414      131 |    4728    21877    73645 |     6    31237     1038    62006 |  0.358 % |
c |      708       466      127 |    4726    21877    73645 |     7    24226     1088    80669 |  0.400 % |
c |      821       515      121 |    4723    21877    73645 |     7    33675     1139    80669 |  0.464 % |
c |      913       564      120 |    4707    21877    73645 |     8    24332     1183   101184 |  0.801 % |
c |     1004       623      119 |    4694    21877    73645 |     8    33361     1239   101184 |  1.075 % |
c |     1089       692      119 |    4663    21877    73645 |     9    21467     1276   123604 |  1.728 % |
c |     1207       731      115 |    4609    21877    73645 |     9    30191     1341   123604 |  2.866 % |
c |     1293       802      116 |    4593    21877    73645 |     9    39177     1377   123604 |  3.203 % |
c |     1377       848      116 |    4463    21877    73645 |    10    23637     1425   147868 |  5.945 % |
c empty clause found by core 5 at conflict 169892
*
c checking the resolution graph...OK
c All useful bySize 378299 clauses, percentiles 0 2 3 4 8 21 57 118 160 246 584 587 (0,1,5,10,25,50,75,90,95,99,100-1,100)
c All useless bySize 1343578 clauses, percentiles 0 5 10 15 34 79 150 237 304 457 853 856 (0,1,5,10,25,50,75,90,95,99,100-1,100)
c ProofOnly useful bySize 356844 clauses, percentiles 0 2 4 5 9 23 61 122 163 249 584 587 (0,1,5,10,25,50,75,90,95,99,100-1,100)
c ProofOnly useless bySize 1342072 clauses, percentiles 1 5 10 15 34 79 151 237 304 457 853 856 (0,1,5,10,25,50,75,90,95,99,100-1,100)
c All useful byFinalLBD 378299 clauses, percentiles 0 1 1 1 2 4 9 18 24 41 106 108 (0,1,5,10,25,50,75,90,95,99,100-1,100)
c All useless byFinalLBD 1343578 clauses, percentiles 0 2 4 5 9 18 31 48 62 89 173 173 (0,1,5,10,25,50,75,90,95,99,100-1,100)
c ProofOnly useful byFinalLBD 356844 clauses, percentiles 0 1 1 1 2 4 9 18 25 41 106 108 (0,1,5,10,25,50,75,90,95,99,100-1,100)
c ProofOnly useless byFinalLBD 1342072 clauses, percentiles 1 2 4 6 9 18 31 48 62 89 173 173 (0,1,5,10,25,50,75,90,95,99,100-1,100)
c All useful byInitialLBD 378299 clauses, percentiles 0 2 3 3 4 7 14 23 30 51 121 122 (0,1,5,10,25,50,75,90,95,99,100-1,100)
c All useless byInitialLBD 1343578 clauses, percentiles 0 4 5 7 11 19 32 50 63 91 173 175 (0,1,5,10,25,50,75,90,95,99,100-1,100)
c ProofOnly useful byInitialLBD 356844 clauses, percentiles 0 2 3 3 5 8 15 24 30 52 121 122 (0,1,5,10,25,50,75,90,95,99,100-1,100)
c ProofOnly useless byInitialLBD 1342072 clauses, percentiles 1 4 5 7 11 19 32 50 63 91 173 175 (0,1,5,10,25,50,75,90,95,99,100-1,100)
c Literals ProofOnly useful 16305637
c Literals ProofOnly useless 144142477
c additional windowsGood 1 1 1 1 1 1 1 2 2 4 9 14 (0,1,5,10,25,50,75,90,95,99,100-1,100)
c additional windowsBad 1 1 1 1 2 3 6 9 13 26 128 149 (0,1,5,10,25,50,75,90,95,99,100-1,100)
c additional 1WindowNoDecision 219186 117240 0.53 61131 28346 0.46 (nbWindowsGood,nbWindowsNoDecisionGood,nbWindowsBad,nbWindowsNoDecisionBad
c additional topclausessize all (10%,5%,1%,top) 175.36 213.73 300.83 587
c additional topclausessize proofonly (10%,5%,1%,top) 177.00 215.29 302.40 587
c additional topclausesinitialLBD all (10%,5%,1%,top) 152.80 192.62 279.76 587
c additional topclausesinitialLBD proofonly (10%,5%,1%,top) 135.99 177.00 264.67 587
c additional topclausesfinalLBD all (10%,5%,1%,top) 122.00 163.80 252.33 587
c additional topclausesfinalLBD proofonly (10%,5%,1%,top) 111.35 153.39 242.82 587
c additional predictionInitialLBD 1 129 356844 0.99 0.00 0.00 1698787 1342072 0.79 3.76 1.31 0.79 (nbgoodclauses,nbtotalgood,precisionGood,recallGood,FGood,nbbadclause,nbtotalbad,precisionBad,recallBad,FBad,accuracy)
c additional predictionInitialLBD 2 13422 356844 0.89 0.03 0.06 1685494 1342072 0.80 3.76 1.31 0.80 (nbgoodclauses,nbtotalgood,precisionGood,recallGood,FGood,nbbadclause,nbtotalbad,precisionBad,recallBad,FBad,accuracy)
c additional predictionInitialLBD 3 53323 356844 0.83 0.12 0.21 1645593 1342072 0.81 3.73 1.33 0.81 (nbgoodclauses,nbtotalgood,precisionGood,recallGood,FGood,nbbadclause,nbtotalbad,precisionBad,recallBad,FBad,accuracy)
c additional predictionInitialLBD 4 116840 356844 0.69 0.22 0.34 1582076 1342072 0.83 3.66 1.35 0.82 (nbgoodclauses,nbtotalgood,precisionGood,recallGood,FGood,nbbadclause,nbtotalbad,precisionBad,recallBad,FBad,accuracy)
c additional predictionInitialLBD 5 193044 356844 0.59 0.32 0.42 1505872 1342072 0.84 3.54 1.36 0.81 (nbgoodclauses,nbtotalgood,precisionGood,recallGood,FGood,nbbadclause,nbtotalbad,precisionBad,recallBad,FBad,accuracy)
c additional predictionInitialLBD 6 268334 356844 0.54 0.40 0.46 1430582 1342072 0.85 3.41 1.36 0.80 (nbgoodclauses,nbtotalgood,precisionGood,recallGood,FGood,nbbadclause,nbtotalbad,precisionBad,recallBad,FBad,accuracy)
c additional predictionInitialLBD 7 342754 356844 0.49 0.47 0.48 1356162 1342072 0.86 3.27 1.36 0.79 (nbgoodclauses,nbtotalgood,precisionGood,recallGood,FGood,nbbadclause,nbtotalbad,precisionBad,recallBad,FBad,accuracy)
c additional predictionInitialLBD 8 413883 356844 0.46 0.53 0.49 1285033 1342072 0.87 3.13 1.36 0.77 (nbgoodclauses,nbtotalgood,precisionGood,recallGood,FGood,nbbadclause,nbtotalbad,precisionBad,recallBad,FBad,accuracy)
c additional predictionInitialLBD 10 542277 356844 0.41 0.62 0.49 1156639 1342072 0.88 2.86 1.35 0.73 (nbgoodclauses,nbtotalgood,precisionGood,recallGood,FGood,nbbadclause,nbtotalbad,precisionBad,recallBad,FBad,accuracy)
c additional predictionInitialLBD 14 759487 356844 0.35 0.74 0.48 939429 1342072 0.90 2.38 1.31 0.66 (nbgoodclauses,nbtotalgood,precisionGood,recallGood,FGood,nbbadclause,nbtotalbad,precisionBad,recallBad,FBad,accuracy)
c additional predictionInitialLBD 18 941602 356844 0.31 0.83 0.45 757314 1342072 0.92 1.95 1.25 0.58 (nbgoodclauses,nbtotalgood,precisionGood,recallGood,FGood,nbbadclause,nbtotalbad,precisionBad,recallBad,FBad,accuracy)
c additional predictionInitialLBD 22 1092595 356844 0.29 0.89 0.44 606321 1342072 0.93 1.58 1.17 0.52 (nbgoodclauses,nbtotalgood,precisionGood,recallGood,FGood,nbbadclause,nbtotalbad,precisionBad,recallBad,FBad,accuracy)
c additional predictionInitialLBD 30 1311679 356844 0.26 0.95 0.41 387237 1342072 0.96 1.04 0.99 0.42 (nbgoodclauses,nbtotalgood,precisionGood,recallGood,FGood,nbbadclause,nbtotalbad,precisionBad,recallBad,FBad,accuracy)
c additional predictionInitialLBD 40 1474052 356844 0.24 0.98 0.38 224864 1342072 0.97 0.61 0.75 0.33 (nbgoodclauses,nbtotalgood,precisionGood,recallGood,FGood,nbbadclause,nbtotalbad,precisionBad,recallBad,FBad,accuracy)
c additional predictionFinallLBD 1 42317 356844 0.90 0.11 0.19 1656599 1342072 0.81 1.00 0.89 0.81 (nbgoodclauses,nbtotalgood,precisionGood,recallGood,FGood,nbbadclause,nbtotalbad,precisionBad,recallBad,FBad,accuracy)
c additional predictionFinallLBD 2 117244 356844 0.85 0.28 0.42 1581672 1342072 0.84 0.99 0.91 0.84 (nbgoodclauses,nbtotalgood,precisionGood,recallGood,FGood,nbbadclause,nbtotalbad,precisionBad,recallBad,FBad,accuracy)
c additional predictionFinallLBD 3 183638 356844 0.79 0.41 0.54 1515278 1342072 0.86 0.97 0.91 0.85 (nbgoodclauses,nbtotalgood,precisionGood,recallGood,FGood,nbbadclause,nbtotalbad,precisionBad,recallBad,FBad,accuracy)
c additional predictionFinallLBD 4 260796 356844 0.70 0.51 0.59 1438120 1342072 0.88 0.94 0.91 0.85 (nbgoodclauses,nbtotalgood,precisionGood,recallGood,FGood,nbbadclause,nbtotalbad,precisionBad,recallBad,FBad,accuracy)
c additional predictionFinallLBD 5 343451 356844 0.61 0.59 0.60 1355465 1342072 0.89 0.90 0.90 0.84 (nbgoodclauses,nbtotalgood,precisionGood,recallGood,FGood,nbbadclause,nbtotalbad,precisionBad,recallBad,FBad,accuracy)
c additional predictionFinallLBD 6 419317 356844 0.55 0.65 0.59 1279599 1342072 0.90 0.86 0.88 0.81 (nbgoodclauses,nbtotalgood,precisionGood,recallGood,FGood,nbbadclause,nbtotalbad,precisionBad,recallBad,FBad,accuracy)
c additional predictionFinallLBD 7 489008 356844 0.50 0.69 0.58 1209908 1342072 0.91 0.82 0.86 0.79 (nbgoodclauses,nbtotalgood,precisionGood,recallGood,FGood,nbbadclause,nbtotalbad,precisionBad,recallBad,FBad,accuracy)
c additional predictionFinallLBD 8 553169 356844 0.47 0.73 0.57 1145747 1342072 0.91 0.78 0.84 0.77 (nbgoodclauses,nbtotalgood,precisionGood,recallGood,FGood,nbbadclause,nbtotalbad,precisionBad,recallBad,FBad,accuracy)
c additional predictionFinallLBD 10 667906 356844 0.42 0.78 0.54 1031010 1342072 0.92 0.71 0.80 0.72 (nbgoodclauses,nbtotalgood,precisionGood,recallGood,FGood,nbbadclause,nbtotalbad,precisionBad,recallBad,FBad,accuracy)
c additional predictionFinallLBD 14 861077 356844 0.35 0.85 0.50 837839 1342072 0.94 0.59 0.72 0.64 (nbgoodclauses,nbtotalgood,precisionGood,recallGood,FGood,nbbadclause,nbtotalbad,precisionBad,recallBad,FBad,accuracy)
c additional predictionFinallLBD 18 1021695 356844 0.31 0.90 0.47 677221 1342072 0.95 0.48 0.64 0.57 (nbgoodclauses,nbtotalgood,precisionGood,recallGood,FGood,nbbadclause,nbtotalbad,precisionBad,recallBad,FBad,accuracy)
c additional predictionFinallLBD 22 1153270 356844 0.29 0.94 0.44 545646 1342072 0.96 0.39 0.55 0.50 (nbgoodclauses,nbtotalgood,precisionGood,recallGood,FGood,nbbadclause,nbtotalbad,precisionBad,recallBad,FBad,accuracy)
c additional predictionFinallLBD 30 1346692 356844 0.26 0.97 0.41 352224 1342072 0.97 0.26 0.40 0.41 (nbgoodclauses,nbtotalgood,precisionGood,recallGood,FGood,nbbadclause,nbtotalbad,precisionBad,recallBad,FBad,accuracy)
c additional predictionFinallLBD 40 1492964 356844 0.24 0.99 0.38 205952 1342072 0.98 0.15 0.26 0.33 (nbgoodclauses,nbtotalgood,precisionGood,recallGood,FGood,nbbadclause,nbtotalbad,precisionBad,recallBad,FBad,accuracy)
c additional predictionSize 1 129 356844 0.99 0.00 0.00 1698787 1342072 0.79 3.76 1.31 0.79 (nbgoodclauses,nbtotalgood,precisionGood,recallGood,FGood,nbbadclause,nbtotalbad,precisionBad,recallBad,FBad,accuracy)
c additional predictionSize 2 4958 356844 0.99 0.01 0.03 1693958 1342072 0.79 3.76 1.31 0.79 (nbgoodclauses,nbtotalgood,precisionGood,recallGood,FGood,nbbadclause,nbtotalbad,precisionBad,recallBad,FBad,accuracy)
c additional predictionSize 3 15642 356844 0.94 0.04 0.08 1683274 1342072 0.80 3.76 1.31 0.80 (nbgoodclauses,nbtotalgood,precisionGood,recallGood,FGood,nbbadclause,nbtotalbad,precisionBad,recallBad,FBad,accuracy)
c additional predictionSize 4 33079 356844 0.84 0.08 0.14 1665837 1342072 0.80 3.75 1.32 0.80 (nbgoodclauses,nbtotalgood,precisionGood,recallGood,FGood,nbbadclause,nbtotalbad,precisionBad,recallBad,FBad,accuracy)
c additional predictionSize 5 59259 356844 0.76 0.13 0.22 1639657 1342072 0.81 3.72 1.33 0.81 (nbgoodclauses,nbtotalgood,precisionGood,recallGood,FGood,nbbadclause,nbtotalbad,precisionBad,recallBad,FBad,accuracy)
c additional predictionSize 6 85950 356844 0.70 0.17 0.27 1612966 1342072 0.82 3.69 1.34 0.81 (nbgoodclauses,nbtotalgood,precisionGood,recallGood,FGood,nbbadclause,nbtotalbad,precisionBad,recallBad,FBad,accuracy)
c additional predictionSize 7 110381 356844 0.66 0.20 0.31 1588535 1342072 0.82 3.66 1.34 0.81 (nbgoodclauses,nbtotalgood,precisionGood,recallGood,FGood,nbbadclause,nbtotalbad,precisionBad,recallBad,FBad,accuracy)
c additional predictionSize 8 135109 356844 0.63 0.24 0.34 1563807 1342072 0.83 3.62 1.34 0.81 (nbgoodclauses,nbtotalgood,precisionGood,recallGood,FGood,nbbadclause,nbtotalbad,precisionBad,recallBad,FBad,accuracy)
c additional predictionSize 10 182915 356844 0.57 0.29 0.39 1516001 1342072 0.83 3.54 1.35 0.81 (nbgoodclauses,nbtotalgood,precisionGood,recallGood,FGood,nbbadclause,nbtotalbad,precisionBad,recallBad,FBad,accuracy)
c additional predictionSize 14 266940 356844 0.51 0.38 0.44 1431976 1342072 0.85 3.39 1.35 0.79 (nbgoodclauses,nbtotalgood,precisionGood,recallGood,FGood,nbbadclause,nbtotalbad,precisionBad,recallBad,FBad,accuracy)
c additional predictionSize 18 334743 356844 0.47 0.44 0.46 1364173 1342072 0.85 3.26 1.35 0.78 (nbgoodclauses,nbtotalgood,precisionGood,recallGood,FGood,nbbadclause,nbtotalbad,precisionBad,recallBad,FBad,accuracy)
c additional predictionSize 22 396134 356844 0.44 0.49 0.47 1302782 1342072 0.86 3.14 1.35 0.76 (nbgoodclauses,nbtotalgood,precisionGood,recallGood,FGood,nbbadclause,nbtotalbad,precisionBad,recallBad,FBad,accuracy)
c additional predictionSize 30 509539 356844 0.40 0.58 0.47 1189377 1342072 0.87 2.91 1.34 0.73 (nbgoodclauses,nbtotalgood,precisionGood,recallGood,FGood,nbbadclause,nbtotalbad,precisionBad,recallBad,FBad,accuracy)
c additional predictionSize 40 628015 356844 0.37 0.65 0.47 1070901 1342072 0.88 2.65 1.33 0.69 (nbgoodclauses,nbtotalgood,precisionGood,recallGood,FGood,nbbadclause,nbtotalbad,precisionBad,recallBad,FBad,accuracy)
c additional predictionAge 1 23349 356844 0.48 0.03 0.06 1675567 1342072 0.79 3.73 1.31 0.79 (nbgoodclauses,nbtotalgood,precisionGood,recallGood,FGood,nbbadclause,nbtotalbad,precisionBad,recallBad,FBad,accuracy)
c additional predictionAge 10 24421 356844 0.46 0.03 0.06 1674495 1342072 0.79 3.72 1.31 0.79 (nbgoodclauses,nbtotalgood,precisionGood,recallGood,FGood,nbbadclause,nbtotalbad,precisionBad,recallBad,FBad,accuracy)
c additional predictionAge 25 27918 356844 0.43 0.03 0.06 1670998 1342072 0.79 3.72 1.31 0.79 (nbgoodclauses,nbtotalgood,precisionGood,recallGood,FGood,nbbadclause,nbtotalbad,precisionBad,recallBad,FBad,accuracy)
c additional predictionAge 50 31390 356844 0.40 0.04 0.06 1667526 1342072 0.79 3.71 1.31 0.79 (nbgoodclauses,nbtotalgood,precisionGood,recallGood,FGood,nbbadclause,nbtotalbad,precisionBad,recallBad,FBad,accuracy)
c additional predictionAge 100 33967 356844 0.38 0.04 0.07 1664949 1342072 0.79 3.70 1.31 0.79 (nbgoodclauses,nbtotalgood,precisionGood,recallGood,FGood,nbbadclause,nbtotalbad,precisionBad,recallBad,FBad,accuracy)
c additional predictionAge 250 37472 356844 0.37 0.04 0.07 1661444 1342072 0.79 3.69 1.31 0.78 (nbgoodclauses,nbtotalgood,precisionGood,recallGood,FGood,nbbadclause,nbtotalbad,precisionBad,recallBad,FBad,accuracy)
c additional predictionAge 500 40222 356844 0.36 0.04 0.07 1658694 1342072 0.79 3.69 1.31 0.78 (nbgoodclauses,nbtotalgood,precisionGood,recallGood,FGood,nbbadclause,nbtotalbad,precisionBad,recallBad,FBad,accuracy)
c additional predictionAge 1000 42974 356844 0.35 0.04 0.08 1655942 1342072 0.79 3.68 1.31 0.78 (nbgoodclauses,nbtotalgood,precisionGood,recallGood,FGood,nbbadclause,nbtotalbad,precisionBad,recallBad,FBad,accuracy)
c additional predictionAge 2500 46808 356844 0.34 0.05 0.08 1652108 1342072 0.79 3.67 1.31 0.78 (nbgoodclauses,nbtotalgood,precisionGood,recallGood,FGood,nbbadclause,nbtotalbad,precisionBad,recallBad,FBad,accuracy)
c additional predictionAge 5000 50721 356844 0.34 0.05 0.08 1648195 1342072 0.79 3.67 1.31 0.78 (nbgoodclauses,nbtotalgood,precisionGood,recallGood,FGood,nbbadclause,nbtotalbad,precisionBad,recallBad,FBad,accuracy)
c additional predictionAge 10000 57459 356844 0.33 0.05 0.09 1641457 1342072 0.79 3.65 1.30 0.78 (nbgoodclauses,nbtotalgood,precisionGood,recallGood,FGood,nbbadclause,nbtotalbad,precisionBad,recallBad,FBad,accuracy)
c additional predictionAge 25000 77077 356844 0.30 0.07 0.11 1621839 1342072 0.79 3.61 1.30 0.77 (nbgoodclauses,nbtotalgood,precisionGood,recallGood,FGood,nbbadclause,nbtotalbad,precisionBad,recallBad,FBad,accuracy)
c additional predictionAge 50000 108954 356844 0.28 0.09 0.13 1589962 1342072 0.79 3.54 1.30 0.76 (nbgoodclauses,nbtotalgood,precisionGood,recallGood,FGood,nbbadclause,nbtotalbad,precisionBad,recallBad,FBad,accuracy)
c additional predictionAge 100000 170342 356844 0.26 0.12 0.17 1528574 1342072 0.80 3.41 1.29 0.74 (nbgoodclauses,nbtotalgood,precisionGood,recallGood,FGood,nbbadclause,nbtotalbad,precisionBad,recallBad,FBad,accuracy)
c additional predictionTicks 1 23556 356844 0.48 0.03 0.06 1675360 1342072 0.79 3.73 1.31 0.79 (nbgoodclauses,nbtotalgood,precisionGood,recallGood,FGood,nbbadclause,nbtotalbad,precisionBad,recallBad,FBad,accuracy)
c additional predictionTicks 10 66774 356844 0.38 0.07 0.12 1632142 1342072 0.80 3.64 1.31 0.78 (nbgoodclauses,nbtotalgood,precisionGood,recallGood,FGood,nbbadclause,nbtotalbad,precisionBad,recallBad,FBad,accuracy)
c additional predictionTicks 25 101907 356844 0.36 0.10 0.16 1597009 1342072 0.80 3.58 1.31 0.77 (nbgoodclauses,nbtotalgood,precisionGood,recallGood,FGood,nbbadclause,nbtotalbad,precisionBad,recallBad,FBad,accuracy)
c additional predictionTicks 50 163340 356844 0.33 0.15 0.21 1535576 1342072 0.80 3.45 1.30 0.76 (nbgoodclauses,nbtotalgood,precisionGood,recallGood,FGood,nbbadclause,nbtotalbad,precisionBad,recallBad,FBad,accuracy)
c additional predictionTicks 100 229423 356844 0.31 0.20 0.25 1469493 1342072 0.81 3.32 1.30 0.74 (nbgoodclauses,nbtotalgood,precisionGood,recallGood,FGood,nbbadclause,nbtotalbad,precisionBad,recallBad,FBad,accuracy)
c additional predictionTicks 250 342158 356844 0.30 0.28 0.29 1356758 1342072 0.81 3.09 1.29 0.71 (nbgoodclauses,nbtotalgood,precisionGood,recallGood,FGood,nbbadclause,nbtotalbad,precisionBad,recallBad,FBad,accuracy)
c additional predictionTicks 500 437671 356844 0.29 0.35 0.32 1261245 1342072 0.82 2.89 1.27 0.68 (nbgoodclauses,nbtotalgood,precisionGood,recallGood,FGood,nbbadclause,nbtotalbad,precisionBad,recallBad,FBad,accuracy)
c additional predictionTicks 1000 536456 356844 0.28 0.42 0.34 1162460 1342072 0.82 2.68 1.26 0.65 (nbgoodclauses,nbtotalgood,precisionGood,recallGood,FGood,nbbadclause,nbtotalbad,precisionBad,recallBad,FBad,accuracy)
c additional predictionTicks 2500 668804 356844 0.27 0.51 0.36 1030112 1342072 0.83 2.40 1.24 0.61 (nbgoodclauses,nbtotalgood,precisionGood,recallGood,FGood,nbbadclause,nbtotalbad,precisionBad,recallBad,FBad,accuracy)
c additional predictionTicks 5000 772659 356844 0.27 0.58 0.37 926257 1342072 0.84 2.18 1.21 0.58 (nbgoodclauses,nbtotalgood,precisionGood,recallGood,FGood,nbbadclause,nbtotalbad,precisionBad,recallBad,FBad,accuracy)
c additional predictionTicks 10000 891785 356844 0.26 0.65 0.37 807131 1342072 0.85 1.92 1.17 0.54 (nbgoodclauses,nbtotalgood,precisionGood,recallGood,FGood,nbbadclause,nbtotalbad,precisionBad,recallBad,FBad,accuracy)
c additional predictionTicks 25000 1100335 356844 0.25 0.76 0.37 598581 1342072 0.86 1.44 1.08 0.46 (nbgoodclauses,nbtotalgood,precisionGood,recallGood,FGood,nbbadclause,nbtotalbad,precisionBad,recallBad,FBad,accuracy)
c additional predictionTicks 50000 1298346 356844 0.23 0.85 0.37 400570 1342072 0.87 0.98 0.92 0.38 (nbgoodclauses,nbtotalgood,precisionGood,recallGood,FGood,nbbadclause,nbtotalbad,precisionBad,recallBad,FBad,accuracy)
c additional predictionTicks 100000 1494459 356844 0.22 0.93 0.36 204457 1342072 0.88 0.50 0.64 0.30 (nbgoodclauses,nbtotalgood,precisionGood,recallGood,FGood,nbbadclause,nbtotalbad,precisionBad,recallBad,FBad,accuracy)
c additional lifetimeGood 1 60 16625 47951 157645 518774 1011221 1338275 1460143 1592403 1698360 1698370 (0,1,5,10,25,50,75,90,95,99,100-1,100)
c additional lifetimeBad 1 20 11241 41734 158846 474420 904257 1237119 1375039 1541867 1699132 1699282 (0,1,5,10,25,50,75,90,95,99,100-1,100)
c additional lifetimeBadBad 6 10 10 10 30 560 82530 260594 411146 824480 1665386 1665396 (0,1,5,10,25,50,75,90,95,99,100-1,100)
c additional compositionBad 1 3 5 8 18 51 138 266 364 595 1894 1938 (0,1,5,10,25,50,75,90,95,99,100-1,100)
c additional compositionBadWithGood 0 0 1 3 7 24 70 149 212 363 1076 1357 (0,1,5,10,25,50,75,90,95,99,100-1,100)
c additional compositionBadWithBad 0 0 0 0 1 1 3 6 8 13 54 55 (0,1,5,10,25,50,75,90,95,99,100-1,100)
c additional compositionBadWithInitial 0 0 2 3 8 23 63 118 158 248 872 891 (0,1,5,10,25,50,75,90,95,99,100-1,100)
c additional compositionGood 1 2 3 5 8 18 72 207 315 557 1620 1628 (0,1,5,10,25,50,75,90,95,99,100-1,100)
c additional compositionGoodWithGood 0 0 1 1 3 10 43 128 198 359 991 1014 (0,1,5,10,25,50,75,90,95,99,100-1,100)
c additional compositionGoodWithInitial 0 0 1 2 4 8 28 79 120 213 798 798 (0,1,5,10,25,50,75,90,95,99,100-1,100)
c additional propagationGood total 229880583 percentiles 0 1 1 1 3 17 111 535 1593 17267 111476 112429 (0,1,5,10,25,50,75,90,95,99,100-1,100)
c additional propagationBad total 7694115 percentiles 1 1 1 1 1 2 3 9 20 76 3648 4244 (0,1,5,10,25,50,75,90,95,99,100-1,100)
c additional resolutionGood total 38928259 percentiles 0 1 1 1 2 8 38 137 327 2408 21446 21454 (0,1,5,10,25,50,75,90,95,99,100-1,100)
c additional resolutionBad total 3149233 percentiles 0 0 0 0 1 1 2 5 8 25 449 490 (0,1,5,10,25,50,75,90,95,99,100-1,100)
No graph is dumped
c result of core 5 is UNSAT
c One thread has finished
c Core 5 said it finished
c result of core 1 is UNKNOWN
c result of core 0 is UNKNOWN
c result of core 3 is UNKNOWN
c result of core 7 is UNKNOWN
c result of core 4 is UNKNOWN
c result of core 8 is UNKNOWN
c result of core 6 is UNKNOWN
c result of core 2 is UNKNOWN
c result of core 9 is UNKNOWN
c restarts              : 1404 (121 conflicts in avg)
c blocked restarts      : 931 (multiple: 360) 
c last block at restart : 1404
c nb ReduceDB           : 10
c nb removed Clauses    : 147868
c nb learnts DL2        : 1480
c nb learnts size 2     : 560
c nb learnts size 1     : 9
c conflicts             : 169892         (339 /sec)
c decisions             : 575296         (0.00 % random) (1149 /sec)
c propagations          : 37686853       (75267 /sec)
c conflict literals     : 15804961       (17.00 % deleted)
c nb reduced Clauses    : 929
c CPU time              : 500.708 s

s INDETERMINATE
