c
c This is glucose-proof 1.0 based on  2.1 --  (thanks to MiniSAT)
c
c EXPERIMENTAL EASY PARALLEL (ROUND ROBIN) VERSION
c
c WARNING: for repeatability, setting FPU to use double precision
c Parallel version 4 solvers created.
c ========================================[ Problem Statistics ]===========================================
c |                                                                                                       |
c |  Number of variables:          6706                                                                   |
c |  Number of clauses:           35263                                                                   |
c |  Parse time:                   0.05 s                                                                 |
c |                                                                                                       |
c ========================================[ MAGIC CONSTANTS ]==============================================
c | Constants are supposed to work well together :-)                                                      |
c | however, if you find better choices, please let us known...                                           |
c |-------------------------------------------------------------------------------------------------------|
c |                                |                                |                                     |
c | - Restarts:                    | - Reduce Clause DB:            | - Minimize Asserting:               |
c |   * LBD Queue    :     50      |   * First     :   4000         |    * size <  30                     |
c |   * Trail  Queue :   5000      |   * Inc       :    300         |    * lbd  <   6                     |
c |   * K            :   0.80      |   * Special   :   1000         |                                     |
c |   * R            :   1.40      |   * Protected :  (lbd)< 30     |                                     |
c |                                |                                |                                     |
c ==================================[ Search Statistics (every  10000 conflicts) ]=========================
c |                                                                                                       |
c |          RESTARTS           |          ORIGINAL         |              LEARNT              | Progress |
c |       NB   Blocked  Avg Cfc |    Vars  Clauses Literals |   Red   Learnts    LBD2  Removed |          |
c =========================================================================================================
c |       95         0      105 |    6700    35263   142114 |     1     7935      760     3343 |  0.089 % |
c |      167        80      119 |    6699    35263   142114 |     3     6972     1137    18473 |  0.104 % |
c |      274       127      109 |    6699    35263   142114 |     3    16972     1415    18473 |  0.104 % |
c |      330       184      121 |    6698    35263   142114 |     4    17735     1595    29191 |  0.119 % |
c |      444       239      112 |    6698    35263   142114 |     5    15907     1704    42111 |  0.119 % |
c |      551       281      108 |    6695    35263   142114 |     5    25694     1778    42111 |  0.164 % |
c |      649       339      107 |    6693    35263   142114 |     6    21260     1858    57102 |  0.194 % |
c |      764       380      104 |    6693    35263   142114 |     6    31260     1947    57102 |  0.194 % |
c |      872       432      103 |    6693    35263   142114 |     7    24347     2009    74647 |  0.194 % |
c |      994       469      100 |    6693    35263   142114 |     7    34347     2080    74647 |  0.194 % |
c |     1064       526      103 |    6693    35263   142114 |     8    24786     2128    94742 |  0.194 % |
c |     1143       594      104 |    6692    35263   142114 |     8    34580     2177    94742 |  0.209 % |
c |     1163       676      111 |    6692    35263   142114 |     9    22502     2217   117242 |  0.209 % |
c |     1287       728      108 |    6692    35263   142114 |     9    32502     2254   117242 |  0.209 % |
c |     1414       769      106 |    6692    35263   142114 |     9    42502     2278   117242 |  0.209 % |
c |     1527       820      104 |    6692    35263   142114 |    10    27753     2325   142383 |  0.210 % |
c |     1636       877      103 |    6692    35263   142114 |    10    37753     2350   142383 |  0.209 % |
c |     1735       942      103 |    6691    35263   142114 |    10    47728     2377   142383 |  0.224 % |
c |     1825      1016      104 |    6691    35263   142114 |    11    30373     2404   170093 |  0.224 % |
c |     1892      1095      105 |    6688    35263   142114 |    11    40371     2416   170093 |  0.268 % |
c |     1993      1162      105 |    6688    35263   142114 |    11    50371     2436   170093 |  0.268 % |
c |     2098      1201      104 |    6687    35263   142114 |    12    29636     2457   199576 |  0.283 % |
c |     2164      1280      106 |    6687    35263   142114 |    12    39636     2473   199576 |  0.283 % |
c |     2256      1347      106 |    6687    35263   142114 |    12    49636     2488   199576 |  0.283 % |
c |     2369      1387      105 |    6687    35263   142114 |    12    59636     2506   199576 |  0.283 % |
c |     2409      1466      107 |    6686    35263   142114 |    13    37115     2527   231679 |  0.298 % |
c |     2475      1523      109 |    6686    35263   142114 |    13    47115     2539   231679 |  0.298 % |
c |     2581      1582      108 |    6685    35263   142114 |    13    57115     2565   231679 |  0.313 % |
c |     2673      1633      108 |    6682    35263   142114 |    13    67093     2579   231679 |  0.358 % |
c |     2744      1707      109 |    6678    35263   142114 |    14    42282     2593   266740 |  0.418 % |
c |     2777      1787      111 |    6678    35263   142114 |    14    52282     2602   266740 |  0.418 % |
c |     2777      1827      115 |    6678    35263   142114 |    14    62282     2607   266740 |  0.418 % |
c |     2891      1865      114 |    6678    35263   142114 |    14    72282     2622   266740 |  0.418 % |
c |     2967      1929      114 |    6671    35263   142114 |    15    44469     2640   304503 |  0.522 % |
c |     3015      2026      116 |    6667    35263   142114 |    15    54468     2682   304503 |  0.582 % |
c |     3028      2086      118 |    6666    35263   142114 |    15    64467     2705   304503 |  0.597 % |
c |     3038      2161      121 |    6665    35263   142114 |    15    74466     2718   304503 |  0.611 % |
c |     3084      2232      123 |    6665    35263   142114 |    16    44258     2735   344907 |  0.611 % |
c |     3141      2334      124 |    6665    35263   142114 |    16    54258     2746   344907 |  0.611 % |
c |     3220      2357      124 |    6665    35263   142114 |    16    62295     2756   344907 |  0.611 % |
c |     3298      2444      124 |    6643    35263   142114 |    16    72294     2780   344907 |  0.939 % |
c |     3370      2502      124 |    6637    35263   142114 |    16    82294     2789   344907 |  1.029 % |
c |     3433      2560      125 |    6636    35263   142114 |    17    49482     2795   387165 |  1.044 % |
c |     3457      2617      127 |    6636    35263   142114 |    17    59482     2802   387165 |  1.044 % |
c |     3583      2678      125 |    6635    35263   142114 |    17    69056     2811   387165 |  1.059 % |
c |     3639      2780      126 |    6633    35263   142114 |    17    79056     2833   387165 |  1.089 % |
c |     3688      2853      127 |    6620    35263   142114 |    18    44650     2853   431752 |  1.282 % |
c |     3791      2899      126 |    6620    35263   142114 |    18    53297     2875   431752 |  1.282 % |
c |     3840      2975      127 |    6604    35263   142114 |    18    63297     2889   431752 |  1.522 % |
c |     3928      3027      127 |    6599    35263   142114 |    18    73141     2908   431752 |  1.596 % |
c |     3982      3114      128 |    6594    35263   142114 |    18    83140     2927   431752 |  1.672 % |
c |     4028      3186      129 |    6592    35263   142114 |    18    93140     2942   431752 |  1.700 % |
c |     4074      3236      130 |    6589    35263   142114 |    19    56299     2952   478776 |  1.745 % |
c |     4110      3311      131 |    6584    35263   142114 |    19    65536     2960   478776 |  1.819 % |
c |     4139      3397      132 |    6582    35263   142114 |    19    75535     2990   478776 |  1.849 % |
c |     4181      3448      133 |    6562    35263   142114 |    19    83702     2998   478776 |  2.147 % |
c |     4227      3521      134 |    6550    35263   142114 |    19    93701     3009   478776 |  2.326 % |
c |     4296      3593      135 |    6537    35263   142114 |    20    54877     3013   527832 |  2.520 % |
c |     4334      3658      136 |    6536    35263   142114 |    20    64877     3019   527832 |  2.535 % |
c |     4396      3730      136 |    6534    35263   142114 |    20    74877     3040   527832 |  2.565 % |
c |     4479      3799      136 |    6534    35263   142114 |    20    84877     3050   527832 |  2.567 % |
c |     4502      3861      137 |    6532    35263   142114 |    20    94876     3070   527832 |  2.595 % |
c |     4544      3935      138 |    6531    35263   142114 |    20   103040     3087   527832 |  2.610 % |
c |     4548      4010      140 |    6528    35263   142114 |    21    61542     3091   579547 |  2.654 % |
c |     4624      4044      140 |    6517    35263   142114 |    21    71542     3096   579547 |  2.819 % |
c |     4664      4131      141 |    6495    35263   142114 |    21    81538     3111   579547 |  3.146 % |
c |     4714      4209      142 |    6489    35263   142114 |    21    91538     3122   579547 |  3.236 % |
c |     4786      4279      142 |    6464    35263   142114 |    21   101538     3137   579547 |  3.609 % |
c |     4820      4353      143 |    6280    35263   142114 |    22    56473     3149   634818 |  6.353 % |
c |     4841      4411      144 |    6263    35263   142114 |    22    66472     3161   634818 |  6.606 % |
c Contradiction found while importing a unary clause clauses.
c empty clause found by core 2 at conflict 701727
*
c checking the resolution graph...OK
c All useful bySize 829703 clauses, percentiles 0 2 3 8 47 189 414 621 738 926 1297 1298 (0,1,5,10,25,50,75,90,95,99,100-1,100)
c All useless bySize 2012748 clauses, percentiles 0 9 33 65 165 345 576 807 922 1091 1491 1503 (0,1,5,10,25,50,75,90,95,99,100-1,100)
c ProofOnly useful bySize 796326 clauses, percentiles 0 3 6 13 60 204 425 629 744 929 1297 1298 (0,1,5,10,25,50,75,90,95,99,100-1,100)
c ProofOnly useless bySize 2010581 clauses, percentiles 1 9 34 65 166 346 576 807 922 1091 1491 1503 (0,1,5,10,25,50,75,90,95,99,100-1,100)
c All useful byFinalLBD 829703 clauses, percentiles 0 1 2 2 6 22 45 72 109 178 297 298 (0,1,5,10,25,50,75,90,95,99,100-1,100)
c All useless byFinalLBD 2012748 clauses, percentiles 0 5 10 16 31 54 86 139 171 222 345 345 (0,1,5,10,25,50,75,90,95,99,100-1,100)
c ProofOnly useful byFinalLBD 796326 clauses, percentiles 0 1 2 2 7 23 47 74 112 179 297 298 (0,1,5,10,25,50,75,90,95,99,100-1,100)
c ProofOnly useless byFinalLBD 2010581 clauses, percentiles 1 5 11 16 31 54 87 139 171 222 345 345 (0,1,5,10,25,50,75,90,95,99,100-1,100)
c All useful byInitialLBD 829703 clauses, percentiles 0 2 3 4 13 29 53 84 125 187 297 298 (0,1,5,10,25,50,75,90,95,99,100-1,100)
c All useless byInitialLBD 2012748 clauses, percentiles 0 5 12 19 34 57 90 143 175 225 345 347 (0,1,5,10,25,50,75,90,95,99,100-1,100)
c ProofOnly useful byInitialLBD 796326 clauses, percentiles 0 2 4 6 14 30 54 86 127 188 297 298 (0,1,5,10,25,50,75,90,95,99,100-1,100)
c ProofOnly useless byInitialLBD 2010581 clauses, percentiles 1 5 12 19 34 57 90 143 175 225 345 347 (0,1,5,10,25,50,75,90,95,99,100-1,100)
c Literals ProofOnly useful 213799321
c Literals ProofOnly useless 791197770
c additional windowsGood 1 1 1 1 1 1 2 2 3 4 80 121 (0,1,5,10,25,50,75,90,95,99,100-1,100)
c additional windowsBad 1 1 1 1 1 2 3 7 12 31 226 233 (0,1,5,10,25,50,75,90,95,99,100-1,100)
c additional 1WindowNoDecision 385880 229218 0.59 166424 95055 0.57 (nbWindowsGood,nbWindowsNoDecisionGood,nbWindowsBad,nbWindowsNoDecisionBad
c additional topclausessize all (10%,5%,1%,top) 762.64 850.95 990.12 1298
c additional topclausessize proofonly (10%,5%,1%,top) 765.50 853.24 991.43 1298
c additional topclausesinitialLBD all (10%,5%,1%,top) 703.65 803.44 963.43 1298
c additional topclausesinitialLBD proofonly (10%,5%,1%,top) 656.18 765.50 941.78 1298
c additional topclausesfinalLBD all (10%,5%,1%,top) 613.68 732.44 922.47 1298
c additional topclausesfinalLBD proofonly (10%,5%,1%,top) 577.53 704.75 906.14 1298
c additional predictionInitialLBD 1 100 796326 0.99 0.00 0.00 2806807 2010581 0.72 2.52 1.12 0.72 (nbgoodclauses,nbtotalgood,precisionGood,recallGood,FGood,nbbadclause,nbtotalbad,precisionBad,recallBad,FBad,accuracy)
c additional predictionInitialLBD 2 12751 796326 0.93 0.01 0.03 2794156 2010581 0.72 2.52 1.12 0.72 (nbgoodclauses,nbtotalgood,precisionGood,recallGood,FGood,nbbadclause,nbtotalbad,precisionBad,recallBad,FBad,accuracy)
c additional predictionInitialLBD 3 40027 796326 0.90 0.05 0.09 2766880 2010581 0.73 2.52 1.13 0.73 (nbgoodclauses,nbtotalgood,precisionGood,recallGood,FGood,nbbadclause,nbtotalbad,precisionBad,recallBad,FBad,accuracy)
c additional predictionInitialLBD 4 68982 796326 0.83 0.07 0.13 2737925 2010581 0.73 2.51 1.13 0.73 (nbgoodclauses,nbtotalgood,precisionGood,recallGood,FGood,nbbadclause,nbtotalbad,precisionBad,recallBad,FBad,accuracy)
c additional predictionInitialLBD 5 95772 796326 0.78 0.09 0.17 2711135 2010581 0.73 2.50 1.13 0.74 (nbgoodclauses,nbtotalgood,precisionGood,recallGood,FGood,nbbadclause,nbtotalbad,precisionBad,recallBad,FBad,accuracy)
c additional predictionInitialLBD 6 120555 796326 0.74 0.11 0.20 2686352 2010581 0.74 2.49 1.14 0.74 (nbgoodclauses,nbtotalgood,precisionGood,recallGood,FGood,nbbadclause,nbtotalbad,precisionBad,recallBad,FBad,accuracy)
c additional predictionInitialLBD 7 146350 796326 0.71 0.13 0.22 2660557 2010581 0.74 2.47 1.14 0.74 (nbgoodclauses,nbtotalgood,precisionGood,recallGood,FGood,nbbadclause,nbtotalbad,precisionBad,recallBad,FBad,accuracy)
c additional predictionInitialLBD 8 172325 796326 0.69 0.15 0.25 2634582 2010581 0.74 2.46 1.14 0.74 (nbgoodclauses,nbtotalgood,precisionGood,recallGood,FGood,nbbadclause,nbtotalbad,precisionBad,recallBad,FBad,accuracy)
c additional predictionInitialLBD 10 224789 796326 0.65 0.18 0.29 2582118 2010581 0.75 2.43 1.14 0.74 (nbgoodclauses,nbtotalgood,precisionGood,recallGood,FGood,nbbadclause,nbtotalbad,precisionBad,recallBad,FBad,accuracy)
c additional predictionInitialLBD 14 334437 796326 0.60 0.25 0.35 2472470 2010581 0.76 2.35 1.15 0.74 (nbgoodclauses,nbtotalgood,precisionGood,recallGood,FGood,nbbadclause,nbtotalbad,precisionBad,recallBad,FBad,accuracy)
c additional predictionInitialLBD 18 450368 796326 0.56 0.32 0.40 2356539 2010581 0.77 2.28 1.15 0.74 (nbgoodclauses,nbtotalgood,precisionGood,recallGood,FGood,nbbadclause,nbtotalbad,precisionBad,recallBad,FBad,accuracy)
c additional predictionInitialLBD 22 571284 796326 0.53 0.38 0.44 2235623 2010581 0.78 2.19 1.15 0.73 (nbgoodclauses,nbtotalgood,precisionGood,recallGood,FGood,nbbadclause,nbtotalbad,precisionBad,recallBad,FBad,accuracy)
c additional predictionInitialLBD 30 820473 796326 0.49 0.50 0.49 1986434 2010581 0.80 1.99 1.14 0.71 (nbgoodclauses,nbtotalgood,precisionGood,recallGood,FGood,nbbadclause,nbtotalbad,precisionBad,recallBad,FBad,accuracy)
c additional predictionInitialLBD 40 1136844 796326 0.44 0.62 0.51 1670063 2010581 0.82 1.72 1.11 0.66 (nbgoodclauses,nbtotalgood,precisionGood,recallGood,FGood,nbbadclause,nbtotalbad,precisionBad,recallBad,FBad,accuracy)
c additional predictionFinallLBD 1 36155 796326 0.96 0.04 0.08 2770752 2010581 0.73 1.00 0.84 0.73 (nbgoodclauses,nbtotalgood,precisionGood,recallGood,FGood,nbbadclause,nbtotalbad,precisionBad,recallBad,FBad,accuracy)
c additional predictionFinallLBD 2 88057 796326 0.95 0.11 0.19 2718850 2010581 0.74 1.00 0.85 0.74 (nbgoodclauses,nbtotalgood,precisionGood,recallGood,FGood,nbbadclause,nbtotalbad,precisionBad,recallBad,FBad,accuracy)
c additional predictionFinallLBD 3 125822 796326 0.93 0.15 0.25 2681085 2010581 0.75 1.00 0.85 0.75 (nbgoodclauses,nbtotalgood,precisionGood,recallGood,FGood,nbbadclause,nbtotalbad,precisionBad,recallBad,FBad,accuracy)
c additional predictionFinallLBD 4 162181 796326 0.89 0.18 0.30 2644726 2010581 0.75 0.99 0.86 0.76 (nbgoodclauses,nbtotalgood,precisionGood,recallGood,FGood,nbbadclause,nbtotalbad,precisionBad,recallBad,FBad,accuracy)
c additional predictionFinallLBD 5 196036 796326 0.85 0.21 0.33 2610871 2010581 0.76 0.99 0.86 0.76 (nbgoodclauses,nbtotalgood,precisionGood,recallGood,FGood,nbbadclause,nbtotalbad,precisionBad,recallBad,FBad,accuracy)
c additional predictionFinallLBD 6 226389 796326 0.81 0.23 0.36 2580518 2010581 0.76 0.98 0.86 0.77 (nbgoodclauses,nbtotalgood,precisionGood,recallGood,FGood,nbbadclause,nbtotalbad,precisionBad,recallBad,FBad,accuracy)
c additional predictionFinallLBD 7 255209 796326 0.78 0.25 0.38 2551698 2010581 0.77 0.97 0.86 0.77 (nbgoodclauses,nbtotalgood,precisionGood,recallGood,FGood,nbbadclause,nbtotalbad,precisionBad,recallBad,FBad,accuracy)
c additional predictionFinallLBD 8 283177 796326 0.76 0.27 0.40 2523730 2010581 0.77 0.97 0.86 0.77 (nbgoodclauses,nbtotalgood,precisionGood,recallGood,FGood,nbbadclause,nbtotalbad,precisionBad,recallBad,FBad,accuracy)
c additional predictionFinallLBD 10 342925 796326 0.71 0.31 0.43 2463982 2010581 0.78 0.95 0.85 0.77 (nbgoodclauses,nbtotalgood,precisionGood,recallGood,FGood,nbbadclause,nbtotalbad,precisionBad,recallBad,FBad,accuracy)
c additional predictionFinallLBD 14 463501 796326 0.64 0.37 0.47 2343406 2010581 0.79 0.92 0.85 0.76 (nbgoodclauses,nbtotalgood,precisionGood,recallGood,FGood,nbbadclause,nbtotalbad,precisionBad,recallBad,FBad,accuracy)
c additional predictionFinallLBD 18 583816 796326 0.59 0.43 0.50 2223091 2010581 0.80 0.88 0.84 0.75 (nbgoodclauses,nbtotalgood,precisionGood,recallGood,FGood,nbbadclause,nbtotalbad,precisionBad,recallBad,FBad,accuracy)
c additional predictionFinallLBD 22 704311 796326 0.55 0.49 0.52 2102596 2010581 0.81 0.84 0.82 0.74 (nbgoodclauses,nbtotalgood,precisionGood,recallGood,FGood,nbbadclause,nbtotalbad,precisionBad,recallBad,FBad,accuracy)
c additional predictionFinallLBD 30 950356 796326 0.49 0.59 0.54 1856551 2010581 0.82 0.76 0.79 0.71 (nbgoodclauses,nbtotalgood,precisionGood,recallGood,FGood,nbbadclause,nbtotalbad,precisionBad,recallBad,FBad,accuracy)
c additional predictionFinallLBD 40 1260597 796326 0.44 0.70 0.54 1546310 2010581 0.84 0.65 0.73 0.66 (nbgoodclauses,nbtotalgood,precisionGood,recallGood,FGood,nbbadclause,nbtotalbad,precisionBad,recallBad,FBad,accuracy)
c additional predictionSize 1 100 796326 0.99 0.00 0.00 2806807 2010581 0.72 2.52 1.12 0.72 (nbgoodclauses,nbtotalgood,precisionGood,recallGood,FGood,nbbadclause,nbtotalbad,precisionBad,recallBad,FBad,accuracy)
c additional predictionSize 2 5310 796326 1.00 0.01 0.01 2801597 2010581 0.72 2.52 1.12 0.72 (nbgoodclauses,nbtotalgood,precisionGood,recallGood,FGood,nbbadclause,nbtotalbad,precisionBad,recallBad,FBad,accuracy)
c additional predictionSize 3 17975 796326 0.94 0.02 0.04 2788932 2010581 0.72 2.52 1.12 0.72 (nbgoodclauses,nbtotalgood,precisionGood,recallGood,FGood,nbbadclause,nbtotalbad,precisionBad,recallBad,FBad,accuracy)
c additional predictionSize 4 33561 796326 0.89 0.04 0.07 2773346 2010581 0.72 2.52 1.12 0.73 (nbgoodclauses,nbtotalgood,precisionGood,recallGood,FGood,nbbadclause,nbtotalbad,precisionBad,recallBad,FBad,accuracy)
c additional predictionSize 5 46961 796326 0.84 0.05 0.09 2759946 2010581 0.73 2.52 1.13 0.73 (nbgoodclauses,nbtotalgood,precisionGood,recallGood,FGood,nbbadclause,nbtotalbad,precisionBad,recallBad,FBad,accuracy)
c additional predictionSize 6 57825 796326 0.81 0.06 0.11 2749082 2010581 0.73 2.51 1.13 0.73 (nbgoodclauses,nbtotalgood,precisionGood,recallGood,FGood,nbbadclause,nbtotalbad,precisionBad,recallBad,FBad,accuracy)
c additional predictionSize 7 66716 796326 0.79 0.07 0.12 2740191 2010581 0.73 2.51 1.13 0.73 (nbgoodclauses,nbtotalgood,precisionGood,recallGood,FGood,nbbadclause,nbtotalbad,precisionBad,recallBad,FBad,accuracy)
c additional predictionSize 8 75160 796326 0.77 0.07 0.13 2731747 2010581 0.73 2.50 1.13 0.73 (nbgoodclauses,nbtotalgood,precisionGood,recallGood,FGood,nbbadclause,nbtotalbad,precisionBad,recallBad,FBad,accuracy)
c additional predictionSize 10 91037 796326 0.74 0.09 0.15 2715870 2010581 0.73 2.50 1.13 0.73 (nbgoodclauses,nbtotalgood,precisionGood,recallGood,FGood,nbbadclause,nbtotalbad,precisionBad,recallBad,FBad,accuracy)
c additional predictionSize 14 119993 796326 0.70 0.11 0.18 2686914 2010581 0.73 2.48 1.13 0.73 (nbgoodclauses,nbtotalgood,precisionGood,recallGood,FGood,nbbadclause,nbtotalbad,precisionBad,recallBad,FBad,accuracy)
c additional predictionSize 18 147474 796326 0.67 0.12 0.21 2659433 2010581 0.74 2.46 1.14 0.73 (nbgoodclauses,nbtotalgood,precisionGood,recallGood,FGood,nbbadclause,nbtotalbad,precisionBad,recallBad,FBad,accuracy)
c additional predictionSize 22 175191 796326 0.64 0.14 0.23 2631716 2010581 0.74 2.45 1.14 0.73 (nbgoodclauses,nbtotalgood,precisionGood,recallGood,FGood,nbbadclause,nbtotalbad,precisionBad,recallBad,FBad,accuracy)
c additional predictionSize 30 225195 796326 0.60 0.17 0.27 2581712 2010581 0.74 2.41 1.14 0.73 (nbgoodclauses,nbtotalgood,precisionGood,recallGood,FGood,nbbadclause,nbtotalbad,precisionBad,recallBad,FBad,accuracy)
c additional predictionSize 40 281570 796326 0.57 0.20 0.30 2525337 2010581 0.75 2.37 1.14 0.73 (nbgoodclauses,nbtotalgood,precisionGood,recallGood,FGood,nbbadclause,nbtotalbad,precisionBad,recallBad,FBad,accuracy)
c additional predictionAge 1 25021 796326 0.59 0.02 0.04 2781886 2010581 0.72 2.51 1.12 0.72 (nbgoodclauses,nbtotalgood,precisionGood,recallGood,FGood,nbbadclause,nbtotalbad,precisionBad,recallBad,FBad,accuracy)
c additional predictionAge 10 27643 796326 0.56 0.02 0.04 2779264 2010581 0.72 2.51 1.12 0.72 (nbgoodclauses,nbtotalgood,precisionGood,recallGood,FGood,nbbadclause,nbtotalbad,precisionBad,recallBad,FBad,accuracy)
c additional predictionAge 25 30038 796326 0.53 0.02 0.04 2776869 2010581 0.72 2.51 1.12 0.72 (nbgoodclauses,nbtotalgood,precisionGood,recallGood,FGood,nbbadclause,nbtotalbad,precisionBad,recallBad,FBad,accuracy)
c additional predictionAge 50 31756 796326 0.51 0.02 0.04 2775151 2010581 0.72 2.51 1.12 0.72 (nbgoodclauses,nbtotalgood,precisionGood,recallGood,FGood,nbbadclause,nbtotalbad,precisionBad,recallBad,FBad,accuracy)
c additional predictionAge 100 33726 796326 0.49 0.02 0.04 2773181 2010581 0.72 2.50 1.12 0.72 (nbgoodclauses,nbtotalgood,precisionGood,recallGood,FGood,nbbadclause,nbtotalbad,precisionBad,recallBad,FBad,accuracy)
c additional predictionAge 250 35916 796326 0.48 0.02 0.04 2770991 2010581 0.72 2.50 1.12 0.72 (nbgoodclauses,nbtotalgood,precisionGood,recallGood,FGood,nbbadclause,nbtotalbad,precisionBad,recallBad,FBad,accuracy)
c additional predictionAge 500 37447 796326 0.47 0.02 0.04 2769460 2010581 0.72 2.50 1.12 0.72 (nbgoodclauses,nbtotalgood,precisionGood,recallGood,FGood,nbbadclause,nbtotalbad,precisionBad,recallBad,FBad,accuracy)
c additional predictionAge 1000 39075 796326 0.47 0.02 0.04 2767832 2010581 0.72 2.50 1.12 0.72 (nbgoodclauses,nbtotalgood,precisionGood,recallGood,FGood,nbbadclause,nbtotalbad,precisionBad,recallBad,FBad,accuracy)
c additional predictionAge 2500 41927 796326 0.46 0.02 0.05 2764980 2010581 0.72 2.50 1.12 0.72 (nbgoodclauses,nbtotalgood,precisionGood,recallGood,FGood,nbbadclause,nbtotalbad,precisionBad,recallBad,FBad,accuracy)
c additional predictionAge 5000 45698 796326 0.45 0.03 0.05 2761209 2010581 0.72 2.49 1.12 0.71 (nbgoodclauses,nbtotalgood,precisionGood,recallGood,FGood,nbbadclause,nbtotalbad,precisionBad,recallBad,FBad,accuracy)
c additional predictionAge 10000 52400 796326 0.42 0.03 0.05 2754507 2010581 0.72 2.49 1.12 0.71 (nbgoodclauses,nbtotalgood,precisionGood,recallGood,FGood,nbbadclause,nbtotalbad,precisionBad,recallBad,FBad,accuracy)
c additional predictionAge 25000 70554 796326 0.39 0.03 0.06 2736353 2010581 0.72 2.47 1.11 0.71 (nbgoodclauses,nbtotalgood,precisionGood,recallGood,FGood,nbbadclause,nbtotalbad,precisionBad,recallBad,FBad,accuracy)
c additional predictionAge 50000 98854 796326 0.34 0.04 0.08 2708053 2010581 0.72 2.44 1.11 0.71 (nbgoodclauses,nbtotalgood,precisionGood,recallGood,FGood,nbbadclause,nbtotalbad,precisionBad,recallBad,FBad,accuracy)
c additional predictionAge 100000 155576 796326 0.30 0.06 0.10 2651331 2010581 0.72 2.39 1.10 0.69 (nbgoodclauses,nbtotalgood,precisionGood,recallGood,FGood,nbbadclause,nbtotalbad,precisionBad,recallBad,FBad,accuracy)
c additional predictionTicks 1 25625 796326 0.60 0.02 0.04 2781282 2010581 0.72 2.51 1.12 0.72 (nbgoodclauses,nbtotalgood,precisionGood,recallGood,FGood,nbbadclause,nbtotalbad,precisionBad,recallBad,FBad,accuracy)
c additional predictionTicks 10 96280 796326 0.41 0.05 0.09 2710627 2010581 0.72 2.45 1.11 0.71 (nbgoodclauses,nbtotalgood,precisionGood,recallGood,FGood,nbbadclause,nbtotalbad,precisionBad,recallBad,FBad,accuracy)
c additional predictionTicks 25 166562 796326 0.38 0.08 0.13 2640345 2010581 0.72 2.39 1.11 0.70 (nbgoodclauses,nbtotalgood,precisionGood,recallGood,FGood,nbbadclause,nbtotalbad,precisionBad,recallBad,FBad,accuracy)
c additional predictionTicks 50 235121 796326 0.36 0.11 0.16 2571786 2010581 0.72 2.34 1.10 0.69 (nbgoodclauses,nbtotalgood,precisionGood,recallGood,FGood,nbbadclause,nbtotalbad,precisionBad,recallBad,FBad,accuracy)
c additional predictionTicks 100 330355 796326 0.35 0.14 0.20 2476552 2010581 0.72 2.25 1.10 0.68 (nbgoodclauses,nbtotalgood,precisionGood,recallGood,FGood,nbbadclause,nbtotalbad,precisionBad,recallBad,FBad,accuracy)
c additional predictionTicks 250 472771 796326 0.34 0.20 0.25 2334136 2010581 0.73 2.13 1.09 0.66 (nbgoodclauses,nbtotalgood,precisionGood,recallGood,FGood,nbbadclause,nbtotalbad,precisionBad,recallBad,FBad,accuracy)
c additional predictionTicks 500 603029 796326 0.34 0.26 0.29 2203878 2010581 0.73 2.02 1.07 0.65 (nbgoodclauses,nbtotalgood,precisionGood,recallGood,FGood,nbbadclause,nbtotalbad,precisionBad,recallBad,FBad,accuracy)
c additional predictionTicks 1000 754730 796326 0.34 0.32 0.33 2052177 2010581 0.74 1.90 1.06 0.63 (nbgoodclauses,nbtotalgood,precisionGood,recallGood,FGood,nbbadclause,nbtotalbad,precisionBad,recallBad,FBad,accuracy)
c additional predictionTicks 2500 988546 796326 0.33 0.41 0.37 1818361 2010581 0.74 1.69 1.03 0.60 (nbgoodclauses,nbtotalgood,precisionGood,recallGood,FGood,nbbadclause,nbtotalbad,precisionBad,recallBad,FBad,accuracy)
c additional predictionTicks 5000 1189329 796326 0.32 0.49 0.39 1617578 2010581 0.75 1.52 1.00 0.57 (nbgoodclauses,nbtotalgood,precisionGood,recallGood,FGood,nbbadclause,nbtotalbad,precisionBad,recallBad,FBad,accuracy)
c additional predictionTicks 10000 1422317 796326 0.32 0.56 0.40 1384590 2010581 0.75 1.30 0.95 0.53 (nbgoodclauses,nbtotalgood,precisionGood,recallGood,FGood,nbbadclause,nbtotalbad,precisionBad,recallBad,FBad,accuracy)
c additional predictionTicks 25000 1815679 796326 0.30 0.69 0.42 991228 2010581 0.75 0.93 0.83 0.46 (nbgoodclauses,nbtotalgood,precisionGood,recallGood,FGood,nbbadclause,nbtotalbad,precisionBad,recallBad,FBad,accuracy)
c additional predictionTicks 50000 2172155 796326 0.29 0.79 0.43 634752 2010581 0.74 0.59 0.66 0.39 (nbgoodclauses,nbtotalgood,precisionGood,recallGood,FGood,nbbadclause,nbtotalbad,precisionBad,recallBad,FBad,accuracy)
c additional predictionTicks 100000 2489700 796326 0.29 0.89 0.43 317207 2010581 0.73 0.29 0.42 0.34 (nbgoodclauses,nbtotalgood,precisionGood,recallGood,FGood,nbbadclause,nbtotalbad,precisionBad,recallBad,FBad,accuracy)
c additional lifetimeGood 2 426 77772 203858 623056 1422605 2099526 2447487 2575289 2707843 2806953 2807169 (0,1,5,10,25,50,75,90,95,99,100-1,100)
c additional lifetimeBad 1 48 49685 143772 472962 1136226 1844404 2339570 2520104 2692266 2807127 2807140 (0,1,5,10,25,50,75,90,95,99,100-1,100)
c additional lifetimeBadBad 2 4 4 4 8 96 14394 83616 148555 459307 2773034 2779960 (0,1,5,10,25,50,75,90,95,99,100-1,100)
c additional compositionBad 1 4 8 14 36 111 263 462 611 969 2422 2424 (0,1,5,10,25,50,75,90,95,99,100-1,100)
c additional compositionBadWithGood 0 0 3 5 17 56 145 272 372 623 1660 1688 (0,1,5,10,25,50,75,90,95,99,100-1,100)
c additional compositionBadWithBad 0 0 0 0 1 1 3 5 7 11 51 52 (0,1,5,10,25,50,75,90,95,99,100-1,100)
c additional compositionBadWithInitial 0 1 3 6 16 50 115 193 249 369 1444 1569 (0,1,5,10,25,50,75,90,95,99,100-1,100)
c additional compositionGood 1 3 5 7 22 95 251 473 640 1047 2512 2526 (0,1,5,10,25,50,75,90,95,99,100-1,100)
c additional compositionGoodWithGood 0 0 2 3 13 58 149 290 406 702 1760 1762 (0,1,5,10,25,50,75,90,95,99,100-1,100)
c additional compositionGoodWithInitial 0 0 2 3 8 34 100 186 246 370 1237 1327 (0,1,5,10,25,50,75,90,95,99,100-1,100)
c additional propagationGood total 530256901 percentiles 0 1 1 1 1 4 39 392 1380 16209 265267 283050 (0,1,5,10,25,50,75,90,95,99,100-1,100)
c additional propagationBad total 9501492 percentiles 1 1 1 1 1 1 3 7 13 52 76649 142330 (0,1,5,10,25,50,75,90,95,99,100-1,100)
c additional resolutionGood total 106638990 percentiles 0 1 1 1 1 3 17 119 367 2849 59436 80986 (0,1,5,10,25,50,75,90,95,99,100-1,100)
c additional resolutionBad total 4289618 percentiles 0 0 0 0 1 1 2 4 7 20 487 555 (0,1,5,10,25,50,75,90,95,99,100-1,100)
No graph is dumped
c result of core 2 is UNSAT
c One thread has finished
c Core 2 said it finished
c result of core 0 is UNKNOWN
c result of core 3 is UNKNOWN
c result of core 1 is UNKNOWN
c restarts              : 4845 (144 conflicts in avg)
c blocked restarts      : 4420 (multiple: 751) 
c last block at restart : 4845
c nb ReduceDB           : 22
c nb removed Clauses    : 634818
c nb learnts DL2        : 3163
c nb learnts size 2     : 1277
c nb learnts size 1     : 21
c conflicts             : 701727         (384 /sec)
c decisions             : 2326126        (0.00 % random) (1273 /sec)
c propagations          : 215917505      (118133 /sec)
c conflict literals     : 249487475      (12.04 % deleted)
c nb reduced Clauses    : 1046
c CPU time              : 1827.75 s

s INDETERMINATE
