c
c This is glucose-proof 1.0 based on  2.1 --  (thanks to MiniSAT)
c
c EXPERIMENTAL EASY PARALLEL (ROUND ROBIN) VERSION
c
c WARNING: for repeatability, setting FPU to use double precision
c Parallel version 8 solvers created.
c ========================================[ Problem Statistics ]===========================================
c |                                                                                                       |
c |  Number of variables:           608                                                                   |
c |  Number of clauses:            2447                                                                   |
c |  Parse time:                   0.00 s                                                                 |
c |                                                                                                       |
c ========================================[ MAGIC CONSTANTS ]==============================================
c | Constants are supposed to work well together :-)                                                      |
c | however, if you find better choices, please let us known...                                           |
c |-------------------------------------------------------------------------------------------------------|
c |                                |                                |                                     |
c | - Restarts:                    | - Reduce Clause DB:            | - Minimize Asserting:               |
c |   * LBD Queue    :     50      |   * First     :   4000         |    * size <  30                     |
c |   * Trail  Queue :   5000      |   * Inc       :    300         |    * lbd  <   6                     |
c |   * K            :   0.80      |   * Special   :   1000         |                                     |
c |   * R            :   1.40      |   * Protected :  (lbd)< 30     |                                     |
c |                                |                                |                                     |
c ==================================[ Search Statistics (every  10000 conflicts) ]=========================
c |                                                                                                       |
c |          RESTARTS           |          ORIGINAL         |              LEARNT              | Progress |
c |       NB   Blocked  Avg Cfc |    Vars  Clauses Literals |   Red   Learnts    LBD2  Removed |          |
c =========================================================================================================
c |        8         0     1250 |     606     2447     6986 |     1     8000       42     2283 |  0.333 % |
c |       17         0     1176 |     605     2447     6986 |     3     6953       69    13780 |  0.503 % |
c |       23         0     1304 |     604     2447     6986 |     3    16889       86    13780 |  0.664 % |
c |       23         0     1739 |     603     2447     6986 |     4     9522      112    23279 |  0.828 % |
c empty clause found by core 1 at conflict 41484
*
c checking the resolution graph...OK
c All useful bySize 304276 clauses, percentiles 0 4 8 11 22 61 98 121 135 161 227 234 (0,1,5,10,25,50,75,90,95,99,100-1,100)
c All useless bySize 30101 clauses, percentiles 0 7 13 18 31 64 97 120 135 162 216 220 (0,1,5,10,25,50,75,90,95,99,100-1,100)
c ProofOnly useful bySize 301834 clauses, percentiles 0 5 8 11 23 62 98 122 135 161 227 234 (0,1,5,10,25,50,75,90,95,99,100-1,100)
c ProofOnly useless bySize 30032 clauses, percentiles 2 8 13 18 31 64 97 121 135 162 216 220 (0,1,5,10,25,50,75,90,95,99,100-1,100)
c All useful byFinalLBD 304276 clauses, percentiles 0 1 2 3 6 8 10 12 13 15 29 30 (0,1,5,10,25,50,75,90,95,99,100-1,100)
c All useless byFinalLBD 30101 clauses, percentiles 0 3 4 5 7 9 12 14 16 19 30 30 (0,1,5,10,25,50,75,90,95,99,100-1,100)
c ProofOnly useful byFinalLBD 301834 clauses, percentiles 0 1 2 3 6 8 10 12 13 15 29 30 (0,1,5,10,25,50,75,90,95,99,100-1,100)
c ProofOnly useless byFinalLBD 30032 clauses, percentiles 1 3 4 5 7 9 12 14 16 20 30 30 (0,1,5,10,25,50,75,90,95,99,100-1,100)
c All useful byInitialLBD 304276 clauses, percentiles 0 3 4 5 7 9 11 12 14 16 30 31 (0,1,5,10,25,50,75,90,95,99,100-1,100)
c All useless byInitialLBD 30101 clauses, percentiles 0 4 5 6 7 9 12 14 16 20 30 30 (0,1,5,10,25,50,75,90,95,99,100-1,100)
c ProofOnly useful byInitialLBD 301834 clauses, percentiles 0 3 4 5 7 9 11 12 14 16 30 31 (0,1,5,10,25,50,75,90,95,99,100-1,100)
c ProofOnly useless byInitialLBD 30032 clauses, percentiles 2 4 5 6 7 9 12 14 16 20 30 30 (0,1,5,10,25,50,75,90,95,99,100-1,100)
c Literals ProofOnly useful 19265550
c Literals ProofOnly useless 2007753
c additional windowsGood 1 1 1 1 3 6 7 15 38 196 754 814 (0,1,5,10,25,50,75,90,95,99,100-1,100)
c additional windowsBad 1 1 1 1 1 1 1 2 2 4 15 23 (0,1,5,10,25,50,75,90,95,99,100-1,100)
c additional 1WindowNoDecision 3642 1913 0.53 20757 10238 0.49 (nbWindowsGood,nbWindowsNoDecisionGood,nbWindowsBad,nbWindowsNoDecisionBad
c additional topclausessize all (10%,5%,1%,top) 139.08 150.64 173.29 234
c additional topclausessize proofonly (10%,5%,1%,top) 139.16 150.70 173.33 234
c additional topclausesinitialLBD all (10%,5%,1%,top) 131.62 144.08 168.09 234
c additional topclausesinitialLBD proofonly (10%,5%,1%,top) 125.82 139.16 164.21 234
c additional topclausesfinalLBD all (10%,5%,1%,top) 120.88 135.10 161.07 234
c additional topclausesfinalLBD proofonly (10%,5%,1%,top) 116.53 131.64 158.44 234
c additional predictionInitialLBD 1 10 301834 1.00 0.00 0.00 331856 30032 0.09 0.10 0.09 0.09 (nbgoodclauses,nbtotalgood,precisionGood,recallGood,FGood,nbbadclause,nbtotalbad,precisionBad,recallBad,FBad,accuracy)
c additional predictionInitialLBD 2 1076 301834 0.96 0.00 0.01 330790 30032 0.09 0.10 0.09 0.09 (nbgoodclauses,nbtotalgood,precisionGood,recallGood,FGood,nbbadclause,nbtotalbad,precisionBad,recallBad,FBad,accuracy)
c additional predictionInitialLBD 3 6823 301834 0.97 0.02 0.04 325043 30032 0.09 0.10 0.10 0.11 (nbgoodclauses,nbtotalgood,precisionGood,recallGood,FGood,nbbadclause,nbtotalbad,precisionBad,recallBad,FBad,accuracy)
c additional predictionInitialLBD 4 20530 301834 0.96 0.06 0.12 311336 30032 0.09 0.10 0.09 0.15 (nbgoodclauses,nbtotalgood,precisionGood,recallGood,FGood,nbbadclause,nbtotalbad,precisionBad,recallBad,FBad,accuracy)
c additional predictionInitialLBD 5 43582 301834 0.94 0.14 0.24 288284 30032 0.10 0.09 0.09 0.21 (nbgoodclauses,nbtotalgood,precisionGood,recallGood,FGood,nbbadclause,nbtotalbad,precisionBad,recallBad,FBad,accuracy)
c additional predictionInitialLBD 6 74704 301834 0.94 0.23 0.37 257162 30032 0.10 0.08 0.09 0.29 (nbgoodclauses,nbtotalgood,precisionGood,recallGood,FGood,nbbadclause,nbtotalbad,precisionBad,recallBad,FBad,accuracy)
c additional predictionInitialLBD 7 113289 301834 0.93 0.35 0.51 218577 30032 0.10 0.07 0.08 0.38 (nbgoodclauses,nbtotalgood,precisionGood,recallGood,FGood,nbbadclause,nbtotalbad,precisionBad,recallBad,FBad,accuracy)
c additional predictionInitialLBD 8 155934 301834 0.93 0.48 0.63 175932 30032 0.10 0.06 0.08 0.49 (nbgoodclauses,nbtotalgood,precisionGood,recallGood,FGood,nbbadclause,nbtotalbad,precisionBad,recallBad,FBad,accuracy)
c additional predictionInitialLBD 10 239550 301834 0.92 0.73 0.82 92316 30032 0.12 0.04 0.06 0.70 (nbgoodclauses,nbtotalgood,precisionGood,recallGood,FGood,nbbadclause,nbtotalbad,precisionBad,recallBad,FBad,accuracy)
c additional predictionInitialLBD 14 321422 301834 0.92 0.97 0.94 10444 30032 0.27 0.01 0.02 0.89 (nbgoodclauses,nbtotalgood,precisionGood,recallGood,FGood,nbbadclause,nbtotalbad,precisionBad,recallBad,FBad,accuracy)
c additional predictionInitialLBD 18 330956 301834 0.91 1.00 0.95 910 30032 0.54 0.00 0.00 0.91 (nbgoodclauses,nbtotalgood,precisionGood,recallGood,FGood,nbbadclause,nbtotalbad,precisionBad,recallBad,FBad,accuracy)
c additional predictionInitialLBD 22 331715 301834 0.91 1.00 0.95 151 30032 0.72 0.00 0.00 0.91 (nbgoodclauses,nbtotalgood,precisionGood,recallGood,FGood,nbbadclause,nbtotalbad,precisionBad,recallBad,FBad,accuracy)
c additional predictionInitialLBD 30 331865 301834 0.91 1.00 0.95 1 30032 0.00 0.00 -nan 0.91 (nbgoodclauses,nbtotalgood,precisionGood,recallGood,FGood,nbbadclause,nbtotalbad,precisionBad,recallBad,FBad,accuracy)
c additional predictionInitialLBD 40 331866 301834 0.91 1.00 0.95 0 30032 -nan 0.00 -nan 0.91 (nbgoodclauses,nbtotalgood,precisionGood,recallGood,FGood,nbbadclause,nbtotalbad,precisionBad,recallBad,FBad,accuracy)
c additional predictionFinallLBD 1 5740 301834 1.00 0.02 0.04 326126 30032 0.09 1.00 0.17 0.11 (nbgoodclauses,nbtotalgood,precisionGood,recallGood,FGood,nbbadclause,nbtotalbad,precisionBad,recallBad,FBad,accuracy)
c additional predictionFinallLBD 2 19454 301834 0.99 0.06 0.12 312412 30032 0.10 0.99 0.17 0.15 (nbgoodclauses,nbtotalgood,precisionGood,recallGood,FGood,nbbadclause,nbtotalbad,precisionBad,recallBad,FBad,accuracy)
c additional predictionFinallLBD 3 35291 301834 0.98 0.11 0.21 296575 30032 0.10 0.98 0.18 0.19 (nbgoodclauses,nbtotalgood,precisionGood,recallGood,FGood,nbbadclause,nbtotalbad,precisionBad,recallBad,FBad,accuracy)
c additional predictionFinallLBD 4 52824 301834 0.97 0.17 0.29 279042 30032 0.10 0.94 0.18 0.24 (nbgoodclauses,nbtotalgood,precisionGood,recallGood,FGood,nbbadclause,nbtotalbad,precisionBad,recallBad,FBad,accuracy)
c additional predictionFinallLBD 5 73104 301834 0.95 0.23 0.37 258762 30032 0.10 0.89 0.18 0.29 (nbgoodclauses,nbtotalgood,precisionGood,recallGood,FGood,nbbadclause,nbtotalbad,precisionBad,recallBad,FBad,accuracy)
c additional predictionFinallLBD 6 98671 301834 0.94 0.31 0.46 233195 30032 0.10 0.81 0.18 0.35 (nbgoodclauses,nbtotalgood,precisionGood,recallGood,FGood,nbbadclause,nbtotalbad,precisionBad,recallBad,FBad,accuracy)
c additional predictionFinallLBD 7 131944 301834 0.93 0.41 0.57 199922 30032 0.11 0.71 0.19 0.44 (nbgoodclauses,nbtotalgood,precisionGood,recallGood,FGood,nbbadclause,nbtotalbad,precisionBad,recallBad,FBad,accuracy)
c additional predictionFinallLBD 8 170244 301834 0.93 0.52 0.67 161622 30032 0.11 0.59 0.19 0.53 (nbgoodclauses,nbtotalgood,precisionGood,recallGood,FGood,nbbadclause,nbtotalbad,precisionBad,recallBad,FBad,accuracy)
c additional predictionFinallLBD 10 247417 301834 0.92 0.76 0.83 84449 30032 0.13 0.37 0.19 0.72 (nbgoodclauses,nbtotalgood,precisionGood,recallGood,FGood,nbbadclause,nbtotalbad,precisionBad,recallBad,FBad,accuracy)
c additional predictionFinallLBD 14 323004 301834 0.92 0.98 0.95 8862 30032 0.29 0.09 0.13 0.90 (nbgoodclauses,nbtotalgood,precisionGood,recallGood,FGood,nbbadclause,nbtotalbad,precisionBad,recallBad,FBad,accuracy)
c additional predictionFinallLBD 18 331136 301834 0.91 1.00 0.95 730 30032 0.61 0.01 0.03 0.91 (nbgoodclauses,nbtotalgood,precisionGood,recallGood,FGood,nbbadclause,nbtotalbad,precisionBad,recallBad,FBad,accuracy)
c additional predictionFinallLBD 22 331744 301834 0.91 1.00 0.95 122 30032 0.80 0.00 0.01 0.91 (nbgoodclauses,nbtotalgood,precisionGood,recallGood,FGood,nbbadclause,nbtotalbad,precisionBad,recallBad,FBad,accuracy)
c additional predictionFinallLBD 30 331866 301834 0.91 1.00 0.95 0 30032 -nan 0.00 -nan 0.91 (nbgoodclauses,nbtotalgood,precisionGood,recallGood,FGood,nbbadclause,nbtotalbad,precisionBad,recallBad,FBad,accuracy)
c additional predictionFinallLBD 40 331866 301834 0.91 1.00 0.95 0 30032 -nan 0.00 -nan 0.91 (nbgoodclauses,nbtotalgood,precisionGood,recallGood,FGood,nbbadclause,nbtotalbad,precisionBad,recallBad,FBad,accuracy)
c additional predictionSize 1 10 301834 1.00 0.00 0.00 331856 30032 0.09 0.10 0.09 0.09 (nbgoodclauses,nbtotalgood,precisionGood,recallGood,FGood,nbbadclause,nbtotalbad,precisionBad,recallBad,FBad,accuracy)
c additional predictionSize 2 153 301834 0.93 0.00 0.00 331713 30032 0.09 0.10 0.09 0.09 (nbgoodclauses,nbtotalgood,precisionGood,recallGood,FGood,nbbadclause,nbtotalbad,precisionBad,recallBad,FBad,accuracy)
c additional predictionSize 3 680 301834 0.97 0.00 0.00 331186 30032 0.09 0.10 0.09 0.09 (nbgoodclauses,nbtotalgood,precisionGood,recallGood,FGood,nbbadclause,nbtotalbad,precisionBad,recallBad,FBad,accuracy)
c additional predictionSize 4 2192 301834 0.99 0.01 0.01 329674 30032 0.09 0.10 0.10 0.10 (nbgoodclauses,nbtotalgood,precisionGood,recallGood,FGood,nbbadclause,nbtotalbad,precisionBad,recallBad,FBad,accuracy)
c additional predictionSize 5 4765 301834 0.98 0.02 0.03 327101 30032 0.09 0.10 0.10 0.10 (nbgoodclauses,nbtotalgood,precisionGood,recallGood,FGood,nbbadclause,nbtotalbad,precisionBad,recallBad,FBad,accuracy)
c additional predictionSize 6 8464 301834 0.98 0.03 0.05 323402 30032 0.09 0.10 0.10 0.12 (nbgoodclauses,nbtotalgood,precisionGood,recallGood,FGood,nbbadclause,nbtotalbad,precisionBad,recallBad,FBad,accuracy)
c additional predictionSize 7 12679 301834 0.98 0.04 0.08 319187 30032 0.09 0.10 0.10 0.13 (nbgoodclauses,nbtotalgood,precisionGood,recallGood,FGood,nbbadclause,nbtotalbad,precisionBad,recallBad,FBad,accuracy)
c additional predictionSize 8 17287 301834 0.98 0.06 0.11 314579 30032 0.09 0.10 0.10 0.14 (nbgoodclauses,nbtotalgood,precisionGood,recallGood,FGood,nbbadclause,nbtotalbad,precisionBad,recallBad,FBad,accuracy)
c additional predictionSize 10 27041 301834 0.97 0.09 0.16 304825 30032 0.10 0.10 0.10 0.17 (nbgoodclauses,nbtotalgood,precisionGood,recallGood,FGood,nbbadclause,nbtotalbad,precisionBad,recallBad,FBad,accuracy)
c additional predictionSize 14 46441 301834 0.96 0.15 0.26 285425 30032 0.10 0.09 0.10 0.22 (nbgoodclauses,nbtotalgood,precisionGood,recallGood,FGood,nbbadclause,nbtotalbad,precisionBad,recallBad,FBad,accuracy)
c additional predictionSize 18 63720 301834 0.95 0.20 0.33 268146 30032 0.10 0.09 0.09 0.26 (nbgoodclauses,nbtotalgood,precisionGood,recallGood,FGood,nbbadclause,nbtotalbad,precisionBad,recallBad,FBad,accuracy)
c additional predictionSize 22 79210 301834 0.94 0.25 0.39 252656 30032 0.10 0.08 0.09 0.30 (nbgoodclauses,nbtotalgood,precisionGood,recallGood,FGood,nbbadclause,nbtotalbad,precisionBad,recallBad,FBad,accuracy)
c additional predictionSize 30 104529 301834 0.93 0.32 0.48 227337 30032 0.10 0.08 0.09 0.36 (nbgoodclauses,nbtotalgood,precisionGood,recallGood,FGood,nbbadclause,nbtotalbad,precisionBad,recallBad,FBad,accuracy)
c additional predictionSize 40 127272 301834 0.92 0.39 0.55 204594 30032 0.10 0.07 0.08 0.41 (nbgoodclauses,nbtotalgood,precisionGood,recallGood,FGood,nbbadclause,nbtotalbad,precisionBad,recallBad,FBad,accuracy)
c additional predictionAge 1 4836 301834 0.97 0.02 0.03 327030 30032 0.09 0.10 0.09 0.10 (nbgoodclauses,nbtotalgood,precisionGood,recallGood,FGood,nbbadclause,nbtotalbad,precisionBad,recallBad,FBad,accuracy)
c additional predictionAge 10 5311 301834 0.96 0.02 0.03 326555 30032 0.09 0.10 0.09 0.11 (nbgoodclauses,nbtotalgood,precisionGood,recallGood,FGood,nbbadclause,nbtotalbad,precisionBad,recallBad,FBad,accuracy)
c additional predictionAge 25 6757 301834 0.93 0.02 0.04 325109 30032 0.09 0.10 0.09 0.11 (nbgoodclauses,nbtotalgood,precisionGood,recallGood,FGood,nbbadclause,nbtotalbad,precisionBad,recallBad,FBad,accuracy)
c additional predictionAge 50 7296 301834 0.93 0.02 0.04 324570 30032 0.09 0.10 0.09 0.11 (nbgoodclauses,nbtotalgood,precisionGood,recallGood,FGood,nbbadclause,nbtotalbad,precisionBad,recallBad,FBad,accuracy)
c additional predictionAge 100 7886 301834 0.92 0.02 0.05 323980 30032 0.09 0.10 0.09 0.11 (nbgoodclauses,nbtotalgood,precisionGood,recallGood,FGood,nbbadclause,nbtotalbad,precisionBad,recallBad,FBad,accuracy)
c additional predictionAge 250 8932 301834 0.91 0.03 0.05 322934 30032 0.09 0.10 0.09 0.11 (nbgoodclauses,nbtotalgood,precisionGood,recallGood,FGood,nbbadclause,nbtotalbad,precisionBad,recallBad,FBad,accuracy)
c additional predictionAge 500 9862 301834 0.91 0.03 0.06 322004 30032 0.09 0.10 0.09 0.12 (nbgoodclauses,nbtotalgood,precisionGood,recallGood,FGood,nbbadclause,nbtotalbad,precisionBad,recallBad,FBad,accuracy)
c additional predictionAge 1000 11076 301834 0.91 0.03 0.06 320790 30032 0.09 0.10 0.09 0.12 (nbgoodclauses,nbtotalgood,precisionGood,recallGood,FGood,nbbadclause,nbtotalbad,precisionBad,recallBad,FBad,accuracy)
c additional predictionAge 2500 13662 301834 0.90 0.04 0.08 318204 30032 0.09 0.09 0.09 0.12 (nbgoodclauses,nbtotalgood,precisionGood,recallGood,FGood,nbbadclause,nbtotalbad,precisionBad,recallBad,FBad,accuracy)
c additional predictionAge 5000 17343 301834 0.88 0.05 0.10 314523 30032 0.09 0.09 0.09 0.13 (nbgoodclauses,nbtotalgood,precisionGood,recallGood,FGood,nbbadclause,nbtotalbad,precisionBad,recallBad,FBad,accuracy)
c additional predictionAge 10000 23539 301834 0.85 0.07 0.12 308327 30032 0.09 0.09 0.09 0.14 (nbgoodclauses,nbtotalgood,precisionGood,recallGood,FGood,nbbadclause,nbtotalbad,precisionBad,recallBad,FBad,accuracy)
c additional predictionAge 25000 40369 301834 0.84 0.11 0.20 291497 30032 0.08 0.08 0.08 0.17 (nbgoodclauses,nbtotalgood,precisionGood,recallGood,FGood,nbbadclause,nbtotalbad,precisionBad,recallBad,FBad,accuracy)
c additional predictionAge 50000 66605 301834 0.89 0.20 0.32 265261 30032 0.08 0.07 0.08 0.25 (nbgoodclauses,nbtotalgood,precisionGood,recallGood,FGood,nbbadclause,nbtotalbad,precisionBad,recallBad,FBad,accuracy)
c additional predictionAge 100000 118371 301834 0.92 0.36 0.52 213495 30032 0.09 0.07 0.08 0.39 (nbgoodclauses,nbtotalgood,precisionGood,recallGood,FGood,nbbadclause,nbtotalbad,precisionBad,recallBad,FBad,accuracy)
c additional predictionTicks 1 4920 301834 0.97 0.02 0.03 326946 30032 0.09 0.10 0.10 0.10 (nbgoodclauses,nbtotalgood,precisionGood,recallGood,FGood,nbbadclause,nbtotalbad,precisionBad,recallBad,FBad,accuracy)
c additional predictionTicks 10 10413 301834 0.94 0.03 0.06 321453 30032 0.09 0.10 0.09 0.12 (nbgoodclauses,nbtotalgood,precisionGood,recallGood,FGood,nbbadclause,nbtotalbad,precisionBad,recallBad,FBad,accuracy)
c additional predictionTicks 25 17963 301834 0.93 0.06 0.10 313903 30032 0.09 0.10 0.09 0.14 (nbgoodclauses,nbtotalgood,precisionGood,recallGood,FGood,nbbadclause,nbtotalbad,precisionBad,recallBad,FBad,accuracy)
c additional predictionTicks 50 26836 301834 0.92 0.08 0.15 305030 30032 0.09 0.09 0.09 0.16 (nbgoodclauses,nbtotalgood,precisionGood,recallGood,FGood,nbbadclause,nbtotalbad,precisionBad,recallBad,FBad,accuracy)
c additional predictionTicks 100 40150 301834 0.92 0.12 0.21 291716 30032 0.09 0.09 0.09 0.19 (nbgoodclauses,nbtotalgood,precisionGood,recallGood,FGood,nbbadclause,nbtotalbad,precisionBad,recallBad,FBad,accuracy)
c additional predictionTicks 250 66456 301834 0.91 0.20 0.33 265410 30032 0.09 0.08 0.09 0.26 (nbgoodclauses,nbtotalgood,precisionGood,recallGood,FGood,nbbadclause,nbtotalbad,precisionBad,recallBad,FBad,accuracy)
c additional predictionTicks 500 92970 301834 0.91 0.28 0.43 238896 30032 0.09 0.07 0.08 0.32 (nbgoodclauses,nbtotalgood,precisionGood,recallGood,FGood,nbbadclause,nbtotalbad,precisionBad,recallBad,FBad,accuracy)
c additional predictionTicks 1000 124719 301834 0.91 0.38 0.53 207147 30032 0.09 0.06 0.07 0.40 (nbgoodclauses,nbtotalgood,precisionGood,recallGood,FGood,nbbadclause,nbtotalbad,precisionBad,recallBad,FBad,accuracy)
c additional predictionTicks 2500 170249 301834 0.91 0.51 0.66 161617 30032 0.09 0.05 0.07 0.51 (nbgoodclauses,nbtotalgood,precisionGood,recallGood,FGood,nbbadclause,nbtotalbad,precisionBad,recallBad,FBad,accuracy)
c additional predictionTicks 5000 205014 301834 0.91 0.62 0.74 126852 30032 0.10 0.04 0.06 0.60 (nbgoodclauses,nbtotalgood,precisionGood,recallGood,FGood,nbbadclause,nbtotalbad,precisionBad,recallBad,FBad,accuracy)
c additional predictionTicks 10000 238418 301834 0.91 0.72 0.81 93448 30032 0.10 0.03 0.05 0.68 (nbgoodclauses,nbtotalgood,precisionGood,recallGood,FGood,nbbadclause,nbtotalbad,precisionBad,recallBad,FBad,accuracy)
c additional predictionTicks 25000 278352 301834 0.91 0.84 0.88 53514 30032 0.11 0.02 0.03 0.78 (nbgoodclauses,nbtotalgood,precisionGood,recallGood,FGood,nbbadclause,nbtotalbad,precisionBad,recallBad,FBad,accuracy)
c additional predictionTicks 50000 302955 301834 0.91 0.92 0.91 28911 30032 0.12 0.01 0.02 0.84 (nbgoodclauses,nbtotalgood,precisionGood,recallGood,FGood,nbbadclause,nbtotalbad,precisionBad,recallBad,FBad,accuracy)
c additional predictionTicks 100000 320848 301834 0.91 0.97 0.94 11018 30032 0.15 0.01 0.01 0.89 (nbgoodclauses,nbtotalgood,precisionGood,recallGood,FGood,nbbadclause,nbtotalbad,precisionBad,recallBad,FBad,accuracy)
c additional lifetimeGood 1 8 72 2792 26608 85550 167181 234549 268106 307033 331895 331906 (0,1,5,10,25,50,75,90,95,99,100-1,100)
c additional lifetimeBad 1 8 40 1376 16611 108215 232679 289588 312689 325949 331886 331888 (0,1,5,10,25,50,75,90,95,99,100-1,100)
c additional lifetimeBadBad 6 8 8 8 8 24 336 5222 11007 27424 321762 321770 (0,1,5,10,25,50,75,90,95,99,100-1,100)
c additional compositionBad 1 3 7 11 22 51 126 211 259 338 464 465 (0,1,5,10,25,50,75,90,95,99,100-1,100)
c additional compositionBadWithGood 0 0 1 2 5 11 24 43 56 78 115 119 (0,1,5,10,25,50,75,90,95,99,100-1,100)
c additional compositionBadWithBad 0 0 0 0 0 1 2 3 5 8 17 18 (0,1,5,10,25,50,75,90,95,99,100-1,100)
c additional compositionBadWithInitial 0 1 3 6 14 39 100 167 204 275 415 422 (0,1,5,10,25,50,75,90,95,99,100-1,100)
c additional compositionGood 1 3 5 7 15 46 137 223 270 348 513 525 (0,1,5,10,25,50,75,90,95,99,100-1,100)
c additional compositionGoodWithGood 0 0 1 2 4 12 28 48 60 82 126 136 (0,1,5,10,25,50,75,90,95,99,100-1,100)
c additional compositionGoodWithInitial 0 1 2 4 10 34 107 177 215 280 491 496 (0,1,5,10,25,50,75,90,95,99,100-1,100)
c additional propagationGood total 11888513 percentiles 0 1 1 1 1 1 3 21 69 546 29977 35749 (0,1,5,10,25,50,75,90,95,99,100-1,100)
c additional propagationBad total 55102 percentiles 1 1 1 1 1 1 1 2 4 13 890 1209 (0,1,5,10,25,50,75,90,95,99,100-1,100)
c additional resolutionGood total 5938775 percentiles 0 1 1 1 1 1 2 14 39 269 16796 17147 (0,1,5,10,25,50,75,90,95,99,100-1,100)
c additional resolutionBad total 38988 percentiles 0 0 0 0 1 1 1 2 3 9 167 216 (0,1,5,10,25,50,75,90,95,99,100-1,100)
No graph is dumped
c result of core 1 is UNSAT
c One thread has finished
c Core 1 said it finished
c result of core 4 is UNKNOWN
c result of core 3 is UNKNOWN
c result of core 0 is UNKNOWN
c result of core 7 is UNKNOWN
c result of core 5 is UNKNOWN
c result of core 2 is UNKNOWN
c result of core 6 is UNKNOWN
c restarts              : 23 (1803 conflicts in avg)
c blocked restarts      : 0 (multiple: 0) 
c last block at restart : 0
c nb ReduceDB           : 4
c nb removed Clauses    : 23279
c nb learnts DL2        : 118
c nb learnts size 2     : 18
c nb learnts size 1     : 1
c conflicts             : 41484          (731 /sec)
c decisions             : 48149          (0.00 % random) (849 /sec)
c propagations          : 4742058        (83616 /sec)
c conflict literals     : 2768141        (11.64 % deleted)
c nb reduced Clauses    : 597
c CPU time              : 56.7124 s

s INDETERMINATE
