c
c This is glucose-proof 1.0 based on  2.1 --  (thanks to MiniSAT)
c
c EXPERIMENTAL EASY PARALLEL (ROUND ROBIN) VERSION
c
c WARNING: for repeatability, setting FPU to use double precision
c Parallel version 6 solvers created.
c ========================================[ Problem Statistics ]===========================================
c |                                                                                                       |
c |  Number of variables:         10259                                                                   |
c |  Number of clauses:           46995                                                                   |
c |  Parse time:                   0.11 s                                                                 |
c |                                                                                                       |
c ========================================[ MAGIC CONSTANTS ]==============================================
c | Constants are supposed to work well together :-)                                                      |
c | however, if you find better choices, please let us known...                                           |
c |-------------------------------------------------------------------------------------------------------|
c |                                |                                |                                     |
c | - Restarts:                    | - Reduce Clause DB:            | - Minimize Asserting:               |
c |   * LBD Queue    :     50      |   * First     :   4000         |    * size <  30                     |
c |   * Trail  Queue :   5000      |   * Inc       :    300         |    * lbd  <   6                     |
c |   * K            :   0.80      |   * Special   :   1000         |                                     |
c |   * R            :   1.40      |   * Protected :  (lbd)< 30     |                                     |
c |                                |                                |                                     |
c ==================================[ Search Statistics (every  10000 conflicts) ]=========================
c |                                                                                                       |
c |          RESTARTS           |          ORIGINAL         |              LEARNT              | Progress |
c |       NB   Blocked  Avg Cfc |    Vars  Clauses Literals |   Red   Learnts    LBD2  Removed |          |
c =========================================================================================================
c |       55         0      181 |   10254    46995   144382 |     1     8040      507     3588 |  0.049 % |
c |       91        98      219 |   10254    46995   144382 |     3     7009      730    19884 |  0.049 % |
c |      129       178      232 |   10253    46995   144382 |     3    17009      836    19884 |  0.058 % |
c |      175       271      228 |   10252    46995   144382 |     4    17744      912    31323 |  0.068 % |
c |      219       357      228 |   10238    46995   144382 |     5    15876      984    44981 |  0.205 % |
c |      245       447      244 |   10229    46995   144382 |     5    25866     1045    44981 |  0.292 % |
c |      287       518      243 |   10228    46995   144382 |     6    21436     1090    60899 |  0.302 % |
c |      326       599      245 |   10226    46995   144382 |     6    31436     1139    60899 |  0.322 % |
c |      366       689      245 |   10205    46995   144382 |     7    24405     1203    79604 |  0.526 % |
c |      410       773      243 |   10178    46995   144382 |     7    34372     1237    79604 |  0.790 % |
c |      442       862      248 |   10168    46995   144382 |     8    24804     1263   100653 |  0.887 % |
c |      461       940      260 |   10168    46995   144382 |     8    34804     1286   100653 |  0.887 % |
c |      494      1016      263 |   10168    46995   144382 |     9    22686     1338   124400 |  0.887 % |
c |      531      1105      263 |   10166    46995   144382 |     9    32685     1369   124400 |  0.907 % |
c |      558      1163      268 |   10161    46995   144382 |     9    42683     1389   124400 |  0.955 % |
c |      588      1229      272 |   10157    46995   144382 |    10    27902     1413   150609 |  0.994 % |
c |      623      1310      272 |   10154    46995   144382 |    10    37898     1433   150609 |  1.024 % |
c |      665      1384      270 |   10130    46995   144382 |    10    47714     1477   150609 |  1.257 % |
c |      692      1456      274 |   10129    46995   144382 |    11    30455     1503   179377 |  1.267 % |
c |      721      1544      277 |   10128    46995   144382 |    11    40444     1526   179377 |  1.277 % |
c |      762      1601      275 |   10128    46995   144382 |    11    50444     1541   179377 |  1.277 % |
c |      790      1675      278 |   10128    46995   144382 |    12    30459     1556   210762 |  1.277 % |
c |      818      1730      281 |   10128    46995   144382 |    12    40459     1577   210762 |  1.277 % |
c |      836      1809      287 |   10127    46995   144382 |    12    50402     1613   210762 |  1.287 % |
c |      854      1884      292 |   10074    46995   144382 |    12    60154     1635   210762 |  1.803 % |
c |      880      1960      295 |   10073    46995   144382 |    13    37635     1654   244805 |  1.813 % |
c |      900      2022      300 |   10013    46995   144382 |    13    46391     1667   244805 |  2.398 % |
c |      912      2125      307 |   10012    46995   144382 |    13    56381     1682   244805 |  2.408 % |
c |      939      2192      308 |   10012    46995   144382 |    13    66381     1690   244805 |  2.408 % |
c |      976      2279      307 |   10009    46995   144382 |    14    41909     1701   280630 |  2.437 % |
c |     1011      2343      306 |   10009    46995   144382 |    14    51909     1722   280630 |  2.437 % |
c |     1040      2430      307 |   10001    46995   144382 |    14    61890     1736   280630 |  2.515 % |
c |     1078      2504      306 |   10001    46995   144382 |    14    71890     1748   280630 |  2.515 % |
c |     1114      2572      305 |    9999    46995   144382 |    15    44512     1757   319417 |  2.534 % |
c |     1154      2629      303 |    9996    46995   144382 |    15    54497     1778   319417 |  2.564 % |
c |     1182      2710      304 |    9994    46995   144382 |    15    64492     1791   319417 |  2.583 % |
c |     1229      2771      301 |    9992    46995   144382 |    15    74490     1800   319417 |  2.603 % |
c |     1252      2859      303 |    9991    46995   144382 |    16    44317     1813   360867 |  2.612 % |
c |     1278      2909      305 |    9990    46995   144382 |    16    54317     1824   360867 |  2.622 % |
c |     1300      2985      307 |    9990    46995   144382 |    16    64317     1844   360867 |  2.622 % |
c |     1332      3059      307 |    9990    46995   144382 |    16    74317     1852   360867 |  2.622 % |
c |     1360      3135      308 |    9987    46995   144382 |    16    84305     1860   360867 |  2.651 % |
c |     1384      3226      310 |    9986    46995   144382 |    17    51368     1869   405009 |  2.661 % |
c |     1402      3279      313 |    9986    46995   144382 |    17    61368     1892   405009 |  2.661 % |
c |     1427      3343      315 |    9986    46995   144382 |    17    71368     1908   405009 |  2.661 % |
c |     1453      3414      316 |    9984    46995   144382 |    17    77119     1926   405009 |  2.681 % |
c |     1491      3479      315 |    9984    46995   144382 |    18    43680     1934   449415 |  2.681 % |
c |     1507      3555      318 |    9984    46995   144382 |    18    53680     1957   449415 |  2.681 % |
c |     1530      3633      320 |    9981    46995   144382 |    18    61864     1979   449415 |  2.710 % |
c |     1550      3728      322 |    9981    46995   144382 |    18    71864     1995   449415 |  2.711 % |
c empty clause found by core 5 at conflict 503029
*
c checking the resolution graph...OK
c All useful bySize 371560 clauses, percentiles 0 2 3 3 6 10 14 33 56 153 606 630 (0,1,5,10,25,50,75,90,95,99,100-1,100)
c All useless bySize 2693982 clauses, percentiles 0 4 7 8 10 14 33 82 127 245 1026 1053 (0,1,5,10,25,50,75,90,95,99,100-1,100)
c ProofOnly useful bySize 327834 clauses, percentiles 0 2 4 5 8 11 16 36 62 162 606 630 (0,1,5,10,25,50,75,90,95,99,100-1,100)
c ProofOnly useless bySize 2690340 clauses, percentiles 1 5 7 8 10 14 33 82 127 245 1026 1053 (0,1,5,10,25,50,75,90,95,99,100-1,100)
c All useful byFinalLBD 371560 clauses, percentiles 0 1 1 2 3 4 7 9 10 13 27 30 (0,1,5,10,25,50,75,90,95,99,100-1,100)
c All useless byFinalLBD 2693982 clauses, percentiles 0 2 4 4 6 8 11 17 22 40 208 209 (0,1,5,10,25,50,75,90,95,99,100-1,100)
c ProofOnly useful byFinalLBD 327834 clauses, percentiles 0 1 1 2 3 5 7 9 10 13 27 30 (0,1,5,10,25,50,75,90,95,99,100-1,100)
c ProofOnly useless byFinalLBD 2690340 clauses, percentiles 1 2 4 4 6 8 11 17 22 40 208 209 (0,1,5,10,25,50,75,90,95,99,100-1,100)
c All useful byInitialLBD 371560 clauses, percentiles 0 2 2 3 4 6 8 10 11 14 30 31 (0,1,5,10,25,50,75,90,95,99,100-1,100)
c All useless byInitialLBD 2693982 clauses, percentiles 0 3 5 5 7 9 12 17 22 40 208 209 (0,1,5,10,25,50,75,90,95,99,100-1,100)
c ProofOnly useful byInitialLBD 327834 clauses, percentiles 0 2 3 3 5 7 8 10 12 14 30 31 (0,1,5,10,25,50,75,90,95,99,100-1,100)
c ProofOnly useless byInitialLBD 2690340 clauses, percentiles 1 4 5 5 7 9 12 17 22 40 208 209 (0,1,5,10,25,50,75,90,95,99,100-1,100)
c Literals ProofOnly useful 6128307
c Literals ProofOnly useless 89027140
c additional windowsGood 1 1 1 1 1 1 1 2 2 3 11 15 (0,1,5,10,25,50,75,90,95,99,100-1,100)
c additional windowsBad 1 1 1 1 3 5 5 17 35 103 815 932 (0,1,5,10,25,50,75,90,95,99,100-1,100)
c additional 1WindowNoDecision 253427 103215 0.41 38046 14203 0.37 (nbWindowsGood,nbWindowsNoDecisionGood,nbWindowsBad,nbWindowsNoDecisionBad
c additional topclausessize all (10%,5%,1%,top) 78.93 116.37 222.97 630
c additional topclausessize proofonly (10%,5%,1%,top) 81.79 120.03 227.19 630
c additional topclausesinitialLBD all (10%,5%,1%,top) 63.24 95.39 197.79 630
c additional topclausesinitialLBD proofonly (10%,5%,1%,top) 53.19 81.79 179.59 630
c additional topclausesfinalLBD all (10%,5%,1%,top) 45.49 71.12 163.80 630
c additional topclausesfinalLBD proofonly (10%,5%,1%,top) 40.66 64.06 152.52 630
c additional predictionInitialLBD 1 81 327834 0.98 0.00 0.00 3018093 2690340 0.89 8.21 1.61 0.89 (nbgoodclauses,nbtotalgood,precisionGood,recallGood,FGood,nbbadclause,nbtotalbad,precisionBad,recallBad,FBad,accuracy)
c additional predictionInitialLBD 2 11843 327834 0.77 0.03 0.05 3006331 2690340 0.89 8.20 1.61 0.89 (nbgoodclauses,nbtotalgood,precisionGood,recallGood,FGood,nbbadclause,nbtotalbad,precisionBad,recallBad,FBad,accuracy)
c additional predictionInitialLBD 3 62907 327834 0.59 0.11 0.19 2955267 2690340 0.90 8.13 1.62 0.89 (nbgoodclauses,nbtotalgood,precisionGood,recallGood,FGood,nbbadclause,nbtotalbad,precisionBad,recallBad,FBad,accuracy)
c additional predictionInitialLBD 4 184176 327834 0.38 0.21 0.27 2833998 2690340 0.91 7.86 1.63 0.88 (nbgoodclauses,nbtotalgood,precisionGood,recallGood,FGood,nbbadclause,nbtotalbad,precisionBad,recallBad,FBad,accuracy)
c additional predictionInitialLBD 5 401453 327834 0.27 0.33 0.30 2616721 2690340 0.92 7.31 1.63 0.83 (nbgoodclauses,nbtotalgood,precisionGood,recallGood,FGood,nbbadclause,nbtotalbad,precisionBad,recallBad,FBad,accuracy)
c additional predictionInitialLBD 6 712573 327834 0.22 0.47 0.30 2305601 2690340 0.92 6.51 1.62 0.76 (nbgoodclauses,nbtotalgood,precisionGood,recallGood,FGood,nbbadclause,nbtotalbad,precisionBad,recallBad,FBad,accuracy)
c additional predictionInitialLBD 7 1088972 327834 0.19 0.62 0.29 1929202 2690340 0.94 5.50 1.60 0.67 (nbgoodclauses,nbtotalgood,precisionGood,recallGood,FGood,nbbadclause,nbtotalbad,precisionBad,recallBad,FBad,accuracy)
c additional predictionInitialLBD 8 1481944 327834 0.17 0.75 0.27 1536230 2690340 0.95 4.44 1.56 0.56 (nbgoodclauses,nbtotalgood,precisionGood,recallGood,FGood,nbbadclause,nbtotalbad,precisionBad,recallBad,FBad,accuracy)
c additional predictionInitialLBD 10 2093166 327834 0.14 0.91 0.25 925008 2690340 0.97 2.73 1.43 0.40 (nbgoodclauses,nbtotalgood,precisionGood,recallGood,FGood,nbbadclause,nbtotalbad,precisionBad,recallBad,FBad,accuracy)
c additional predictionInitialLBD 14 2603160 327834 0.12 0.99 0.22 415014 2690340 0.99 1.26 1.11 0.24 (nbgoodclauses,nbtotalgood,precisionGood,recallGood,FGood,nbbadclause,nbtotalbad,precisionBad,recallBad,FBad,accuracy)
c additional predictionInitialLBD 18 2797681 327834 0.12 1.00 0.21 220493 2690340 1.00 0.67 0.80 0.18 (nbgoodclauses,nbtotalgood,precisionGood,recallGood,FGood,nbbadclause,nbtotalbad,precisionBad,recallBad,FBad,accuracy)
c additional predictionInitialLBD 22 2886502 327834 0.11 1.00 0.20 131672 2690340 1.00 0.40 0.57 0.15 (nbgoodclauses,nbtotalgood,precisionGood,recallGood,FGood,nbbadclause,nbtotalbad,precisionBad,recallBad,FBad,accuracy)
c additional predictionInitialLBD 30 2959648 327834 0.11 1.00 0.20 58526 2690340 1.00 0.18 0.30 0.13 (nbgoodclauses,nbtotalgood,precisionGood,recallGood,FGood,nbbadclause,nbtotalbad,precisionBad,recallBad,FBad,accuracy)
c additional predictionInitialLBD 40 2992545 327834 0.11 1.00 0.20 25629 2690340 1.00 0.08 0.15 0.12 (nbgoodclauses,nbtotalgood,precisionGood,recallGood,FGood,nbbadclause,nbtotalbad,precisionBad,recallBad,FBad,accuracy)
c additional predictionFinallLBD 1 41576 327834 0.68 0.09 0.15 2976598 2690340 0.90 1.00 0.94 0.90 (nbgoodclauses,nbtotalgood,precisionGood,recallGood,FGood,nbbadclause,nbtotalbad,precisionBad,recallBad,FBad,accuracy)
c additional predictionFinallLBD 2 117740 327834 0.58 0.21 0.31 2900434 2690340 0.91 0.98 0.94 0.90 (nbgoodclauses,nbtotalgood,precisionGood,recallGood,FGood,nbbadclause,nbtotalbad,precisionBad,recallBad,FBad,accuracy)
c additional predictionFinallLBD 3 230226 327834 0.47 0.33 0.39 2787948 2690340 0.92 0.95 0.94 0.89 (nbgoodclauses,nbtotalgood,precisionGood,recallGood,FGood,nbbadclause,nbtotalbad,precisionBad,recallBad,FBad,accuracy)
c additional predictionFinallLBD 4 439488 327834 0.34 0.45 0.39 2578686 2690340 0.93 0.89 0.91 0.84 (nbgoodclauses,nbtotalgood,precisionGood,recallGood,FGood,nbbadclause,nbtotalbad,precisionBad,recallBad,FBad,accuracy)
c additional predictionFinallLBD 5 730335 327834 0.26 0.58 0.36 2287839 2690340 0.94 0.80 0.86 0.77 (nbgoodclauses,nbtotalgood,precisionGood,recallGood,FGood,nbbadclause,nbtotalbad,precisionBad,recallBad,FBad,accuracy)
c additional predictionFinallLBD 6 1056668 327834 0.21 0.69 0.32 1961506 2690340 0.95 0.69 0.80 0.69 (nbgoodclauses,nbtotalgood,precisionGood,recallGood,FGood,nbbadclause,nbtotalbad,precisionBad,recallBad,FBad,accuracy)
c additional predictionFinallLBD 7 1390185 327834 0.18 0.78 0.30 1627989 2690340 0.96 0.58 0.72 0.60 (nbgoodclauses,nbtotalgood,precisionGood,recallGood,FGood,nbbadclause,nbtotalbad,precisionBad,recallBad,FBad,accuracy)
c additional predictionFinallLBD 8 1711038 327834 0.16 0.86 0.28 1307136 2690340 0.96 0.47 0.63 0.51 (nbgoodclauses,nbtotalgood,precisionGood,recallGood,FGood,nbbadclause,nbtotalbad,precisionBad,recallBad,FBad,accuracy)
c additional predictionFinallLBD 10 2210755 327834 0.14 0.95 0.25 807419 2690340 0.98 0.29 0.45 0.37 (nbgoodclauses,nbtotalgood,precisionGood,recallGood,FGood,nbbadclause,nbtotalbad,precisionBad,recallBad,FBad,accuracy)
c additional predictionFinallLBD 14 2636714 327834 0.12 0.99 0.22 381460 2690340 1.00 0.14 0.25 0.23 (nbgoodclauses,nbtotalgood,precisionGood,recallGood,FGood,nbbadclause,nbtotalbad,precisionBad,recallBad,FBad,accuracy)
c additional predictionFinallLBD 18 2809680 327834 0.12 1.00 0.21 208494 2690340 1.00 0.08 0.14 0.18 (nbgoodclauses,nbtotalgood,precisionGood,recallGood,FGood,nbbadclause,nbtotalbad,precisionBad,recallBad,FBad,accuracy)
c additional predictionFinallLBD 22 2891586 327834 0.11 1.00 0.20 126588 2690340 1.00 0.05 0.09 0.15 (nbgoodclauses,nbtotalgood,precisionGood,recallGood,FGood,nbbadclause,nbtotalbad,precisionBad,recallBad,FBad,accuracy)
c additional predictionFinallLBD 30 2960967 327834 0.11 1.00 0.20 57207 2690340 1.00 0.02 0.04 0.13 (nbgoodclauses,nbtotalgood,precisionGood,recallGood,FGood,nbbadclause,nbtotalbad,precisionBad,recallBad,FBad,accuracy)
c additional predictionFinallLBD 40 2993043 327834 0.11 1.00 0.20 25131 2690340 1.00 0.01 0.02 0.12 (nbgoodclauses,nbtotalgood,precisionGood,recallGood,FGood,nbbadclause,nbtotalbad,precisionBad,recallBad,FBad,accuracy)
c additional predictionSize 1 81 327834 0.98 0.00 0.00 3018093 2690340 0.89 8.21 1.61 0.89 (nbgoodclauses,nbtotalgood,precisionGood,recallGood,FGood,nbbadclause,nbtotalbad,precisionBad,recallBad,FBad,accuracy)
c additional predictionSize 2 3955 327834 0.96 0.01 0.02 3014219 2690340 0.89 8.21 1.61 0.89 (nbgoodclauses,nbtotalgood,precisionGood,recallGood,FGood,nbbadclause,nbtotalbad,precisionBad,recallBad,FBad,accuracy)
c additional predictionSize 3 21011 327834 0.66 0.04 0.08 2997163 2690340 0.90 8.18 1.61 0.89 (nbgoodclauses,nbtotalgood,precisionGood,recallGood,FGood,nbbadclause,nbtotalbad,precisionBad,recallBad,FBad,accuracy)
c additional predictionSize 4 52289 327834 0.53 0.08 0.14 2965885 2690340 0.90 8.13 1.62 0.89 (nbgoodclauses,nbtotalgood,precisionGood,recallGood,FGood,nbbadclause,nbtotalbad,precisionBad,recallBad,FBad,accuracy)
c additional predictionSize 5 99552 327834 0.43 0.13 0.20 2918622 2690340 0.90 8.03 1.62 0.89 (nbgoodclauses,nbtotalgood,precisionGood,recallGood,FGood,nbbadclause,nbtotalbad,precisionBad,recallBad,FBad,accuracy)
c additional predictionSize 6 166082 327834 0.35 0.18 0.23 2852092 2690340 0.91 7.88 1.62 0.87 (nbgoodclauses,nbtotalgood,precisionGood,recallGood,FGood,nbbadclause,nbtotalbad,precisionBad,recallBad,FBad,accuracy)
c additional predictionSize 7 277545 327834 0.28 0.23 0.25 2740629 2690340 0.91 7.59 1.62 0.85 (nbgoodclauses,nbtotalgood,precisionGood,recallGood,FGood,nbbadclause,nbtotalbad,precisionBad,recallBad,FBad,accuracy)
c additional predictionSize 8 477004 327834 0.22 0.32 0.26 2541170 2690340 0.91 7.07 1.62 0.80 (nbgoodclauses,nbtotalgood,precisionGood,recallGood,FGood,nbbadclause,nbtotalbad,precisionBad,recallBad,FBad,accuracy)
c additional predictionSize 10 953461 327834 0.17 0.50 0.25 2064713 2690340 0.92 5.79 1.59 0.68 (nbgoodclauses,nbtotalgood,precisionGood,recallGood,FGood,nbbadclause,nbtotalbad,precisionBad,recallBad,FBad,accuracy)
c additional predictionSize 14 1626729 327834 0.15 0.72 0.24 1391445 2690340 0.93 3.96 1.51 0.51 (nbgoodclauses,nbtotalgood,precisionGood,recallGood,FGood,nbbadclause,nbtotalbad,precisionBad,recallBad,FBad,accuracy)
c additional predictionSize 18 1904507 327834 0.14 0.79 0.23 1113667 2690340 0.94 3.19 1.45 0.43 (nbgoodclauses,nbtotalgood,precisionGood,recallGood,FGood,nbbadclause,nbtotalbad,precisionBad,recallBad,FBad,accuracy)
c additional predictionSize 22 2064579 327834 0.13 0.83 0.23 953595 2690340 0.94 2.74 1.40 0.39 (nbgoodclauses,nbtotalgood,precisionGood,recallGood,FGood,nbbadclause,nbtotalbad,precisionBad,recallBad,FBad,accuracy)
c additional predictionSize 30 2263328 327834 0.13 0.88 0.22 754846 2690340 0.95 2.18 1.32 0.33 (nbgoodclauses,nbtotalgood,precisionGood,recallGood,FGood,nbbadclause,nbtotalbad,precisionBad,recallBad,FBad,accuracy)
c additional predictionSize 40 2422854 327834 0.12 0.92 0.22 595320 2690340 0.95 1.73 1.23 0.29 (nbgoodclauses,nbtotalgood,precisionGood,recallGood,FGood,nbbadclause,nbtotalbad,precisionBad,recallBad,FBad,accuracy)
c additional predictionAge 1 720781 327834 0.13 0.29 0.18 2297393 2690340 0.90 6.29 1.57 0.71 (nbgoodclauses,nbtotalgood,precisionGood,recallGood,FGood,nbbadclause,nbtotalbad,precisionBad,recallBad,FBad,accuracy)
c additional predictionAge 10 909888 327834 0.13 0.36 0.19 2108286 2690340 0.90 5.79 1.56 0.67 (nbgoodclauses,nbtotalgood,precisionGood,recallGood,FGood,nbbadclause,nbtotalbad,precisionBad,recallBad,FBad,accuracy)
c additional predictionAge 25 988864 327834 0.13 0.39 0.19 2029310 2690340 0.90 5.58 1.55 0.65 (nbgoodclauses,nbtotalgood,precisionGood,recallGood,FGood,nbbadclause,nbtotalbad,precisionBad,recallBad,FBad,accuracy)
c additional predictionAge 50 1008264 327834 0.13 0.40 0.19 2009910 2690340 0.90 5.53 1.55 0.64 (nbgoodclauses,nbtotalgood,precisionGood,recallGood,FGood,nbbadclause,nbtotalbad,precisionBad,recallBad,FBad,accuracy)
c additional predictionAge 100 1027156 327834 0.13 0.40 0.19 1991018 2690340 0.90 5.48 1.55 0.64 (nbgoodclauses,nbtotalgood,precisionGood,recallGood,FGood,nbbadclause,nbtotalbad,precisionBad,recallBad,FBad,accuracy)
c additional predictionAge 250 1052512 327834 0.13 0.41 0.20 1965662 2690340 0.90 5.41 1.55 0.63 (nbgoodclauses,nbtotalgood,precisionGood,recallGood,FGood,nbbadclause,nbtotalbad,precisionBad,recallBad,FBad,accuracy)
c additional predictionAge 500 1069311 327834 0.13 0.42 0.20 1948863 2690340 0.90 5.36 1.54 0.63 (nbgoodclauses,nbtotalgood,precisionGood,recallGood,FGood,nbbadclause,nbtotalbad,precisionBad,recallBad,FBad,accuracy)
c additional predictionAge 1000 1081894 327834 0.13 0.42 0.20 1936280 2690340 0.90 5.33 1.54 0.62 (nbgoodclauses,nbtotalgood,precisionGood,recallGood,FGood,nbbadclause,nbtotalbad,precisionBad,recallBad,FBad,accuracy)
c additional predictionAge 2500 1095564 327834 0.13 0.43 0.20 1922610 2690340 0.90 5.29 1.54 0.62 (nbgoodclauses,nbtotalgood,precisionGood,recallGood,FGood,nbbadclause,nbtotalbad,precisionBad,recallBad,FBad,accuracy)
c additional predictionAge 5000 1104337 327834 0.13 0.43 0.20 1913837 2690340 0.90 5.27 1.54 0.62 (nbgoodclauses,nbtotalgood,precisionGood,recallGood,FGood,nbbadclause,nbtotalbad,precisionBad,recallBad,FBad,accuracy)
c additional predictionAge 10000 1114055 327834 0.13 0.44 0.20 1904119 2690340 0.90 5.25 1.54 0.62 (nbgoodclauses,nbtotalgood,precisionGood,recallGood,FGood,nbbadclause,nbtotalbad,precisionBad,recallBad,FBad,accuracy)
c additional predictionAge 25000 1134124 327834 0.13 0.45 0.20 1884050 2690340 0.91 5.20 1.54 0.61 (nbgoodclauses,nbtotalgood,precisionGood,recallGood,FGood,nbbadclause,nbtotalbad,precisionBad,recallBad,FBad,accuracy)
c additional predictionAge 50000 1162100 327834 0.13 0.47 0.21 1856074 2690340 0.91 5.13 1.54 0.61 (nbgoodclauses,nbtotalgood,precisionGood,recallGood,FGood,nbbadclause,nbtotalbad,precisionBad,recallBad,FBad,accuracy)
c additional predictionAge 100000 1209414 327834 0.13 0.50 0.21 1808760 2690340 0.91 5.01 1.54 0.60 (nbgoodclauses,nbtotalgood,precisionGood,recallGood,FGood,nbbadclause,nbtotalbad,precisionBad,recallBad,FBad,accuracy)
c additional predictionTicks 1 722136 327834 0.13 0.29 0.18 2296038 2690340 0.90 6.29 1.57 0.71 (nbgoodclauses,nbtotalgood,precisionGood,recallGood,FGood,nbbadclause,nbtotalbad,precisionBad,recallBad,FBad,accuracy)
c additional predictionTicks 10 1004063 327834 0.13 0.40 0.20 2014111 2690340 0.90 5.54 1.55 0.64 (nbgoodclauses,nbtotalgood,precisionGood,recallGood,FGood,nbbadclause,nbtotalbad,precisionBad,recallBad,FBad,accuracy)
c additional predictionTicks 25 1177259 327834 0.13 0.46 0.20 1840915 2690340 0.90 5.08 1.54 0.60 (nbgoodclauses,nbtotalgood,precisionGood,recallGood,FGood,nbbadclause,nbtotalbad,precisionBad,recallBad,FBad,accuracy)
c additional predictionTicks 50 1258734 327834 0.13 0.50 0.20 1759440 2690340 0.91 4.86 1.53 0.58 (nbgoodclauses,nbtotalgood,precisionGood,recallGood,FGood,nbbadclause,nbtotalbad,precisionBad,recallBad,FBad,accuracy)
c additional predictionTicks 100 1346947 327834 0.13 0.53 0.21 1671227 2690340 0.91 4.63 1.52 0.56 (nbgoodclauses,nbtotalgood,precisionGood,recallGood,FGood,nbbadclause,nbtotalbad,precisionBad,recallBad,FBad,accuracy)
c additional predictionTicks 250 1473146 327834 0.13 0.58 0.21 1545028 2690340 0.91 4.29 1.50 0.53 (nbgoodclauses,nbtotalgood,precisionGood,recallGood,FGood,nbbadclause,nbtotalbad,precisionBad,recallBad,FBad,accuracy)
c additional predictionTicks 500 1575193 327834 0.13 0.62 0.21 1442981 2690340 0.91 4.02 1.49 0.50 (nbgoodclauses,nbtotalgood,precisionGood,recallGood,FGood,nbbadclause,nbtotalbad,precisionBad,recallBad,FBad,accuracy)
c additional predictionTicks 1000 1683944 327834 0.13 0.67 0.22 1334230 2690340 0.92 3.74 1.47 0.48 (nbgoodclauses,nbtotalgood,precisionGood,recallGood,FGood,nbbadclause,nbtotalbad,precisionBad,recallBad,FBad,accuracy)
c additional predictionTicks 2500 1836607 327834 0.13 0.73 0.22 1181567 2690340 0.92 3.33 1.45 0.44 (nbgoodclauses,nbtotalgood,precisionGood,recallGood,FGood,nbbadclause,nbtotalbad,precisionBad,recallBad,FBad,accuracy)
c additional predictionTicks 5000 1959562 327834 0.13 0.77 0.22 1058612 2690340 0.93 3.00 1.42 0.41 (nbgoodclauses,nbtotalgood,precisionGood,recallGood,FGood,nbbadclause,nbtotalbad,precisionBad,recallBad,FBad,accuracy)
c additional predictionTicks 10000 2093665 327834 0.13 0.81 0.22 924509 2690340 0.93 2.63 1.38 0.37 (nbgoodclauses,nbtotalgood,precisionGood,recallGood,FGood,nbbadclause,nbtotalbad,precisionBad,recallBad,FBad,accuracy)
c additional predictionTicks 25000 2290352 327834 0.12 0.87 0.22 727822 2690340 0.94 2.09 1.30 0.32 (nbgoodclauses,nbtotalgood,precisionGood,recallGood,FGood,nbbadclause,nbtotalbad,precisionBad,recallBad,FBad,accuracy)
c additional predictionTicks 50000 2459878 327834 0.12 0.90 0.21 558296 2690340 0.94 1.61 1.19 0.27 (nbgoodclauses,nbtotalgood,precisionGood,recallGood,FGood,nbbadclause,nbtotalbad,precisionBad,recallBad,FBad,accuracy)
c additional predictionTicks 100000 2644993 327834 0.12 0.94 0.21 373181 2690340 0.95 1.08 1.01 0.22 (nbgoodclauses,nbtotalgood,precisionGood,recallGood,FGood,nbbadclause,nbtotalbad,precisionBad,recallBad,FBad,accuracy)
c additional lifetimeGood 1 6 18 234 75324 1072249 2384072 2747940 2865263 2969730 3018509 3018526 (0,1,5,10,25,50,75,90,95,99,100-1,100)
c additional lifetimeBad 1 6 36 396 191542 950246 1871790 2463861 2702544 2914899 3018497 3018514 (0,1,5,10,25,50,75,90,95,99,100-1,100)
c additional lifetimeBadBad 2 6 6 12 66 2280 244495 926196 1472985 2334425 3011417 3013908 (0,1,5,10,25,50,75,90,95,99,100-1,100)
c additional compositionBad 1 3 5 7 8 12 30 82 140 340 2849 2952 (0,1,5,10,25,50,75,90,95,99,100-1,100)
c additional compositionBadWithGood 0 0 0 0 0 1 7 27 51 134 913 1148 (0,1,5,10,25,50,75,90,95,99,100-1,100)
c additional compositionBadWithBad 0 0 0 0 0 1 2 8 16 38 390 405 (0,1,5,10,25,50,75,90,95,99,100-1,100)
c additional compositionBadWithInitial 0 1 3 4 7 10 19 46 77 185 2254 2282 (0,1,5,10,25,50,75,90,95,99,100-1,100)
c additional compositionGood 1 2 3 4 7 9 15 35 62 181 1264 1328 (0,1,5,10,25,50,75,90,95,99,100-1,100)
c additional compositionGoodWithGood 0 0 0 0 0 1 4 16 31 109 785 847 (0,1,5,10,25,50,75,90,95,99,100-1,100)
c additional compositionGoodWithInitial 0 0 2 3 6 8 11 20 33 79 550 567 (0,1,5,10,25,50,75,90,95,99,100-1,100)
c additional propagationGood total 239084013 percentiles 0 1 1 1 2 10 76 675 2257 18200 113274 120780 (0,1,5,10,25,50,75,90,95,99,100-1,100)
c additional propagationBad total 38871767 percentiles 1 1 1 1 1 2 6 20 40 199 75144 90801 (0,1,5,10,25,50,75,90,95,99,100-1,100)
c additional resolutionGood total 21620023 percentiles 0 1 1 1 1 5 21 89 227 1288 20232 24627 (0,1,5,10,25,50,75,90,95,99,100-1,100)
c additional resolutionBad total 8434099 percentiles 0 0 0 0 1 1 3 7 11 34 1601 2204 (0,1,5,10,25,50,75,90,95,99,100-1,100)
No graph is dumped
c result of core 5 is UNSAT
c One thread has finished
c Core 5 said it finished
c result of core 0 is UNKNOWN
c result of core 1 is UNKNOWN
c result of core 3 is UNKNOWN
c result of core 2 is UNKNOWN
c result of core 4 is UNKNOWN
c restarts              : 1553 (323 conflicts in avg)
c blocked restarts      : 3735 (multiple: 889) 
c last block at restart : 1553
c nb ReduceDB           : 18
c nb removed Clauses    : 449415
c nb learnts DL2        : 2003
c nb learnts size 2     : 631
c nb learnts size 1     : 13
c conflicts             : 503029         (602 /sec)
c decisions             : 3147244        (0.00 % random) (3764 /sec)
c propagations          : 212220467      (253807 /sec)
c conflict literals     : 15963587       (8.46 % deleted)
c nb reduced Clauses    : 2900
c CPU time              : 836.148 s

s INDETERMINATE
