c
c This is glucose-proof 1.0 based on  2.1 --  (thanks to MiniSAT)
c
c EXPERIMENTAL EASY PARALLEL (ROUND ROBIN) VERSION
c
c WARNING: for repeatability, setting FPU to use double precision
c Parallel version 6 solvers created.
c ========================================[ Problem Statistics ]===========================================
c |                                                                                                       |
c |  Number of variables:          4367                                                                   |
c |  Number of clauses:          210034                                                                   |
c |  Parse time:                   0.50 s                                                                 |
c |                                                                                                       |
c ========================================[ MAGIC CONSTANTS ]==============================================
c | Constants are supposed to work well together :-)                                                      |
c | however, if you find better choices, please let us known...                                           |
c |-------------------------------------------------------------------------------------------------------|
c |                                |                                |                                     |
c | - Restarts:                    | - Reduce Clause DB:            | - Minimize Asserting:               |
c |   * LBD Queue    :     50      |   * First     :   4000         |    * size <  30                     |
c |   * Trail  Queue :   5000      |   * Inc       :    300         |    * lbd  <   6                     |
c |   * K            :   0.80      |   * Special   :   1000         |                                     |
c |   * R            :   1.40      |   * Protected :  (lbd)< 30     |                                     |
c |                                |                                |                                     |
c ==================================[ Search Statistics (every  10000 conflicts) ]=========================
c |                                                                                                       |
c |          RESTARTS           |          ORIGINAL         |              LEARNT              | Progress |
c |       NB   Blocked  Avg Cfc |    Vars  Clauses Literals |   Red   Learnts    LBD2  Removed |          |
c =========================================================================================================
c |       37         0      270 |    4330   210034  1538828 |     1     8000      108     2221 |  0.847 % |
c |       55        91      363 |    4328   210034  1538828 |     3     6966      152    13795 |  0.893 % |
c |       78       128      384 |    4322   210034  1538828 |     3    16966      228    13795 |  1.030 % |
c |      102       219      392 |    4320   210034  1538828 |     4    17692      261    23444 |  1.076 % |
c |      131       285      381 |    4319   210034  1538828 |     5    15848      309    35684 |  1.099 % |
c |      153       344      392 |    4318   210034  1538828 |     5    25848      335    35684 |  1.122 % |
c |      175       416      400 |    4318   210034  1538828 |     6    21430      371    50547 |  1.122 % |
c |      192       468      416 |    4316   210034  1538828 |     6    31429      409    50547 |  1.168 % |
c |      209       581      430 |    4316   210034  1538828 |     7    24438      446    67959 |  1.168 % |
c |      222       641      450 |    4316   210034  1538828 |     7    34438      475    67959 |  1.168 % |
c |      236       707      466 |    4315   210034  1538828 |     8    24823      497    88090 |  1.191 % |
c |      259       776      463 |    4314   210034  1538828 |     8    34823      527    88090 |  1.214 % |
c |      278       860      467 |    4314   210034  1538828 |     9    22616      565   110838 |  1.214 % |
c |      290       890      482 |    4314   210034  1538828 |     9    32616      594   110838 |  1.214 % |
c |      309       989      485 |    4314   210034  1538828 |     9    42616      647   110838 |  1.214 % |
c |      328      1054      487 |    4313   210034  1538828 |    10    27823      670   136285 |  1.237 % |
c |      340      1135      500 |    4313   210034  1538828 |    10    37823      692   136285 |  1.237 % |
c |      370      1217      486 |    4313   210034  1538828 |    10    47823      734   136285 |  1.237 % |
c |      386      1287      492 |    4313   210034  1538828 |    11    30429      795   164255 |  1.237 % |
c |      405      1361      493 |    4313   210034  1538828 |    11    40429      840   164255 |  1.237 % |
c |      422      1459      497 |    4313   210034  1538828 |    11    50429      862   164255 |  1.237 % |
c |      433      1488      508 |    4313   210034  1538828 |    12    30429      897   195124 |  1.237 % |
c |      456      1558      504 |    4313   210034  1538828 |    12    40429      909   195124 |  1.237 % |
c |      473      1616      507 |    4312   210034  1538828 |    12    50429      927   195124 |  1.259 % |
c |      493      1695      507 |    4312   210034  1538828 |    12    60429      959   195124 |  1.259 % |
c |      511      1784      508 |    4312   210034  1538828 |    13    37819      995   228617 |  1.259 % |
c |      531      1836      508 |    4312   210034  1538828 |    13    47819     1054   228617 |  1.259 % |
c |      544      1877      514 |    4311   210034  1538828 |    13    57819     1139   228617 |  1.282 % |
c |      558      1951      519 |    4311   210034  1538828 |    13    67819     1169   228617 |  1.282 % |
c |      565      2021      530 |    4311   210034  1538828 |    14    42618     1239   264582 |  1.282 % |
c |      580      2091      534 |    4311   210034  1538828 |    14    52618     1288   264582 |  1.282 % |
c |      598      2152      535 |    4310   210034  1538828 |    14    62617     1332   264582 |  1.305 % |
c |      617      2203      534 |    4310   210034  1538828 |    14    72617     1391   264582 |  1.305 % |
c |      628      2259      541 |    4310   210034  1538828 |    15    44835     1440   303208 |  1.305 % |
c |      644      2328      543 |    4310   210034  1538828 |    15    54835     1505   303208 |  1.305 % |
c |      658      2392      547 |    4310   210034  1538828 |    15    64835     1540   303208 |  1.305 % |
c |      682      2466      542 |    4310   210034  1538828 |    15    74835     1572   303208 |  1.305 % |
c |      697      2520      545 |    4310   210034  1538828 |    16    44421     1640   344594 |  1.305 % |
c |      718      2612      543 |    4308   210034  1538828 |    16    54421     1683   344594 |  1.351 % |
c |      737      2695      542 |    4308   210034  1538828 |    16    64421     1708   344594 |  1.351 % |
c |      753      2765      544 |    4308   210034  1538828 |    16    74398     1761   344594 |  1.351 % |
c |      764      2815      549 |    4308   210034  1538828 |    16    84398     1851   344594 |  1.351 % |
c |      772      2897      556 |    4308   210034  1538828 |    17    51411     1883   388549 |  1.351 % |
c |      784      2966      561 |    4308   210034  1538828 |    17    61411     1915   388549 |  1.351 % |
c |      804      3060      559 |    4301   210034  1538828 |    17    71411     1943   388549 |  1.511 % |
c |      812      3123      566 |    4301   210034  1538828 |    17    81411     1966   388549 |  1.511 % |
c |      836      3195      562 |    4301   210034  1538828 |    18    45817     1997   435244 |  1.511 % |
c |      854      3288      562 |    4301   210034  1538828 |    18    55725     2029   435244 |  1.511 % |
c |      871      3351      562 |    4300   210034  1538828 |    18    65724     2083   435244 |  1.534 % |
c |      883      3436      566 |    4300   210034  1538828 |    18    75724     2135   435244 |  1.534 % |
c |      901      3525      566 |    4300   210034  1538828 |    18    85724     2208   435244 |  1.534 % |
c |      913      3604      569 |    4300   210034  1538828 |    18    95724     2232   435244 |  1.534 % |
c |      929      3706      570 |    4299   210034  1538828 |    19    57595     2302   484971 |  1.557 % |
c |      948      3796      569 |    4299   210034  1538828 |    19    67595     2332   484971 |  1.557 % |
c |      968      3857      568 |    4292   210034  1538828 |    19    77594     2386   484971 |  1.717 % |
c |      977      3944      573 |    4292   210034  1538828 |    19    87594     2416   484971 |  1.717 % |
c |      985      4039      578 |    4291   210034  1538828 |    19    97593     2453   484971 |  1.740 % |
c |      997      4066      581 |    4291   210034  1538828 |    20    56822     2529   537271 |  1.740 % |
c |     1007      4161      585 |    4284   210034  1538828 |    20    65146     2569   537271 |  1.901 % |
c |     1016      4235      590 |    4274   210034  1538828 |    20    75145     2619   537271 |  2.130 % |
c |     1020      4322      598 |    4274   210034  1538828 |    20    85145     2677   537271 |  2.130 % |
c |     1032      4389      600 |    4253   210034  1538828 |    20    95143     2706   537271 |  2.610 % |
c |     1051      4447      599 |    4246   210034  1538828 |    20   105143     2738   537271 |  2.771 % |
c |     1066      4478      600 |    4238   210034  1538828 |    21    62576     2796   591314 |  2.954 % |
c |     1088      4541      597 |    4231   210034  1538828 |    21    72576     2830   591314 |  3.114 % |
c |     1100      4604      600 |    4224   210034  1538828 |    21    78387     2851   591314 |  3.275 % |
c |     1115      4624      600 |    4217   210034  1538828 |    21    88387     2915   591314 |  3.435 % |
c |     1135      4637      599 |    4217   210034  1538828 |    21    98387     2934   591314 |  3.435 % |
c |     1152      4681      598 |    4216   210034  1538828 |    22    54906     2951   646175 |  3.458 % |
c |     1159      4681      603 |    4216   210034  1538828 |    22    64906     2977   646175 |  3.458 % |
c |     1173      4683      605 |    4216   210034  1538828 |    22    74906     3035   646175 |  3.458 % |
c |     1178      4685      611 |    4209   210034  1538828 |    22    84906     3114   646175 |  3.618 % |
c empty clause found by core 3 at conflict 720490
*
c checking the resolution graph...OK
c All useful bySize 1046745 clauses, percentiles 0 3 7 7 8 9 13 20 23 28 65 68 (0,1,5,10,25,50,75,90,95,99,100-1,100)
c All useless bySize 3486592 clauses, percentiles 0 7 8 8 11 17 23 28 32 51 286 289 (0,1,5,10,25,50,75,90,95,99,100-1,100)
c ProofOnly useful bySize 842430 clauses, percentiles 0 4 7 8 8 11 15 21 23 29 65 68 (0,1,5,10,25,50,75,90,95,99,100-1,100)
c ProofOnly useless bySize 3480508 clauses, percentiles 1 7 8 8 11 17 23 28 32 51 286 289 (0,1,5,10,25,50,75,90,95,99,100-1,100)
c All useful byFinalLBD 1046745 clauses, percentiles 0 1 2 3 4 6 7 8 9 11 21 21 (0,1,5,10,25,50,75,90,95,99,100-1,100)
c All useless byFinalLBD 3486592 clauses, percentiles 0 3 4 5 6 8 10 12 15 23 105 105 (0,1,5,10,25,50,75,90,95,99,100-1,100)
c ProofOnly useful byFinalLBD 842430 clauses, percentiles 0 1 2 3 4 5 7 8 9 11 21 21 (0,1,5,10,25,50,75,90,95,99,100-1,100)
c ProofOnly useless byFinalLBD 3480508 clauses, percentiles 1 3 4 5 6 8 10 12 15 23 105 105 (0,1,5,10,25,50,75,90,95,99,100-1,100)
c All useful byInitialLBD 1046745 clauses, percentiles 0 2 3 4 5 6 7 8 9 11 21 22 (0,1,5,10,25,50,75,90,95,99,100-1,100)
c All useless byInitialLBD 3486592 clauses, percentiles 0 3 5 5 7 8 10 13 15 23 105 105 (0,1,5,10,25,50,75,90,95,99,100-1,100)
c ProofOnly useful byInitialLBD 842430 clauses, percentiles 0 2 3 4 5 6 7 8 9 11 21 22 (0,1,5,10,25,50,75,90,95,99,100-1,100)
c ProofOnly useless byInitialLBD 3480508 clauses, percentiles 1 3 5 5 7 8 10 13 15 23 105 105 (0,1,5,10,25,50,75,90,95,99,100-1,100)
c Literals ProofOnly useful 10448200
c Literals ProofOnly useless 63578997
c additional windowsGood 1 1 1 1 1 1 1 2 2 4 301 324 (0,1,5,10,25,50,75,90,95,99,100-1,100)
c additional windowsBad 1 1 1 1 2 4 5 5 11 53 1218 2206 (0,1,5,10,25,50,75,90,95,99,100-1,100)
c additional 1WindowNoDecision 530865 273614 0.52 128509 56230 0.44 (nbWindowsGood,nbWindowsNoDecisionGood,nbWindowsBad,nbWindowsNoDecisionBad
c additional topclausessize all (10%,5%,1%,top) 23.71 26.33 32.63 68
c additional topclausessize proofonly (10%,5%,1%,top) 24.11 26.69 33.07 68
c additional topclausesinitialLBD all (10%,5%,1%,top) 22.26 25.08 31.19 68
c additional topclausesinitialLBD proofonly (10%,5%,1%,top) 21.00 24.11 30.17 68
c additional topclausesfinalLBD all (10%,5%,1%,top) 19.63 23.12 29.22 68
c additional topclausesfinalLBD proofonly (10%,5%,1%,top) 18.71 22.42 28.59 68
c additional predictionInitialLBD 1 77 842430 0.99 0.00 0.00 4322861 3480508 0.81 4.13 1.35 0.81 (nbgoodclauses,nbtotalgood,precisionGood,recallGood,FGood,nbbadclause,nbtotalbad,precisionBad,recallBad,FBad,accuracy)
c additional predictionInitialLBD 2 18783 842430 0.67 0.02 0.03 4304155 3480508 0.81 4.12 1.35 0.81 (nbgoodclauses,nbtotalgood,precisionGood,recallGood,FGood,nbbadclause,nbtotalbad,precisionBad,recallBad,FBad,accuracy)
c additional predictionInitialLBD 3 106903 842430 0.62 0.08 0.14 4216035 3480508 0.82 4.08 1.36 0.81 (nbgoodclauses,nbtotalgood,precisionGood,recallGood,FGood,nbbadclause,nbtotalbad,precisionBad,recallBad,FBad,accuracy)
c additional predictionInitialLBD 4 346314 842430 0.54 0.22 0.32 3976624 3480508 0.84 3.94 1.38 0.81 (nbgoodclauses,nbtotalgood,precisionGood,recallGood,FGood,nbbadclause,nbtotalbad,precisionBad,recallBad,FBad,accuracy)
c additional predictionInitialLBD 5 796208 842430 0.46 0.43 0.45 3526730 3480508 0.86 3.62 1.40 0.79 (nbgoodclauses,nbtotalgood,precisionGood,recallGood,FGood,nbbadclause,nbtotalbad,precisionBad,recallBad,FBad,accuracy)
c additional predictionInitialLBD 6 1420197 842430 0.39 0.66 0.49 2902741 3480508 0.90 3.10 1.40 0.73 (nbgoodclauses,nbtotalgood,precisionGood,recallGood,FGood,nbbadclause,nbtotalbad,precisionBad,recallBad,FBad,accuracy)
c additional predictionInitialLBD 7 2104203 842430 0.33 0.83 0.47 2218735 3480508 0.93 2.46 1.35 0.64 (nbgoodclauses,nbtotalgood,precisionGood,recallGood,FGood,nbbadclause,nbtotalbad,precisionBad,recallBad,FBad,accuracy)
c additional predictionInitialLBD 8 2730994 842430 0.28 0.92 0.43 1591944 3480508 0.96 1.81 1.25 0.53 (nbgoodclauses,nbtotalgood,precisionGood,recallGood,FGood,nbbadclause,nbtotalbad,precisionBad,recallBad,FBad,accuracy)
c additional predictionInitialLBD 10 3591134 842430 0.23 0.98 0.37 731804 3480508 0.98 0.85 0.91 0.36 (nbgoodclauses,nbtotalgood,precisionGood,recallGood,FGood,nbbadclause,nbtotalbad,precisionBad,recallBad,FBad,accuracy)
c additional predictionInitialLBD 14 4117626 842430 0.20 1.00 0.34 205312 3480508 1.00 0.24 0.39 0.24 (nbgoodclauses,nbtotalgood,precisionGood,recallGood,FGood,nbbadclause,nbtotalbad,precisionBad,recallBad,FBad,accuracy)
c additional predictionInitialLBD 18 4239636 842430 0.20 1.00 0.33 83302 3480508 1.00 0.10 0.18 0.21 (nbgoodclauses,nbtotalgood,precisionGood,recallGood,FGood,nbbadclause,nbtotalbad,precisionBad,recallBad,FBad,accuracy)
c additional predictionInitialLBD 22 4285327 842430 0.20 1.00 0.33 37611 3480508 1.00 0.04 0.09 0.20 (nbgoodclauses,nbtotalgood,precisionGood,recallGood,FGood,nbbadclause,nbtotalbad,precisionBad,recallBad,FBad,accuracy)
c additional predictionInitialLBD 30 4313233 842430 0.20 1.00 0.33 9705 3480508 1.00 0.01 0.02 0.20 (nbgoodclauses,nbtotalgood,precisionGood,recallGood,FGood,nbbadclause,nbtotalbad,precisionBad,recallBad,FBad,accuracy)
c additional predictionInitialLBD 40 4320582 842430 0.19 1.00 0.33 2356 3480508 1.00 0.00 0.01 0.20 (nbgoodclauses,nbtotalgood,precisionGood,recallGood,FGood,nbbadclause,nbtotalbad,precisionBad,recallBad,FBad,accuracy)
c additional predictionFinallLBD 1 25966 842430 0.79 0.02 0.05 4296972 3480508 0.81 1.00 0.89 0.81 (nbgoodclauses,nbtotalgood,precisionGood,recallGood,FGood,nbbadclause,nbtotalbad,precisionBad,recallBad,FBad,accuracy)
c additional predictionFinallLBD 2 109980 842430 0.71 0.09 0.16 4212958 3480508 0.82 0.99 0.90 0.82 (nbgoodclauses,nbtotalgood,precisionGood,recallGood,FGood,nbbadclause,nbtotalbad,precisionBad,recallBad,FBad,accuracy)
c additional predictionFinallLBD 3 276299 842430 0.64 0.21 0.32 4046639 3480508 0.84 0.97 0.90 0.82 (nbgoodclauses,nbtotalgood,precisionGood,recallGood,FGood,nbbadclause,nbtotalbad,precisionBad,recallBad,FBad,accuracy)
c additional predictionFinallLBD 4 587717 842430 0.54 0.38 0.45 3735221 3480508 0.86 0.92 0.89 0.82 (nbgoodclauses,nbtotalgood,precisionGood,recallGood,FGood,nbbadclause,nbtotalbad,precisionBad,recallBad,FBad,accuracy)
c additional predictionFinallLBD 5 1072426 842430 0.45 0.57 0.50 3250512 3480508 0.89 0.83 0.86 0.78 (nbgoodclauses,nbtotalgood,precisionGood,recallGood,FGood,nbbadclause,nbtotalbad,precisionBad,recallBad,FBad,accuracy)
c additional predictionFinallLBD 6 1663428 842430 0.38 0.75 0.50 2659510 3480508 0.92 0.70 0.80 0.71 (nbgoodclauses,nbtotalgood,precisionGood,recallGood,FGood,nbbadclause,nbtotalbad,precisionBad,recallBad,FBad,accuracy)
c additional predictionFinallLBD 7 2278428 842430 0.32 0.87 0.47 2044510 3480508 0.95 0.56 0.70 0.62 (nbgoodclauses,nbtotalgood,precisionGood,recallGood,FGood,nbbadclause,nbtotalbad,precisionBad,recallBad,FBad,accuracy)
c additional predictionFinallLBD 8 2841163 842430 0.28 0.94 0.43 1481775 3480508 0.96 0.41 0.58 0.51 (nbgoodclauses,nbtotalgood,precisionGood,recallGood,FGood,nbbadclause,nbtotalbad,precisionBad,recallBad,FBad,accuracy)
c additional predictionFinallLBD 10 3625755 842430 0.23 0.99 0.37 697183 3480508 0.98 0.20 0.33 0.35 (nbgoodclauses,nbtotalgood,precisionGood,recallGood,FGood,nbbadclause,nbtotalbad,precisionBad,recallBad,FBad,accuracy)
c additional predictionFinallLBD 14 4122053 842430 0.20 1.00 0.34 200885 3480508 1.00 0.06 0.11 0.24 (nbgoodclauses,nbtotalgood,precisionGood,recallGood,FGood,nbbadclause,nbtotalbad,precisionBad,recallBad,FBad,accuracy)
c additional predictionFinallLBD 18 4240991 842430 0.20 1.00 0.33 81947 3480508 1.00 0.02 0.05 0.21 (nbgoodclauses,nbtotalgood,precisionGood,recallGood,FGood,nbbadclause,nbtotalbad,precisionBad,recallBad,FBad,accuracy)
c additional predictionFinallLBD 22 4285891 842430 0.20 1.00 0.33 37047 3480508 1.00 0.01 0.02 0.20 (nbgoodclauses,nbtotalgood,precisionGood,recallGood,FGood,nbbadclause,nbtotalbad,precisionBad,recallBad,FBad,accuracy)
c additional predictionFinallLBD 30 4313397 842430 0.20 1.00 0.33 9541 3480508 1.00 0.00 0.01 0.20 (nbgoodclauses,nbtotalgood,precisionGood,recallGood,FGood,nbbadclause,nbtotalbad,precisionBad,recallBad,FBad,accuracy)
c additional predictionFinallLBD 40 4320625 842430 0.19 1.00 0.33 2313 3480508 1.00 0.00 0.00 0.20 (nbgoodclauses,nbtotalgood,precisionGood,recallGood,FGood,nbbadclause,nbtotalbad,precisionBad,recallBad,FBad,accuracy)
c additional predictionSize 1 77 842430 0.99 0.00 0.00 4322861 3480508 0.81 4.13 1.35 0.81 (nbgoodclauses,nbtotalgood,precisionGood,recallGood,FGood,nbbadclause,nbtotalbad,precisionBad,recallBad,FBad,accuracy)
c additional predictionSize 2 2002 842430 0.97 0.00 0.00 4320936 3480508 0.81 4.13 1.35 0.81 (nbgoodclauses,nbtotalgood,precisionGood,recallGood,FGood,nbbadclause,nbtotalbad,precisionBad,recallBad,FBad,accuracy)
c additional predictionSize 3 6154 842430 0.87 0.01 0.01 4316784 3480508 0.81 4.13 1.35 0.81 (nbgoodclauses,nbtotalgood,precisionGood,recallGood,FGood,nbbadclause,nbtotalbad,precisionBad,recallBad,FBad,accuracy)
c additional predictionSize 4 11639 842430 0.82 0.01 0.02 4311299 3480508 0.81 4.13 1.35 0.81 (nbgoodclauses,nbtotalgood,precisionGood,recallGood,FGood,nbbadclause,nbtotalbad,precisionBad,recallBad,FBad,accuracy)
c additional predictionSize 5 19171 842430 0.80 0.02 0.04 4303767 3480508 0.81 4.13 1.35 0.81 (nbgoodclauses,nbtotalgood,precisionGood,recallGood,FGood,nbbadclause,nbtotalbad,precisionBad,recallBad,FBad,accuracy)
c additional predictionSize 6 33176 842430 0.76 0.03 0.06 4289762 3480508 0.81 4.12 1.35 0.81 (nbgoodclauses,nbtotalgood,precisionGood,recallGood,FGood,nbbadclause,nbtotalbad,precisionBad,recallBad,FBad,accuracy)
c additional predictionSize 7 148779 842430 0.52 0.09 0.16 4174159 3480508 0.82 4.05 1.36 0.81 (nbgoodclauses,nbtotalgood,precisionGood,recallGood,FGood,nbbadclause,nbtotalbad,precisionBad,recallBad,FBad,accuracy)
c additional predictionSize 8 612732 842430 0.37 0.27 0.32 3710206 3480508 0.83 3.68 1.36 0.77 (nbgoodclauses,nbtotalgood,precisionGood,recallGood,FGood,nbbadclause,nbtotalbad,precisionBad,recallBad,FBad,accuracy)
c additional predictionSize 10 1267802 842430 0.32 0.48 0.38 3055136 3480508 0.86 3.11 1.34 0.70 (nbgoodclauses,nbtotalgood,precisionGood,recallGood,FGood,nbbadclause,nbtotalbad,precisionBad,recallBad,FBad,accuracy)
c additional predictionSize 14 1982905 842430 0.31 0.74 0.44 2340033 3480508 0.91 2.52 1.33 0.63 (nbgoodclauses,nbtotalgood,precisionGood,recallGood,FGood,nbbadclause,nbtotalbad,precisionBad,recallBad,FBad,accuracy)
c additional predictionSize 18 2621981 842430 0.27 0.85 0.41 1700957 3480508 0.92 1.87 1.24 0.53 (nbgoodclauses,nbtotalgood,precisionGood,recallGood,FGood,nbbadclause,nbtotalbad,precisionBad,recallBad,FBad,accuracy)
c additional predictionSize 22 3259828 842430 0.24 0.94 0.38 1063110 3480508 0.95 1.20 1.06 0.42 (nbgoodclauses,nbtotalgood,precisionGood,recallGood,FGood,nbbadclause,nbtotalbad,precisionBad,recallBad,FBad,accuracy)
c additional predictionSize 30 4085871 842430 0.20 0.99 0.34 237067 3480508 0.97 0.27 0.43 0.25 (nbgoodclauses,nbtotalgood,precisionGood,recallGood,FGood,nbbadclause,nbtotalbad,precisionBad,recallBad,FBad,accuracy)
c additional predictionSize 40 4250805 842430 0.20 1.00 0.33 72133 3480508 0.99 0.08 0.16 0.21 (nbgoodclauses,nbtotalgood,precisionGood,recallGood,FGood,nbbadclause,nbtotalbad,precisionBad,recallBad,FBad,accuracy)
c additional predictionAge 1 764546 842430 0.26 0.23 0.24 3558392 3480508 0.82 3.46 1.32 0.72 (nbgoodclauses,nbtotalgood,precisionGood,recallGood,FGood,nbbadclause,nbtotalbad,precisionBad,recallBad,FBad,accuracy)
c additional predictionAge 10 1054634 842430 0.23 0.29 0.26 3268304 3480508 0.82 3.17 1.30 0.68 (nbgoodclauses,nbtotalgood,precisionGood,recallGood,FGood,nbbadclause,nbtotalbad,precisionBad,recallBad,FBad,accuracy)
c additional predictionAge 25 1244346 842430 0.22 0.33 0.26 3078592 3480508 0.82 2.98 1.28 0.64 (nbgoodclauses,nbtotalgood,precisionGood,recallGood,FGood,nbbadclause,nbtotalbad,precisionBad,recallBad,FBad,accuracy)
c additional predictionAge 50 1288404 842430 0.22 0.33 0.26 3034534 3480508 0.82 2.94 1.28 0.64 (nbgoodclauses,nbtotalgood,precisionGood,recallGood,FGood,nbbadclause,nbtotalbad,precisionBad,recallBad,FBad,accuracy)
c additional predictionAge 100 1332346 842430 0.22 0.34 0.26 2990592 3480508 0.81 2.89 1.27 0.63 (nbgoodclauses,nbtotalgood,precisionGood,recallGood,FGood,nbbadclause,nbtotalbad,precisionBad,recallBad,FBad,accuracy)
c additional predictionAge 250 1443507 842430 0.21 0.36 0.26 2879431 3480508 0.81 2.78 1.26 0.61 (nbgoodclauses,nbtotalgood,precisionGood,recallGood,FGood,nbbadclause,nbtotalbad,precisionBad,recallBad,FBad,accuracy)
c additional predictionAge 500 1561299 842430 0.21 0.38 0.27 2761639 3480508 0.81 2.66 1.24 0.59 (nbgoodclauses,nbtotalgood,precisionGood,recallGood,FGood,nbbadclause,nbtotalbad,precisionBad,recallBad,FBad,accuracy)
c additional predictionAge 1000 1656496 842430 0.21 0.41 0.27 2666442 3480508 0.81 2.57 1.23 0.58 (nbgoodclauses,nbtotalgood,precisionGood,recallGood,FGood,nbbadclause,nbtotalbad,precisionBad,recallBad,FBad,accuracy)
c additional predictionAge 2500 1750032 842430 0.21 0.43 0.28 2572906 3480508 0.81 2.49 1.23 0.57 (nbgoodclauses,nbtotalgood,precisionGood,recallGood,FGood,nbbadclause,nbtotalbad,precisionBad,recallBad,FBad,accuracy)
c additional predictionAge 5000 1804747 842430 0.21 0.45 0.28 2518191 3480508 0.81 2.43 1.22 0.56 (nbgoodclauses,nbtotalgood,precisionGood,recallGood,FGood,nbbadclause,nbtotalbad,precisionBad,recallBad,FBad,accuracy)
c additional predictionAge 10000 1839601 842430 0.21 0.46 0.29 2483337 3480508 0.82 2.40 1.22 0.56 (nbgoodclauses,nbtotalgood,precisionGood,recallGood,FGood,nbbadclause,nbtotalbad,precisionBad,recallBad,FBad,accuracy)
c additional predictionAge 25000 1872235 842430 0.21 0.46 0.29 2450703 3480508 0.82 2.37 1.21 0.55 (nbgoodclauses,nbtotalgood,precisionGood,recallGood,FGood,nbbadclause,nbtotalbad,precisionBad,recallBad,FBad,accuracy)
c additional predictionAge 50000 1915733 842430 0.21 0.47 0.29 2407205 3480508 0.82 2.33 1.21 0.55 (nbgoodclauses,nbtotalgood,precisionGood,recallGood,FGood,nbbadclause,nbtotalbad,precisionBad,recallBad,FBad,accuracy)
c additional predictionAge 100000 1999344 842430 0.20 0.49 0.29 2323594 3480508 0.81 2.24 1.19 0.53 (nbgoodclauses,nbtotalgood,precisionGood,recallGood,FGood,nbbadclause,nbtotalbad,precisionBad,recallBad,FBad,accuracy)
c additional predictionTicks 1 764887 842430 0.26 0.23 0.24 3558051 3480508 0.82 3.46 1.32 0.72 (nbgoodclauses,nbtotalgood,precisionGood,recallGood,FGood,nbbadclause,nbtotalbad,precisionBad,recallBad,FBad,accuracy)
c additional predictionTicks 10 1186696 842430 0.23 0.32 0.26 3136242 3480508 0.82 3.04 1.29 0.65 (nbgoodclauses,nbtotalgood,precisionGood,recallGood,FGood,nbbadclause,nbtotalbad,precisionBad,recallBad,FBad,accuracy)
c additional predictionTicks 25 1621796 842430 0.20 0.39 0.27 2701142 3480508 0.81 2.60 1.23 0.58 (nbgoodclauses,nbtotalgood,precisionGood,recallGood,FGood,nbbadclause,nbtotalbad,precisionBad,recallBad,FBad,accuracy)
c additional predictionTicks 50 1863513 842430 0.19 0.43 0.27 2459425 3480508 0.80 2.35 1.20 0.54 (nbgoodclauses,nbtotalgood,precisionGood,recallGood,FGood,nbbadclause,nbtotalbad,precisionBad,recallBad,FBad,accuracy)
c additional predictionTicks 100 2124600 842430 0.19 0.47 0.27 2198338 3480508 0.80 2.08 1.15 0.50 (nbgoodclauses,nbtotalgood,precisionGood,recallGood,FGood,nbbadclause,nbtotalbad,precisionBad,recallBad,FBad,accuracy)
c additional predictionTicks 250 2514082 842430 0.18 0.55 0.28 1808856 3480508 0.79 1.70 1.08 0.44 (nbgoodclauses,nbtotalgood,precisionGood,recallGood,FGood,nbbadclause,nbtotalbad,precisionBad,recallBad,FBad,accuracy)
c additional predictionTicks 500 2761995 842430 0.19 0.62 0.29 1560943 3480508 0.79 1.47 1.03 0.41 (nbgoodclauses,nbtotalgood,precisionGood,recallGood,FGood,nbbadclause,nbtotalbad,precisionBad,recallBad,FBad,accuracy)
c additional predictionTicks 1000 2940501 842430 0.19 0.67 0.30 1382437 3480508 0.80 1.31 0.99 0.39 (nbgoodclauses,nbtotalgood,precisionGood,recallGood,FGood,nbbadclause,nbtotalbad,precisionBad,recallBad,FBad,accuracy)
c additional predictionTicks 2500 3142614 842430 0.20 0.73 0.31 1180324 3480508 0.81 1.14 0.95 0.36 (nbgoodclauses,nbtotalgood,precisionGood,recallGood,FGood,nbbadclause,nbtotalbad,precisionBad,recallBad,FBad,accuracy)
c additional predictionTicks 5000 3263227 842430 0.20 0.77 0.32 1059711 3480508 0.82 1.03 0.91 0.35 (nbgoodclauses,nbtotalgood,precisionGood,recallGood,FGood,nbbadclause,nbtotalbad,precisionBad,recallBad,FBad,accuracy)
c additional predictionTicks 10000 3341042 842430 0.20 0.80 0.32 981896 3480508 0.83 0.97 0.89 0.34 (nbgoodclauses,nbtotalgood,precisionGood,recallGood,FGood,nbbadclause,nbtotalbad,precisionBad,recallBad,FBad,accuracy)
c additional predictionTicks 25000 3435853 842430 0.20 0.83 0.33 887085 3480508 0.84 0.88 0.86 0.33 (nbgoodclauses,nbtotalgood,precisionGood,recallGood,FGood,nbbadclause,nbtotalbad,precisionBad,recallBad,FBad,accuracy)
c additional predictionTicks 50000 3569065 842430 0.20 0.85 0.32 753873 3480508 0.83 0.74 0.78 0.31 (nbgoodclauses,nbtotalgood,precisionGood,recallGood,FGood,nbbadclause,nbtotalbad,precisionBad,recallBad,FBad,accuracy)
c additional predictionTicks 100000 3752186 842430 0.20 0.87 0.32 570752 3480508 0.82 0.55 0.66 0.28 (nbgoodclauses,nbtotalgood,precisionGood,recallGood,FGood,nbbadclause,nbtotalbad,precisionBad,recallBad,FBad,accuracy)
c additional lifetimeGood 1 6 6 6 144 199386 1489123 2819871 3425624 4104847 4323209 4323212 (0,1,5,10,25,50,75,90,95,99,100-1,100)
c additional lifetimeBad 1 6 6 6 18 34038 899521 2118296 2808800 3764723 4323197 4323207 (0,1,5,10,25,50,75,90,95,99,100-1,100)
c additional lifetimeBadBad 1 6 6 6 6 30 2616 755731 1755654 3058077 4285804 4311121 (0,1,5,10,25,50,75,90,95,99,100-1,100)
c additional compositionBad 1 2 2 3 4 8 21 34 51 82 472 479 (0,1,5,10,25,50,75,90,95,99,100-1,100)
c additional compositionBadWithGood 0 0 0 0 0 0 2 4 6 11 71 74 (0,1,5,10,25,50,75,90,95,99,100-1,100)
c additional compositionBadWithBad 0 0 0 0 0 1 2 4 5 7 30 32 (0,1,5,10,25,50,75,90,95,99,100-1,100)
c additional compositionBadWithInitial 0 0 1 2 3 6 18 30 45 70 424 433 (0,1,5,10,25,50,75,90,95,99,100-1,100)
c additional compositionGood 1 2 2 2 3 7 20 57 64 74 194 202 (0,1,5,10,25,50,75,90,95,99,100-1,100)
c additional compositionGoodWithGood 0 0 0 0 1 2 5 9 11 16 63 65 (0,1,5,10,25,50,75,90,95,99,100-1,100)
c additional compositionGoodWithInitial 0 0 1 2 2 4 14 49 55 63 145 146 (0,1,5,10,25,50,75,90,95,99,100-1,100)
c additional propagationGood total 15940711 percentiles 0 1 1 1 1 1 4 13 25 115 35911 40651 (0,1,5,10,25,50,75,90,95,99,100-1,100)
c additional propagationBad total 7163332 percentiles 1 1 1 1 1 1 2 3 5 15 2537 2849 (0,1,5,10,25,50,75,90,95,99,100-1,100)
c additional resolutionGood total 5829276 percentiles 0 1 1 1 1 1 3 7 13 43 12511 13152 (0,1,5,10,25,50,75,90,95,99,100-1,100)
c additional resolutionBad total 5913776 percentiles 0 0 1 1 1 1 1 3 4 9 1694 1697 (0,1,5,10,25,50,75,90,95,99,100-1,100)
No graph is dumped
c result of core 3 is UNSAT
c One thread has finished
c Core 3 said it finished
c result of core 5 is UNKNOWN
c result of core 4 is UNKNOWN
c result of core 2 is UNKNOWN
c result of core 1 is UNKNOWN
c result of core 0 is UNKNOWN
c restarts              : 1178 (611 conflicts in avg)
c blocked restarts      : 4685 (multiple: 469) 
c last block at restart : 1178
c nb ReduceDB           : 22
c nb removed Clauses    : 646175
c nb learnts DL2        : 3129
c nb learnts size 2     : 350
c nb learnts size 1     : 13
c conflicts             : 720490         (1416 /sec)
c decisions             : 1223737        (0.00 % random) (2406 /sec)
c propagations          : 26337929       (51773 /sec)
c conflict literals     : 12299662       (4.02 % deleted)
c nb reduced Clauses    : 1434
c CPU time              : 508.721 s

s INDETERMINATE
