c
c This is glucose-proof 1.0 based on  2.1 --  (thanks to MiniSAT)
c
c EXPERIMENTAL EASY PARALLEL (ROUND ROBIN) VERSION
c
c WARNING: for repeatability, setting FPU to use double precision
c Parallel version 4 solvers created.
c ========================================[ Problem Statistics ]===========================================
c |                                                                                                       |
c |  Number of variables:          4367                                                                   |
c |  Number of clauses:          210034                                                                   |
c |  Parse time:                   0.44 s                                                                 |
c |                                                                                                       |
c ========================================[ MAGIC CONSTANTS ]==============================================
c | Constants are supposed to work well together :-)                                                      |
c | however, if you find better choices, please let us known...                                           |
c |-------------------------------------------------------------------------------------------------------|
c |                                |                                |                                     |
c | - Restarts:                    | - Reduce Clause DB:            | - Minimize Asserting:               |
c |   * LBD Queue    :     50      |   * First     :   4000         |    * size <  30                     |
c |   * Trail  Queue :   5000      |   * Inc       :    300         |    * lbd  <   6                     |
c |   * K            :   0.80      |   * Special   :   1000         |                                     |
c |   * R            :   1.40      |   * Protected :  (lbd)< 30     |                                     |
c |                                |                                |                                     |
c ==================================[ Search Statistics (every  10000 conflicts) ]=========================
c |                                                                                                       |
c |          RESTARTS           |          ORIGINAL         |              LEARNT              | Progress |
c |       NB   Blocked  Avg Cfc |    Vars  Clauses Literals |   Red   Learnts    LBD2  Removed |          |
c =========================================================================================================
c |       26         0      384 |    4341   210034  1538828 |     1     8005      105     2147 |  0.595 % |
c |       57        60      350 |    4329   210034  1538828 |     3     6957      227    13585 |  0.870 % |
c |       79       159      379 |    4328   210034  1538828 |     3    16957      268    13585 |  0.893 % |
c |      119       207      336 |    4322   210034  1538828 |     4    17677      333    23093 |  1.030 % |
c |      139       271      359 |    4322   210034  1538828 |     5    15862      395    35176 |  1.030 % |
c |      173       336      346 |    4321   210034  1538828 |     5    25862      464    35176 |  1.053 % |
c |      197       415      355 |    4320   210034  1538828 |     6    21449      493    49812 |  1.076 % |
c |      216       476      370 |    4319   210034  1538828 |     6    31448      578    49812 |  1.099 % |
c |      248       538      362 |    4318   210034  1538828 |     7    24437      652    67041 |  1.122 % |
c |      268       612      373 |    4318   210034  1538828 |     7    34437      739    67041 |  1.122 % |
c |      296       705      371 |    4318   210034  1538828 |     8    24824      771    87039 |  1.122 % |
c |      323       780      371 |    4318   210034  1538828 |     8    34824      812    87039 |  1.122 % |
c |      339       874      383 |    4318   210034  1538828 |     9    22641      872   109610 |  1.122 % |
c |      373       928      375 |    4318   210034  1538828 |     9    32641      909   109610 |  1.122 % |
c |      408       998      367 |    4318   210034  1538828 |     9    42641      949   109610 |  1.122 % |
c |      439      1072      364 |    4318   210034  1538828 |    10    27831      983   134803 |  1.122 % |
c |      463      1151      367 |    4318   210034  1538828 |    10    37831     1010   134803 |  1.122 % |
c |      482      1219      373 |    4317   210034  1538828 |    10    47831     1033   134803 |  1.145 % |
c |      491      1266      386 |    4317   210034  1538828 |    11    30416     1095   162554 |  1.145 % |
c |      503      1355      397 |    4317   210034  1538828 |    11    40416     1127   162554 |  1.145 % |
c |      526      1423      399 |    4317   210034  1538828 |    11    50416     1154   162554 |  1.145 % |
c |      541      1502      406 |    4317   210034  1538828 |    12    30439     1176   192862 |  1.145 % |
c |      558      1586      412 |    4317   210034  1538828 |    12    40439     1194   192862 |  1.145 % |
c |      570      1652      421 |    4317   210034  1538828 |    12    50439     1235   192862 |  1.145 % |
c |      594      1734      420 |    4317   210034  1538828 |    12    60439     1261   192862 |  1.145 % |
c |      606      1800      429 |    4317   210034  1538828 |    13    37845     1292   225829 |  1.145 % |
c |      624      1871      432 |    4317   210034  1538828 |    13    47845     1357   225829 |  1.145 % |
c |      641      1938      436 |    4317   210034  1538828 |    13    57845     1359   225829 |  1.145 % |
c |      656      2003      442 |    4317   210034  1538828 |    13    67845     1382   225829 |  1.145 % |
c |      669      2083      448 |    4317   210034  1538828 |    14    42629     1404   261489 |  1.145 % |
c |      683      2172      453 |    4317   210034  1538828 |    14    52629     1438   261489 |  1.145 % |
c |      706      2209      453 |    4317   210034  1538828 |    14    62629     1469   261489 |  1.145 % |
c |      722      2280      457 |    4317   210034  1538828 |    14    72629     1501   261489 |  1.145 % |
c |      740      2350      459 |    4317   210034  1538828 |    15    44824     1531   299871 |  1.145 % |
c |      763      2430      458 |    4317   210034  1538828 |    15    54824     1555   299871 |  1.145 % |
c |      783      2476      459 |    4317   210034  1538828 |    15    64824     1607   299871 |  1.145 % |
c |      796      2552      464 |    4317   210034  1538828 |    15    74824     1620   299871 |  1.145 % |
c |      805      2625      472 |    4317   210034  1538828 |    16    44431     1630   340706 |  1.145 % |
c |      822      2701      474 |    4317   210034  1538828 |    16    54431     1660   340706 |  1.145 % |
c |      834      2755      479 |    4317   210034  1538828 |    16    64431     1696   340706 |  1.145 % |
c |      848      2837      483 |    4317   210034  1538828 |    16    74431     1745   340706 |  1.145 % |
c |      872      2930      481 |    4317   210034  1538828 |    16    84431     1794   340706 |  1.145 % |
c |      889      3012      483 |    4317   210034  1538828 |    17    51421     1819   384339 |  1.145 % |
c |      902      3105      487 |    4317   210034  1538828 |    17    61421     1871   384339 |  1.145 % |
c |      927      3171      485 |    4317   210034  1538828 |    17    71421     1918   384339 |  1.145 % |
c |      944      3259      487 |    4317   210034  1538828 |    17    81421     1928   384339 |  1.145 % |
c |      972      3335      483 |    4317   210034  1538828 |    18    45845     1972   430653 |  1.145 % |
c |      981      3414      489 |    4317   210034  1538828 |    18    55845     1996   430653 |  1.145 % |
c |     1004      3451      488 |    4317   210034  1538828 |    18    65845     2010   430653 |  1.145 % |
c |     1027      3519      486 |    4317   210034  1538828 |    18    75845     2023   430653 |  1.145 % |
c |     1044      3601      488 |    4317   210034  1538828 |    18    85845     2045   430653 |  1.145 % |
c |     1058      3657      491 |    4317   210034  1538828 |    18    95845     2093   430653 |  1.145 % |
c |     1075      3764      493 |    4317   210034  1538828 |    19    57644     2112   479720 |  1.145 % |
c |     1088      3839      496 |    4317   210034  1538828 |    19    67644     2136   479720 |  1.145 % |
c |     1114      3907      493 |    4317   210034  1538828 |    19    77644     2157   479720 |  1.145 % |
c |     1127      3978      496 |    4317   210034  1538828 |    19    87644     2201   479720 |  1.145 % |
c |     1145      4068      497 |    4317   210034  1538828 |    19    97644     2219   479720 |  1.145 % |
c |     1166      4145      497 |    4317   210034  1538828 |    20    56831     2245   531266 |  1.145 % |
c |     1178      4230      500 |    4317   210034  1538828 |    20    66831     2321   531266 |  1.145 % |
c |     1188      4313      505 |    4317   210034  1538828 |    20    76831     2352   531266 |  1.145 % |
c |     1206      4342      505 |    4317   210034  1538828 |    20    86831     2385   531266 |  1.145 % |
c |     1221      4441      507 |    4315   210034  1538828 |    20    96830     2407   531266 |  1.191 % |
c |     1248      4519      504 |    4308   210034  1538828 |    20   106830     2449   531266 |  1.351 % |
c |     1259      4572      508 |    4308   210034  1538828 |    21    63448     2505   585393 |  1.351 % |
c |     1275      4672      509 |    4308   210034  1538828 |    21    73448     2533   585393 |  1.351 % |
c |     1293      4723      510 |    4308   210034  1538828 |    21    83448     2558   585393 |  1.351 % |
c |     1313      4779      510 |    4308   210034  1538828 |    21    93448     2588   585393 |  1.351 % |
c |     1329      4839      511 |    4307   210034  1538828 |    21   103448     2628   585393 |  1.374 % |
c |     1345      4924      513 |    4307   210034  1538828 |    22    57436     2665   642266 |  1.374 % |
c |     1362      5011      513 |    4307   210034  1538828 |    22    67000     2720   642266 |  1.374 % |
c |     1380      5078      514 |    4307   210034  1538828 |    22    77000     2765   642266 |  1.374 % |
c |     1393      5147      516 |    4307   210034  1538828 |    22    87000     2825   642266 |  1.374 % |
c |     1404      5222      519 |    4307   210034  1538828 |    22    97000     2897   642266 |  1.374 % |
c |     1422      5279      520 |    4300   210034  1538828 |    22   106999     2951   642266 |  1.534 % |
c |     1439      5360      521 |    4300   210034  1538828 |    23    58614     2985   701615 |  1.534 % |
c |     1456      5432      521 |    4300   210034  1538828 |    23    68245     3029   701615 |  1.534 % |
c |     1465      5533      525 |    4300   210034  1538828 |    23    78245     3081   701615 |  1.534 % |
c |     1474      5582      529 |    4298   210034  1538828 |    23    88244     3146   701615 |  1.580 % |
c |     1488      5669      530 |    4298   210034  1538828 |    23    98244     3184   701615 |  1.580 % |
c |     1504      5759      531 |    4291   210034  1538828 |    23   108244     3250   701615 |  1.740 % |
c |     1518      5820      533 |    4291   210034  1538828 |    23   118244     3303   701615 |  1.740 % |
c |     1532      5916      535 |    4291   210034  1538828 |    24    67137     3362   763591 |  1.740 % |
c |     1548      5970      536 |    4284   210034  1538828 |    24    77137     3384   763591 |  1.901 % |
c |     1564      6039      537 |    4284   210034  1538828 |    24    87137     3428   763591 |  1.901 % |
c |     1576      6099      539 |    4277   210034  1538828 |    24    97136     3506   763591 |  2.061 % |
c |     1587      6115      541 |    4270   210034  1538828 |    24   107135     3531   763591 |  2.221 % |
c |     1594      6173      545 |    4263   210034  1538828 |    24   117135     3592   763591 |  2.382 % |
c |     1602      6259      549 |    4256   210034  1538828 |    24   111687     3643   763591 |  2.542 % |
c |     1611      6338      552 |    4256   210034  1538828 |    25    65872     3697   820476 |  2.542 % |
c |     1628      6394      552 |    4235   210034  1538828 |    25    75872     3719   820476 |  3.023 % |
c |     1646      6394      552 |    4228   210034  1538828 |    25    85871     3762   820476 |  3.183 % |
c |     1667      6403      551 |    4228   210034  1538828 |    25    95871     3816   820476 |  3.183 % |
c |     1679      6403      553 |    4228   210034  1538828 |    25   105871     3842   820476 |  3.183 % |
c |     1692      6454      555 |    4228   210034  1538828 |    25   115871     3905   820476 |  3.183 % |
c |     1706      6498      556 |    4226   210034  1538828 |    26    63455     3991   883900 |  3.229 % |
c |     1721      6503      557 |    4226   210034  1538828 |    26    73455     4002   883900 |  3.229 % |
c |     1747      6509      555 |    4226   210034  1538828 |    26    83455     4031   883900 |  3.229 % |
c |     1762      6543      556 |    4226   210034  1538828 |    26    92380     4059   883900 |  3.229 % |
c |     1779      6543      556 |    4226   210034  1538828 |    26   102380     4077   883900 |  3.229 % |
c |     1795      6567      557 |    4225   210034  1538828 |    26   112379     4110   883900 |  3.252 % |
c |     1806      6567      559 |    4225   210034  1538828 |    26   122379     4123   883900 |  3.252 % |
c empty clause found by core 1 at conflict 1012905
*
c checking the resolution graph...OK
c All useful bySize 999770 clauses, percentiles 0 3 7 7 8 9 13 19 22 27 55 60 (0,1,5,10,25,50,75,90,95,99,100-1,100)
c All useless bySize 3262071 clauses, percentiles 0 7 8 8 11 17 24 29 33 51 258 268 (0,1,5,10,25,50,75,90,95,99,100-1,100)
c ProofOnly useful bySize 795372 clauses, percentiles 0 4 7 8 8 10 14 20 23 28 55 60 (0,1,5,10,25,50,75,90,95,99,100-1,100)
c ProofOnly useless bySize 3256246 clauses, percentiles 1 7 8 8 11 17 24 29 33 51 258 268 (0,1,5,10,25,50,75,90,95,99,100-1,100)
c All useful byFinalLBD 999770 clauses, percentiles 0 1 2 3 4 6 7 8 8 10 24 24 (0,1,5,10,25,50,75,90,95,99,100-1,100)
c All useless byFinalLBD 3262071 clauses, percentiles 0 3 4 5 6 8 10 12 15 23 105 105 (0,1,5,10,25,50,75,90,95,99,100-1,100)
c ProofOnly useful byFinalLBD 795372 clauses, percentiles 0 1 2 3 4 5 6 8 9 11 24 24 (0,1,5,10,25,50,75,90,95,99,100-1,100)
c ProofOnly useless byFinalLBD 3256246 clauses, percentiles 1 3 4 5 6 8 10 12 15 23 105 105 (0,1,5,10,25,50,75,90,95,99,100-1,100)
c All useful byInitialLBD 999770 clauses, percentiles 0 2 3 4 5 6 7 8 9 11 24 24 (0,1,5,10,25,50,75,90,95,99,100-1,100)
c All useless byInitialLBD 3262071 clauses, percentiles 0 3 5 5 7 8 10 13 15 23 105 111 (0,1,5,10,25,50,75,90,95,99,100-1,100)
c ProofOnly useful byInitialLBD 795372 clauses, percentiles 0 2 3 4 5 6 7 8 9 11 24 24 (0,1,5,10,25,50,75,90,95,99,100-1,100)
c ProofOnly useless byInitialLBD 3256246 clauses, percentiles 1 3 5 5 7 8 10 13 15 23 105 111 (0,1,5,10,25,50,75,90,95,99,100-1,100)
c Literals ProofOnly useful 9547350
c Literals ProofOnly useless 60393812
c additional windowsGood 1 1 1 1 1 1 1 2 2 3 467 565 (0,1,5,10,25,50,75,90,95,99,100-1,100)
c additional windowsBad 1 1 1 1 2 3 3 5 15 66 2899 3562 (0,1,5,10,25,50,75,90,95,99,100-1,100)
c additional 1WindowNoDecision 511633 264031 0.52 126809 55292 0.44 (nbWindowsGood,nbWindowsNoDecisionGood,nbWindowsBad,nbWindowsNoDecisionBad
c additional topclausessize all (10%,5%,1%,top) 22.99 25.41 30.37 60
c additional topclausessize proofonly (10%,5%,1%,top) 23.42 25.76 30.76 60
c additional topclausesinitialLBD all (10%,5%,1%,top) 21.48 24.31 29.32 60
c additional topclausesinitialLBD proofonly (10%,5%,1%,top) 20.13 23.42 28.58 60
c additional topclausesfinalLBD all (10%,5%,1%,top) 18.74 22.41 27.80 60
c additional topclausesfinalLBD proofonly (10%,5%,1%,top) 17.89 21.67 27.31 60
c additional predictionInitialLBD 1 67 795372 0.99 0.00 0.00 4051551 3256246 0.80 4.09 1.34 0.80 (nbgoodclauses,nbtotalgood,precisionGood,recallGood,FGood,nbbadclause,nbtotalbad,precisionBad,recallBad,FBad,accuracy)
c additional predictionInitialLBD 2 17152 795372 0.71 0.02 0.03 4034466 3256246 0.81 4.09 1.35 0.81 (nbgoodclauses,nbtotalgood,precisionGood,recallGood,FGood,nbbadclause,nbtotalbad,precisionBad,recallBad,FBad,accuracy)
c additional predictionInitialLBD 3 98497 795372 0.65 0.08 0.14 3953121 3256246 0.81 4.05 1.36 0.81 (nbgoodclauses,nbtotalgood,precisionGood,recallGood,FGood,nbbadclause,nbtotalbad,precisionBad,recallBad,FBad,accuracy)
c additional predictionInitialLBD 4 322231 795372 0.55 0.22 0.32 3729387 3256246 0.83 3.91 1.38 0.81 (nbgoodclauses,nbtotalgood,precisionGood,recallGood,FGood,nbbadclause,nbtotalbad,precisionBad,recallBad,FBad,accuracy)
c additional predictionInitialLBD 5 744600 795372 0.47 0.44 0.45 3307018 3256246 0.87 3.60 1.40 0.79 (nbgoodclauses,nbtotalgood,precisionGood,recallGood,FGood,nbbadclause,nbtotalbad,precisionBad,recallBad,FBad,accuracy)
c additional predictionInitialLBD 6 1325121 795372 0.40 0.67 0.50 2726497 3256246 0.90 3.09 1.40 0.74 (nbgoodclauses,nbtotalgood,precisionGood,recallGood,FGood,nbbadclause,nbtotalbad,precisionBad,recallBad,FBad,accuracy)
c additional predictionInitialLBD 7 1961182 795372 0.34 0.84 0.48 2090436 3256246 0.94 2.46 1.36 0.65 (nbgoodclauses,nbtotalgood,precisionGood,recallGood,FGood,nbbadclause,nbtotalbad,precisionBad,recallBad,FBad,accuracy)
c additional predictionInitialLBD 8 2546571 795372 0.29 0.93 0.44 1505047 3256246 0.96 1.82 1.26 0.54 (nbgoodclauses,nbtotalgood,precisionGood,recallGood,FGood,nbbadclause,nbtotalbad,precisionBad,recallBad,FBad,accuracy)
c additional predictionInitialLBD 10 3357431 795372 0.23 0.99 0.38 694187 3256246 0.98 0.86 0.92 0.36 (nbgoodclauses,nbtotalgood,precisionGood,recallGood,FGood,nbbadclause,nbtotalbad,precisionBad,recallBad,FBad,accuracy)
c additional predictionInitialLBD 14 3860030 795372 0.21 1.00 0.34 191588 3256246 1.00 0.24 0.39 0.24 (nbgoodclauses,nbtotalgood,precisionGood,recallGood,FGood,nbbadclause,nbtotalbad,precisionBad,recallBad,FBad,accuracy)
c additional predictionInitialLBD 18 3973273 795372 0.20 1.00 0.33 78345 3256246 1.00 0.10 0.18 0.22 (nbgoodclauses,nbtotalgood,precisionGood,recallGood,FGood,nbbadclause,nbtotalbad,precisionBad,recallBad,FBad,accuracy)
c additional predictionInitialLBD 22 4015858 795372 0.20 1.00 0.33 35760 3256246 1.00 0.04 0.09 0.21 (nbgoodclauses,nbtotalgood,precisionGood,recallGood,FGood,nbbadclause,nbtotalbad,precisionBad,recallBad,FBad,accuracy)
c additional predictionInitialLBD 30 4042266 795372 0.20 1.00 0.33 9352 3256246 1.00 0.01 0.02 0.20 (nbgoodclauses,nbtotalgood,precisionGood,recallGood,FGood,nbbadclause,nbtotalbad,precisionBad,recallBad,FBad,accuracy)
c additional predictionInitialLBD 40 4049638 795372 0.20 1.00 0.33 1980 3256246 1.00 0.00 0.00 0.20 (nbgoodclauses,nbtotalgood,precisionGood,recallGood,FGood,nbbadclause,nbtotalbad,precisionBad,recallBad,FBad,accuracy)
c additional predictionFinallLBD 1 26702 795372 0.82 0.03 0.05 4024916 3256246 0.81 1.00 0.89 0.81 (nbgoodclauses,nbtotalgood,precisionGood,recallGood,FGood,nbbadclause,nbtotalbad,precisionBad,recallBad,FBad,accuracy)
c additional predictionFinallLBD 2 105615 795372 0.75 0.10 0.17 3946003 3256246 0.82 0.99 0.90 0.82 (nbgoodclauses,nbtotalgood,precisionGood,recallGood,FGood,nbbadclause,nbtotalbad,precisionBad,recallBad,FBad,accuracy)
c additional predictionFinallLBD 3 260226 795372 0.66 0.22 0.33 3791392 3256246 0.84 0.97 0.90 0.82 (nbgoodclauses,nbtotalgood,precisionGood,recallGood,FGood,nbbadclause,nbtotalbad,precisionBad,recallBad,FBad,accuracy)
c additional predictionFinallLBD 4 554237 795372 0.55 0.39 0.46 3497381 3256246 0.86 0.92 0.89 0.82 (nbgoodclauses,nbtotalgood,precisionGood,recallGood,FGood,nbbadclause,nbtotalbad,precisionBad,recallBad,FBad,accuracy)
c additional predictionFinallLBD 5 1009988 795372 0.46 0.58 0.51 3041630 3256246 0.89 0.83 0.86 0.78 (nbgoodclauses,nbtotalgood,precisionGood,recallGood,FGood,nbbadclause,nbtotalbad,precisionBad,recallBad,FBad,accuracy)
c additional predictionFinallLBD 6 1559513 795372 0.39 0.76 0.51 2492105 3256246 0.92 0.71 0.80 0.72 (nbgoodclauses,nbtotalgood,precisionGood,recallGood,FGood,nbbadclause,nbtotalbad,precisionBad,recallBad,FBad,accuracy)
c additional predictionFinallLBD 7 2129733 795372 0.33 0.88 0.48 1921885 3256246 0.95 0.56 0.70 0.62 (nbgoodclauses,nbtotalgood,precisionGood,recallGood,FGood,nbbadclause,nbtotalbad,precisionBad,recallBad,FBad,accuracy)
c additional predictionFinallLBD 8 2653794 795372 0.28 0.94 0.44 1397824 3256246 0.97 0.42 0.58 0.52 (nbgoodclauses,nbtotalgood,precisionGood,recallGood,FGood,nbbadclause,nbtotalbad,precisionBad,recallBad,FBad,accuracy)
c additional predictionFinallLBD 10 3391471 795372 0.23 0.99 0.38 660147 3256246 0.99 0.20 0.33 0.35 (nbgoodclauses,nbtotalgood,precisionGood,recallGood,FGood,nbbadclause,nbtotalbad,precisionBad,recallBad,FBad,accuracy)
c additional predictionFinallLBD 14 3864062 795372 0.21 1.00 0.34 187556 3256246 1.00 0.06 0.11 0.24 (nbgoodclauses,nbtotalgood,precisionGood,recallGood,FGood,nbbadclause,nbtotalbad,precisionBad,recallBad,FBad,accuracy)
c additional predictionFinallLBD 18 3974554 795372 0.20 1.00 0.33 77064 3256246 1.00 0.02 0.05 0.22 (nbgoodclauses,nbtotalgood,precisionGood,recallGood,FGood,nbbadclause,nbtotalbad,precisionBad,recallBad,FBad,accuracy)
c additional predictionFinallLBD 22 4016411 795372 0.20 1.00 0.33 35207 3256246 1.00 0.01 0.02 0.20 (nbgoodclauses,nbtotalgood,precisionGood,recallGood,FGood,nbbadclause,nbtotalbad,precisionBad,recallBad,FBad,accuracy)
c additional predictionFinallLBD 30 4042421 795372 0.20 1.00 0.33 9197 3256246 1.00 0.00 0.01 0.20 (nbgoodclauses,nbtotalgood,precisionGood,recallGood,FGood,nbbadclause,nbtotalbad,precisionBad,recallBad,FBad,accuracy)
c additional predictionFinallLBD 40 4049669 795372 0.20 1.00 0.33 1949 3256246 1.00 0.00 0.00 0.20 (nbgoodclauses,nbtotalgood,precisionGood,recallGood,FGood,nbbadclause,nbtotalbad,precisionBad,recallBad,FBad,accuracy)
c additional predictionSize 1 67 795372 0.99 0.00 0.00 4051551 3256246 0.80 4.09 1.34 0.80 (nbgoodclauses,nbtotalgood,precisionGood,recallGood,FGood,nbbadclause,nbtotalbad,precisionBad,recallBad,FBad,accuracy)
c additional predictionSize 2 1857 795372 0.98 0.00 0.00 4049761 3256246 0.80 4.09 1.34 0.80 (nbgoodclauses,nbtotalgood,precisionGood,recallGood,FGood,nbbadclause,nbtotalbad,precisionBad,recallBad,FBad,accuracy)
c additional predictionSize 3 5744 795372 0.89 0.01 0.01 4045874 3256246 0.80 4.09 1.34 0.80 (nbgoodclauses,nbtotalgood,precisionGood,recallGood,FGood,nbbadclause,nbtotalbad,precisionBad,recallBad,FBad,accuracy)
c additional predictionSize 4 10946 795372 0.83 0.01 0.02 4040672 3256246 0.81 4.09 1.35 0.81 (nbgoodclauses,nbtotalgood,precisionGood,recallGood,FGood,nbbadclause,nbtotalbad,precisionBad,recallBad,FBad,accuracy)
c additional predictionSize 5 18194 795372 0.81 0.02 0.04 4033424 3256246 0.81 4.09 1.35 0.81 (nbgoodclauses,nbtotalgood,precisionGood,recallGood,FGood,nbbadclause,nbtotalbad,precisionBad,recallBad,FBad,accuracy)
c additional predictionSize 6 31977 795372 0.77 0.03 0.06 4019641 3256246 0.81 4.08 1.35 0.81 (nbgoodclauses,nbtotalgood,precisionGood,recallGood,FGood,nbbadclause,nbtotalbad,precisionBad,recallBad,FBad,accuracy)
c additional predictionSize 7 142263 795372 0.55 0.10 0.17 3909355 3256246 0.82 4.01 1.36 0.81 (nbgoodclauses,nbtotalgood,precisionGood,recallGood,FGood,nbbadclause,nbtotalbad,precisionBad,recallBad,FBad,accuracy)
c additional predictionSize 8 575317 795372 0.40 0.29 0.33 3476301 3256246 0.84 3.66 1.36 0.77 (nbgoodclauses,nbtotalgood,precisionGood,recallGood,FGood,nbbadclause,nbtotalbad,precisionBad,recallBad,FBad,accuracy)
c additional predictionSize 10 1189042 795372 0.34 0.51 0.41 2862576 3256246 0.86 3.11 1.35 0.71 (nbgoodclauses,nbtotalgood,precisionGood,recallGood,FGood,nbbadclause,nbtotalbad,precisionBad,recallBad,FBad,accuracy)
c additional predictionSize 14 1859245 795372 0.33 0.77 0.46 2192373 3256246 0.92 2.53 1.35 0.65 (nbgoodclauses,nbtotalgood,precisionGood,recallGood,FGood,nbbadclause,nbtotalbad,precisionBad,recallBad,FBad,accuracy)
c additional predictionSize 18 2440051 795372 0.28 0.87 0.43 1611567 3256246 0.93 1.89 1.25 0.54 (nbgoodclauses,nbtotalgood,precisionGood,recallGood,FGood,nbbadclause,nbtotalbad,precisionBad,recallBad,FBad,accuracy)
c additional predictionSize 22 3010895 795372 0.25 0.94 0.39 1040723 3256246 0.96 1.25 1.08 0.43 (nbgoodclauses,nbtotalgood,precisionGood,recallGood,FGood,nbbadclause,nbtotalbad,precisionBad,recallBad,FBad,accuracy)
c additional predictionSize 30 3809709 795372 0.21 1.00 0.34 241909 3256246 0.99 0.30 0.46 0.25 (nbgoodclauses,nbtotalgood,precisionGood,recallGood,FGood,nbbadclause,nbtotalbad,precisionBad,recallBad,FBad,accuracy)
c additional predictionSize 40 3977974 795372 0.20 1.00 0.33 73644 3256246 1.00 0.09 0.17 0.21 (nbgoodclauses,nbtotalgood,precisionGood,recallGood,FGood,nbbadclause,nbtotalbad,precisionBad,recallBad,FBad,accuracy)
c additional predictionAge 1 684863 795372 0.27 0.23 0.25 3366755 3256246 0.82 3.46 1.32 0.73 (nbgoodclauses,nbtotalgood,precisionGood,recallGood,FGood,nbbadclause,nbtotalbad,precisionBad,recallBad,FBad,accuracy)
c additional predictionAge 10 1052196 795372 0.24 0.32 0.27 2999422 3256246 0.82 3.09 1.29 0.67 (nbgoodclauses,nbtotalgood,precisionGood,recallGood,FGood,nbbadclause,nbtotalbad,precisionBad,recallBad,FBad,accuracy)
c additional predictionAge 25 1140081 795372 0.23 0.33 0.27 2911537 3256246 0.82 2.99 1.28 0.65 (nbgoodclauses,nbtotalgood,precisionGood,recallGood,FGood,nbbadclause,nbtotalbad,precisionBad,recallBad,FBad,accuracy)
c additional predictionAge 50 1176759 795372 0.23 0.34 0.27 2874859 3256246 0.82 2.95 1.28 0.65 (nbgoodclauses,nbtotalgood,precisionGood,recallGood,FGood,nbbadclause,nbtotalbad,precisionBad,recallBad,FBad,accuracy)
c additional predictionAge 100 1230521 795372 0.22 0.35 0.27 2821097 3256246 0.82 2.89 1.27 0.64 (nbgoodclauses,nbtotalgood,precisionGood,recallGood,FGood,nbbadclause,nbtotalbad,precisionBad,recallBad,FBad,accuracy)
c additional predictionAge 250 1352392 795372 0.22 0.37 0.28 2699226 3256246 0.82 2.77 1.26 0.62 (nbgoodclauses,nbtotalgood,precisionGood,recallGood,FGood,nbbadclause,nbtotalbad,precisionBad,recallBad,FBad,accuracy)
c additional predictionAge 500 1447520 795372 0.22 0.40 0.28 2604098 3256246 0.82 2.67 1.25 0.60 (nbgoodclauses,nbtotalgood,precisionGood,recallGood,FGood,nbbadclause,nbtotalbad,precisionBad,recallBad,FBad,accuracy)
c additional predictionAge 1000 1520036 795372 0.22 0.42 0.29 2531582 3256246 0.82 2.60 1.25 0.59 (nbgoodclauses,nbtotalgood,precisionGood,recallGood,FGood,nbbadclause,nbtotalbad,precisionBad,recallBad,FBad,accuracy)
c additional predictionAge 2500 1597508 795372 0.22 0.44 0.29 2454110 3256246 0.82 2.53 1.24 0.58 (nbgoodclauses,nbtotalgood,precisionGood,recallGood,FGood,nbbadclause,nbtotalbad,precisionBad,recallBad,FBad,accuracy)
c additional predictionAge 5000 1635044 795372 0.22 0.45 0.30 2416574 3256246 0.82 2.49 1.23 0.58 (nbgoodclauses,nbtotalgood,precisionGood,recallGood,FGood,nbbadclause,nbtotalbad,precisionBad,recallBad,FBad,accuracy)
c additional predictionAge 10000 1657716 795372 0.22 0.46 0.30 2393902 3256246 0.82 2.47 1.23 0.58 (nbgoodclauses,nbtotalgood,precisionGood,recallGood,FGood,nbbadclause,nbtotalbad,precisionBad,recallBad,FBad,accuracy)
c additional predictionAge 25000 1690561 795372 0.22 0.47 0.30 2361057 3256246 0.82 2.44 1.23 0.57 (nbgoodclauses,nbtotalgood,precisionGood,recallGood,FGood,nbbadclause,nbtotalbad,precisionBad,recallBad,FBad,accuracy)
c additional predictionAge 50000 1745695 795372 0.22 0.48 0.30 2305923 3256246 0.82 2.38 1.22 0.56 (nbgoodclauses,nbtotalgood,precisionGood,recallGood,FGood,nbbadclause,nbtotalbad,precisionBad,recallBad,FBad,accuracy)
c additional predictionAge 100000 1841931 795372 0.21 0.50 0.30 2209687 3256246 0.82 2.27 1.20 0.54 (nbgoodclauses,nbtotalgood,precisionGood,recallGood,FGood,nbbadclause,nbtotalbad,precisionBad,recallBad,FBad,accuracy)
c additional predictionTicks 1 685066 795372 0.27 0.23 0.25 3366552 3256246 0.82 3.46 1.32 0.73 (nbgoodclauses,nbtotalgood,precisionGood,recallGood,FGood,nbbadclause,nbtotalbad,precisionBad,recallBad,FBad,accuracy)
c additional predictionTicks 10 1247690 795372 0.22 0.35 0.27 2803928 3256246 0.82 2.88 1.27 0.63 (nbgoodclauses,nbtotalgood,precisionGood,recallGood,FGood,nbbadclause,nbtotalbad,precisionBad,recallBad,FBad,accuracy)
c additional predictionTicks 25 1562356 795372 0.21 0.41 0.28 2489262 3256246 0.81 2.54 1.23 0.58 (nbgoodclauses,nbtotalgood,precisionGood,recallGood,FGood,nbbadclause,nbtotalbad,precisionBad,recallBad,FBad,accuracy)
c additional predictionTicks 50 1783403 795372 0.20 0.45 0.28 2268215 3256246 0.81 2.30 1.19 0.54 (nbgoodclauses,nbtotalgood,precisionGood,recallGood,FGood,nbbadclause,nbtotalbad,precisionBad,recallBad,FBad,accuracy)
c additional predictionTicks 100 2039691 795372 0.19 0.50 0.28 2011927 3256246 0.80 2.03 1.15 0.50 (nbgoodclauses,nbtotalgood,precisionGood,recallGood,FGood,nbbadclause,nbtotalbad,precisionBad,recallBad,FBad,accuracy)
c additional predictionTicks 250 2365854 795372 0.19 0.58 0.29 1685764 3256246 0.80 1.70 1.09 0.45 (nbgoodclauses,nbtotalgood,precisionGood,recallGood,FGood,nbbadclause,nbtotalbad,precisionBad,recallBad,FBad,accuracy)
c additional predictionTicks 500 2549259 795372 0.20 0.63 0.30 1502359 3256246 0.81 1.52 1.05 0.42 (nbgoodclauses,nbtotalgood,precisionGood,recallGood,FGood,nbbadclause,nbtotalbad,precisionBad,recallBad,FBad,accuracy)
c additional predictionTicks 1000 2697214 795372 0.20 0.68 0.31 1354404 3256246 0.81 1.39 1.03 0.41 (nbgoodclauses,nbtotalgood,precisionGood,recallGood,FGood,nbbadclause,nbtotalbad,precisionBad,recallBad,FBad,accuracy)
c additional predictionTicks 2500 2871045 795372 0.20 0.74 0.32 1180573 3256246 0.82 1.22 0.99 0.39 (nbgoodclauses,nbtotalgood,precisionGood,recallGood,FGood,nbbadclause,nbtotalbad,precisionBad,recallBad,FBad,accuracy)
c additional predictionTicks 5000 2961301 795372 0.21 0.77 0.33 1090317 3256246 0.83 1.14 0.96 0.37 (nbgoodclauses,nbtotalgood,precisionGood,recallGood,FGood,nbbadclause,nbtotalbad,precisionBad,recallBad,FBad,accuracy)
c additional predictionTicks 10000 3026902 795372 0.21 0.79 0.33 1024716 3256246 0.84 1.08 0.94 0.37 (nbgoodclauses,nbtotalgood,precisionGood,recallGood,FGood,nbbadclause,nbtotalbad,precisionBad,recallBad,FBad,accuracy)
c additional predictionTicks 25000 3147351 795372 0.20 0.81 0.33 904267 3256246 0.83 0.95 0.89 0.34 (nbgoodclauses,nbtotalgood,precisionGood,recallGood,FGood,nbbadclause,nbtotalbad,precisionBad,recallBad,FBad,accuracy)
c additional predictionTicks 50000 3315126 795372 0.20 0.84 0.32 736492 3256246 0.82 0.76 0.79 0.31 (nbgoodclauses,nbtotalgood,precisionGood,recallGood,FGood,nbbadclause,nbtotalbad,precisionBad,recallBad,FBad,accuracy)
c additional predictionTicks 100000 3520856 795372 0.20 0.87 0.32 530762 3256246 0.81 0.54 0.65 0.28 (nbgoodclauses,nbtotalgood,precisionGood,recallGood,FGood,nbbadclause,nbtotalbad,precisionBad,recallBad,FBad,accuracy)
c additional lifetimeGood 1 4 4 4 72 174087 1370248 2622426 3181087 3723205 4048045 4048093 (0,1,5,10,25,50,75,90,95,99,100-1,100)
c additional lifetimeBad 1 4 4 4 12 36532 787895 1995309 2684652 3534568 4047275 4048838 (0,1,5,10,25,50,75,90,95,99,100-1,100)
c additional lifetimeBadBad 1 4 4 4 4 24 2768 597738 1512080 2765750 4036533 4042628 (0,1,5,10,25,50,75,90,95,99,100-1,100)
c additional compositionBad 1 2 2 3 4 9 21 34 51 81 631 634 (0,1,5,10,25,50,75,90,95,99,100-1,100)
c additional compositionBadWithGood 0 0 0 0 0 1 2 4 6 11 79 88 (0,1,5,10,25,50,75,90,95,99,100-1,100)
c additional compositionBadWithBad 0 0 0 0 0 1 3 4 5 8 28 30 (0,1,5,10,25,50,75,90,95,99,100-1,100)
c additional compositionBadWithInitial 0 0 1 2 3 6 18 30 45 69 586 593 (0,1,5,10,25,50,75,90,95,99,100-1,100)
c additional compositionGood 1 2 2 2 3 7 20 56 64 73 229 251 (0,1,5,10,25,50,75,90,95,99,100-1,100)
c additional compositionGoodWithGood 0 0 0 0 1 2 5 8 11 16 58 65 (0,1,5,10,25,50,75,90,95,99,100-1,100)
c additional compositionGoodWithInitial 0 0 1 2 2 4 14 49 56 62 176 203 (0,1,5,10,25,50,75,90,95,99,100-1,100)
c additional propagationGood total 15495773 percentiles 0 1 1 1 1 2 5 16 32 146 30289 36214 (0,1,5,10,25,50,75,90,95,99,100-1,100)
c additional propagationBad total 6865912 percentiles 1 1 1 1 1 1 2 3 5 15 3794 3838 (0,1,5,10,25,50,75,90,95,99,100-1,100)
c additional resolutionGood total 5674734 percentiles 0 1 1 1 1 1 3 8 15 53 8430 11351 (0,1,5,10,25,50,75,90,95,99,100-1,100)
c additional resolutionBad total 5575144 percentiles 0 0 1 1 1 1 1 3 4 9 2369 2572 (0,1,5,10,25,50,75,90,95,99,100-1,100)
No graph is dumped
c result of core 1 is UNSAT
c One thread has finished
c Core 1 said it finished
c result of core 2 is UNKNOWN
c result of core 0 is UNKNOWN
c result of core 3 is UNKNOWN
c restarts              : 1807 (560 conflicts in avg)
c blocked restarts      : 6567 (multiple: 757) 
c last block at restart : 1792
c nb ReduceDB           : 26
c nb removed Clauses    : 883900
c nb learnts DL2        : 4151
c nb learnts size 2     : 467
c nb learnts size 1     : 14
c conflicts             : 1012905        (2505 /sec)
c decisions             : 1754968        (0.00 % random) (4341 /sec)
c propagations          : 36604900       (90535 /sec)
c conflict literals     : 17424382       (3.63 % deleted)
c nb reduced Clauses    : 1768
c CPU time              : 404.319 s

s INDETERMINATE
