c
c This is glucose-proof 1.0 based on  2.1 --  (thanks to MiniSAT)
c
c EXPERIMENTAL EASY PARALLEL (ROUND ROBIN) VERSION
c
c WARNING: for repeatability, setting FPU to use double precision
c Parallel version 10 solvers created.
c ========================================[ Problem Statistics ]===========================================
c |                                                                                                       |
c |  Number of variables:         10259                                                                   |
c |  Number of clauses:           46995                                                                   |
c |  Parse time:                   0.15 s                                                                 |
c |                                                                                                       |
c ========================================[ MAGIC CONSTANTS ]==============================================
c | Constants are supposed to work well together :-)                                                      |
c | however, if you find better choices, please let us known...                                           |
c |-------------------------------------------------------------------------------------------------------|
c |                                |                                |                                     |
c | - Restarts:                    | - Reduce Clause DB:            | - Minimize Asserting:               |
c |   * LBD Queue    :     50      |   * First     :   4000         |    * size <  30                     |
c |   * Trail  Queue :   5000      |   * Inc       :    300         |    * lbd  <   6                     |
c |   * K            :   0.80      |   * Special   :   1000         |                                     |
c |   * R            :   1.40      |   * Protected :  (lbd)< 30     |                                     |
c |                                |                                |                                     |
c ==================================[ Search Statistics (every  10000 conflicts) ]=========================
c |                                                                                                       |
c |          RESTARTS           |          ORIGINAL         |              LEARNT              | Progress |
c |       NB   Blocked  Avg Cfc |    Vars  Clauses Literals |   Red   Learnts    LBD2  Removed |          |
c =========================================================================================================
c |       61         0      163 |   10250    46995   144382 |     1     8003      348     4784 |  0.088 % |
c |       96       102      208 |   10245    46995   144382 |     3     7008      467    23220 |  0.137 % |
c |      136       183      220 |   10242    46995   144382 |     3    17005      590    23220 |  0.166 % |
c |      179       268      223 |   10205    46995   144382 |     4    17712      687    35547 |  0.526 % |
c |      211       333      236 |   10189    46995   144382 |     5    15870      732    49925 |  0.682 % |
c |      254       415      236 |   10188    46995   144382 |     5    25869      780    49925 |  0.692 % |
c |      289       485      242 |   10187    46995   144382 |     6    21461      810    66895 |  0.702 % |
c |      326       565      245 |   10173    46995   144382 |     6    31449      843    66895 |  0.838 % |
c |      367       617      245 |   10135    46995   144382 |     7    24470      874    86196 |  1.209 % |
c |      403       692      248 |   10128    46995   144382 |     7    34447      902    86196 |  1.277 % |
c |      429       783      256 |   10127    46995   144382 |     8    24850      918   108280 |  1.287 % |
c |      469       853      255 |   10122    46995   144382 |     8    34845      960   108280 |  1.335 % |
c |      498       951      261 |   10118    46995   144382 |     9    22666      978   132850 |  1.374 % |
c |      536      1011      261 |   10113    46995   144382 |     9    32655     1002   132850 |  1.423 % |
c |      569      1082      263 |   10108    46995   144382 |     9    42646     1031   132850 |  1.472 % |
c |      602      1181      265 |   10100    46995   144382 |    10    27899     1053   159893 |  1.550 % |
c |      628      1256      270 |   10099    46995   144382 |    10    37899     1066   159893 |  1.560 % |
c |      657      1329      273 |   10038    46995   144382 |    10    47142     1086   159893 |  2.154 % |
c |      685      1395      277 |   10035    46995   144382 |    11    30096     1107   189412 |  2.184 % |
c |      725      1454      275 |   10032    46995   144382 |    11    40092     1129   189412 |  2.213 % |
c |      752      1511      279 |   10031    46995   144382 |    11    50085     1165   189412 |  2.222 % |
c |      778      1591      282 |   10028    46995   144382 |    12    30278     1176   221480 |  2.252 % |
c |      812      1667      283 |   10026    46995   144382 |    12    40273     1187   221480 |  2.271 % |
c |      835      1743      287 |   10021    46995   144382 |    12    50240     1198   221480 |  2.320 % |
c |      849      1813      294 |   10018    46995   144382 |    12    60220     1212   221480 |  2.349 % |
c |      873      1894      297 |   10015    46995   144382 |    13    37782     1223   256116 |  2.378 % |
c |      889      1955      303 |   10015    46995   144382 |    13    47782     1232   256116 |  2.379 % |
c |      903      2047      310 |   10014    46995   144382 |    13    57780     1236   256116 |  2.388 % |
c |      940      2119      308 |   10014    46995   144382 |    13    67780     1263   256116 |  2.388 % |
c |      966      2186      310 |   10013    46995   144382 |    14    42675     1277   293164 |  2.398 % |
c |      984      2262      315 |   10012    46995   144382 |    14    52674     1283   293164 |  2.408 % |
c |      998      2348      320 |   10011    46995   144382 |    14    62670     1288   293164 |  2.417 % |
c |     1029      2412      320 |   10011    46995   144382 |    14    72670     1303   293164 |  2.417 % |
c |     1051      2484      323 |   10011    46995   144382 |    15    44841     1313   332905 |  2.418 % |
c |     1081      2535      323 |   10009    46995   144382 |    15    54840     1315   332905 |  2.437 % |
c |     1097      2627      328 |   10007    46995   144382 |    15    64837     1321   332905 |  2.456 % |
c |     1115      2694      331 |   10007    46995   144382 |    15    74837     1336   332905 |  2.456 % |
c |     1134      2754      335 |    9971    46995   144382 |    16    43876     1346   374938 |  2.808 % |
c |     1141      2827      341 |    9967    46995   144382 |    16    51477     1353   374938 |  2.846 % |
c empty clause found by core 2 at conflict 398983
*
c checking the resolution graph...OK
c All useful bySize 471088 clauses, percentiles 0 2 3 3 7 10 16 39 75 182 947 968 (0,1,5,10,25,50,75,90,95,99,100-1,100)
c All useless bySize 3566482 clauses, percentiles 0 5 7 8 10 14 34 85 130 246 979 1014 (0,1,5,10,25,50,75,90,95,99,100-1,100)
c ProofOnly useful bySize 427418 clauses, percentiles 0 3 4 5 8 11 17 43 80 190 947 968 (0,1,5,10,25,50,75,90,95,99,100-1,100)
c ProofOnly useless bySize 3562405 clauses, percentiles 1 5 7 8 10 14 34 85 130 246 979 1014 (0,1,5,10,25,50,75,90,95,99,100-1,100)
c All useful byFinalLBD 471088 clauses, percentiles 0 1 1 2 3 5 7 9 10 13 30 30 (0,1,5,10,25,50,75,90,95,99,100-1,100)
c All useless byFinalLBD 3566482 clauses, percentiles 0 2 3 4 6 8 11 17 22 39 204 205 (0,1,5,10,25,50,75,90,95,99,100-1,100)
c ProofOnly useful byFinalLBD 427418 clauses, percentiles 0 1 1 2 3 5 7 9 10 14 30 30 (0,1,5,10,25,50,75,90,95,99,100-1,100)
c ProofOnly useless byFinalLBD 3562405 clauses, percentiles 1 2 4 4 6 8 11 17 22 39 204 205 (0,1,5,10,25,50,75,90,95,99,100-1,100)
c All useful byInitialLBD 471088 clauses, percentiles 0 2 2 3 4 6 8 10 12 15 33 34 (0,1,5,10,25,50,75,90,95,99,100-1,100)
c All useless byInitialLBD 3566482 clauses, percentiles 0 3 5 5 7 9 12 17 22 40 204 205 (0,1,5,10,25,50,75,90,95,99,100-1,100)
c ProofOnly useful byInitialLBD 427418 clauses, percentiles 0 2 3 4 5 7 9 10 12 15 33 34 (0,1,5,10,25,50,75,90,95,99,100-1,100)
c ProofOnly useless byInitialLBD 3562405 clauses, percentiles 1 4 5 5 7 9 12 17 22 40 204 205 (0,1,5,10,25,50,75,90,95,99,100-1,100)
c Literals ProofOnly useful 9089486
c Literals ProofOnly useless 120124825
c additional windowsGood 1 1 1 1 1 1 1 2 2 3 8 8 (0,1,5,10,25,50,75,90,95,99,100-1,100)
c additional windowsBad 1 1 1 1 3 6 9 17 29 87 609 935 (0,1,5,10,25,50,75,90,95,99,100-1,100)
c additional 1WindowNoDecision 340020 138324 0.41 55301 19582 0.35 (nbWindowsGood,nbWindowsNoDecisionGood,nbWindowsBad,nbWindowsNoDecisionBad
c additional topclausessize all (10%,5%,1%,top) 97.66 141.55 259.12 968
c additional topclausessize proofonly (10%,5%,1%,top) 100.46 144.74 262.76 968
c additional topclausesinitialLBD all (10%,5%,1%,top) 77.09 117.17 230.50 968
c additional topclausesinitialLBD proofonly (10%,5%,1%,top) 64.11 100.46 209.98 968
c additional topclausesfinalLBD all (10%,5%,1%,top) 54.53 87.10 192.74 968
c additional topclausesfinalLBD proofonly (10%,5%,1%,top) 48.36 77.91 180.24 968
c additional predictionInitialLBD 1 92 427418 0.92 0.00 0.00 3989731 3562405 0.89 8.33 1.61 0.89 (nbgoodclauses,nbtotalgood,precisionGood,recallGood,FGood,nbbadclause,nbtotalbad,precisionBad,recallBad,FBad,accuracy)
c additional predictionInitialLBD 2 13838 427418 0.73 0.02 0.05 3975985 3562405 0.90 8.33 1.62 0.89 (nbgoodclauses,nbtotalgood,precisionGood,recallGood,FGood,nbbadclause,nbtotalbad,precisionBad,recallBad,FBad,accuracy)
c additional predictionInitialLBD 3 78118 427418 0.55 0.10 0.17 3911705 3562405 0.90 8.25 1.63 0.89 (nbgoodclauses,nbtotalgood,precisionGood,recallGood,FGood,nbbadclause,nbtotalbad,precisionBad,recallBad,FBad,accuracy)
c additional predictionInitialLBD 4 241050 427418 0.35 0.20 0.25 3748773 3562405 0.91 7.97 1.63 0.87 (nbgoodclauses,nbtotalgood,precisionGood,recallGood,FGood,nbbadclause,nbtotalbad,precisionBad,recallBad,FBad,accuracy)
c additional predictionInitialLBD 5 537836 427418 0.25 0.32 0.28 3451987 3562405 0.92 7.39 1.63 0.83 (nbgoodclauses,nbtotalgood,precisionGood,recallGood,FGood,nbbadclause,nbtotalbad,precisionBad,recallBad,FBad,accuracy)
c additional predictionInitialLBD 6 956182 427418 0.21 0.46 0.28 3033641 3562405 0.92 6.56 1.62 0.75 (nbgoodclauses,nbtotalgood,precisionGood,recallGood,FGood,nbbadclause,nbtotalbad,precisionBad,recallBad,FBad,accuracy)
c additional predictionInitialLBD 7 1455340 427418 0.18 0.61 0.28 2534483 3562405 0.93 5.54 1.60 0.66 (nbgoodclauses,nbtotalgood,precisionGood,recallGood,FGood,nbbadclause,nbtotalbad,precisionBad,recallBad,FBad,accuracy)
c additional predictionInitialLBD 8 1973370 427418 0.16 0.74 0.26 2016453 3562405 0.94 4.46 1.56 0.56 (nbgoodclauses,nbtotalgood,precisionGood,recallGood,FGood,nbbadclause,nbtotalbad,precisionBad,recallBad,FBad,accuracy)
c additional predictionInitialLBD 10 2779182 427418 0.14 0.90 0.24 1210641 3562405 0.97 2.74 1.43 0.39 (nbgoodclauses,nbtotalgood,precisionGood,recallGood,FGood,nbbadclause,nbtotalbad,precisionBad,recallBad,FBad,accuracy)
c additional predictionInitialLBD 14 3450134 427418 0.12 0.99 0.22 539689 3562405 0.99 1.25 1.10 0.24 (nbgoodclauses,nbtotalgood,precisionGood,recallGood,FGood,nbbadclause,nbtotalbad,precisionBad,recallBad,FBad,accuracy)
c additional predictionInitialLBD 18 3705543 427418 0.12 1.00 0.21 284280 3562405 1.00 0.66 0.80 0.18 (nbgoodclauses,nbtotalgood,precisionGood,recallGood,FGood,nbbadclause,nbtotalbad,precisionBad,recallBad,FBad,accuracy)
c additional predictionInitialLBD 22 3819317 427418 0.11 1.00 0.20 170506 3562405 1.00 0.40 0.57 0.15 (nbgoodclauses,nbtotalgood,precisionGood,recallGood,FGood,nbbadclause,nbtotalbad,precisionBad,recallBad,FBad,accuracy)
c additional predictionInitialLBD 30 3911490 427418 0.11 1.00 0.20 78333 3562405 1.00 0.18 0.31 0.13 (nbgoodclauses,nbtotalgood,precisionGood,recallGood,FGood,nbbadclause,nbtotalbad,precisionBad,recallBad,FBad,accuracy)
c additional predictionInitialLBD 40 3956846 427418 0.11 1.00 0.19 32977 3562405 1.00 0.08 0.14 0.12 (nbgoodclauses,nbtotalgood,precisionGood,recallGood,FGood,nbbadclause,nbtotalbad,precisionBad,recallBad,FBad,accuracy)
c additional predictionFinallLBD 1 51373 427418 0.64 0.08 0.14 3938450 3562405 0.90 0.99 0.94 0.90 (nbgoodclauses,nbtotalgood,precisionGood,recallGood,FGood,nbbadclause,nbtotalbad,precisionBad,recallBad,FBad,accuracy)
c additional predictionFinallLBD 2 157687 427418 0.53 0.20 0.29 3832136 3562405 0.91 0.98 0.94 0.90 (nbgoodclauses,nbtotalgood,precisionGood,recallGood,FGood,nbbadclause,nbtotalbad,precisionBad,recallBad,FBad,accuracy)
c additional predictionFinallLBD 3 314724 427418 0.44 0.32 0.37 3675099 3562405 0.92 0.95 0.94 0.88 (nbgoodclauses,nbtotalgood,precisionGood,recallGood,FGood,nbbadclause,nbtotalbad,precisionBad,recallBad,FBad,accuracy)
c additional predictionFinallLBD 4 597107 427418 0.33 0.45 0.38 3392716 3562405 0.93 0.89 0.91 0.84 (nbgoodclauses,nbtotalgood,precisionGood,recallGood,FGood,nbbadclause,nbtotalbad,precisionBad,recallBad,FBad,accuracy)
c additional predictionFinallLBD 5 991529 427418 0.25 0.58 0.35 2998294 3562405 0.94 0.79 0.86 0.77 (nbgoodclauses,nbtotalgood,precisionGood,recallGood,FGood,nbbadclause,nbtotalbad,precisionBad,recallBad,FBad,accuracy)
c additional predictionFinallLBD 6 1429651 427418 0.21 0.70 0.32 2560172 3562405 0.95 0.68 0.79 0.68 (nbgoodclauses,nbtotalgood,precisionGood,recallGood,FGood,nbbadclause,nbtotalbad,precisionBad,recallBad,FBad,accuracy)
c additional predictionFinallLBD 7 1869649 427418 0.18 0.79 0.29 2120174 3562405 0.96 0.57 0.71 0.59 (nbgoodclauses,nbtotalgood,precisionGood,recallGood,FGood,nbbadclause,nbtotalbad,precisionBad,recallBad,FBad,accuracy)
c additional predictionFinallLBD 8 2288530 427418 0.16 0.86 0.27 1701293 3562405 0.97 0.46 0.62 0.50 (nbgoodclauses,nbtotalgood,precisionGood,recallGood,FGood,nbbadclause,nbtotalbad,precisionBad,recallBad,FBad,accuracy)
c additional predictionFinallLBD 10 2938637 427418 0.14 0.95 0.24 1051186 3562405 0.98 0.29 0.45 0.36 (nbgoodclauses,nbtotalgood,precisionGood,recallGood,FGood,nbbadclause,nbtotalbad,precisionBad,recallBad,FBad,accuracy)
c additional predictionFinallLBD 14 3495537 427418 0.12 0.99 0.22 494286 3562405 0.99 0.14 0.24 0.23 (nbgoodclauses,nbtotalgood,precisionGood,recallGood,FGood,nbbadclause,nbtotalbad,precisionBad,recallBad,FBad,accuracy)
c additional predictionFinallLBD 18 3721483 427418 0.11 1.00 0.21 268340 3562405 1.00 0.08 0.14 0.17 (nbgoodclauses,nbtotalgood,precisionGood,recallGood,FGood,nbbadclause,nbtotalbad,precisionBad,recallBad,FBad,accuracy)
c additional predictionFinallLBD 22 3825658 427418 0.11 1.00 0.20 164165 3562405 1.00 0.05 0.09 0.15 (nbgoodclauses,nbtotalgood,precisionGood,recallGood,FGood,nbbadclause,nbtotalbad,precisionBad,recallBad,FBad,accuracy)
c additional predictionFinallLBD 30 3913357 427418 0.11 1.00 0.20 76466 3562405 1.00 0.02 0.04 0.13 (nbgoodclauses,nbtotalgood,precisionGood,recallGood,FGood,nbbadclause,nbtotalbad,precisionBad,recallBad,FBad,accuracy)
c additional predictionFinallLBD 40 3957608 427418 0.11 1.00 0.19 32215 3562405 1.00 0.01 0.02 0.12 (nbgoodclauses,nbtotalgood,precisionGood,recallGood,FGood,nbbadclause,nbtotalbad,precisionBad,recallBad,FBad,accuracy)
c additional predictionSize 1 92 427418 0.92 0.00 0.00 3989731 3562405 0.89 8.33 1.61 0.89 (nbgoodclauses,nbtotalgood,precisionGood,recallGood,FGood,nbbadclause,nbtotalbad,precisionBad,recallBad,FBad,accuracy)
c additional predictionSize 2 4270 427418 0.94 0.01 0.02 3985553 3562405 0.89 8.33 1.61 0.89 (nbgoodclauses,nbtotalgood,precisionGood,recallGood,FGood,nbbadclause,nbtotalbad,precisionBad,recallBad,FBad,accuracy)
c additional predictionSize 3 24902 427418 0.63 0.04 0.07 3964921 3562405 0.90 8.31 1.62 0.89 (nbgoodclauses,nbtotalgood,precisionGood,recallGood,FGood,nbbadclause,nbtotalbad,precisionBad,recallBad,FBad,accuracy)
c additional predictionSize 4 61785 427418 0.50 0.07 0.13 3928038 3562405 0.90 8.26 1.62 0.89 (nbgoodclauses,nbtotalgood,precisionGood,recallGood,FGood,nbbadclause,nbtotalbad,precisionBad,recallBad,FBad,accuracy)
c additional predictionSize 5 121966 427418 0.40 0.11 0.18 3867857 3562405 0.90 8.16 1.62 0.89 (nbgoodclauses,nbtotalgood,precisionGood,recallGood,FGood,nbbadclause,nbtotalbad,precisionBad,recallBad,FBad,accuracy)
c additional predictionSize 6 213317 427418 0.32 0.16 0.21 3776506 3562405 0.90 7.99 1.63 0.87 (nbgoodclauses,nbtotalgood,precisionGood,recallGood,FGood,nbbadclause,nbtotalbad,precisionBad,recallBad,FBad,accuracy)
c additional predictionSize 7 365273 427418 0.25 0.21 0.23 3624550 3562405 0.91 7.69 1.62 0.85 (nbgoodclauses,nbtotalgood,precisionGood,recallGood,FGood,nbbadclause,nbtotalbad,precisionBad,recallBad,FBad,accuracy)
c additional predictionSize 8 630127 427418 0.20 0.29 0.24 3359696 3562405 0.91 7.15 1.61 0.80 (nbgoodclauses,nbtotalgood,precisionGood,recallGood,FGood,nbbadclause,nbtotalbad,precisionBad,recallBad,FBad,accuracy)
c additional predictionSize 10 1254330 427418 0.16 0.46 0.24 2735493 3562405 0.92 5.86 1.58 0.68 (nbgoodclauses,nbtotalgood,precisionGood,recallGood,FGood,nbbadclause,nbtotalbad,precisionBad,recallBad,FBad,accuracy)
c additional predictionSize 14 2133399 427418 0.14 0.69 0.23 1856424 3562405 0.93 4.03 1.51 0.51 (nbgoodclauses,nbtotalgood,precisionGood,recallGood,FGood,nbbadclause,nbtotalbad,precisionBad,recallBad,FBad,accuracy)
c additional predictionSize 18 2497578 427418 0.13 0.78 0.23 1492245 3562405 0.94 3.27 1.45 0.43 (nbgoodclauses,nbtotalgood,precisionGood,recallGood,FGood,nbbadclause,nbtotalbad,precisionBad,recallBad,FBad,accuracy)
c additional predictionSize 22 2705986 427418 0.13 0.82 0.22 1283837 3562405 0.94 2.82 1.41 0.39 (nbgoodclauses,nbtotalgood,precisionGood,recallGood,FGood,nbbadclause,nbtotalbad,precisionBad,recallBad,FBad,accuracy)
c additional predictionSize 30 2965114 427418 0.12 0.86 0.22 1024709 3562405 0.94 2.26 1.33 0.33 (nbgoodclauses,nbtotalgood,precisionGood,recallGood,FGood,nbbadclause,nbtotalbad,precisionBad,recallBad,FBad,accuracy)
c additional predictionSize 40 3170384 427418 0.12 0.89 0.21 819439 3562405 0.94 1.81 1.24 0.29 (nbgoodclauses,nbtotalgood,precisionGood,recallGood,FGood,nbbadclause,nbtotalbad,precisionBad,recallBad,FBad,accuracy)
c additional predictionAge 1 958895 427418 0.12 0.28 0.17 3030928 3562405 0.90 6.37 1.57 0.71 (nbgoodclauses,nbtotalgood,precisionGood,recallGood,FGood,nbbadclause,nbtotalbad,precisionBad,recallBad,FBad,accuracy)
c additional predictionAge 10 1194284 427418 0.12 0.33 0.18 2795539 3562405 0.90 5.87 1.56 0.66 (nbgoodclauses,nbtotalgood,precisionGood,recallGood,FGood,nbbadclause,nbtotalbad,precisionBad,recallBad,FBad,accuracy)
c additional predictionAge 25 1269869 427418 0.12 0.35 0.18 2719954 3562405 0.90 5.71 1.55 0.65 (nbgoodclauses,nbtotalgood,precisionGood,recallGood,FGood,nbbadclause,nbtotalbad,precisionBad,recallBad,FBad,accuracy)
c additional predictionAge 50 1302045 427418 0.12 0.36 0.18 2687778 3562405 0.90 5.65 1.55 0.64 (nbgoodclauses,nbtotalgood,precisionGood,recallGood,FGood,nbbadclause,nbtotalbad,precisionBad,recallBad,FBad,accuracy)
c additional predictionAge 100 1325101 427418 0.12 0.36 0.18 2664722 3562405 0.90 5.60 1.55 0.64 (nbgoodclauses,nbtotalgood,precisionGood,recallGood,FGood,nbbadclause,nbtotalbad,precisionBad,recallBad,FBad,accuracy)
c additional predictionAge 250 1357174 427418 0.12 0.37 0.18 2632649 3562405 0.90 5.53 1.55 0.63 (nbgoodclauses,nbtotalgood,precisionGood,recallGood,FGood,nbbadclause,nbtotalbad,precisionBad,recallBad,FBad,accuracy)
c additional predictionAge 500 1380809 427418 0.12 0.38 0.18 2609014 3562405 0.90 5.48 1.54 0.63 (nbgoodclauses,nbtotalgood,precisionGood,recallGood,FGood,nbbadclause,nbtotalbad,precisionBad,recallBad,FBad,accuracy)
c additional predictionAge 1000 1401591 427418 0.12 0.38 0.18 2588232 3562405 0.90 5.44 1.54 0.62 (nbgoodclauses,nbtotalgood,precisionGood,recallGood,FGood,nbbadclause,nbtotalbad,precisionBad,recallBad,FBad,accuracy)
c additional predictionAge 2500 1422386 427418 0.12 0.39 0.18 2567437 3562405 0.90 5.40 1.54 0.62 (nbgoodclauses,nbtotalgood,precisionGood,recallGood,FGood,nbbadclause,nbtotalbad,precisionBad,recallBad,FBad,accuracy)
c additional predictionAge 5000 1435215 427418 0.12 0.39 0.18 2554608 3562405 0.90 5.37 1.54 0.62 (nbgoodclauses,nbtotalgood,precisionGood,recallGood,FGood,nbbadclause,nbtotalbad,precisionBad,recallBad,FBad,accuracy)
c additional predictionAge 10000 1447623 427418 0.12 0.40 0.18 2542200 3562405 0.90 5.35 1.54 0.62 (nbgoodclauses,nbtotalgood,precisionGood,recallGood,FGood,nbbadclause,nbtotalbad,precisionBad,recallBad,FBad,accuracy)
c additional predictionAge 25000 1470730 427418 0.12 0.41 0.18 2519093 3562405 0.90 5.30 1.54 0.61 (nbgoodclauses,nbtotalgood,precisionGood,recallGood,FGood,nbbadclause,nbtotalbad,precisionBad,recallBad,FBad,accuracy)
c additional predictionAge 50000 1500816 427418 0.12 0.42 0.19 2489007 3562405 0.90 5.24 1.54 0.61 (nbgoodclauses,nbtotalgood,precisionGood,recallGood,FGood,nbbadclause,nbtotalbad,precisionBad,recallBad,FBad,accuracy)
c additional predictionAge 100000 1551175 427418 0.12 0.44 0.19 2438648 3562405 0.90 5.14 1.53 0.60 (nbgoodclauses,nbtotalgood,precisionGood,recallGood,FGood,nbbadclause,nbtotalbad,precisionBad,recallBad,FBad,accuracy)
c additional predictionTicks 1 960363 427418 0.12 0.28 0.17 3029460 3562405 0.90 6.36 1.57 0.71 (nbgoodclauses,nbtotalgood,precisionGood,recallGood,FGood,nbbadclause,nbtotalbad,precisionBad,recallBad,FBad,accuracy)
c additional predictionTicks 10 1319838 427418 0.12 0.37 0.18 2669985 3562405 0.90 5.62 1.55 0.64 (nbgoodclauses,nbtotalgood,precisionGood,recallGood,FGood,nbbadclause,nbtotalbad,precisionBad,recallBad,FBad,accuracy)
c additional predictionTicks 25 1449583 427418 0.12 0.40 0.18 2540240 3562405 0.90 5.35 1.54 0.62 (nbgoodclauses,nbtotalgood,precisionGood,recallGood,FGood,nbbadclause,nbtotalbad,precisionBad,recallBad,FBad,accuracy)
c additional predictionTicks 50 1581862 427418 0.12 0.44 0.19 2407961 3562405 0.90 5.08 1.53 0.59 (nbgoodclauses,nbtotalgood,precisionGood,recallGood,FGood,nbbadclause,nbtotalbad,precisionBad,recallBad,FBad,accuracy)
c additional predictionTicks 100 1696964 427418 0.12 0.48 0.19 2292859 3562405 0.90 4.84 1.52 0.57 (nbgoodclauses,nbtotalgood,precisionGood,recallGood,FGood,nbbadclause,nbtotalbad,precisionBad,recallBad,FBad,accuracy)
c additional predictionTicks 250 1864392 427418 0.12 0.53 0.20 2125431 3562405 0.90 4.50 1.51 0.54 (nbgoodclauses,nbtotalgood,precisionGood,recallGood,FGood,nbbadclause,nbtotalbad,precisionBad,recallBad,FBad,accuracy)
c additional predictionTicks 500 2003542 427418 0.12 0.57 0.20 1986281 3562405 0.91 4.21 1.49 0.51 (nbgoodclauses,nbtotalgood,precisionGood,recallGood,FGood,nbbadclause,nbtotalbad,precisionBad,recallBad,FBad,accuracy)
c additional predictionTicks 1000 2159361 427418 0.12 0.62 0.20 1830462 3562405 0.91 3.90 1.48 0.48 (nbgoodclauses,nbtotalgood,precisionGood,recallGood,FGood,nbbadclause,nbtotalbad,precisionBad,recallBad,FBad,accuracy)
c additional predictionTicks 2500 2386829 427418 0.12 0.69 0.21 1602994 3562405 0.92 3.44 1.45 0.44 (nbgoodclauses,nbtotalgood,precisionGood,recallGood,FGood,nbbadclause,nbtotalbad,precisionBad,recallBad,FBad,accuracy)
c additional predictionTicks 5000 2565725 427418 0.12 0.74 0.21 1424098 3562405 0.92 3.07 1.42 0.41 (nbgoodclauses,nbtotalgood,precisionGood,recallGood,FGood,nbbadclause,nbtotalbad,precisionBad,recallBad,FBad,accuracy)
c additional predictionTicks 10000 2748090 427418 0.12 0.79 0.21 1241733 3562405 0.93 2.69 1.38 0.37 (nbgoodclauses,nbtotalgood,precisionGood,recallGood,FGood,nbbadclause,nbtotalbad,precisionBad,recallBad,FBad,accuracy)
c additional predictionTicks 25000 2993482 427418 0.12 0.85 0.21 996341 3562405 0.93 2.18 1.31 0.32 (nbgoodclauses,nbtotalgood,precisionGood,recallGood,FGood,nbbadclause,nbtotalbad,precisionBad,recallBad,FBad,accuracy)
c additional predictionTicks 50000 3185287 427418 0.12 0.88 0.21 804536 3562405 0.94 1.76 1.22 0.28 (nbgoodclauses,nbtotalgood,precisionGood,recallGood,FGood,nbbadclause,nbtotalbad,precisionBad,recallBad,FBad,accuracy)
c additional predictionTicks 100000 3395689 427418 0.12 0.92 0.21 594134 3562405 0.94 1.31 1.10 0.24 (nbgoodclauses,nbtotalgood,precisionGood,recallGood,FGood,nbbadclause,nbtotalbad,precisionBad,recallBad,FBad,accuracy)
c additional lifetimeGood 1 10 60 680 236327 1758197 3138641 3633860 3776878 3919817 3990526 3990539 (0,1,5,10,25,50,75,90,95,99,100-1,100)
c additional lifetimeBad 1 10 60 700 266328 1290108 2509325 3288807 3577306 3853749 3990508 3990518 (0,1,5,10,25,50,75,90,95,99,100-1,100)
c additional lifetimeBadBad 1 10 10 20 120 4050 383557 1349946 2061246 3113711 3986448 3986892 (0,1,5,10,25,50,75,90,95,99,100-1,100)
c additional compositionBad 1 3 5 7 8 12 31 85 145 345 2591 2706 (0,1,5,10,25,50,75,90,95,99,100-1,100)
c additional compositionBadWithGood 0 0 0 0 0 1 8 28 54 138 922 961 (0,1,5,10,25,50,75,90,95,99,100-1,100)
c additional compositionBadWithBad 0 0 0 0 0 1 2 8 17 39 435 462 (0,1,5,10,25,50,75,90,95,99,100-1,100)
c additional compositionBadWithInitial 0 1 3 5 7 10 19 48 79 189 2115 2132 (0,1,5,10,25,50,75,90,95,99,100-1,100)
c additional compositionGood 1 2 3 5 7 10 15 40 75 224 1486 1529 (0,1,5,10,25,50,75,90,95,99,100-1,100)
c additional compositionGoodWithGood 0 0 0 0 0 2 5 19 40 132 963 1007 (0,1,5,10,25,50,75,90,95,99,100-1,100)
c additional compositionGoodWithInitial 0 0 2 3 6 8 12 21 37 97 522 523 (0,1,5,10,25,50,75,90,95,99,100-1,100)
c additional propagationGood total 315385810 percentiles 0 1 1 1 2 10 60 461 1737 18914 159262 166673 (0,1,5,10,25,50,75,90,95,99,100-1,100)
c additional propagationBad total 53765169 percentiles 1 1 1 1 1 2 7 20 41 207 72314 74474 (0,1,5,10,25,50,75,90,95,99,100-1,100)
c additional resolutionGood total 29380552 percentiles 0 1 1 1 1 5 19 73 192 1440 26658 33980 (0,1,5,10,25,50,75,90,95,99,100-1,100)
c additional resolutionBad total 11625431 percentiles 0 0 0 0 1 1 3 7 12 36 2000 2053 (0,1,5,10,25,50,75,90,95,99,100-1,100)
No graph is dumped
c result of core 2 is UNSAT
c One thread has finished
c Core 2 said it finished
c result of core 1 is UNKNOWN
c result of core 0 is UNKNOWN
c result of core 4 is UNKNOWN
c result of core 6 is UNKNOWN
c result of core 5 is UNKNOWN
c result of core 7 is UNKNOWN
c result of core 3 is UNKNOWN
c result of core 8 is UNKNOWN
c result of core 9 is UNKNOWN
c restarts              : 1156 (345 conflicts in avg)
c blocked restarts      : 2888 (multiple: 637) 
c last block at restart : 1156
c nb ReduceDB           : 16
c nb removed Clauses    : 374938
c nb learnts DL2        : 1366
c nb learnts size 2     : 386
c nb learnts size 1     : 9
c conflicts             : 398983         (419 /sec)
c decisions             : 2518101        (0.00 % random) (2645 /sec)
c propagations          : 166225209      (174634 /sec)
c conflict literals     : 12599019       (8.42 % deleted)
c nb reduced Clauses    : 2331
c CPU time              : 951.85 s

s INDETERMINATE
