c
c This is glucose-proof 1.0 based on  2.1 --  (thanks to MiniSAT)
c
c EXPERIMENTAL EASY PARALLEL (ROUND ROBIN) VERSION
c
c WARNING: for repeatability, setting FPU to use double precision
c Parallel version 2 solvers created.
c ========================================[ Problem Statistics ]===========================================
c |                                                                                                       |
c |  Number of variables:          7662                                                                   |
c |  Number of clauses:           67939                                                                   |
c |  Parse time:                   0.05 s                                                                 |
c |                                                                                                       |
c ========================================[ MAGIC CONSTANTS ]==============================================
c | Constants are supposed to work well together :-)                                                      |
c | however, if you find better choices, please let us known...                                           |
c |-------------------------------------------------------------------------------------------------------|
c |                                |                                |                                     |
c | - Restarts:                    | - Reduce Clause DB:            | - Minimize Asserting:               |
c |   * LBD Queue    :     50      |   * First     :   4000         |    * size <  30                     |
c |   * Trail  Queue :   5000      |   * Inc       :    300         |    * lbd  <   6                     |
c |   * K            :   0.80      |   * Special   :   1000         |                                     |
c |   * R            :   1.40      |   * Protected :  (lbd)< 30     |                                     |
c |                                |                                |                                     |
c ==================================[ Search Statistics (every  10000 conflicts) ]=========================
c |                                                                                                       |
c |          RESTARTS           |          ORIGINAL         |              LEARNT              | Progress |
c |       NB   Blocked  Avg Cfc |    Vars  Clauses Literals |   Red   Learnts    LBD2  Removed |          |
c =========================================================================================================
c |       27         0      370 |    7659    67939   224642 |     1     8002      275     2261 |  0.039 % |
c |       58        81      344 |    7659    67939   224642 |     3     6960      434    13606 |  0.039 % |
c |       92       163      326 |    7659    67939   224642 |     3    16960      507    13606 |  0.039 % |
c |      113       252      353 |    7659    67939   224642 |     4    17683      578    23129 |  0.039 % |
c |      147       330      340 |    7659    67939   224642 |     5    15861      639    35127 |  0.039 % |
c |      165       408      363 |    7659    67939   224642 |     5    25861      679    35127 |  0.039 % |
c |      184       531      380 |    7659    67939   224642 |     6    21433      726    49716 |  0.039 % |
c |      209       612      382 |    7659    67939   224642 |     6    31433      768    49716 |  0.039 % |
c |      239       702      376 |    7659    67939   224642 |     7    24423      825    66816 |  0.039 % |
c |      267       784      374 |    7657    67939   224642 |     7    33024      850    66816 |  0.065 % |
c |      290       870      379 |    7657    67939   224642 |     8    24118      896    85817 |  0.065 % |
c |      323       948      371 |    7657    67939   224642 |     8    34118      943    85817 |  0.065 % |
c |      352      1027      369 |    7657    67939   224642 |     9    22265      969   107770 |  0.065 % |
c |      389      1108      359 |    7657    67939   224642 |     9    32265     1004   107770 |  0.065 % |
c |      433      1194      346 |    7657    67939   224642 |     9    42265     1032   107770 |  0.065 % |
c |      465      1269      344 |    7657    67939   224642 |    10    27637     1062   132477 |  0.065 % |
c |      500      1347      340 |    7657    67939   224642 |    10    37637     1085   132477 |  0.065 % |
c |      537      1428      335 |    7657    67939   224642 |    10    47637     1116   132477 |  0.065 % |
c |      583      1513      325 |    7657    67939   224642 |    11    30332     1139   159838 |  0.065 % |
c |      605      1603      330 |    7657    67939   224642 |    11    40332     1158   159838 |  0.065 % |
c |      621      1688      338 |    7657    67939   224642 |    11    50332     1170   159838 |  0.065 % |
c |      640      1771      343 |    7657    67939   224642 |    12    30377     1192   189852 |  0.065 % |
c |      653      1870      352 |    7657    67939   224642 |    12    40377     1211   189852 |  0.065 % |
c |      687      1955      349 |    7657    67939   224642 |    12    50377     1230   189852 |  0.065 % |
c |      717      2037      348 |    7657    67939   224642 |    12    60377     1251   189852 |  0.065 % |
c |      748      2121      347 |    7657    67939   224642 |    13    37802     1276   222478 |  0.065 % |
c |      775      2200      348 |    7657    67939   224642 |    13    47802     1294   222478 |  0.065 % |
c |      821      2283      341 |    7657    67939   224642 |    13    57802     1304   222478 |  0.065 % |
c |      850      2371      341 |    7657    67939   224642 |    13    67802     1322   222478 |  0.065 % |
c |      891      2452      336 |    7657    67939   224642 |    14    42608     1332   257730 |  0.065 % |
c |      917      2543      338 |    7657    67939   224642 |    14    52608     1344   257730 |  0.065 % |
c |      950      2614      336 |    7657    67939   224642 |    14    62608     1354   257730 |  0.065 % |
c |      991      2691      332 |    7657    67939   224642 |    14    72608     1371   257730 |  0.065 % |
c |     1016      2775      334 |    7657    67939   224642 |    15    44808     1401   295571 |  0.065 % |
c |     1052      2860      332 |    7657    67939   224642 |    15    54808     1416   295571 |  0.065 % |
c |     1088      2954      330 |    7657    67939   224642 |    15    64808     1435   295571 |  0.065 % |
c |     1127      3037      328 |    7657    67939   224642 |    15    74808     1448   295571 |  0.065 % |
c |     1176      3100      323 |    7657    67939   224642 |    16    44409     1460   336001 |  0.065 % |
c |     1211      3199      322 |    7657    67939   224642 |    16    54409     1470   336001 |  0.065 % |
c |     1250      3268      320 |    7657    67939   224642 |    16    64409     1483   336001 |  0.065 % |
c |     1276      3362      321 |    7657    67939   224642 |    16    74409     1495   336001 |  0.065 % |
c |     1324      3442      317 |    7657    67939   224642 |    16    84409     1509   336001 |  0.065 % |
c |     1361      3526      315 |    7657    67939   224642 |    17    51430     1525   379022 |  0.065 % |
c |     1396      3613      315 |    7657    67939   224642 |    17    61430     1536   379022 |  0.065 % |
c |     1440      3697      312 |    7657    67939   224642 |    17    71430     1544   379022 |  0.065 % |
c |     1463      3792      314 |    7657    67939   224642 |    17    81430     1551   379022 |  0.065 % |
c |     1507      3873      311 |    7657    67939   224642 |    18    45825     1560   424662 |  0.065 % |
c |     1531      3969      313 |    7657    67939   224642 |    18    55825     1565   424662 |  0.065 % |
c |     1547      4062      316 |    7657    67939   224642 |    18    65825     1583   424662 |  0.065 % |
c |     1567      4155      319 |    7657    67939   224642 |    18    75825     1592   424662 |  0.065 % |
c |     1586      4254      321 |    7657    67939   224642 |    18    85825     1604   424662 |  0.065 % |
c |     1615      4342      321 |    7657    67939   224642 |    18    95825     1608   424662 |  0.065 % |
c |     1631      4436      324 |    7657    67939   224642 |    19    57627     1616   472883 |  0.065 % |
c |     1640      4534      329 |    7657    67939   224642 |    19    67627     1626   472883 |  0.065 % |
c |     1655      4658      332 |    7657    67939   224642 |    19    77627     1635   472883 |  0.065 % |
c |     1659      4745      337 |    7657    67939   224642 |    19    87627     1643   472883 |  0.065 % |
c |     1672      4848      340 |    7657    67939   224642 |    19    97627     1661   472883 |  0.065 % |
c |     1705      4938      340 |    7657    67939   224642 |    20    56817     1668   523716 |  0.065 % |
c |     1724      5040      342 |    7657    67939   224642 |    20    66817     1677   523716 |  0.065 % |
c |     1750      5122      342 |    7657    67939   224642 |    20    76817     1684   523716 |  0.065 % |
c |     1767      5219      345 |    7657    67939   224642 |    20    86817     1691   523716 |  0.065 % |
c |     1797      5307      345 |    7655    67939   224642 |    20    96814     1703   523716 |  0.091 % |
c |     1807      5414      348 |    7655    67939   224642 |    20   106814     1717   523716 |  0.091 % |
c |     1831      5506      349 |    7655    67939   224642 |    21    63423     1724   577134 |  0.091 % |
c |     1865      5596      348 |    7655    67939   224642 |    21    73423     1731   577134 |  0.091 % |
c |     1886      5682      349 |    7654    67939   224642 |    21    83420     1735   577134 |  0.104 % |
c |     1906      5777      351 |    7654    67939   224642 |    21    93420     1739   577134 |  0.104 % |
c |     1945      5868      349 |    7654    67939   224642 |    21   103420     1744   577134 |  0.104 % |
c |     1951      5967      353 |    7654    67939   224642 |    22    57416     1753   633176 |  0.104 % |
c |     1973      6064      354 |    7654    67939   224642 |    22    67416     1758   633176 |  0.104 % |
c |     1992      6161      356 |    7654    67939   224642 |    22    77416     1763   633176 |  0.104 % |
c |     1997      6270      360 |    7654    67939   224642 |    22    87416     1773   633176 |  0.104 % |
c |     2008      6382      363 |    7654    67939   224642 |    22    97416     1779   633176 |  0.104 % |
c |     2045      6467      361 |    7653    67939   224642 |    22   107415     1785   633176 |  0.117 % |
c |     2058      6567      364 |    7653    67939   224642 |    23    58812     1794   691810 |  0.117 % |
c |     2074      6679      366 |    7653    67939   224642 |    23    68812     1799   691810 |  0.117 % |
c |     2093      6785      367 |    7653    67939   224642 |    23    78812     1801   691810 |  0.117 % |
c |     2107      6895      370 |    7653    67939   224642 |    23    88812     1810   691810 |  0.118 % |
c |     2144      6989      368 |    7653    67939   224642 |    23    98812     1816   691810 |  0.118 % |
c |     2181      7085      366 |    7653    67939   224642 |    23   108812     1825   691810 |  0.117 % |
c |     2218      7178      365 |    7653    67939   224642 |    23   118812     1829   691810 |  0.117 % |
c |     2240      7290      366 |    7653    67939   224642 |    24    67608     1838   753042 |  0.118 % |
c |     2262      7396      366 |    7653    67939   224642 |    24    77608     1847   753042 |  0.117 % |
c |     2276      7500      369 |    7653    67939   224642 |    24    87608     1851   753042 |  0.118 % |
c |     2304      7589      368 |    7653    67939   224642 |    24    97608     1858   753042 |  0.117 % |
c |     2328      7660      369 |    7653    67939   224642 |    24   107608     1867   753042 |  0.117 % |
c |     2370      7765      367 |    7653    67939   224642 |    24   117608     1871   753042 |  0.117 % |
c |     2408      7864      365 |    7653    67939   224642 |    24   127608     1878   753042 |  0.118 % |
c |     2439      7953      364 |    7653    67939   224642 |    25    73820     1885   816850 |  0.117 % |
c |     2469      8052      364 |    7653    67939   224642 |    25    83820     1891   816850 |  0.118 % |
c |     2503      8159      363 |    7653    67939   224642 |    25    93820     1895   816850 |  0.117 % |
c |     2537      8257      362 |    7653    67939   224642 |    25   103820     1900   816850 |  0.117 % |
c |     2560      8353      363 |    7653    67939   224642 |    25   113820     1901   816850 |  0.118 % |
c |     2600      8448      361 |    7653    67939   224642 |    25   123820     1908   816850 |  0.117 % |
c |     2620      8551      362 |    7653    67939   224642 |    26    67423     1913   883268 |  0.118 % |
c |     2641      8647      363 |    7653    67939   224642 |    26    77423     1923   883268 |  0.117 % |
c |     2664      8738      364 |    7653    67939   224642 |    26    87423     1931   883268 |  0.117 % |
c |     2690      8840      364 |    7653    67939   224642 |    26    97423     1935   883268 |  0.117 % |
c |     2697      8944      367 |    7653    67939   224642 |    26   107423     1940   883268 |  0.117 % |
c |     2729      9052      366 |    7653    67939   224642 |    26   117423     1943   883268 |  0.117 % |
c |     2751      9133      367 |    7653    67939   224642 |    26   127423     1950   883268 |  0.118 % |
c |     2776      9219      367 |    7653    67939   224642 |    26   137423     1964   883268 |  0.117 % |
c |     2801      9323      367 |    7653    67939   224642 |    27    78421     1972   952295 |  0.117 % |
c |     2819      9440      368 |    7653    67939   224642 |    27    88421     1974   952295 |  0.117 % |
c |     2848      9529      368 |    7652    67939   224642 |    27    98420     1976   952295 |  0.131 % |
c |     2871      9645      369 |    7652    67939   224642 |    27   108420     1983   952295 |  0.131 % |
c |     2890      9756      370 |    7652    67939   224642 |    27   118420     1988   952295 |  0.131 % |
c |     2927      9852      368 |    7652    67939   224642 |    27   128420     1996   952295 |  0.131 % |
c |     2968      9955      367 |    7652    67939   224642 |    27   138420     1998   952295 |  0.131 % |
c |     2994     10063      367 |    7652    67939   224642 |    28    76815     2004  1023916 |  0.131 % |
c |     3022     10164      367 |    7652    67939   224642 |    28    86815     2009  1023916 |  0.131 % |
c |     3047     10263      367 |    7652    67939   224642 |    28    96815     2021  1023916 |  0.131 % |
c |     3073     10358      367 |    7652    67939   224642 |    28   106815     2032  1023916 |  0.131 % |
c |     3111     10458      366 |    7652    67939   224642 |    28   116815     2035  1023916 |  0.131 % |
c |     3150     10557      365 |    7652    67939   224642 |    28   126815     2039  1023916 |  0.131 % |
c |     3196     10661      362 |    7652    67939   224642 |    28   136815     2039  1023916 |  0.131 % |
c |     3238     10741      361 |    7652    67939   224642 |    28   146815     2041  1023916 |  0.131 % |
c |     3257     10853      362 |    7652    67939   224642 |    29    82615     2045  1098135 |  0.131 % |
c |     3285     10949      362 |    7652    67939   224642 |    29    92615     2055  1098135 |  0.131 % |
c |     3305     11051      363 |    7652    67939   224642 |    29   102615     2061  1098135 |  0.131 % |
c |     3331     11150      363 |    7652    67939   224642 |    29   112615     2070  1098135 |  0.131 % |
c |     3358     11263      363 |    7652    67939   224642 |    29   122615     2074  1098135 |  0.131 % |
c |     3362     11371      365 |    7652    67939   224642 |    29   132615     2082  1098135 |  0.131 % |
c |     3399     11479      364 |    7652    67939   224642 |    29   142615     2089  1098135 |  0.131 % |
c |     3432     11581      364 |    7652    67939   224642 |    29   152615     2093  1098135 |  0.131 % |
c |     3444     11683      365 |    7652    67939   224642 |    30    85820     2097  1174943 |  0.131 % |
c |     3457     11784      367 |    7652    67939   224642 |    30    95820     2108  1174943 |  0.131 % |
c |     3506     11877      365 |    7652    67939   224642 |    30   105820     2111  1174943 |  0.131 % |
c |     3528     11981      365 |    7652    67939   224642 |    30   115820     2123  1174943 |  0.131 % |
c |     3560     12095      365 |    7652    67939   224642 |    30   125820     2126  1174943 |  0.131 % |
c |     3585     12210      365 |    7652    67939   224642 |    30   135820     2136  1174943 |  0.131 % |
c |     3603     12318      366 |    7652    67939   224642 |    30   145820     2141  1174943 |  0.131 % |
c |     3634     12417      365 |    7652    67939   224642 |    30   155820     2142  1174943 |  0.131 % |
c |     3665     12525      365 |    7652    67939   224642 |    31    86416     2151  1254362 |  0.131 % |
c |     3689     12615      365 |    7652    67939   224642 |    31    96416     2155  1254362 |  0.131 % |
c |     3710     12727      366 |    7652    67939   224642 |    31   106416     2162  1254362 |  0.131 % |
c |     3740     12828      366 |    7652    67939   224642 |    31   116416     2170  1254362 |  0.131 % |
c |     3767     12918      366 |    7652    67939   224642 |    31   126416     2175  1254362 |  0.131 % |
c |     3791     13018      366 |    7651    67939   224642 |    31   136414     2180  1254362 |  0.144 % |
c |     3820     13133      366 |    7651    67939   224642 |    31   146414     2187  1254362 |  0.144 % |
c |     3849     13231      366 |    7651    67939   224642 |    31   156414     2195  1254362 |  0.144 % |
c |     3873     13354      366 |    7651    67939   224642 |    32    84415     2201  1336384 |  0.144 % |
c |     3888     13463      367 |    7651    67939   224642 |    32    94415     2205  1336384 |  0.144 % |
c |     3902     13581      369 |    7651    67939   224642 |    32   104415     2211  1336384 |  0.144 % |
c |     3932     13686      368 |    7651    67939   224642 |    32   114415     2217  1336384 |  0.144 % |
c |     3962     13790      368 |    7651    67939   224642 |    32   124415     2222  1336384 |  0.144 % |
c |     3966     13915      370 |    7651    67939   224642 |    32   134415     2230  1336384 |  0.144 % |
c |     3976     14047      372 |    7651    67939   224642 |    32   144415     2240  1336384 |  0.144 % |
c |     3986     14153      373 |    7651    67939   224642 |    32   154415     2245  1336384 |  0.144 % |
c |     3990     14277      375 |    7651    67939   224642 |    32   164415     2252  1336384 |  0.144 % |
c |     3999     14388      377 |    7651    67939   224642 |    33    89812     2257  1421006 |  0.144 % |
c |     4002     14525      379 |    7651    67939   224642 |    33    99812     2264  1421006 |  0.144 % |
c |     4004     14635      382 |    7651    67939   224642 |    33   109812     2273  1421006 |  0.144 % |
c |     4009     14750      384 |    7651    67939   224642 |    33   119812     2282  1421006 |  0.144 % |
c |     4026     14876      384 |    7651    67939   224642 |    33   129812     2289  1421006 |  0.144 % |
c |     4034     14973      386 |    7650    67939   224642 |    33   139809     2298  1421006 |  0.157 % |
c |     4042     15100      388 |    7650    67939   224642 |    33   149809     2303  1421006 |  0.157 % |
c |     4047     15218      390 |    7650    67939   224642 |    33   159809     2306  1421006 |  0.157 % |
c |     4050     15355      392 |    7644    67939   224642 |    33   169808     2319  1421006 |  0.235 % |
c empty clause found by core 1 at conflict 1596385
*
c checking the resolution graph...OK
c All useful bySize 1291076 clauses, percentiles 0 3 9 13 25 53 101 155 188 251 421 432 (0,1,5,10,25,50,75,90,95,99,100-1,100)
c All useless bySize 1969646 clauses, percentiles 0 3 11 15 26 50 87 131 160 216 394 397 (0,1,5,10,25,50,75,90,95,99,100-1,100)
c ProofOnly useful bySize 1269837 clauses, percentiles 0 5 10 14 26 55 102 156 189 251 421 432 (0,1,5,10,25,50,75,90,95,99,100-1,100)
c ProofOnly useless bySize 1922933 clauses, percentiles 2 9 13 16 28 52 88 132 161 217 394 397 (0,1,5,10,25,50,75,90,95,99,100-1,100)
c All useful byFinalLBD 1291076 clauses, percentiles 0 1 2 3 5 9 12 15 16 19 36 37 (0,1,5,10,25,50,75,90,95,99,100-1,100)
c All useless byFinalLBD 1969646 clauses, percentiles 0 3 5 6 8 11 14 18 20 24 41 42 (0,1,5,10,25,50,75,90,95,99,100-1,100)
c ProofOnly useful byFinalLBD 1269837 clauses, percentiles 0 1 2 3 6 9 12 15 16 19 36 37 (0,1,5,10,25,50,75,90,95,99,100-1,100)
c ProofOnly useless byFinalLBD 1922933 clauses, percentiles 1 4 5 6 8 11 14 18 20 24 41 42 (0,1,5,10,25,50,75,90,95,99,100-1,100)
c All useful byInitialLBD 1291076 clauses, percentiles 0 3 4 5 7 10 13 15 17 20 36 37 (0,1,5,10,25,50,75,90,95,99,100-1,100)
c All useless byInitialLBD 1969646 clauses, percentiles 0 3 5 6 8 11 15 18 20 24 42 43 (0,1,5,10,25,50,75,90,95,99,100-1,100)
c ProofOnly useful byInitialLBD 1269837 clauses, percentiles 0 3 4 5 7 10 13 15 17 20 36 37 (0,1,5,10,25,50,75,90,95,99,100-1,100)
c ProofOnly useless byInitialLBD 1922933 clauses, percentiles 2 4 6 6 9 11 15 18 20 24 42 43 (0,1,5,10,25,50,75,90,95,99,100-1,100)
c Literals ProofOnly useful 90563244
c Literals ProofOnly useless 124062188
c additional windowsGood 1 1 1 1 1 1 1 3 4 25 223 250 (0,1,5,10,25,50,75,90,95,99,100-1,100)
c additional windowsBad 1 1 1 1 1 1 1 7 13 32 356 379 (0,1,5,10,25,50,75,90,95,99,100-1,100)
c additional 1WindowNoDecision 549794 294865 0.54 496989 255835 0.51 (nbWindowsGood,nbWindowsNoDecisionGood,nbWindowsBad,nbWindowsNoDecisionBad
c additional topclausessize all (10%,5%,1%,top) 198.05 226.24 281.15 432
c additional topclausessize proofonly (10%,5%,1%,top) 198.41 226.55 281.40 432
c additional topclausesinitialLBD all (10%,5%,1%,top) 179.92 210.40 268.65 432
c additional topclausesinitialLBD proofonly (10%,5%,1%,top) 165.97 198.41 259.33 432
c additional topclausesfinalLBD all (10%,5%,1%,top) 154.30 188.43 251.69 432
c additional topclausesfinalLBD proofonly (10%,5%,1%,top) 144.50 180.05 245.37 432
c additional predictionInitialLBD 1 13 1269837 1.00 0.00 0.00 3192757 1922933 0.60 1.51 0.86 0.60 (nbgoodclauses,nbtotalgood,precisionGood,recallGood,FGood,nbbadclause,nbtotalbad,precisionBad,recallBad,FBad,accuracy)
c additional predictionInitialLBD 2 4776 1269837 0.93 0.00 0.01 3187994 1922933 0.60 1.51 0.86 0.60 (nbgoodclauses,nbtotalgood,precisionGood,recallGood,FGood,nbbadclause,nbtotalbad,precisionBad,recallBad,FBad,accuracy)
c additional predictionInitialLBD 3 28806 1269837 0.91 0.02 0.04 3163964 1922933 0.61 1.51 0.87 0.61 (nbgoodclauses,nbtotalgood,precisionGood,recallGood,FGood,nbbadclause,nbtotalbad,precisionBad,recallBad,FBad,accuracy)
c additional predictionInitialLBD 4 96200 1269837 0.69 0.05 0.10 3096570 1922933 0.61 1.49 0.87 0.61 (nbgoodclauses,nbtotalgood,precisionGood,recallGood,FGood,nbbadclause,nbtotalbad,precisionBad,recallBad,FBad,accuracy)
c additional predictionInitialLBD 5 225694 1269837 0.58 0.10 0.18 2967076 1922933 0.62 1.44 0.86 0.61 (nbgoodclauses,nbtotalgood,precisionGood,recallGood,FGood,nbbadclause,nbtotalbad,precisionBad,recallBad,FBad,accuracy)
c additional predictionInitialLBD 6 416575 1269837 0.53 0.18 0.26 2776195 1922933 0.62 1.36 0.85 0.61 (nbgoodclauses,nbtotalgood,precisionGood,recallGood,FGood,nbbadclause,nbtotalbad,precisionBad,recallBad,FBad,accuracy)
c additional predictionInitialLBD 7 660540 1269837 0.51 0.26 0.35 2532230 1922933 0.63 1.26 0.84 0.61 (nbgoodclauses,nbtotalgood,precisionGood,recallGood,FGood,nbbadclause,nbtotalbad,precisionBad,recallBad,FBad,accuracy)
c additional predictionInitialLBD 8 939191 1269837 0.49 0.36 0.42 2253579 1922933 0.64 1.14 0.82 0.60 (nbgoodclauses,nbtotalgood,precisionGood,recallGood,FGood,nbbadclause,nbtotalbad,precisionBad,recallBad,FBad,accuracy)
c additional predictionInitialLBD 10 1531801 1269837 0.47 0.57 0.51 1660969 1922933 0.67 0.87 0.76 0.57 (nbgoodclauses,nbtotalgood,precisionGood,recallGood,FGood,nbbadclause,nbtotalbad,precisionBad,recallBad,FBad,accuracy)
c additional predictionInitialLBD 14 2518985 1269837 0.44 0.87 0.58 673785 1922933 0.75 0.40 0.52 0.50 (nbgoodclauses,nbtotalgood,precisionGood,recallGood,FGood,nbbadclause,nbtotalbad,precisionBad,recallBad,FBad,accuracy)
c additional predictionInitialLBD 18 3002241 1269837 0.41 0.98 0.58 190529 1922933 0.86 0.13 0.22 0.44 (nbgoodclauses,nbtotalgood,precisionGood,recallGood,FGood,nbbadclause,nbtotalbad,precisionBad,recallBad,FBad,accuracy)
c additional predictionInitialLBD 22 3151442 1269837 0.40 1.00 0.57 41328 1922933 0.92 0.03 0.06 0.41 (nbgoodclauses,nbtotalgood,precisionGood,recallGood,FGood,nbbadclause,nbtotalbad,precisionBad,recallBad,FBad,accuracy)
c additional predictionInitialLBD 30 3191329 1269837 0.40 1.00 0.57 1441 1922933 0.96 0.00 0.00 0.40 (nbgoodclauses,nbtotalgood,precisionGood,recallGood,FGood,nbbadclause,nbtotalbad,precisionBad,recallBad,FBad,accuracy)
c additional predictionInitialLBD 40 3192762 1269837 0.40 1.00 0.57 8 1922933 1.00 0.00 0.00 0.40 (nbgoodclauses,nbtotalgood,precisionGood,recallGood,FGood,nbbadclause,nbtotalbad,precisionBad,recallBad,FBad,accuracy)
c additional predictionFinallLBD 1 23002 1269837 0.99 0.02 0.04 3169768 1922933 0.61 1.00 0.76 0.61 (nbgoodclauses,nbtotalgood,precisionGood,recallGood,FGood,nbbadclause,nbtotalbad,precisionBad,recallBad,FBad,accuracy)
c additional predictionFinallLBD 2 70413 1269837 0.98 0.05 0.10 3122357 1922933 0.62 1.00 0.76 0.62 (nbgoodclauses,nbtotalgood,precisionGood,recallGood,FGood,nbbadclause,nbtotalbad,precisionBad,recallBad,FBad,accuracy)
c additional predictionFinallLBD 3 145674 1269837 0.96 0.11 0.20 3047096 1922933 0.63 1.00 0.77 0.64 (nbgoodclauses,nbtotalgood,precisionGood,recallGood,FGood,nbbadclause,nbtotalbad,precisionBad,recallBad,FBad,accuracy)
c additional predictionFinallLBD 4 277192 1269837 0.80 0.18 0.29 2915578 1922933 0.64 0.97 0.77 0.66 (nbgoodclauses,nbtotalgood,precisionGood,recallGood,FGood,nbbadclause,nbtotalbad,precisionBad,recallBad,FBad,accuracy)
c additional predictionFinallLBD 5 460715 1269837 0.69 0.25 0.37 2732055 1922933 0.65 0.92 0.76 0.66 (nbgoodclauses,nbtotalgood,precisionGood,recallGood,FGood,nbbadclause,nbtotalbad,precisionBad,recallBad,FBad,accuracy)
c additional predictionFinallLBD 6 676935 1269837 0.61 0.33 0.43 2515835 1922933 0.66 0.86 0.75 0.65 (nbgoodclauses,nbtotalgood,precisionGood,recallGood,FGood,nbbadclause,nbtotalbad,precisionBad,recallBad,FBad,accuracy)
c additional predictionFinallLBD 7 917800 1269837 0.56 0.41 0.47 2274970 1922933 0.67 0.79 0.72 0.64 (nbgoodclauses,nbtotalgood,precisionGood,recallGood,FGood,nbbadclause,nbtotalbad,precisionBad,recallBad,FBad,accuracy)
c additional predictionFinallLBD 8 1174206 1269837 0.53 0.49 0.51 2018564 1922933 0.68 0.71 0.69 0.62 (nbgoodclauses,nbtotalgood,precisionGood,recallGood,FGood,nbbadclause,nbtotalbad,precisionBad,recallBad,FBad,accuracy)
c additional predictionFinallLBD 10 1699805 1269837 0.48 0.65 0.55 1492965 1922933 0.70 0.54 0.61 0.58 (nbgoodclauses,nbtotalgood,precisionGood,recallGood,FGood,nbbadclause,nbtotalbad,precisionBad,recallBad,FBad,accuracy)
c additional predictionFinallLBD 14 2580558 1269837 0.44 0.89 0.59 612212 1922933 0.78 0.25 0.38 0.50 (nbgoodclauses,nbtotalgood,precisionGood,recallGood,FGood,nbbadclause,nbtotalbad,precisionBad,recallBad,FBad,accuracy)
c additional predictionFinallLBD 18 3018977 1269837 0.41 0.98 0.58 173793 1922933 0.88 0.08 0.15 0.44 (nbgoodclauses,nbtotalgood,precisionGood,recallGood,FGood,nbbadclause,nbtotalbad,precisionBad,recallBad,FBad,accuracy)
c additional predictionFinallLBD 22 3155090 1269837 0.40 1.00 0.57 37680 1922933 0.93 0.02 0.04 0.41 (nbgoodclauses,nbtotalgood,precisionGood,recallGood,FGood,nbbadclause,nbtotalbad,precisionBad,recallBad,FBad,accuracy)
c additional predictionFinallLBD 30 3191470 1269837 0.40 1.00 0.57 1300 1922933 0.96 0.00 0.00 0.40 (nbgoodclauses,nbtotalgood,precisionGood,recallGood,FGood,nbbadclause,nbtotalbad,precisionBad,recallBad,FBad,accuracy)
c additional predictionFinallLBD 40 3192764 1269837 0.40 1.00 0.57 6 1922933 1.00 0.00 0.00 0.40 (nbgoodclauses,nbtotalgood,precisionGood,recallGood,FGood,nbbadclause,nbtotalbad,precisionBad,recallBad,FBad,accuracy)
c additional predictionSize 1 13 1269837 1.00 0.00 0.00 3192757 1922933 0.60 1.51 0.86 0.60 (nbgoodclauses,nbtotalgood,precisionGood,recallGood,FGood,nbbadclause,nbtotalbad,precisionBad,recallBad,FBad,accuracy)
c additional predictionSize 2 680 1269837 0.96 0.00 0.00 3192090 1922933 0.60 1.51 0.86 0.60 (nbgoodclauses,nbtotalgood,precisionGood,recallGood,FGood,nbbadclause,nbtotalbad,precisionBad,recallBad,FBad,accuracy)
c additional predictionSize 3 3030 1269837 0.94 0.00 0.00 3189740 1922933 0.60 1.51 0.86 0.60 (nbgoodclauses,nbtotalgood,precisionGood,recallGood,FGood,nbbadclause,nbtotalbad,precisionBad,recallBad,FBad,accuracy)
c additional predictionSize 4 7500 1269837 0.94 0.01 0.01 3185270 1922933 0.60 1.51 0.86 0.60 (nbgoodclauses,nbtotalgood,precisionGood,recallGood,FGood,nbbadclause,nbtotalbad,precisionBad,recallBad,FBad,accuracy)
c additional predictionSize 5 14483 1269837 0.90 0.01 0.02 3178287 1922933 0.60 1.51 0.86 0.61 (nbgoodclauses,nbtotalgood,precisionGood,recallGood,FGood,nbbadclause,nbtotalbad,precisionBad,recallBad,FBad,accuracy)
c additional predictionSize 6 22276 1269837 0.87 0.02 0.03 3170494 1922933 0.61 1.51 0.86 0.61 (nbgoodclauses,nbtotalgood,precisionGood,recallGood,FGood,nbbadclause,nbtotalbad,precisionBad,recallBad,FBad,accuracy)
c additional predictionSize 7 32165 1269837 0.83 0.02 0.04 3160605 1922933 0.61 1.51 0.87 0.61 (nbgoodclauses,nbtotalgood,precisionGood,recallGood,FGood,nbbadclause,nbtotalbad,precisionBad,recallBad,FBad,accuracy)
c additional predictionSize 8 50768 1269837 0.74 0.03 0.06 3142002 1922933 0.61 1.50 0.87 0.61 (nbgoodclauses,nbtotalgood,precisionGood,recallGood,FGood,nbbadclause,nbtotalbad,precisionBad,recallBad,FBad,accuracy)
c additional predictionSize 10 121029 1269837 0.58 0.06 0.10 3071741 1922933 0.61 1.47 0.86 0.61 (nbgoodclauses,nbtotalgood,precisionGood,recallGood,FGood,nbbadclause,nbtotalbad,precisionBad,recallBad,FBad,accuracy)
c additional predictionSize 14 284864 1269837 0.49 0.11 0.18 2907906 1922933 0.61 1.40 0.85 0.60 (nbgoodclauses,nbtotalgood,precisionGood,recallGood,FGood,nbbadclause,nbtotalbad,precisionBad,recallBad,FBad,accuracy)
c additional predictionSize 18 460648 1269837 0.46 0.17 0.24 2732122 1922933 0.61 1.32 0.84 0.59 (nbgoodclauses,nbtotalgood,precisionGood,recallGood,FGood,nbbadclause,nbtotalbad,precisionBad,recallBad,FBad,accuracy)
c additional predictionSize 22 623489 1269837 0.44 0.21 0.29 2569281 1922933 0.61 1.24 0.82 0.58 (nbgoodclauses,nbtotalgood,precisionGood,recallGood,FGood,nbbadclause,nbtotalbad,precisionBad,recallBad,FBad,accuracy)
c additional predictionSize 30 921800 1269837 0.41 0.30 0.35 2270970 1922933 0.61 1.09 0.78 0.55 (nbgoodclauses,nbtotalgood,precisionGood,recallGood,FGood,nbbadclause,nbtotalbad,precisionBad,recallBad,FBad,accuracy)
c additional predictionSize 40 1252144 1269837 0.40 0.39 0.39 1940626 1922933 0.60 0.92 0.73 0.52 (nbgoodclauses,nbtotalgood,precisionGood,recallGood,FGood,nbbadclause,nbtotalbad,precisionBad,recallBad,FBad,accuracy)
c additional predictionAge 1 43704 1269837 0.38 0.01 0.03 3149066 1922933 0.60 1.49 0.86 0.60 (nbgoodclauses,nbtotalgood,precisionGood,recallGood,FGood,nbbadclause,nbtotalbad,precisionBad,recallBad,FBad,accuracy)
c additional predictionAge 10 60705 1269837 0.34 0.02 0.03 3132065 1922933 0.60 1.48 0.86 0.60 (nbgoodclauses,nbtotalgood,precisionGood,recallGood,FGood,nbbadclause,nbtotalbad,precisionBad,recallBad,FBad,accuracy)
c additional predictionAge 25 65375 1269837 0.34 0.02 0.03 3127395 1922933 0.60 1.48 0.85 0.60 (nbgoodclauses,nbtotalgood,precisionGood,recallGood,FGood,nbbadclause,nbtotalbad,precisionBad,recallBad,FBad,accuracy)
c additional predictionAge 50 69619 1269837 0.33 0.02 0.03 3123151 1922933 0.60 1.48 0.85 0.59 (nbgoodclauses,nbtotalgood,precisionGood,recallGood,FGood,nbbadclause,nbtotalbad,precisionBad,recallBad,FBad,accuracy)
c additional predictionAge 100 73732 1269837 0.33 0.02 0.04 3119038 1922933 0.60 1.48 0.85 0.59 (nbgoodclauses,nbtotalgood,precisionGood,recallGood,FGood,nbbadclause,nbtotalbad,precisionBad,recallBad,FBad,accuracy)
c additional predictionAge 250 78609 1269837 0.33 0.02 0.04 3114161 1922933 0.60 1.47 0.85 0.59 (nbgoodclauses,nbtotalgood,precisionGood,recallGood,FGood,nbbadclause,nbtotalbad,precisionBad,recallBad,FBad,accuracy)
c additional predictionAge 500 81943 1269837 0.32 0.02 0.04 3110827 1922933 0.60 1.47 0.85 0.59 (nbgoodclauses,nbtotalgood,precisionGood,recallGood,FGood,nbbadclause,nbtotalbad,precisionBad,recallBad,FBad,accuracy)
c additional predictionAge 1000 84817 1269837 0.33 0.02 0.04 3107953 1922933 0.60 1.47 0.85 0.59 (nbgoodclauses,nbtotalgood,precisionGood,recallGood,FGood,nbbadclause,nbtotalbad,precisionBad,recallBad,FBad,accuracy)
c additional predictionAge 2500 88871 1269837 0.33 0.02 0.04 3103899 1922933 0.60 1.47 0.85 0.59 (nbgoodclauses,nbtotalgood,precisionGood,recallGood,FGood,nbbadclause,nbtotalbad,precisionBad,recallBad,FBad,accuracy)
c additional predictionAge 5000 93312 1269837 0.32 0.02 0.04 3099458 1922933 0.60 1.46 0.85 0.59 (nbgoodclauses,nbtotalgood,precisionGood,recallGood,FGood,nbbadclause,nbtotalbad,precisionBad,recallBad,FBad,accuracy)
c additional predictionAge 10000 100656 1269837 0.32 0.03 0.05 3092114 1922933 0.60 1.46 0.85 0.59 (nbgoodclauses,nbtotalgood,precisionGood,recallGood,FGood,nbbadclause,nbtotalbad,precisionBad,recallBad,FBad,accuracy)
c additional predictionAge 25000 121266 1269837 0.31 0.03 0.05 3071504 1922933 0.60 1.45 0.85 0.59 (nbgoodclauses,nbtotalgood,precisionGood,recallGood,FGood,nbbadclause,nbtotalbad,precisionBad,recallBad,FBad,accuracy)
c additional predictionAge 50000 154069 1269837 0.29 0.04 0.06 3038701 1922933 0.60 1.43 0.84 0.58 (nbgoodclauses,nbtotalgood,precisionGood,recallGood,FGood,nbbadclause,nbtotalbad,precisionBad,recallBad,FBad,accuracy)
c additional predictionAge 100000 214544 1269837 0.27 0.05 0.08 2978226 1922933 0.59 1.39 0.83 0.57 (nbgoodclauses,nbtotalgood,precisionGood,recallGood,FGood,nbbadclause,nbtotalbad,precisionBad,recallBad,FBad,accuracy)
c additional predictionTicks 1 43843 1269837 0.38 0.01 0.03 3148927 1922933 0.60 1.49 0.86 0.60 (nbgoodclauses,nbtotalgood,precisionGood,recallGood,FGood,nbbadclause,nbtotalbad,precisionBad,recallBad,FBad,accuracy)
c additional predictionTicks 10 155730 1269837 0.40 0.05 0.09 3037040 1922933 0.60 1.44 0.85 0.59 (nbgoodclauses,nbtotalgood,precisionGood,recallGood,FGood,nbbadclause,nbtotalbad,precisionBad,recallBad,FBad,accuracy)
c additional predictionTicks 25 215732 1269837 0.40 0.07 0.12 2977038 1922933 0.60 1.41 0.84 0.59 (nbgoodclauses,nbtotalgood,precisionGood,recallGood,FGood,nbbadclause,nbtotalbad,precisionBad,recallBad,FBad,accuracy)
c additional predictionTicks 50 281285 1269837 0.40 0.09 0.15 2911485 1922933 0.60 1.38 0.84 0.58 (nbgoodclauses,nbtotalgood,precisionGood,recallGood,FGood,nbbadclause,nbtotalbad,precisionBad,recallBad,FBad,accuracy)
c additional predictionTicks 100 354365 1269837 0.40 0.11 0.18 2838405 1922933 0.60 1.35 0.83 0.58 (nbgoodclauses,nbtotalgood,precisionGood,recallGood,FGood,nbbadclause,nbtotalbad,precisionBad,recallBad,FBad,accuracy)
c additional predictionTicks 250 468016 1269837 0.40 0.15 0.22 2724754 1922933 0.60 1.29 0.82 0.57 (nbgoodclauses,nbtotalgood,precisionGood,recallGood,FGood,nbbadclause,nbtotalbad,precisionBad,recallBad,FBad,accuracy)
c additional predictionTicks 500 571526 1269837 0.41 0.18 0.25 2621244 1922933 0.60 1.25 0.81 0.57 (nbgoodclauses,nbtotalgood,precisionGood,recallGood,FGood,nbbadclause,nbtotalbad,precisionBad,recallBad,FBad,accuracy)
c additional predictionTicks 1000 694241 1269837 0.41 0.22 0.29 2498529 1922933 0.61 1.19 0.80 0.56 (nbgoodclauses,nbtotalgood,precisionGood,recallGood,FGood,nbbadclause,nbtotalbad,precisionBad,recallBad,FBad,accuracy)
c additional predictionTicks 2500 896390 1269837 0.41 0.29 0.34 2296380 1922933 0.61 1.10 0.78 0.55 (nbgoodclauses,nbtotalgood,precisionGood,recallGood,FGood,nbbadclause,nbtotalbad,precisionBad,recallBad,FBad,accuracy)
c additional predictionTicks 5000 1099065 1269837 0.40 0.35 0.37 2093705 1922933 0.60 1.00 0.75 0.54 (nbgoodclauses,nbtotalgood,precisionGood,recallGood,FGood,nbbadclause,nbtotalbad,precisionBad,recallBad,FBad,accuracy)
c additional predictionTicks 10000 1367795 1269837 0.40 0.43 0.41 1824975 1922933 0.60 0.87 0.71 0.51 (nbgoodclauses,nbtotalgood,precisionGood,recallGood,FGood,nbbadclause,nbtotalbad,precisionBad,recallBad,FBad,accuracy)
c additional predictionTicks 25000 1859654 1269837 0.39 0.57 0.47 1333116 1922933 0.59 0.62 0.61 0.48 (nbgoodclauses,nbtotalgood,precisionGood,recallGood,FGood,nbbadclause,nbtotalbad,precisionBad,recallBad,FBad,accuracy)
c additional predictionTicks 50000 2322227 1269837 0.39 0.71 0.51 870543 1922933 0.58 0.40 0.48 0.44 (nbgoodclauses,nbtotalgood,precisionGood,recallGood,FGood,nbbadclause,nbtotalbad,precisionBad,recallBad,FBad,accuracy)
c additional predictionTicks 100000 2755652 1269837 0.39 0.85 0.54 437118 1922933 0.57 0.20 0.29 0.42 (nbgoodclauses,nbtotalgood,precisionGood,recallGood,FGood,nbbadclause,nbtotalbad,precisionBad,recallBad,FBad,accuracy)
c additional lifetimeGood 1 2 40 30384 377579 1233881 2095161 2653635 2863488 3072852 3192492 3192494 (0,1,5,10,25,50,75,90,95,99,100-1,100)
c additional lifetimeBad 1 2 8 1852 176733 674713 1423845 2116465 2471246 2971144 3192107 3192118 (0,1,5,10,25,50,75,90,95,99,100-1,100)
c additional lifetimeBadBad 2 2 2 2 2 10 122 16194 65777 198758 3140002 3168859 (0,1,5,10,25,50,75,90,95,99,100-1,100)
c additional compositionBad 1 2 4 5 10 22 43 74 100 163 485 504 (0,1,5,10,25,50,75,90,95,99,100-1,100)
c additional compositionBadWithGood 0 0 1 2 4 9 19 34 46 78 239 246 (0,1,5,10,25,50,75,90,95,99,100-1,100)
c additional compositionBadWithBad 0 0 0 0 0 1 2 4 5 8 27 28 (0,1,5,10,25,50,75,90,95,99,100-1,100)
c additional compositionBadWithInitial 0 0 1 2 5 11 22 39 52 85 359 385 (0,1,5,10,25,50,75,90,95,99,100-1,100)
c additional compositionGood 1 2 3 4 8 19 44 82 114 193 536 602 (0,1,5,10,25,50,75,90,95,99,100-1,100)
c additional compositionGoodWithGood 0 0 1 2 4 10 23 43 59 102 272 299 (0,1,5,10,25,50,75,90,95,99,100-1,100)
c additional compositionGoodWithInitial 0 0 1 2 4 9 21 40 56 94 267 303 (0,1,5,10,25,50,75,90,95,99,100-1,100)
c additional propagationGood total 127249592 percentiles 0 1 1 1 1 2 6 34 119 1227 154856 162523 (0,1,5,10,25,50,75,90,95,99,100-1,100)
c additional propagationBad total 3738697 percentiles 1 1 1 1 1 1 2 3 5 13 4581 15584 (0,1,5,10,25,50,75,90,95,99,100-1,100)
c additional resolutionGood total 44315734 percentiles 0 1 1 1 1 1 5 22 66 489 52834 57570 (0,1,5,10,25,50,75,90,95,99,100-1,100)
c additional resolutionBad total 2751778 percentiles 0 0 0 0 1 1 1 3 4 8 155 163 (0,1,5,10,25,50,75,90,95,99,100-1,100)
No graph is dumped
c result of core 1 is UNSAT
c One thread has finished
c Core 1 said it finished
c result of core 0 is UNKNOWN
c restarts              : 4050 (394 conflicts in avg)
c blocked restarts      : 15415 (multiple: 2462) 
c last block at restart : 4050
c nb ReduceDB           : 34
c nb removed Clauses    : 1508241
c nb learnts DL2        : 2338
c nb learnts size 2     : 323
c nb learnts size 1     : 8
c conflicts             : 1596385        (1309 /sec)
c decisions             : 2263257        (0.00 % random) (1856 /sec)
c propagations          : 306359876      (251277 /sec)
c conflict literals     : 108994554      (4.93 % deleted)
c nb reduced Clauses    : 15063
c CPU time              : 1219.21 s

s INDETERMINATE
