c
c This is glucose-proof 1.0 based on  2.1 --  (thanks to MiniSAT)
c
c EXPERIMENTAL EASY PARALLEL (ROUND ROBIN) VERSION
c
c WARNING: for repeatability, setting FPU to use double precision
c Parallel version 4 solvers created.
c ========================================[ Problem Statistics ]===========================================
c |                                                                                                       |
c |  Number of variables:           555                                                                   |
c |  Number of clauses:           43330                                                                   |
c |  Parse time:                   0.04 s                                                                 |
c |                                                                                                       |
c ========================================[ MAGIC CONSTANTS ]==============================================
c | Constants are supposed to work well together :-)                                                      |
c | however, if you find better choices, please let us known...                                           |
c |-------------------------------------------------------------------------------------------------------|
c |                                |                                |                                     |
c | - Restarts:                    | - Reduce Clause DB:            | - Minimize Asserting:               |
c |   * LBD Queue    :     50      |   * First     :   4000         |    * size <  30                     |
c |   * Trail  Queue :   5000      |   * Inc       :    300         |    * lbd  <   6                     |
c |   * K            :   0.80      |   * Special   :   1000         |                                     |
c |   * R            :   1.40      |   * Protected :  (lbd)< 30     |                                     |
c |                                |                                |                                     |
c ==================================[ Search Statistics (every  10000 conflicts) ]=========================
c |                                                                                                       |
c |          RESTARTS           |          ORIGINAL         |              LEARNT              | Progress |
c |       NB   Blocked  Avg Cfc |    Vars  Clauses Literals |   Red   Learnts    LBD2  Removed |          |
c =========================================================================================================
c |       11         0      909 |     555    43330   185601 |     1     8001        9     1999 |  0.002 % |
c |       18       132     1111 |     555    43330   185601 |     3     6951       37    13075 |  0.003 % |
c |       27       280     1111 |     554    43330   185601 |     3    16913       64    13075 |  0.183 % |
c |       63       415      634 |     550    43330   185601 |     4    12172       93    22380 |  0.903 % |
c empty clause found by core 2 at conflict 45748
*
c checking the resolution graph...OK
c All useful bySize 196560 clauses, percentiles 0 3 3 3 9 17 25 36 47 77 167 170 (0,1,5,10,25,50,75,90,95,99,100-1,100)
c All useless bySize 29834 clauses, percentiles 0 3 3 3 3 13 25 38 46 69 144 147 (0,1,5,10,25,50,75,90,95,99,100-1,100)
c ProofOnly useful bySize 166246 clauses, percentiles 0 6 7 8 13 19 27 39 50 81 167 170 (0,1,5,10,25,50,75,90,95,99,100-1,100)
c ProofOnly useless bySize 16745 clauses, percentiles 2 7 9 12 17 24 33 45 53 78 144 147 (0,1,5,10,25,50,75,90,95,99,100-1,100)
c All useful byFinalLBD 196560 clauses, percentiles 0 2 3 3 5 8 10 13 15 19 28 31 (0,1,5,10,25,50,75,90,95,99,100-1,100)
c All useless byFinalLBD 29834 clauses, percentiles 0 3 3 3 3 7 10 13 15 20 48 50 (0,1,5,10,25,50,75,90,95,99,100-1,100)
c ProofOnly useful byFinalLBD 166246 clauses, percentiles 0 2 3 4 6 8 11 14 16 19 28 31 (0,1,5,10,25,50,75,90,95,99,100-1,100)
c ProofOnly useless byFinalLBD 16745 clauses, percentiles 2 3 5 6 7 9 12 14 16 22 48 50 (0,1,5,10,25,50,75,90,95,99,100-1,100)
c All useful byInitialLBD 196560 clauses, percentiles 0 3 3 3 6 8 11 14 16 20 30 31 (0,1,5,10,25,50,75,90,95,99,100-1,100)
c All useless byInitialLBD 29834 clauses, percentiles 0 3 3 3 3 8 10 13 15 21 48 50 (0,1,5,10,25,50,75,90,95,99,100-1,100)
c ProofOnly useful byInitialLBD 166246 clauses, percentiles 0 3 4 5 7 9 12 15 16 20 30 31 (0,1,5,10,25,50,75,90,95,99,100-1,100)
c ProofOnly useless byInitialLBD 16745 clauses, percentiles 2 4 5 6 8 10 12 15 17 23 48 50 (0,1,5,10,25,50,75,90,95,99,100-1,100)
c Literals ProofOnly useful 3716945
c Literals ProofOnly useless 448916
c additional windowsGood 1 1 1 1 1 3 3 16 69 210 534 607 (0,1,5,10,25,50,75,90,95,99,100-1,100)
c additional windowsBad 1 1 1 1 1 1 1 2 3 3 51 65 (0,1,5,10,25,50,75,90,95,99,100-1,100)
c additional 1WindowNoDecision 4425 2329 0.53 12357 6573 0.53 (nbWindowsGood,nbWindowsNoDecisionGood,nbWindowsBad,nbWindowsNoDecisionBad
c additional topclausessize all (10%,5%,1%,top) 53.80 66.50 102.54 170
c additional topclausessize proofonly (10%,5%,1%,top) 55.21 68.05 104.62 170
c additional topclausesinitialLBD all (10%,5%,1%,top) 47.86 59.88 93.75 170
c additional topclausesinitialLBD proofonly (10%,5%,1%,top) 43.72 55.21 87.57 170
c additional topclausesfinalLBD all (10%,5%,1%,top) 40.12 51.06 82.13 170
c additional topclausesfinalLBD proofonly (10%,5%,1%,top) 37.75 48.30 78.52 170
c additional predictionInitialLBD 1 26 166246 1.00 0.00 0.00 182965 16745 0.09 0.10 0.10 0.09 (nbgoodclauses,nbtotalgood,precisionGood,recallGood,FGood,nbbadclause,nbtotalbad,precisionBad,recallBad,FBad,accuracy)
c additional predictionInitialLBD 2 564 166246 0.96 0.00 0.01 182427 16745 0.09 0.10 0.10 0.09 (nbgoodclauses,nbtotalgood,precisionGood,recallGood,FGood,nbbadclause,nbtotalbad,precisionBad,recallBad,FBad,accuracy)
c additional predictionInitialLBD 3 2783 166246 0.97 0.02 0.03 180208 16745 0.09 0.10 0.10 0.11 (nbgoodclauses,nbtotalgood,precisionGood,recallGood,FGood,nbbadclause,nbtotalbad,precisionBad,recallBad,FBad,accuracy)
c additional predictionInitialLBD 4 9341 166246 0.96 0.05 0.10 173650 16745 0.09 0.10 0.10 0.14 (nbgoodclauses,nbtotalgood,precisionGood,recallGood,FGood,nbbadclause,nbtotalbad,precisionBad,recallBad,FBad,accuracy)
c additional predictionInitialLBD 5 22531 166246 0.95 0.13 0.23 160460 16745 0.10 0.09 0.10 0.20 (nbgoodclauses,nbtotalgood,precisionGood,recallGood,FGood,nbbadclause,nbtotalbad,precisionBad,recallBad,FBad,accuracy)
c additional predictionInitialLBD 6 42034 166246 0.95 0.24 0.38 140957 16745 0.10 0.09 0.09 0.30 (nbgoodclauses,nbtotalgood,precisionGood,recallGood,FGood,nbbadclause,nbtotalbad,precisionBad,recallBad,FBad,accuracy)
c additional predictionInitialLBD 7 63717 166246 0.94 0.36 0.52 119274 16745 0.11 0.08 0.09 0.40 (nbgoodclauses,nbtotalgood,precisionGood,recallGood,FGood,nbbadclause,nbtotalbad,precisionBad,recallBad,FBad,accuracy)
c additional predictionInitialLBD 8 83722 166246 0.93 0.47 0.62 99269 16745 0.11 0.06 0.08 0.48 (nbgoodclauses,nbtotalgood,precisionGood,recallGood,FGood,nbbadclause,nbtotalbad,precisionBad,recallBad,FBad,accuracy)
c additional predictionInitialLBD 10 119468 166246 0.92 0.66 0.77 63523 16745 0.11 0.04 0.06 0.64 (nbgoodclauses,nbtotalgood,precisionGood,recallGood,FGood,nbbadclause,nbtotalbad,precisionBad,recallBad,FBad,accuracy)
c additional predictionInitialLBD 14 164276 166246 0.91 0.90 0.90 18715 16745 0.10 0.01 0.02 0.83 (nbgoodclauses,nbtotalgood,precisionGood,recallGood,FGood,nbbadclause,nbtotalbad,precisionBad,recallBad,FBad,accuracy)
c additional predictionInitialLBD 18 179164 166246 0.91 0.98 0.94 3827 16745 0.13 0.00 0.01 0.89 (nbgoodclauses,nbtotalgood,precisionGood,recallGood,FGood,nbbadclause,nbtotalbad,precisionBad,recallBad,FBad,accuracy)
c additional predictionInitialLBD 22 182397 166246 0.91 1.00 0.95 594 16745 0.30 0.00 0.00 0.91 (nbgoodclauses,nbtotalgood,precisionGood,recallGood,FGood,nbbadclause,nbtotalbad,precisionBad,recallBad,FBad,accuracy)
c additional predictionInitialLBD 30 182971 166246 0.91 1.00 0.95 20 16745 0.95 0.00 0.00 0.91 (nbgoodclauses,nbtotalgood,precisionGood,recallGood,FGood,nbbadclause,nbtotalbad,precisionBad,recallBad,FBad,accuracy)
c additional predictionInitialLBD 40 182984 166246 0.91 1.00 0.95 7 16745 1.00 0.00 0.00 0.91 (nbgoodclauses,nbtotalgood,precisionGood,recallGood,FGood,nbbadclause,nbtotalbad,precisionBad,recallBad,FBad,accuracy)
c additional predictionFinallLBD 1 699 166246 1.00 0.00 0.01 182292 16745 0.09 1.00 0.17 0.10 (nbgoodclauses,nbtotalgood,precisionGood,recallGood,FGood,nbbadclause,nbtotalbad,precisionBad,recallBad,FBad,accuracy)
c additional predictionFinallLBD 2 3446 166246 0.99 0.02 0.04 179545 16745 0.09 1.00 0.17 0.11 (nbgoodclauses,nbtotalgood,precisionGood,recallGood,FGood,nbbadclause,nbtotalbad,precisionBad,recallBad,FBad,accuracy)
c additional predictionFinallLBD 3 9913 166246 0.98 0.06 0.11 173078 16745 0.10 0.99 0.17 0.14 (nbgoodclauses,nbtotalgood,precisionGood,recallGood,FGood,nbbadclause,nbtotalbad,precisionBad,recallBad,FBad,accuracy)
c additional predictionFinallLBD 4 21661 166246 0.97 0.13 0.22 161330 16745 0.10 0.96 0.18 0.20 (nbgoodclauses,nbtotalgood,precisionGood,recallGood,FGood,nbbadclause,nbtotalbad,precisionBad,recallBad,FBad,accuracy)
c additional predictionFinallLBD 5 38218 166246 0.96 0.22 0.36 144773 16745 0.11 0.91 0.19 0.28 (nbgoodclauses,nbtotalgood,precisionGood,recallGood,FGood,nbbadclause,nbtotalbad,precisionBad,recallBad,FBad,accuracy)
c additional predictionFinallLBD 6 58144 166246 0.95 0.33 0.49 124847 16745 0.11 0.83 0.20 0.38 (nbgoodclauses,nbtotalgood,precisionGood,recallGood,FGood,nbbadclause,nbtotalbad,precisionBad,recallBad,FBad,accuracy)
c additional predictionFinallLBD 7 78669 166246 0.94 0.44 0.60 104322 16745 0.11 0.71 0.20 0.47 (nbgoodclauses,nbtotalgood,precisionGood,recallGood,FGood,nbbadclause,nbtotalbad,precisionBad,recallBad,FBad,accuracy)
c additional predictionFinallLBD 8 97471 166246 0.93 0.55 0.69 85520 16745 0.12 0.59 0.19 0.55 (nbgoodclauses,nbtotalgood,precisionGood,recallGood,FGood,nbbadclause,nbtotalbad,precisionBad,recallBad,FBad,accuracy)
c additional predictionFinallLBD 10 130429 166246 0.92 0.72 0.81 52562 16745 0.12 0.37 0.18 0.69 (nbgoodclauses,nbtotalgood,precisionGood,recallGood,FGood,nbbadclause,nbtotalbad,precisionBad,recallBad,FBad,accuracy)
c additional predictionFinallLBD 14 168330 166246 0.91 0.92 0.92 14661 16745 0.11 0.10 0.11 0.85 (nbgoodclauses,nbtotalgood,precisionGood,recallGood,FGood,nbbadclause,nbtotalbad,precisionBad,recallBad,FBad,accuracy)
c additional predictionFinallLBD 18 180175 166246 0.91 0.99 0.95 2816 16745 0.16 0.03 0.05 0.90 (nbgoodclauses,nbtotalgood,precisionGood,recallGood,FGood,nbbadclause,nbtotalbad,precisionBad,recallBad,FBad,accuracy)
c additional predictionFinallLBD 22 182557 166246 0.91 1.00 0.95 434 16745 0.38 0.01 0.02 0.91 (nbgoodclauses,nbtotalgood,precisionGood,recallGood,FGood,nbbadclause,nbtotalbad,precisionBad,recallBad,FBad,accuracy)
c additional predictionFinallLBD 30 182971 166246 0.91 1.00 0.95 20 16745 0.95 0.00 0.00 0.91 (nbgoodclauses,nbtotalgood,precisionGood,recallGood,FGood,nbbadclause,nbtotalbad,precisionBad,recallBad,FBad,accuracy)
c additional predictionFinallLBD 40 182984 166246 0.91 1.00 0.95 7 16745 1.00 0.00 0.00 0.91 (nbgoodclauses,nbtotalgood,precisionGood,recallGood,FGood,nbbadclause,nbtotalbad,precisionBad,recallBad,FBad,accuracy)
c additional predictionSize 1 26 166246 1.00 0.00 0.00 182965 16745 0.09 0.10 0.10 0.09 (nbgoodclauses,nbtotalgood,precisionGood,recallGood,FGood,nbbadclause,nbtotalbad,precisionBad,recallBad,FBad,accuracy)
c additional predictionSize 2 88 166246 0.93 0.00 0.00 182903 16745 0.09 0.10 0.10 0.09 (nbgoodclauses,nbtotalgood,precisionGood,recallGood,FGood,nbbadclause,nbtotalbad,precisionBad,recallBad,FBad,accuracy)
c additional predictionSize 3 169 166246 0.95 0.00 0.00 182822 16745 0.09 0.10 0.10 0.09 (nbgoodclauses,nbtotalgood,precisionGood,recallGood,FGood,nbbadclause,nbtotalbad,precisionBad,recallBad,FBad,accuracy)
c additional predictionSize 4 287 166246 0.93 0.00 0.00 182704 16745 0.09 0.10 0.10 0.09 (nbgoodclauses,nbtotalgood,precisionGood,recallGood,FGood,nbbadclause,nbtotalbad,precisionBad,recallBad,FBad,accuracy)
c additional predictionSize 5 785 166246 0.95 0.00 0.01 182206 16745 0.09 0.10 0.10 0.10 (nbgoodclauses,nbtotalgood,precisionGood,recallGood,FGood,nbbadclause,nbtotalbad,precisionBad,recallBad,FBad,accuracy)
c additional predictionSize 6 2797 166246 0.96 0.02 0.03 180194 16745 0.09 0.10 0.10 0.11 (nbgoodclauses,nbtotalgood,precisionGood,recallGood,FGood,nbbadclause,nbtotalbad,precisionBad,recallBad,FBad,accuracy)
c additional predictionSize 7 10964 166246 0.97 0.06 0.12 172027 16745 0.10 0.10 0.10 0.15 (nbgoodclauses,nbtotalgood,precisionGood,recallGood,FGood,nbbadclause,nbtotalbad,precisionBad,recallBad,FBad,accuracy)
c additional predictionSize 8 18533 166246 0.97 0.11 0.19 164458 16745 0.10 0.10 0.10 0.19 (nbgoodclauses,nbtotalgood,precisionGood,recallGood,FGood,nbbadclause,nbtotalbad,precisionBad,recallBad,FBad,accuracy)
c additional predictionSize 10 25941 166246 0.96 0.15 0.26 157050 16745 0.10 0.09 0.10 0.22 (nbgoodclauses,nbtotalgood,precisionGood,recallGood,FGood,nbbadclause,nbtotalbad,precisionBad,recallBad,FBad,accuracy)
c additional predictionSize 14 55849 166246 0.95 0.32 0.48 127142 16745 0.11 0.08 0.09 0.37 (nbgoodclauses,nbtotalgood,precisionGood,recallGood,FGood,nbbadclause,nbtotalbad,precisionBad,recallBad,FBad,accuracy)
c additional predictionSize 18 85298 166246 0.94 0.48 0.64 97693 16745 0.12 0.07 0.09 0.50 (nbgoodclauses,nbtotalgood,precisionGood,recallGood,FGood,nbbadclause,nbtotalbad,precisionBad,recallBad,FBad,accuracy)
c additional predictionSize 22 112914 166246 0.93 0.63 0.75 70077 16745 0.13 0.06 0.08 0.63 (nbgoodclauses,nbtotalgood,precisionGood,recallGood,FGood,nbbadclause,nbtotalbad,precisionBad,recallBad,FBad,accuracy)
c additional predictionSize 30 147478 166246 0.92 0.82 0.87 35513 16745 0.14 0.03 0.05 0.77 (nbgoodclauses,nbtotalgood,precisionGood,recallGood,FGood,nbbadclause,nbtotalbad,precisionBad,recallBad,FBad,accuracy)
c additional predictionSize 40 165626 166246 0.91 0.91 0.91 17365 16745 0.14 0.01 0.03 0.84 (nbgoodclauses,nbtotalgood,precisionGood,recallGood,FGood,nbbadclause,nbtotalbad,precisionBad,recallBad,FBad,accuracy)
c additional predictionAge 1 31262 166246 0.89 0.17 0.28 151729 16745 0.09 0.08 0.08 0.23 (nbgoodclauses,nbtotalgood,precisionGood,recallGood,FGood,nbbadclause,nbtotalbad,precisionBad,recallBad,FBad,accuracy)
c additional predictionAge 10 42507 166246 0.88 0.22 0.36 140484 16745 0.08 0.07 0.08 0.27 (nbgoodclauses,nbtotalgood,precisionGood,recallGood,FGood,nbbadclause,nbtotalbad,precisionBad,recallBad,FBad,accuracy)
c additional predictionAge 25 50142 166246 0.88 0.26 0.41 132849 16745 0.08 0.06 0.07 0.30 (nbgoodclauses,nbtotalgood,precisionGood,recallGood,FGood,nbbadclause,nbtotalbad,precisionBad,recallBad,FBad,accuracy)
c additional predictionAge 50 54581 166246 0.88 0.29 0.43 128410 16745 0.08 0.06 0.07 0.32 (nbgoodclauses,nbtotalgood,precisionGood,recallGood,FGood,nbbadclause,nbtotalbad,precisionBad,recallBad,FBad,accuracy)
c additional predictionAge 100 58891 166246 0.88 0.31 0.46 124100 16745 0.08 0.06 0.07 0.33 (nbgoodclauses,nbtotalgood,precisionGood,recallGood,FGood,nbbadclause,nbtotalbad,precisionBad,recallBad,FBad,accuracy)
c additional predictionAge 250 64555 166246 0.87 0.34 0.49 118436 16745 0.07 0.05 0.06 0.36 (nbgoodclauses,nbtotalgood,precisionGood,recallGood,FGood,nbbadclause,nbtotalbad,precisionBad,recallBad,FBad,accuracy)
c additional predictionAge 500 69580 166246 0.87 0.37 0.52 113411 16745 0.07 0.05 0.06 0.38 (nbgoodclauses,nbtotalgood,precisionGood,recallGood,FGood,nbbadclause,nbtotalbad,precisionBad,recallBad,FBad,accuracy)
c additional predictionAge 1000 75393 166246 0.87 0.40 0.54 107598 16745 0.07 0.04 0.05 0.40 (nbgoodclauses,nbtotalgood,precisionGood,recallGood,FGood,nbbadclause,nbtotalbad,precisionBad,recallBad,FBad,accuracy)
c additional predictionAge 2500 84792 166246 0.87 0.44 0.59 98199 16745 0.06 0.03 0.04 0.43 (nbgoodclauses,nbtotalgood,precisionGood,recallGood,FGood,nbbadclause,nbtotalbad,precisionBad,recallBad,FBad,accuracy)
c additional predictionAge 5000 94145 166246 0.87 0.49 0.63 88846 16745 0.05 0.03 0.04 0.47 (nbgoodclauses,nbtotalgood,precisionGood,recallGood,FGood,nbbadclause,nbtotalbad,precisionBad,recallBad,FBad,accuracy)
c additional predictionAge 10000 104520 166246 0.88 0.55 0.68 78471 16745 0.05 0.02 0.03 0.52 (nbgoodclauses,nbtotalgood,precisionGood,recallGood,FGood,nbbadclause,nbtotalbad,precisionBad,recallBad,FBad,accuracy)
c additional predictionAge 25000 123834 166246 0.89 0.66 0.76 59157 16745 0.05 0.02 0.03 0.62 (nbgoodclauses,nbtotalgood,precisionGood,recallGood,FGood,nbbadclause,nbtotalbad,precisionBad,recallBad,FBad,accuracy)
c additional predictionAge 50000 147393 166246 0.90 0.80 0.85 35598 16745 0.05 0.01 0.02 0.73 (nbgoodclauses,nbtotalgood,precisionGood,recallGood,FGood,nbbadclause,nbtotalbad,precisionBad,recallBad,FBad,accuracy)
c additional predictionAge 100000 172271 166246 0.91 0.94 0.92 10720 16745 0.06 0.00 0.01 0.86 (nbgoodclauses,nbtotalgood,precisionGood,recallGood,FGood,nbbadclause,nbtotalbad,precisionBad,recallBad,FBad,accuracy)
c additional predictionTicks 1 32205 166246 0.89 0.17 0.29 150786 16745 0.09 0.08 0.08 0.23 (nbgoodclauses,nbtotalgood,precisionGood,recallGood,FGood,nbbadclause,nbtotalbad,precisionBad,recallBad,FBad,accuracy)
c additional predictionTicks 10 57822 166246 0.89 0.31 0.46 125169 16745 0.08 0.06 0.07 0.34 (nbgoodclauses,nbtotalgood,precisionGood,recallGood,FGood,nbbadclause,nbtotalbad,precisionBad,recallBad,FBad,accuracy)
c additional predictionTicks 25 75314 166246 0.89 0.40 0.56 107677 16745 0.08 0.05 0.06 0.41 (nbgoodclauses,nbtotalgood,precisionGood,recallGood,FGood,nbbadclause,nbtotalbad,precisionBad,recallBad,FBad,accuracy)
c additional predictionTicks 50 87016 166246 0.89 0.47 0.61 95975 16745 0.08 0.04 0.06 0.46 (nbgoodclauses,nbtotalgood,precisionGood,recallGood,FGood,nbbadclause,nbtotalbad,precisionBad,recallBad,FBad,accuracy)
c additional predictionTicks 100 99498 166246 0.89 0.54 0.67 83493 16745 0.07 0.04 0.05 0.52 (nbgoodclauses,nbtotalgood,precisionGood,recallGood,FGood,nbbadclause,nbtotalbad,precisionBad,recallBad,FBad,accuracy)
c additional predictionTicks 250 115341 166246 0.90 0.62 0.73 67650 16745 0.07 0.03 0.04 0.59 (nbgoodclauses,nbtotalgood,precisionGood,recallGood,FGood,nbbadclause,nbtotalbad,precisionBad,recallBad,FBad,accuracy)
c additional predictionTicks 500 127047 166246 0.90 0.69 0.78 55944 16745 0.07 0.02 0.04 0.65 (nbgoodclauses,nbtotalgood,precisionGood,recallGood,FGood,nbbadclause,nbtotalbad,precisionBad,recallBad,FBad,accuracy)
c additional predictionTicks 1000 138041 166246 0.90 0.75 0.82 44950 16745 0.07 0.02 0.03 0.70 (nbgoodclauses,nbtotalgood,precisionGood,recallGood,FGood,nbbadclause,nbtotalbad,precisionBad,recallBad,FBad,accuracy)
c additional predictionTicks 2500 151152 166246 0.90 0.82 0.86 31839 16745 0.06 0.01 0.02 0.76 (nbgoodclauses,nbtotalgood,precisionGood,recallGood,FGood,nbbadclause,nbtotalbad,precisionBad,recallBad,FBad,accuracy)
c additional predictionTicks 5000 159794 166246 0.90 0.87 0.89 23197 16745 0.05 0.01 0.01 0.80 (nbgoodclauses,nbtotalgood,precisionGood,recallGood,FGood,nbbadclause,nbtotalbad,precisionBad,recallBad,FBad,accuracy)
c additional predictionTicks 10000 167117 166246 0.91 0.91 0.91 15874 16745 0.06 0.01 0.01 0.83 (nbgoodclauses,nbtotalgood,precisionGood,recallGood,FGood,nbbadclause,nbtotalbad,precisionBad,recallBad,FBad,accuracy)
c additional predictionTicks 25000 175517 166246 0.91 0.96 0.93 7474 16745 0.06 0.00 0.00 0.87 (nbgoodclauses,nbtotalgood,precisionGood,recallGood,FGood,nbbadclause,nbtotalbad,precisionBad,recallBad,FBad,accuracy)
c additional predictionTicks 50000 179958 166246 0.91 0.98 0.94 3033 16745 0.07 0.00 0.00 0.89 (nbgoodclauses,nbtotalgood,precisionGood,recallGood,FGood,nbbadclause,nbtotalbad,precisionBad,recallBad,FBad,accuracy)
c additional predictionTicks 100000 182467 166246 0.91 1.00 0.95 524 16745 0.06 0.00 0.00 0.91 (nbgoodclauses,nbtotalgood,precisionGood,recallGood,FGood,nbbadclause,nbtotalbad,precisionBad,recallBad,FBad,accuracy)
c additional lifetimeGood 2 4 4 4 16 1332 18461 49946 79162 126547 181242 181507 (0,1,5,10,25,50,75,90,95,99,100-1,100)
c additional lifetimeBad 1 4 4 4 8 300 7941 35439 67062 121811 178288 181177 (0,1,5,10,25,50,75,90,95,99,100-1,100)
c additional lifetimeBadBad 3 4 4 4 4 12 76 856 2204 6316 60272 103273 (0,1,5,10,25,50,75,90,95,99,100-1,100)
c additional compositionBad 1 2 4 5 7 12 21 33 42 64 165 170 (0,1,5,10,25,50,75,90,95,99,100-1,100)
c additional compositionBadWithGood 0 0 0 0 0 0 2 4 6 12 34 36 (0,1,5,10,25,50,75,90,95,99,100-1,100)
c additional compositionBadWithBad 0 0 0 0 0 1 2 3 4 7 14 19 (0,1,5,10,25,50,75,90,95,99,100-1,100)
c additional compositionBadWithInitial 0 0 2 3 6 10 18 29 37 57 151 159 (0,1,5,10,25,50,75,90,95,99,100-1,100)
c additional compositionGood 1 2 4 5 8 14 26 40 52 81 237 249 (0,1,5,10,25,50,75,90,95,99,100-1,100)
c additional compositionGoodWithGood 0 0 0 0 1 2 4 7 9 15 41 43 (0,1,5,10,25,50,75,90,95,99,100-1,100)
c additional compositionGoodWithInitial 0 0 2 3 6 12 22 36 46 74 223 233 (0,1,5,10,25,50,75,90,95,99,100-1,100)
c additional propagationGood total 644518 percentiles 0 1 1 1 1 1 2 6 11 44 2034 2968 (0,1,5,10,25,50,75,90,95,99,100-1,100)
c additional propagationBad total 29399 percentiles 1 1 1 1 1 1 2 3 5 10 88 115 (0,1,5,10,25,50,75,90,95,99,100-1,100)
c additional resolutionGood total 420287 percentiles 0 1 1 1 1 1 2 4 7 25 993 2674 (0,1,5,10,25,50,75,90,95,99,100-1,100)
c additional resolutionBad total 20034 percentiles 0 0 0 0 1 1 1 2 3 7 24 26 (0,1,5,10,25,50,75,90,95,99,100-1,100)
No graph is dumped
c result of core 2 is UNSAT
c One thread has finished
c Core 2 said it finished
c result of core 0 is UNKNOWN
c result of core 1 is UNKNOWN
c result of core 3 is UNKNOWN
c restarts              : 70 (653 conflicts in avg)
c blocked restarts      : 494 (multiple: 34) 
c last block at restart : 70
c nb ReduceDB           : 4
c nb removed Clauses    : 22380
c nb learnts DL2        : 142
c nb learnts size 2     : 22
c nb learnts size 1     : 7
c conflicts             : 45748          (1638 /sec)
c decisions             : 59973          (0.00 % random) (2148 /sec)
c propagations          : 3829372        (137147 /sec)
c conflict literals     : 1022784        (1.19 % deleted)
c nb reduced Clauses    : 542
c CPU time              : 27.9218 s

s INDETERMINATE
