c
c This is glucose-proof 1.0 based on  2.1 --  (thanks to MiniSAT)
c
c EXPERIMENTAL EASY PARALLEL (ROUND ROBIN) VERSION
c
c WARNING: for repeatability, setting FPU to use double precision
c Parallel version 2 solvers created.
c ========================================[ Problem Statistics ]===========================================
c |                                                                                                       |
c |  Number of variables:          4692                                                                   |
c |  Number of clauses:           22307                                                                   |
c |  Parse time:                   0.02 s                                                                 |
c |                                                                                                       |
c ========================================[ MAGIC CONSTANTS ]==============================================
c | Constants are supposed to work well together :-)                                                      |
c | however, if you find better choices, please let us known...                                           |
c |-------------------------------------------------------------------------------------------------------|
c |                                |                                |                                     |
c | - Restarts:                    | - Reduce Clause DB:            | - Minimize Asserting:               |
c |   * LBD Queue    :     50      |   * First     :   4000         |    * size <  30                     |
c |   * Trail  Queue :   5000      |   * Inc       :    300         |    * lbd  <   6                     |
c |   * K            :   0.80      |   * Special   :   1000         |                                     |
c |   * R            :   1.40      |   * Protected :  (lbd)< 30     |                                     |
c |                                |                                |                                     |
c ==================================[ Search Statistics (every  10000 conflicts) ]=========================
c |                                                                                                       |
c |          RESTARTS           |          ORIGINAL         |              LEARNT              | Progress |
c |       NB   Blocked  Avg Cfc |    Vars  Clauses Literals |   Red   Learnts    LBD2  Removed |          |
c =========================================================================================================
c |       81         0      123 |    4646    22307    68820 |     1     8003      724     2472 |  0.981 % |
c |      159        34      125 |    4646    22307    68820 |     3     6958      911    14223 |  0.980 % |
c |      250        80      120 |    4639    22307    68820 |     3    16952     1034    14223 |  1.130 % |
c |      319       158      125 |    4639    22307    68820 |     4    17679     1123    23691 |  1.130 % |
c |      387       224      129 |    4625    22307    68820 |     5    15825     1200    35621 |  1.428 % |
c |      444       284      135 |    4624    22307    68820 |     5    25761     1238    35621 |  1.449 % |
c |      501       364      139 |    4546    22307    68820 |     6    21113     1294    50131 |  3.112 % |
c empty clause found by core 1 at conflict 76659
*
c checking the resolution graph...OK
c All useful bySize 91831 clauses, percentiles 0 2 2 3 5 23 65 126 169 242 359 360 (0,1,5,10,25,50,75,90,95,99,100-1,100)
c All useless bySize 83816 clauses, percentiles 0 2 3 6 19 46 87 138 173 239 435 444 (0,1,5,10,25,50,75,90,95,99,100-1,100)
c ProofOnly useful bySize 76001 clauses, percentiles 0 3 4 5 11 34 78 139 179 248 359 360 (0,1,5,10,25,50,75,90,95,99,100-1,100)
c ProofOnly useless bySize 77317 clauses, percentiles 1 5 8 12 25 51 91 142 177 242 435 444 (0,1,5,10,25,50,75,90,95,99,100-1,100)
c All useful byFinalLBD 91831 clauses, percentiles 0 1 1 2 3 4 8 12 15 22 47 48 (0,1,5,10,25,50,75,90,95,99,100-1,100)
c All useless byFinalLBD 83816 clauses, percentiles 0 2 3 4 6 10 15 22 29 38 58 58 (0,1,5,10,25,50,75,90,95,99,100-1,100)
c ProofOnly useful byFinalLBD 76001 clauses, percentiles 0 1 1 2 3 6 9 13 15 23 47 48 (0,1,5,10,25,50,75,90,95,99,100-1,100)
c ProofOnly useless byFinalLBD 77317 clauses, percentiles 1 2 4 5 7 10 15 23 29 38 58 58 (0,1,5,10,25,50,75,90,95,99,100-1,100)
c All useful byInitialLBD 91831 clauses, percentiles 0 2 2 3 4 6 10 14 17 26 48 48 (0,1,5,10,25,50,75,90,95,99,100-1,100)
c All useless byInitialLBD 83816 clauses, percentiles 0 2 3 4 6 10 15 23 29 38 58 58 (0,1,5,10,25,50,75,90,95,99,100-1,100)
c ProofOnly useful byInitialLBD 76001 clauses, percentiles 0 2 3 3 5 7 11 15 18 27 48 48 (0,1,5,10,25,50,75,90,95,99,100-1,100)
c ProofOnly useless byInitialLBD 77317 clauses, percentiles 1 3 4 5 7 11 16 24 30 39 58 58 (0,1,5,10,25,50,75,90,95,99,100-1,100)
c Literals ProofOnly useful 4151818
c Literals ProofOnly useless 5073842
c additional windowsGood 1 1 1 1 1 1 1 3 5 23 147 210 (0,1,5,10,25,50,75,90,95,99,100-1,100)
c additional windowsBad 1 1 1 1 1 1 2 5 8 15 64 71 (0,1,5,10,25,50,75,90,95,99,100-1,100)
c additional 1WindowNoDecision 26312 14761 0.56 24888 12299 0.49 (nbWindowsGood,nbWindowsNoDecisionGood,nbWindowsBad,nbWindowsNoDecisionBad
c additional topclausessize all (10%,5%,1%,top) 179.45 213.03 271.00 360
c additional topclausessize proofonly (10%,5%,1%,top) 184.20 216.93 273.62 360
c additional topclausesinitialLBD all (10%,5%,1%,top) 160.20 197.07 260.33 360
c additional topclausesinitialLBD proofonly (10%,5%,1%,top) 145.21 184.20 251.89 360
c additional topclausesfinalLBD all (10%,5%,1%,top) 130.70 171.19 243.43 360
c additional topclausesfinalLBD proofonly (10%,5%,1%,top) 120.74 161.97 237.44 360
c additional predictionInitialLBD 1 23 76001 0.96 0.00 0.00 153295 77317 0.50 1.02 0.67 0.50 (nbgoodclauses,nbtotalgood,precisionGood,recallGood,FGood,nbbadclause,nbtotalbad,precisionBad,recallBad,FBad,accuracy)
c additional predictionInitialLBD 2 2788 76001 0.91 0.03 0.06 150530 77317 0.51 1.01 0.68 0.52 (nbgoodclauses,nbtotalgood,precisionGood,recallGood,FGood,nbbadclause,nbtotalbad,precisionBad,recallBad,FBad,accuracy)
c additional predictionInitialLBD 3 10428 76001 0.87 0.12 0.21 142890 77317 0.53 1.00 0.69 0.56 (nbgoodclauses,nbtotalgood,precisionGood,recallGood,FGood,nbbadclause,nbtotalbad,precisionBad,recallBad,FBad,accuracy)
c additional predictionInitialLBD 4 21412 76001 0.77 0.22 0.34 131906 77317 0.55 0.95 0.70 0.58 (nbgoodclauses,nbtotalgood,precisionGood,recallGood,FGood,nbbadclause,nbtotalbad,precisionBad,recallBad,FBad,accuracy)
c additional predictionInitialLBD 5 33898 76001 0.72 0.32 0.44 119420 77317 0.57 0.89 0.69 0.60 (nbgoodclauses,nbtotalgood,precisionGood,recallGood,FGood,nbbadclause,nbtotalbad,precisionBad,recallBad,FBad,accuracy)
c additional predictionInitialLBD 6 46385 76001 0.68 0.41 0.51 106933 77317 0.58 0.82 0.68 0.61 (nbgoodclauses,nbtotalgood,precisionGood,recallGood,FGood,nbbadclause,nbtotalbad,precisionBad,recallBad,FBad,accuracy)
c additional predictionInitialLBD 7 58900 76001 0.65 0.50 0.57 94418 77317 0.60 0.75 0.67 0.62 (nbgoodclauses,nbtotalgood,precisionGood,recallGood,FGood,nbbadclause,nbtotalbad,precisionBad,recallBad,FBad,accuracy)
c additional predictionInitialLBD 8 70863 76001 0.63 0.59 0.61 82455 77317 0.62 0.67 0.64 0.62 (nbgoodclauses,nbtotalgood,precisionGood,recallGood,FGood,nbbadclause,nbtotalbad,precisionBad,recallBad,FBad,accuracy)
c additional predictionInitialLBD 10 92115 76001 0.60 0.72 0.65 61203 77317 0.65 0.53 0.58 0.62 (nbgoodclauses,nbtotalgood,precisionGood,recallGood,FGood,nbbadclause,nbtotalbad,precisionBad,recallBad,FBad,accuracy)
c additional predictionInitialLBD 14 122131 76001 0.56 0.89 0.69 31187 77317 0.74 0.31 0.43 0.59 (nbgoodclauses,nbtotalgood,precisionGood,recallGood,FGood,nbbadclause,nbtotalbad,precisionBad,recallBad,FBad,accuracy)
c additional predictionInitialLBD 18 136536 76001 0.53 0.96 0.69 16782 77317 0.81 0.18 0.29 0.56 (nbgoodclauses,nbtotalgood,precisionGood,recallGood,FGood,nbbadclause,nbtotalbad,precisionBad,recallBad,FBad,accuracy)
c additional predictionInitialLBD 22 142983 76001 0.52 0.98 0.68 10335 77317 0.84 0.11 0.20 0.54 (nbgoodclauses,nbtotalgood,precisionGood,recallGood,FGood,nbbadclause,nbtotalbad,precisionBad,recallBad,FBad,accuracy)
c additional predictionInitialLBD 30 149585 76001 0.51 1.00 0.67 3733 77317 0.92 0.05 0.09 0.52 (nbgoodclauses,nbtotalgood,precisionGood,recallGood,FGood,nbbadclause,nbtotalbad,precisionBad,recallBad,FBad,accuracy)
c additional predictionInitialLBD 40 152766 76001 0.50 1.00 0.66 552 77317 0.96 0.01 0.01 0.50 (nbgoodclauses,nbtotalgood,precisionGood,recallGood,FGood,nbbadclause,nbtotalbad,precisionBad,recallBad,FBad,accuracy)
c additional predictionFinallLBD 1 6491 76001 0.97 0.08 0.15 146827 77317 0.53 1.00 0.69 0.54 (nbgoodclauses,nbtotalgood,precisionGood,recallGood,FGood,nbbadclause,nbtotalbad,precisionBad,recallBad,FBad,accuracy)
c additional predictionFinallLBD 2 16281 76001 0.95 0.20 0.33 137037 77317 0.56 0.99 0.71 0.60 (nbgoodclauses,nbtotalgood,precisionGood,recallGood,FGood,nbbadclause,nbtotalbad,precisionBad,recallBad,FBad,accuracy)
c additional predictionFinallLBD 3 26206 76001 0.90 0.31 0.46 127112 77317 0.59 0.97 0.73 0.64 (nbgoodclauses,nbtotalgood,precisionGood,recallGood,FGood,nbbadclause,nbtotalbad,precisionBad,recallBad,FBad,accuracy)
c additional predictionFinallLBD 4 38032 76001 0.82 0.41 0.54 115286 77317 0.61 0.91 0.73 0.66 (nbgoodclauses,nbtotalgood,precisionGood,recallGood,FGood,nbbadclause,nbtotalbad,precisionBad,recallBad,FBad,accuracy)
c additional predictionFinallLBD 5 49640 76001 0.75 0.49 0.60 103678 77317 0.63 0.84 0.72 0.67 (nbgoodclauses,nbtotalgood,precisionGood,recallGood,FGood,nbbadclause,nbtotalbad,precisionBad,recallBad,FBad,accuracy)
c additional predictionFinallLBD 6 60692 76001 0.71 0.57 0.63 92626 77317 0.65 0.77 0.70 0.67 (nbgoodclauses,nbtotalgood,precisionGood,recallGood,FGood,nbbadclause,nbtotalbad,precisionBad,recallBad,FBad,accuracy)
c additional predictionFinallLBD 7 71745 76001 0.67 0.64 0.66 81573 77317 0.66 0.70 0.68 0.67 (nbgoodclauses,nbtotalgood,precisionGood,recallGood,FGood,nbbadclause,nbtotalbad,precisionBad,recallBad,FBad,accuracy)
c additional predictionFinallLBD 8 82205 76001 0.65 0.70 0.67 71113 77317 0.68 0.62 0.65 0.66 (nbgoodclauses,nbtotalgood,precisionGood,recallGood,FGood,nbbadclause,nbtotalbad,precisionBad,recallBad,FBad,accuracy)
c additional predictionFinallLBD 10 100809 76001 0.61 0.80 0.69 52509 77317 0.72 0.49 0.58 0.64 (nbgoodclauses,nbtotalgood,precisionGood,recallGood,FGood,nbbadclause,nbtotalbad,precisionBad,recallBad,FBad,accuracy)
c additional predictionFinallLBD 14 126557 76001 0.56 0.93 0.70 26761 77317 0.81 0.28 0.42 0.60 (nbgoodclauses,nbtotalgood,precisionGood,recallGood,FGood,nbbadclause,nbtotalbad,precisionBad,recallBad,FBad,accuracy)
c additional predictionFinallLBD 18 138887 76001 0.54 0.98 0.69 14431 77317 0.88 0.16 0.28 0.57 (nbgoodclauses,nbtotalgood,precisionGood,recallGood,FGood,nbbadclause,nbtotalbad,precisionBad,recallBad,FBad,accuracy)
c additional predictionFinallLBD 22 144308 76001 0.52 0.99 0.68 9010 77317 0.91 0.11 0.19 0.54 (nbgoodclauses,nbtotalgood,precisionGood,recallGood,FGood,nbbadclause,nbtotalbad,precisionBad,recallBad,FBad,accuracy)
c additional predictionFinallLBD 30 149923 76001 0.51 1.00 0.67 3395 77317 0.95 0.04 0.08 0.52 (nbgoodclauses,nbtotalgood,precisionGood,recallGood,FGood,nbbadclause,nbtotalbad,precisionBad,recallBad,FBad,accuracy)
c additional predictionFinallLBD 40 152837 76001 0.50 1.00 0.66 481 77317 0.98 0.01 0.01 0.50 (nbgoodclauses,nbtotalgood,precisionGood,recallGood,FGood,nbbadclause,nbtotalbad,precisionBad,recallBad,FBad,accuracy)
c additional predictionSize 1 23 76001 0.96 0.00 0.00 153295 77317 0.50 1.02 0.67 0.50 (nbgoodclauses,nbtotalgood,precisionGood,recallGood,FGood,nbbadclause,nbtotalbad,precisionBad,recallBad,FBad,accuracy)
c additional predictionSize 2 701 76001 0.98 0.01 0.02 152617 77317 0.51 1.02 0.68 0.51 (nbgoodclauses,nbtotalgood,precisionGood,recallGood,FGood,nbbadclause,nbtotalbad,precisionBad,recallBad,FBad,accuracy)
c additional predictionSize 3 3571 76001 0.94 0.04 0.08 149747 77317 0.51 1.01 0.68 0.52 (nbgoodclauses,nbtotalgood,precisionGood,recallGood,FGood,nbbadclause,nbtotalbad,precisionBad,recallBad,FBad,accuracy)
c additional predictionSize 4 6600 76001 0.90 0.08 0.14 146718 77317 0.52 1.01 0.69 0.54 (nbgoodclauses,nbtotalgood,precisionGood,recallGood,FGood,nbbadclause,nbtotalbad,precisionBad,recallBad,FBad,accuracy)
c additional predictionSize 5 9811 76001 0.86 0.11 0.20 143507 77317 0.53 1.00 0.69 0.55 (nbgoodclauses,nbtotalgood,precisionGood,recallGood,FGood,nbbadclause,nbtotalbad,precisionBad,recallBad,FBad,accuracy)
c additional predictionSize 6 13172 76001 0.82 0.14 0.24 140146 77317 0.54 0.99 0.69 0.56 (nbgoodclauses,nbtotalgood,precisionGood,recallGood,FGood,nbbadclause,nbtotalbad,precisionBad,recallBad,FBad,accuracy)
c additional predictionSize 7 16243 76001 0.80 0.17 0.28 137075 77317 0.54 0.97 0.69 0.57 (nbgoodclauses,nbtotalgood,precisionGood,recallGood,FGood,nbbadclause,nbtotalbad,precisionBad,recallBad,FBad,accuracy)
c additional predictionSize 8 19222 76001 0.77 0.19 0.31 134096 77317 0.54 0.96 0.69 0.57 (nbgoodclauses,nbtotalgood,precisionGood,recallGood,FGood,nbbadclause,nbtotalbad,precisionBad,recallBad,FBad,accuracy)
c additional predictionSize 10 24354 76001 0.73 0.23 0.36 128964 77317 0.55 0.93 0.69 0.58 (nbgoodclauses,nbtotalgood,precisionGood,recallGood,FGood,nbbadclause,nbtotalbad,precisionBad,recallBad,FBad,accuracy)
c additional predictionSize 14 33207 76001 0.68 0.30 0.41 120111 77317 0.55 0.88 0.68 0.58 (nbgoodclauses,nbtotalgood,precisionGood,recallGood,FGood,nbbadclause,nbtotalbad,precisionBad,recallBad,FBad,accuracy)
c additional predictionSize 18 40603 76001 0.65 0.35 0.45 112715 77317 0.56 0.83 0.67 0.58 (nbgoodclauses,nbtotalgood,precisionGood,recallGood,FGood,nbbadclause,nbtotalbad,precisionBad,recallBad,FBad,accuracy)
c additional predictionSize 22 47400 76001 0.63 0.39 0.48 105918 77317 0.56 0.78 0.66 0.58 (nbgoodclauses,nbtotalgood,precisionGood,recallGood,FGood,nbbadclause,nbtotalbad,precisionBad,recallBad,FBad,accuracy)
c additional predictionSize 30 59890 76001 0.60 0.47 0.53 93428 77317 0.57 0.70 0.63 0.58 (nbgoodclauses,nbtotalgood,precisionGood,recallGood,FGood,nbbadclause,nbtotalbad,precisionBad,recallBad,FBad,accuracy)
c additional predictionSize 40 73707 76001 0.57 0.55 0.56 79611 77317 0.57 0.60 0.59 0.57 (nbgoodclauses,nbtotalgood,precisionGood,recallGood,FGood,nbbadclause,nbtotalbad,precisionBad,recallBad,FBad,accuracy)
c additional predictionAge 1 4056 76001 0.76 0.04 0.08 149262 77317 0.51 1.00 0.68 0.52 (nbgoodclauses,nbtotalgood,precisionGood,recallGood,FGood,nbbadclause,nbtotalbad,precisionBad,recallBad,FBad,accuracy)
c additional predictionAge 10 5102 76001 0.68 0.05 0.08 148216 77317 0.51 1.00 0.67 0.52 (nbgoodclauses,nbtotalgood,precisionGood,recallGood,FGood,nbbadclause,nbtotalbad,precisionBad,recallBad,FBad,accuracy)
c additional predictionAge 25 5465 76001 0.66 0.05 0.09 147853 77317 0.51 0.99 0.67 0.52 (nbgoodclauses,nbtotalgood,precisionGood,recallGood,FGood,nbbadclause,nbtotalbad,precisionBad,recallBad,FBad,accuracy)
c additional predictionAge 50 5802 76001 0.64 0.05 0.09 147516 77317 0.51 0.99 0.67 0.52 (nbgoodclauses,nbtotalgood,precisionGood,recallGood,FGood,nbbadclause,nbtotalbad,precisionBad,recallBad,FBad,accuracy)
c additional predictionAge 100 6134 76001 0.63 0.05 0.09 147184 77317 0.51 0.99 0.67 0.52 (nbgoodclauses,nbtotalgood,precisionGood,recallGood,FGood,nbbadclause,nbtotalbad,precisionBad,recallBad,FBad,accuracy)
c additional predictionAge 250 6538 76001 0.62 0.05 0.10 146780 77317 0.51 0.98 0.67 0.51 (nbgoodclauses,nbtotalgood,precisionGood,recallGood,FGood,nbbadclause,nbtotalbad,precisionBad,recallBad,FBad,accuracy)
c additional predictionAge 500 6975 76001 0.61 0.06 0.10 146343 77317 0.51 0.98 0.67 0.51 (nbgoodclauses,nbtotalgood,precisionGood,recallGood,FGood,nbbadclause,nbtotalbad,precisionBad,recallBad,FBad,accuracy)
c additional predictionAge 1000 7586 76001 0.60 0.06 0.11 145732 77317 0.51 0.98 0.67 0.51 (nbgoodclauses,nbtotalgood,precisionGood,recallGood,FGood,nbbadclause,nbtotalbad,precisionBad,recallBad,FBad,accuracy)
c additional predictionAge 2500 9192 76001 0.57 0.07 0.12 144126 77317 0.51 0.97 0.67 0.51 (nbgoodclauses,nbtotalgood,precisionGood,recallGood,FGood,nbbadclause,nbtotalbad,precisionBad,recallBad,FBad,accuracy)
c additional predictionAge 5000 11876 76001 0.54 0.08 0.15 141442 77317 0.51 0.95 0.66 0.51 (nbgoodclauses,nbtotalgood,precisionGood,recallGood,FGood,nbbadclause,nbtotalbad,precisionBad,recallBad,FBad,accuracy)
c additional predictionAge 10000 17491 76001 0.50 0.11 0.19 135827 77317 0.50 0.90 0.65 0.50 (nbgoodclauses,nbtotalgood,precisionGood,recallGood,FGood,nbbadclause,nbtotalbad,precisionBad,recallBad,FBad,accuracy)
c additional predictionAge 25000 33469 76001 0.44 0.19 0.27 119849 77317 0.49 0.77 0.60 0.48 (nbgoodclauses,nbtotalgood,precisionGood,recallGood,FGood,nbbadclause,nbtotalbad,precisionBad,recallBad,FBad,accuracy)
c additional predictionAge 50000 58445 76001 0.41 0.31 0.35 94873 77317 0.45 0.56 0.50 0.43 (nbgoodclauses,nbtotalgood,precisionGood,recallGood,FGood,nbbadclause,nbtotalbad,precisionBad,recallBad,FBad,accuracy)
c additional predictionAge 100000 105677 76001 0.42 0.59 0.49 47641 77317 0.34 0.21 0.26 0.40 (nbgoodclauses,nbtotalgood,precisionGood,recallGood,FGood,nbbadclause,nbtotalbad,precisionBad,recallBad,FBad,accuracy)
c additional predictionTicks 1 4086 76001 0.76 0.04 0.08 149232 77317 0.51 1.00 0.68 0.52 (nbgoodclauses,nbtotalgood,precisionGood,recallGood,FGood,nbbadclause,nbtotalbad,precisionBad,recallBad,FBad,accuracy)
c additional predictionTicks 10 13712 76001 0.62 0.11 0.19 139606 77317 0.52 0.95 0.67 0.53 (nbgoodclauses,nbtotalgood,precisionGood,recallGood,FGood,nbbadclause,nbtotalbad,precisionBad,recallBad,FBad,accuracy)
c additional predictionTicks 25 19375 76001 0.60 0.15 0.24 133943 77317 0.52 0.92 0.66 0.53 (nbgoodclauses,nbtotalgood,precisionGood,recallGood,FGood,nbbadclause,nbtotalbad,precisionBad,recallBad,FBad,accuracy)
c additional predictionTicks 50 25477 76001 0.58 0.20 0.29 127841 77317 0.52 0.88 0.65 0.53 (nbgoodclauses,nbtotalgood,precisionGood,recallGood,FGood,nbbadclause,nbtotalbad,precisionBad,recallBad,FBad,accuracy)
c additional predictionTicks 100 32055 76001 0.58 0.24 0.34 121263 77317 0.53 0.84 0.65 0.54 (nbgoodclauses,nbtotalgood,precisionGood,recallGood,FGood,nbbadclause,nbtotalbad,precisionBad,recallBad,FBad,accuracy)
c additional predictionTicks 250 41859 76001 0.58 0.32 0.41 111459 77317 0.53 0.78 0.64 0.55 (nbgoodclauses,nbtotalgood,precisionGood,recallGood,FGood,nbbadclause,nbtotalbad,precisionBad,recallBad,FBad,accuracy)
c additional predictionTicks 500 51148 76001 0.57 0.38 0.46 102170 77317 0.54 0.73 0.62 0.55 (nbgoodclauses,nbtotalgood,precisionGood,recallGood,FGood,nbbadclause,nbtotalbad,precisionBad,recallBad,FBad,accuracy)
c additional predictionTicks 1000 63051 76001 0.56 0.47 0.51 90267 77317 0.55 0.65 0.60 0.56 (nbgoodclauses,nbtotalgood,precisionGood,recallGood,FGood,nbbadclause,nbtotalbad,precisionBad,recallBad,FBad,accuracy)
c additional predictionTicks 2500 83861 76001 0.54 0.59 0.56 69457 77317 0.55 0.51 0.53 0.54 (nbgoodclauses,nbtotalgood,precisionGood,recallGood,FGood,nbbadclause,nbtotalbad,precisionBad,recallBad,FBad,accuracy)
c additional predictionTicks 5000 104378 76001 0.52 0.71 0.60 48940 77317 0.55 0.35 0.43 0.53 (nbgoodclauses,nbtotalgood,precisionGood,recallGood,FGood,nbbadclause,nbtotalbad,precisionBad,recallBad,FBad,accuracy)
c additional predictionTicks 10000 126477 76001 0.50 0.84 0.63 26841 77317 0.54 0.19 0.28 0.51 (nbgoodclauses,nbtotalgood,precisionGood,recallGood,FGood,nbbadclause,nbtotalbad,precisionBad,recallBad,FBad,accuracy)
c additional predictionTicks 25000 147116 76001 0.50 0.96 0.65 6202 77317 0.49 0.04 0.07 0.50 (nbgoodclauses,nbtotalgood,precisionGood,recallGood,FGood,nbbadclause,nbtotalbad,precisionBad,recallBad,FBad,accuracy)
c additional predictionTicks 50000 152505 76001 0.50 0.99 0.66 813 77317 0.47 0.00 0.01 0.50 (nbgoodclauses,nbtotalgood,precisionGood,recallGood,FGood,nbbadclause,nbtotalbad,precisionBad,recallBad,FBad,accuracy)
c additional predictionTicks 100000 153294 76001 0.50 1.00 0.66 24 77317 0.46 0.00 0.00 0.50 (nbgoodclauses,nbtotalgood,precisionGood,recallGood,FGood,nbbadclause,nbtotalbad,precisionBad,recallBad,FBad,accuracy)
c additional lifetimeGood 1 2 180 3772 21058 57214 97923 125832 136662 147599 153259 153261 (0,1,5,10,25,50,75,90,95,99,100-1,100)
c additional lifetimeBad 1 2 22 1294 11446 34608 69316 104410 121376 145090 153220 153264 (0,1,5,10,25,50,75,90,95,99,100-1,100)
c additional lifetimeBadBad 2 2 2 2 2 10 122 8790 18417 44263 128018 152555 (0,1,5,10,25,50,75,90,95,99,100-1,100)
c additional compositionBad 1 3 6 9 20 46 92 160 215 352 889 974 (0,1,5,10,25,50,75,90,95,99,100-1,100)
c additional compositionBadWithGood 0 0 1 2 6 14 29 52 72 120 300 314 (0,1,5,10,25,50,75,90,95,99,100-1,100)
c additional compositionBadWithBad 0 0 0 0 0 1 2 3 4 7 18 19 (0,1,5,10,25,50,75,90,95,99,100-1,100)
c additional compositionBadWithInitial 0 1 3 5 12 30 61 107 144 241 644 738 (0,1,5,10,25,50,75,90,95,99,100-1,100)
c additional compositionGood 1 2 3 5 10 31 75 148 209 364 1015 1053 (0,1,5,10,25,50,75,90,95,99,100-1,100)
c additional compositionGoodWithGood 0 0 1 2 4 12 28 55 78 138 344 372 (0,1,5,10,25,50,75,90,95,99,100-1,100)
c additional compositionGoodWithInitial 0 0 1 2 6 18 47 93 133 234 681 692 (0,1,5,10,25,50,75,90,95,99,100-1,100)
c additional propagationGood total 9756091 percentiles 0 1 1 1 1 4 28 187 526 2765 14772 15819 (0,1,5,10,25,50,75,90,95,99,100-1,100)
c additional propagationBad total 232823 percentiles 1 1 1 1 1 1 2 5 8 26 859 1999 (0,1,5,10,25,50,75,90,95,99,100-1,100)
c additional resolutionGood total 2548213 percentiles 0 1 1 1 1 3 13 57 137 574 5879 5942 (0,1,5,10,25,50,75,90,95,99,100-1,100)
c additional resolutionBad total 107690 percentiles 0 0 0 0 1 1 1 3 4 9 91 137 (0,1,5,10,25,50,75,90,95,99,100-1,100)
No graph is dumped
c result of core 1 is UNSAT
c One thread has finished
c Core 1 said it finished
c result of core 0 is UNKNOWN
c restarts              : 526 (145 conflicts in avg)
c blocked restarts      : 417 (multiple: 138) 
c last block at restart : 524
c nb ReduceDB           : 6
c nb removed Clauses    : 50131
c nb learnts DL2        : 1340
c nb learnts size 2     : 336
c nb learnts size 1     : 11
c conflicts             : 76659          (2364 /sec)
c decisions             : 150892         (0.00 % random) (4652 /sec)
c propagations          : 23465055       (723469 /sec)
c conflict literals     : 4504230        (13.37 % deleted)
c nb reduced Clauses    : 719
c CPU time              : 32.4341 s

s INDETERMINATE
