c
c This is glucose-proof 1.0 based on  2.1 --  (thanks to MiniSAT)
c
c EXPERIMENTAL EASY PARALLEL (ROUND ROBIN) VERSION
c
c WARNING: for repeatability, setting FPU to use double precision
c Parallel version 6 solvers created.
c ========================================[ Problem Statistics ]===========================================
c |                                                                                                       |
c |  Number of variables:         30019                                                                   |
c |  Number of clauses:          139678                                                                   |
c |  Parse time:                   0.34 s                                                                 |
c |                                                                                                       |
c ========================================[ MAGIC CONSTANTS ]==============================================
c | Constants are supposed to work well together :-)                                                      |
c | however, if you find better choices, please let us known...                                           |
c |-------------------------------------------------------------------------------------------------------|
c |                                |                                |                                     |
c | - Restarts:                    | - Reduce Clause DB:            | - Minimize Asserting:               |
c |   * LBD Queue    :     50      |   * First     :   4000         |    * size <  30                     |
c |   * Trail  Queue :   5000      |   * Inc       :    300         |    * lbd  <   6                     |
c |   * K            :   0.80      |   * Special   :   1000         |                                     |
c |   * R            :   1.40      |   * Protected :  (lbd)< 30     |                                     |
c |                                |                                |                                     |
c ==================================[ Search Statistics (every  10000 conflicts) ]=========================
c |                                                                                                       |
c |          RESTARTS           |          ORIGINAL         |              LEARNT              | Progress |
c |       NB   Blocked  Avg Cfc |    Vars  Clauses Literals |   Red   Learnts    LBD2  Removed |          |
c =========================================================================================================
c |       16         0      625 |   28725   139678   452024 |     1     7860     2074     7229 |  4.311 % |
c |       35        75      571 |   28281   139678   452024 |     2    12468     3435    24805 |  5.790 % |
c |       73       150      410 |   27433   139678   452024 |     3    12800     4516    50119 |  8.615 % |
c empty clause found by core 5 at conflict 33812
*
c checking the resolution graph...OK
c All useful bySize 109017 clauses, percentiles 0 2 2 2 3 3 4 5 8 22 118 119 (0,1,5,10,25,50,75,90,95,99,100-1,100)
c All useless bySize 235170 clauses, percentiles 0 2 2 3 3 5 11 22 33 62 442 442 (0,1,5,10,25,50,75,90,95,99,100-1,100)
c ProofOnly useful bySize 53105 clauses, percentiles 0 2 2 2 3 3 5 8 13 31 118 119 (0,1,5,10,25,50,75,90,95,99,100-1,100)
c ProofOnly useless bySize 149767 clauses, percentiles 1 3 3 4 5 8 16 29 40 72 442 442 (0,1,5,10,25,50,75,90,95,99,100-1,100)
c All useful byFinalLBD 109017 clauses, percentiles 0 1 1 1 2 2 3 4 4 6 19 39 (0,1,5,10,25,50,75,90,95,99,100-1,100)
c All useless byFinalLBD 235170 clauses, percentiles 0 1 1 2 3 4 5 7 9 14 99 105 (0,1,5,10,25,50,75,90,95,99,100-1,100)
c ProofOnly useful byFinalLBD 53105 clauses, percentiles 0 1 1 1 1 2 2 3 4 6 19 39 (0,1,5,10,25,50,75,90,95,99,100-1,100)
c ProofOnly useless byFinalLBD 149767 clauses, percentiles 1 1 1 2 3 4 6 8 10 17 99 105 (0,1,5,10,25,50,75,90,95,99,100-1,100)
c All useful byInitialLBD 109017 clauses, percentiles 0 2 2 2 2 3 3 4 4 6 38 39 (0,1,5,10,25,50,75,90,95,99,100-1,100)
c All useless byInitialLBD 235170 clauses, percentiles 0 2 2 2 3 4 5 7 10 15 99 105 (0,1,5,10,25,50,75,90,95,99,100-1,100)
c ProofOnly useful byInitialLBD 53105 clauses, percentiles 0 2 2 2 2 3 3 4 5 7 38 39 (0,1,5,10,25,50,75,90,95,99,100-1,100)
c ProofOnly useless byInitialLBD 149767 clauses, percentiles 1 2 2 3 3 4 6 8 10 17 99 105 (0,1,5,10,25,50,75,90,95,99,100-1,100)
c Literals ProofOnly useful 266803
c Literals ProofOnly useless 2030644
c additional windowsGood 1 1 1 1 1 1 2 2 3 4 10 11 (0,1,5,10,25,50,75,90,95,99,100-1,100)
c additional windowsBad 1 1 1 1 1 3 5 8 11 23 100 105 (0,1,5,10,25,50,75,90,95,99,100-1,100)
c additional 1WindowNoDecision 27597 10238 0.37 10617 2969 0.28 (nbWindowsGood,nbWindowsNoDecisionGood,nbWindowsBad,nbWindowsNoDecisionBad
c additional topclausessize all (10%,5%,1%,top) 11.69 17.06 34.82 119
c additional topclausessize proofonly (10%,5%,1%,top) 13.74 19.89 38.59 119
c additional topclausesinitialLBD all (10%,5%,1%,top) 10.54 15.27 32.13 119
c additional topclausesinitialLBD proofonly (10%,5%,1%,top) 9.76 14.00 30.02 119
c additional topclausesfinalLBD all (10%,5%,1%,top) 8.60 12.08 26.67 119
c additional topclausesfinalLBD proofonly (10%,5%,1%,top) 8.18 11.46 25.38 119
c additional predictionInitialLBD 1 335 53105 0.96 0.01 0.01 202537 149767 0.74 2.82 1.17 0.74 (nbgoodclauses,nbtotalgood,precisionGood,recallGood,FGood,nbbadclause,nbtotalbad,precisionBad,recallBad,FBad,accuracy)
c additional predictionInitialLBD 2 30210 53105 0.63 0.36 0.46 172662 149767 0.80 2.61 1.23 0.78 (nbgoodclauses,nbtotalgood,precisionGood,recallGood,FGood,nbbadclause,nbtotalbad,precisionBad,recallBad,FBad,accuracy)
c additional predictionInitialLBD 3 86192 53105 0.51 0.82 0.63 116680 149767 0.92 2.02 1.26 0.74 (nbgoodclauses,nbtotalgood,precisionGood,recallGood,FGood,nbbadclause,nbtotalbad,precisionBad,recallBad,FBad,accuracy)
c additional predictionInitialLBD 4 128376 53105 0.38 0.93 0.54 74496 149767 0.95 1.33 1.11 0.59 (nbgoodclauses,nbtotalgood,precisionGood,recallGood,FGood,nbbadclause,nbtotalbad,precisionBad,recallBad,FBad,accuracy)
c additional predictionInitialLBD 5 154658 53105 0.33 0.96 0.49 48214 149767 0.96 0.87 0.91 0.48 (nbgoodclauses,nbtotalgood,precisionGood,recallGood,FGood,nbbadclause,nbtotalbad,precisionBad,recallBad,FBad,accuracy)
c additional predictionInitialLBD 6 170982 53105 0.30 0.98 0.47 31890 149767 0.97 0.58 0.73 0.41 (nbgoodclauses,nbtotalgood,precisionGood,recallGood,FGood,nbbadclause,nbtotalbad,precisionBad,recallBad,FBad,accuracy)
c additional predictionInitialLBD 7 181556 53105 0.29 0.99 0.45 21316 149767 0.98 0.39 0.56 0.36 (nbgoodclauses,nbtotalgood,precisionGood,recallGood,FGood,nbbadclause,nbtotalbad,precisionBad,recallBad,FBad,accuracy)
c additional predictionInitialLBD 8 188490 53105 0.28 0.99 0.44 14382 149767 0.98 0.26 0.42 0.33 (nbgoodclauses,nbtotalgood,precisionGood,recallGood,FGood,nbbadclause,nbtotalbad,precisionBad,recallBad,FBad,accuracy)
c additional predictionInitialLBD 10 195767 53105 0.27 1.00 0.43 7105 149767 0.98 0.13 0.23 0.30 (nbgoodclauses,nbtotalgood,precisionGood,recallGood,FGood,nbbadclause,nbtotalbad,precisionBad,recallBad,FBad,accuracy)
c additional predictionInitialLBD 14 200468 53105 0.26 1.00 0.42 2404 149767 0.99 0.04 0.09 0.27 (nbgoodclauses,nbtotalgood,precisionGood,recallGood,FGood,nbbadclause,nbtotalbad,precisionBad,recallBad,FBad,accuracy)
c additional predictionInitialLBD 18 201684 53105 0.26 1.00 0.42 1188 149767 0.99 0.02 0.04 0.27 (nbgoodclauses,nbtotalgood,precisionGood,recallGood,FGood,nbbadclause,nbtotalbad,precisionBad,recallBad,FBad,accuracy)
c additional predictionInitialLBD 22 202186 53105 0.26 1.00 0.42 686 149767 1.00 0.01 0.03 0.27 (nbgoodclauses,nbtotalgood,precisionGood,recallGood,FGood,nbbadclause,nbtotalbad,precisionBad,recallBad,FBad,accuracy)
c additional predictionInitialLBD 30 202613 53105 0.26 1.00 0.42 259 149767 0.99 0.00 0.01 0.26 (nbgoodclauses,nbtotalgood,precisionGood,recallGood,FGood,nbbadclause,nbtotalbad,precisionBad,recallBad,FBad,accuracy)
c additional predictionInitialLBD 40 202779 53105 0.26 1.00 0.42 93 149767 1.00 0.00 0.00 0.26 (nbgoodclauses,nbtotalgood,precisionGood,recallGood,FGood,nbbadclause,nbtotalbad,precisionBad,recallBad,FBad,accuracy)
c additional predictionFinallLBD 1 36138 53105 0.70 0.48 0.57 166734 149767 0.83 0.93 0.88 0.81 (nbgoodclauses,nbtotalgood,precisionGood,recallGood,FGood,nbbadclause,nbtotalbad,precisionBad,recallBad,FBad,accuracy)
c additional predictionFinallLBD 2 74259 53105 0.58 0.82 0.68 128613 149767 0.92 0.79 0.85 0.80 (nbgoodclauses,nbtotalgood,precisionGood,recallGood,FGood,nbbadclause,nbtotalbad,precisionBad,recallBad,FBad,accuracy)
c additional predictionFinallLBD 3 103299 53105 0.47 0.92 0.62 99573 149767 0.96 0.63 0.76 0.71 (nbgoodclauses,nbtotalgood,precisionGood,recallGood,FGood,nbbadclause,nbtotalbad,precisionBad,recallBad,FBad,accuracy)
c additional predictionFinallLBD 4 138155 53105 0.37 0.97 0.54 64717 149767 0.97 0.42 0.59 0.56 (nbgoodclauses,nbtotalgood,precisionGood,recallGood,FGood,nbbadclause,nbtotalbad,precisionBad,recallBad,FBad,accuracy)
c additional predictionFinallLBD 5 160559 53105 0.32 0.98 0.49 42313 149767 0.98 0.28 0.43 0.46 (nbgoodclauses,nbtotalgood,precisionGood,recallGood,FGood,nbbadclause,nbtotalbad,precisionBad,recallBad,FBad,accuracy)
c additional predictionFinallLBD 6 174735 53105 0.30 0.99 0.46 28137 149767 0.98 0.18 0.31 0.40 (nbgoodclauses,nbtotalgood,precisionGood,recallGood,FGood,nbbadclause,nbtotalbad,precisionBad,recallBad,FBad,accuracy)
c additional predictionFinallLBD 7 183936 53105 0.29 0.99 0.45 18936 149767 0.98 0.12 0.22 0.35 (nbgoodclauses,nbtotalgood,precisionGood,recallGood,FGood,nbbadclause,nbtotalbad,precisionBad,recallBad,FBad,accuracy)
c additional predictionFinallLBD 8 190037 53105 0.28 1.00 0.44 12835 149767 0.99 0.08 0.16 0.32 (nbgoodclauses,nbtotalgood,precisionGood,recallGood,FGood,nbbadclause,nbtotalbad,precisionBad,recallBad,FBad,accuracy)
c additional predictionFinallLBD 10 196510 53105 0.27 1.00 0.43 6362 149767 0.99 0.04 0.08 0.29 (nbgoodclauses,nbtotalgood,precisionGood,recallGood,FGood,nbbadclause,nbtotalbad,precisionBad,recallBad,FBad,accuracy)
c additional predictionFinallLBD 14 200667 53105 0.26 1.00 0.42 2205 149767 1.00 0.01 0.03 0.27 (nbgoodclauses,nbtotalgood,precisionGood,recallGood,FGood,nbbadclause,nbtotalbad,precisionBad,recallBad,FBad,accuracy)
c additional predictionFinallLBD 18 201777 53105 0.26 1.00 0.42 1095 149767 1.00 0.01 0.01 0.27 (nbgoodclauses,nbtotalgood,precisionGood,recallGood,FGood,nbbadclause,nbtotalbad,precisionBad,recallBad,FBad,accuracy)
c additional predictionFinallLBD 22 202236 53105 0.26 1.00 0.42 636 149767 1.00 0.00 0.01 0.26 (nbgoodclauses,nbtotalgood,precisionGood,recallGood,FGood,nbbadclause,nbtotalbad,precisionBad,recallBad,FBad,accuracy)
c additional predictionFinallLBD 30 202636 53105 0.26 1.00 0.42 236 149767 1.00 0.00 0.00 0.26 (nbgoodclauses,nbtotalgood,precisionGood,recallGood,FGood,nbbadclause,nbtotalbad,precisionBad,recallBad,FBad,accuracy)
c additional predictionFinallLBD 40 202788 53105 0.26 1.00 0.42 84 149767 1.00 0.00 0.00 0.26 (nbgoodclauses,nbtotalgood,precisionGood,recallGood,FGood,nbbadclause,nbtotalbad,precisionBad,recallBad,FBad,accuracy)
c additional predictionSize 1 335 53105 0.96 0.01 0.01 202537 149767 0.74 2.82 1.17 0.74 (nbgoodclauses,nbtotalgood,precisionGood,recallGood,FGood,nbbadclause,nbtotalbad,precisionBad,recallBad,FBad,accuracy)
c additional predictionSize 2 7934 53105 0.86 0.13 0.22 194938 149767 0.76 2.80 1.20 0.77 (nbgoodclauses,nbtotalgood,precisionGood,recallGood,FGood,nbbadclause,nbtotalbad,precisionBad,recallBad,FBad,accuracy)
c additional predictionSize 3 36988 53105 0.74 0.51 0.61 165884 149767 0.84 2.64 1.28 0.83 (nbgoodclauses,nbtotalgood,precisionGood,recallGood,FGood,nbbadclause,nbtotalbad,precisionBad,recallBad,FBad,accuracy)
c additional predictionSize 4 63700 53105 0.58 0.70 0.63 139172 149767 0.88 2.32 1.28 0.79 (nbgoodclauses,nbtotalgood,precisionGood,recallGood,FGood,nbbadclause,nbtotalbad,precisionBad,recallBad,FBad,accuracy)
c additional predictionSize 5 87790 53105 0.49 0.81 0.61 115082 149767 0.91 1.98 1.25 0.73 (nbgoodclauses,nbtotalgood,precisionGood,recallGood,FGood,nbbadclause,nbtotalbad,precisionBad,recallBad,FBad,accuracy)
c additional predictionSize 6 103155 53105 0.44 0.86 0.58 99717 149767 0.93 1.74 1.21 0.68 (nbgoodclauses,nbtotalgood,precisionGood,recallGood,FGood,nbbadclause,nbtotalbad,precisionBad,recallBad,FBad,accuracy)
c additional predictionSize 7 114858 53105 0.41 0.89 0.56 88014 149767 0.93 1.55 1.16 0.64 (nbgoodclauses,nbtotalgood,precisionGood,recallGood,FGood,nbbadclause,nbtotalbad,precisionBad,recallBad,FBad,accuracy)
c additional predictionSize 8 124159 53105 0.39 0.91 0.54 78713 149767 0.94 1.39 1.12 0.60 (nbgoodclauses,nbtotalgood,precisionGood,recallGood,FGood,nbbadclause,nbtotalbad,precisionBad,recallBad,FBad,accuracy)
c additional predictionSize 10 138097 53105 0.36 0.93 0.52 64775 149767 0.94 1.15 1.04 0.54 (nbgoodclauses,nbtotalgood,precisionGood,recallGood,FGood,nbbadclause,nbtotalbad,precisionBad,recallBad,FBad,accuracy)
c additional predictionSize 14 157209 53105 0.32 0.96 0.48 45663 149767 0.95 0.82 0.88 0.46 (nbgoodclauses,nbtotalgood,precisionGood,recallGood,FGood,nbbadclause,nbtotalbad,precisionBad,recallBad,FBad,accuracy)
c additional predictionSize 18 169875 53105 0.30 0.97 0.46 32997 149767 0.95 0.59 0.73 0.41 (nbgoodclauses,nbtotalgood,precisionGood,recallGood,FGood,nbbadclause,nbtotalbad,precisionBad,recallBad,FBad,accuracy)
c additional predictionSize 22 178486 53105 0.29 0.98 0.45 24386 149767 0.96 0.44 0.60 0.37 (nbgoodclauses,nbtotalgood,precisionGood,recallGood,FGood,nbbadclause,nbtotalbad,precisionBad,recallBad,FBad,accuracy)
c additional predictionSize 30 188697 53105 0.28 0.99 0.43 14175 149767 0.96 0.26 0.41 0.33 (nbgoodclauses,nbtotalgood,precisionGood,recallGood,FGood,nbbadclause,nbtotalbad,precisionBad,recallBad,FBad,accuracy)
c additional predictionSize 40 195264 53105 0.27 0.99 0.43 7608 149767 0.96 0.14 0.24 0.30 (nbgoodclauses,nbtotalgood,precisionGood,recallGood,FGood,nbbadclause,nbtotalbad,precisionBad,recallBad,FBad,accuracy)
c additional predictionAge 1 30516 53105 0.41 0.24 0.30 172356 149767 0.76 2.48 1.17 0.71 (nbgoodclauses,nbtotalgood,precisionGood,recallGood,FGood,nbbadclause,nbtotalbad,precisionBad,recallBad,FBad,accuracy)
c additional predictionAge 10 32540 53105 0.40 0.25 0.30 170332 149767 0.76 2.45 1.17 0.71 (nbgoodclauses,nbtotalgood,precisionGood,recallGood,FGood,nbbadclause,nbtotalbad,precisionBad,recallBad,FBad,accuracy)
c additional predictionAge 25 34788 53105 0.39 0.25 0.31 168084 149767 0.76 2.42 1.16 0.70 (nbgoodclauses,nbtotalgood,precisionGood,recallGood,FGood,nbbadclause,nbtotalbad,precisionBad,recallBad,FBad,accuracy)
c additional predictionAge 50 35668 53105 0.38 0.26 0.31 167204 149767 0.76 2.41 1.16 0.70 (nbgoodclauses,nbtotalgood,precisionGood,recallGood,FGood,nbbadclause,nbtotalbad,precisionBad,recallBad,FBad,accuracy)
c additional predictionAge 100 36459 53105 0.38 0.26 0.31 166413 149767 0.76 2.40 1.16 0.70 (nbgoodclauses,nbtotalgood,precisionGood,recallGood,FGood,nbbadclause,nbtotalbad,precisionBad,recallBad,FBad,accuracy)
c additional predictionAge 250 37431 53105 0.38 0.27 0.31 165441 149767 0.76 2.38 1.16 0.69 (nbgoodclauses,nbtotalgood,precisionGood,recallGood,FGood,nbbadclause,nbtotalbad,precisionBad,recallBad,FBad,accuracy)
c additional predictionAge 500 38206 53105 0.38 0.27 0.32 164666 149767 0.77 2.37 1.16 0.69 (nbgoodclauses,nbtotalgood,precisionGood,recallGood,FGood,nbbadclause,nbtotalbad,precisionBad,recallBad,FBad,accuracy)
c additional predictionAge 1000 39146 53105 0.38 0.28 0.32 163726 149767 0.77 2.36 1.16 0.69 (nbgoodclauses,nbtotalgood,precisionGood,recallGood,FGood,nbbadclause,nbtotalbad,precisionBad,recallBad,FBad,accuracy)
c additional predictionAge 2500 41500 53105 0.38 0.29 0.33 161372 149767 0.77 2.33 1.16 0.69 (nbgoodclauses,nbtotalgood,precisionGood,recallGood,FGood,nbbadclause,nbtotalbad,precisionBad,recallBad,FBad,accuracy)
c additional predictionAge 5000 44955 53105 0.38 0.32 0.34 157917 149767 0.77 2.29 1.15 0.68 (nbgoodclauses,nbtotalgood,precisionGood,recallGood,FGood,nbbadclause,nbtotalbad,precisionBad,recallBad,FBad,accuracy)
c additional predictionAge 10000 51397 53105 0.37 0.36 0.37 151475 149767 0.78 2.21 1.15 0.67 (nbgoodclauses,nbtotalgood,precisionGood,recallGood,FGood,nbbadclause,nbtotalbad,precisionBad,recallBad,FBad,accuracy)
c additional predictionAge 25000 69489 53105 0.36 0.48 0.41 133383 149767 0.79 1.99 1.13 0.65 (nbgoodclauses,nbtotalgood,precisionGood,recallGood,FGood,nbbadclause,nbtotalbad,precisionBad,recallBad,FBad,accuracy)
c additional predictionAge 50000 97229 53105 0.34 0.63 0.44 105643 149767 0.81 1.62 1.08 0.59 (nbgoodclauses,nbtotalgood,precisionGood,recallGood,FGood,nbbadclause,nbtotalbad,precisionBad,recallBad,FBad,accuracy)
c additional predictionAge 100000 142829 53105 0.30 0.82 0.44 60043 149767 0.84 0.95 0.89 0.46 (nbgoodclauses,nbtotalgood,precisionGood,recallGood,FGood,nbbadclause,nbtotalbad,precisionBad,recallBad,FBad,accuracy)
c additional predictionTicks 1 30531 53105 0.41 0.24 0.30 172341 149767 0.76 2.48 1.17 0.71 (nbgoodclauses,nbtotalgood,precisionGood,recallGood,FGood,nbbadclause,nbtotalbad,precisionBad,recallBad,FBad,accuracy)
c additional predictionTicks 10 39160 53105 0.38 0.28 0.32 163712 149767 0.77 2.36 1.16 0.69 (nbgoodclauses,nbtotalgood,precisionGood,recallGood,FGood,nbbadclause,nbtotalbad,precisionBad,recallBad,FBad,accuracy)
c additional predictionTicks 25 48722 53105 0.36 0.33 0.35 154150 149767 0.77 2.24 1.15 0.67 (nbgoodclauses,nbtotalgood,precisionGood,recallGood,FGood,nbbadclause,nbtotalbad,precisionBad,recallBad,FBad,accuracy)
c additional predictionTicks 50 53986 53105 0.36 0.37 0.36 148886 149767 0.77 2.17 1.14 0.66 (nbgoodclauses,nbtotalgood,precisionGood,recallGood,FGood,nbbadclause,nbtotalbad,precisionBad,recallBad,FBad,accuracy)
c additional predictionTicks 100 59534 53105 0.36 0.40 0.38 143338 149767 0.78 2.10 1.14 0.65 (nbgoodclauses,nbtotalgood,precisionGood,recallGood,FGood,nbbadclause,nbtotalbad,precisionBad,recallBad,FBad,accuracy)
c additional predictionTicks 250 66923 53105 0.36 0.45 0.40 135949 149767 0.78 2.01 1.13 0.64 (nbgoodclauses,nbtotalgood,precisionGood,recallGood,FGood,nbbadclause,nbtotalbad,precisionBad,recallBad,FBad,accuracy)
c additional predictionTicks 500 73148 53105 0.36 0.49 0.41 129724 149767 0.79 1.93 1.12 0.63 (nbgoodclauses,nbtotalgood,precisionGood,recallGood,FGood,nbbadclause,nbtotalbad,precisionBad,recallBad,FBad,accuracy)
c additional predictionTicks 1000 81064 53105 0.35 0.54 0.42 121808 149767 0.80 1.83 1.11 0.62 (nbgoodclauses,nbtotalgood,precisionGood,recallGood,FGood,nbbadclause,nbtotalbad,precisionBad,recallBad,FBad,accuracy)
c additional predictionTicks 2500 97342 53105 0.34 0.63 0.44 105530 149767 0.81 1.61 1.08 0.59 (nbgoodclauses,nbtotalgood,precisionGood,recallGood,FGood,nbbadclause,nbtotalbad,precisionBad,recallBad,FBad,accuracy)
c additional predictionTicks 5000 116854 53105 0.33 0.72 0.45 86018 149767 0.83 1.34 1.02 0.54 (nbgoodclauses,nbtotalgood,precisionGood,recallGood,FGood,nbbadclause,nbtotalbad,precisionBad,recallBad,FBad,accuracy)
c additional predictionTicks 10000 143040 53105 0.31 0.83 0.45 59832 149767 0.85 0.96 0.90 0.47 (nbgoodclauses,nbtotalgood,precisionGood,recallGood,FGood,nbbadclause,nbtotalbad,precisionBad,recallBad,FBad,accuracy)
c additional predictionTicks 25000 177812 53105 0.28 0.94 0.43 25060 149767 0.88 0.42 0.56 0.36 (nbgoodclauses,nbtotalgood,precisionGood,recallGood,FGood,nbbadclause,nbtotalbad,precisionBad,recallBad,FBad,accuracy)
c additional predictionTicks 50000 194515 53105 0.27 0.98 0.42 8357 149767 0.89 0.14 0.24 0.29 (nbgoodclauses,nbtotalgood,precisionGood,recallGood,FGood,nbbadclause,nbtotalbad,precisionBad,recallBad,FBad,accuracy)
c additional predictionTicks 100000 201819 53105 0.26 1.00 0.42 1053 149767 0.91 0.02 0.04 0.27 (nbgoodclauses,nbtotalgood,precisionGood,recallGood,FGood,nbbadclause,nbtotalbad,precisionBad,recallBad,FBad,accuracy)
c additional lifetimeGood 1 6 42 593 7425 26728 67613 110215 133483 170945 203158 203176 (0,1,5,10,25,50,75,90,95,99,100-1,100)
c additional lifetimeBad 1 6 24 455 9998 36373 79918 119165 139440 169631 203298 203316 (0,1,5,10,25,50,75,90,95,99,100-1,100)
c additional lifetimeBadBad 1 6 6 6 42 9081 38582 77115 99280 136591 202253 202259 (0,1,5,10,25,50,75,90,95,99,100-1,100)
c additional compositionBad 1 2 3 4 7 15 32 67 101 203 3197 5690 (0,1,5,10,25,50,75,90,95,99,100-1,100)
c additional compositionBadWithGood 0 0 0 0 1 3 9 21 33 66 540 564 (0,1,5,10,25,50,75,90,95,99,100-1,100)
c additional compositionBadWithBad 0 0 0 0 0 1 2 5 8 16 148 203 (0,1,5,10,25,50,75,90,95,99,100-1,100)
c additional compositionBadWithInitial 0 1 1 2 4 10 21 42 63 134 2768 4923 (0,1,5,10,25,50,75,90,95,99,100-1,100)
c additional compositionGood 1 2 2 2 3 6 12 26 45 129 1086 1136 (0,1,5,10,25,50,75,90,95,99,100-1,100)
c additional compositionGoodWithGood 0 0 0 0 1 2 5 11 19 52 283 309 (0,1,5,10,25,50,75,90,95,99,100-1,100)
c additional compositionGoodWithInitial 0 0 1 1 2 4 8 16 27 83 886 927 (0,1,5,10,25,50,75,90,95,99,100-1,100)
c additional propagationGood total 9918752 percentiles 0 1 1 3 15 76 230 509 775 1388 4104 4728 (0,1,5,10,25,50,75,90,95,99,100-1,100)
c additional propagationBad total 2297578 percentiles 1 1 1 1 1 2 8 35 72 212 2439 2906 (0,1,5,10,25,50,75,90,95,99,100-1,100)
c additional resolutionGood total 1322754 percentiles 0 1 1 1 4 12 30 63 93 183 610 648 (0,1,5,10,25,50,75,90,95,99,100-1,100)
c additional resolutionBad total 300299 percentiles 0 0 0 0 0 1 2 5 8 21 156 183 (0,1,5,10,25,50,75,90,95,99,100-1,100)
No graph is dumped
c result of core 5 is UNSAT
c One thread has finished
c Core 5 said it finished
c result of core 0 is UNKNOWN
c result of core 2 is UNKNOWN
c result of core 3 is UNKNOWN
c result of core 4 is UNKNOWN
c result of core 1 is UNKNOWN
c restarts              : 101 (334 conflicts in avg)
c blocked restarts      : 157 (multiple: 40) 
c last block at restart : 94
c nb ReduceDB           : 3
c nb removed Clauses    : 50119
c nb learnts DL2        : 4935
c nb learnts size 2     : 1217
c nb learnts size 1     : 57
c conflicts             : 33812          (680 /sec)
c decisions             : 235713         (0.00 % random) (4741 /sec)
c propagations          : 12024834       (241859 /sec)
c conflict literals     : 377794         (6.35 % deleted)
c nb reduced Clauses    : 578
c CPU time              : 49.7184 s

s INDETERMINATE
