c
c This is glucose-proof 1.0 based on  2.1 --  (thanks to MiniSAT)
c
c EXPERIMENTAL EASY PARALLEL (ROUND ROBIN) VERSION
c
c WARNING: for repeatability, setting FPU to use double precision
c Parallel version 2 solvers created.
c ========================================[ Problem Statistics ]===========================================
c |                                                                                                       |
c |  Number of variables:         30019                                                                   |
c |  Number of clauses:          139678                                                                   |
c |  Parse time:                   0.13 s                                                                 |
c |                                                                                                       |
c ========================================[ MAGIC CONSTANTS ]==============================================
c | Constants are supposed to work well together :-)                                                      |
c | however, if you find better choices, please let us known...                                           |
c |-------------------------------------------------------------------------------------------------------|
c |                                |                                |                                     |
c | - Restarts:                    | - Reduce Clause DB:            | - Minimize Asserting:               |
c |   * LBD Queue    :     50      |   * First     :   4000         |    * size <  30                     |
c |   * Trail  Queue :   5000      |   * Inc       :    300         |    * lbd  <   6                     |
c |   * K            :   0.80      |   * Special   :   1000         |                                     |
c |   * R            :   1.40      |   * Protected :  (lbd)< 30     |                                     |
c |                                |                                |                                     |
c ==================================[ Search Statistics (every  10000 conflicts) ]=========================
c |                                                                                                       |
c |          RESTARTS           |          ORIGINAL         |              LEARNT              | Progress |
c |       NB   Blocked  Avg Cfc |    Vars  Clauses Literals |   Red   Learnts    LBD2  Removed |          |
c =========================================================================================================
c |       18         0      555 |   29098   139678   452024 |     1     7811     2171     2884 |  3.068 % |
c |       28        43      714 |   29043   139678   452024 |     2    12658     4395    10558 |  3.251 % |
c |       34       101      882 |   29019   139678   452024 |     3    13737     6273    23647 |  3.331 % |
c |       44       170      909 |   28824   139678   452024 |     3    23483     7946    23647 |  3.981 % |
c |       61       251      819 |   28668   139678   452024 |     4    22538     9605    39197 |  4.500 % |
c |       86       319      697 |   28524   139678   452024 |     4    32147    10903    39197 |  4.980 % |
c |      124       383      564 |   28330   139678   452024 |     5    26855    12077    59394 |  5.626 % |
c |      164       453      487 |   28070   139678   452024 |     5    36348    13192    59394 |  6.493 % |
c |      236       514      381 |   27405   139678   452024 |     5    43916    14195    59394 |  8.708 % |
c empty clause found by core 0 at conflict 94045
*
c checking the resolution graph...OK
c All useful bySize 118764 clauses, percentiles 0 2 2 2 3 3 4 7 13 31 131 148 (0,1,5,10,25,50,75,90,95,99,100-1,100)
c All useless bySize 209332 clauses, percentiles 0 2 2 3 3 5 12 24 36 70 356 405 (0,1,5,10,25,50,75,90,95,99,100-1,100)
c ProofOnly useful bySize 59991 clauses, percentiles 0 2 2 2 3 4 6 13 20 39 131 148 (0,1,5,10,25,50,75,90,95,99,100-1,100)
c ProofOnly useless bySize 128098 clauses, percentiles 1 3 3 4 5 9 18 32 45 83 356 405 (0,1,5,10,25,50,75,90,95,99,100-1,100)
c All useful byFinalLBD 118764 clauses, percentiles 0 1 1 1 2 2 3 4 4 6 20 20 (0,1,5,10,25,50,75,90,95,99,100-1,100)
c All useless byFinalLBD 209332 clauses, percentiles 0 1 2 2 3 4 5 7 10 15 130 133 (0,1,5,10,25,50,75,90,95,99,100-1,100)
c ProofOnly useful byFinalLBD 59991 clauses, percentiles 0 1 1 1 1 2 2 4 5 7 20 20 (0,1,5,10,25,50,75,90,95,99,100-1,100)
c ProofOnly useless byFinalLBD 128098 clauses, percentiles 1 1 2 2 3 4 6 8 11 17 130 133 (0,1,5,10,25,50,75,90,95,99,100-1,100)
c All useful byInitialLBD 118764 clauses, percentiles 0 2 2 2 2 3 3 4 5 7 26 28 (0,1,5,10,25,50,75,90,95,99,100-1,100)
c All useless byInitialLBD 209332 clauses, percentiles 0 2 2 2 3 4 5 8 10 15 133 135 (0,1,5,10,25,50,75,90,95,99,100-1,100)
c ProofOnly useful byInitialLBD 59991 clauses, percentiles 0 2 2 2 2 3 4 5 6 9 26 28 (0,1,5,10,25,50,75,90,95,99,100-1,100)
c ProofOnly useless byInitialLBD 128098 clauses, percentiles 1 2 2 3 3 4 6 9 11 18 133 135 (0,1,5,10,25,50,75,90,95,99,100-1,100)
c Literals ProofOnly useful 372985
c Literals ProofOnly useless 1884385
c additional windowsGood 1 1 1 1 1 1 1 3 3 7 33 39 (0,1,5,10,25,50,75,90,95,99,100-1,100)
c additional windowsBad 1 1 1 1 1 1 3 7 11 22 73 79 (0,1,5,10,25,50,75,90,95,99,100-1,100)
c additional 1WindowNoDecision 31294 12305 0.39 21631 7830 0.36 (nbWindowsGood,nbWindowsNoDecisionGood,nbWindowsBad,nbWindowsNoDecisionBad
c additional topclausessize all (10%,5%,1%,top) 16.88 24.57 46.01 148
c additional topclausessize proofonly (10%,5%,1%,top) 19.89 28.01 50.43 148
c additional topclausesinitialLBD all (10%,5%,1%,top) 14.90 22.01 42.68 148
c additional topclausesinitialLBD proofonly (10%,5%,1%,top) 13.55 20.03 40.06 148
c additional topclausesfinalLBD all (10%,5%,1%,top) 11.57 17.16 36.13 148
c additional topclausesfinalLBD proofonly (10%,5%,1%,top) 10.91 16.09 34.54 148
c additional predictionInitialLBD 1 333 59991 0.96 0.01 0.01 187756 128098 0.68 2.14 1.03 0.68 (nbgoodclauses,nbtotalgood,precisionGood,recallGood,FGood,nbbadclause,nbtotalbad,precisionBad,recallBad,FBad,accuracy)
c additional predictionInitialLBD 2 29507 59991 0.70 0.35 0.46 158582 128098 0.75 1.99 1.09 0.74 (nbgoodclauses,nbtotalgood,precisionGood,recallGood,FGood,nbbadclause,nbtotalbad,precisionBad,recallBad,FBad,accuracy)
c additional predictionInitialLBD 3 81585 59991 0.54 0.74 0.63 106504 128098 0.85 1.51 1.09 0.72 (nbgoodclauses,nbtotalgood,precisionGood,recallGood,FGood,nbbadclause,nbtotalbad,precisionBad,recallBad,FBad,accuracy)
c additional predictionInitialLBD 4 118725 59991 0.45 0.88 0.59 69364 128098 0.90 1.04 0.96 0.61 (nbgoodclauses,nbtotalgood,precisionGood,recallGood,FGood,nbbadclause,nbtotalbad,precisionBad,recallBad,FBad,accuracy)
c additional predictionInitialLBD 5 141950 59991 0.40 0.94 0.56 46139 128098 0.92 0.71 0.80 0.53 (nbgoodclauses,nbtotalgood,precisionGood,recallGood,FGood,nbbadclause,nbtotalbad,precisionBad,recallBad,FBad,accuracy)
c additional predictionInitialLBD 6 156768 59991 0.37 0.97 0.54 31321 128098 0.94 0.49 0.64 0.46 (nbgoodclauses,nbtotalgood,precisionGood,recallGood,FGood,nbbadclause,nbtotalbad,precisionBad,recallBad,FBad,accuracy)
c additional predictionInitialLBD 7 166660 59991 0.35 0.98 0.52 21429 128098 0.95 0.34 0.50 0.42 (nbgoodclauses,nbtotalgood,precisionGood,recallGood,FGood,nbbadclause,nbtotalbad,precisionBad,recallBad,FBad,accuracy)
c additional predictionInitialLBD 8 173198 59991 0.34 0.99 0.51 14891 128098 0.96 0.24 0.38 0.39 (nbgoodclauses,nbtotalgood,precisionGood,recallGood,FGood,nbbadclause,nbtotalbad,precisionBad,recallBad,FBad,accuracy)
c additional predictionInitialLBD 10 180375 59991 0.33 1.00 0.50 7714 128098 0.97 0.12 0.22 0.36 (nbgoodclauses,nbtotalgood,precisionGood,recallGood,FGood,nbbadclause,nbtotalbad,precisionBad,recallBad,FBad,accuracy)
c additional predictionInitialLBD 14 185579 59991 0.32 1.00 0.49 2510 128098 0.97 0.04 0.08 0.33 (nbgoodclauses,nbtotalgood,precisionGood,recallGood,FGood,nbbadclause,nbtotalbad,precisionBad,recallBad,FBad,accuracy)
c additional predictionInitialLBD 18 186996 59991 0.32 1.00 0.49 1093 128098 0.98 0.02 0.04 0.32 (nbgoodclauses,nbtotalgood,precisionGood,recallGood,FGood,nbbadclause,nbtotalbad,precisionBad,recallBad,FBad,accuracy)
c additional predictionInitialLBD 22 187523 59991 0.32 1.00 0.48 566 128098 0.99 0.01 0.02 0.32 (nbgoodclauses,nbtotalgood,precisionGood,recallGood,FGood,nbbadclause,nbtotalbad,precisionBad,recallBad,FBad,accuracy)
c additional predictionInitialLBD 30 187917 59991 0.32 1.00 0.48 172 128098 1.00 0.00 0.01 0.32 (nbgoodclauses,nbtotalgood,precisionGood,recallGood,FGood,nbbadclause,nbtotalbad,precisionBad,recallBad,FBad,accuracy)
c additional predictionInitialLBD 40 188029 59991 0.32 1.00 0.48 60 128098 1.00 0.00 0.00 0.32 (nbgoodclauses,nbtotalgood,precisionGood,recallGood,FGood,nbbadclause,nbtotalbad,precisionBad,recallBad,FBad,accuracy)
c additional predictionFinallLBD 1 28172 59991 0.77 0.36 0.49 159917 128098 0.76 0.95 0.85 0.76 (nbgoodclauses,nbtotalgood,precisionGood,recallGood,FGood,nbbadclause,nbtotalbad,precisionBad,recallBad,FBad,accuracy)
c additional predictionFinallLBD 2 67931 59991 0.68 0.77 0.72 120158 128098 0.88 0.83 0.85 0.81 (nbgoodclauses,nbtotalgood,precisionGood,recallGood,FGood,nbbadclause,nbtotalbad,precisionBad,recallBad,FBad,accuracy)
c additional predictionFinallLBD 3 101478 59991 0.53 0.89 0.66 86611 128098 0.92 0.62 0.74 0.71 (nbgoodclauses,nbtotalgood,precisionGood,recallGood,FGood,nbbadclause,nbtotalbad,precisionBad,recallBad,FBad,accuracy)
c additional predictionFinallLBD 4 129974 59991 0.44 0.94 0.60 58115 128098 0.94 0.43 0.59 0.59 (nbgoodclauses,nbtotalgood,precisionGood,recallGood,FGood,nbbadclause,nbtotalbad,precisionBad,recallBad,FBad,accuracy)
c additional predictionFinallLBD 5 148785 59991 0.39 0.97 0.56 39304 128098 0.95 0.29 0.45 0.51 (nbgoodclauses,nbtotalgood,precisionGood,recallGood,FGood,nbbadclause,nbtotalbad,precisionBad,recallBad,FBad,accuracy)
c additional predictionFinallLBD 6 161125 59991 0.37 0.98 0.53 26964 128098 0.96 0.20 0.34 0.45 (nbgoodclauses,nbtotalgood,precisionGood,recallGood,FGood,nbbadclause,nbtotalbad,precisionBad,recallBad,FBad,accuracy)
c additional predictionFinallLBD 7 169462 59991 0.35 0.99 0.52 18627 128098 0.97 0.14 0.25 0.41 (nbgoodclauses,nbtotalgood,precisionGood,recallGood,FGood,nbbadclause,nbtotalbad,precisionBad,recallBad,FBad,accuracy)
c additional predictionFinallLBD 8 175063 59991 0.34 0.99 0.51 13026 128098 0.98 0.10 0.18 0.38 (nbgoodclauses,nbtotalgood,precisionGood,recallGood,FGood,nbbadclause,nbtotalbad,precisionBad,recallBad,FBad,accuracy)
c additional predictionFinallLBD 10 181284 59991 0.33 1.00 0.50 6805 128098 0.98 0.05 0.10 0.35 (nbgoodclauses,nbtotalgood,precisionGood,recallGood,FGood,nbbadclause,nbtotalbad,precisionBad,recallBad,FBad,accuracy)
c additional predictionFinallLBD 14 185852 59991 0.32 1.00 0.49 2237 128098 0.99 0.02 0.03 0.33 (nbgoodclauses,nbtotalgood,precisionGood,recallGood,FGood,nbbadclause,nbtotalbad,precisionBad,recallBad,FBad,accuracy)
c additional predictionFinallLBD 18 187120 59991 0.32 1.00 0.49 969 128098 0.99 0.01 0.01 0.32 (nbgoodclauses,nbtotalgood,precisionGood,recallGood,FGood,nbbadclause,nbtotalbad,precisionBad,recallBad,FBad,accuracy)
c additional predictionFinallLBD 22 187597 59991 0.32 1.00 0.48 492 128098 1.00 0.00 0.01 0.32 (nbgoodclauses,nbtotalgood,precisionGood,recallGood,FGood,nbbadclause,nbtotalbad,precisionBad,recallBad,FBad,accuracy)
c additional predictionFinallLBD 30 187937 59991 0.32 1.00 0.48 152 128098 1.00 0.00 0.00 0.32 (nbgoodclauses,nbtotalgood,precisionGood,recallGood,FGood,nbbadclause,nbtotalbad,precisionBad,recallBad,FBad,accuracy)
c additional predictionFinallLBD 40 188034 59991 0.32 1.00 0.48 55 128098 1.00 0.00 0.00 0.32 (nbgoodclauses,nbtotalgood,precisionGood,recallGood,FGood,nbbadclause,nbtotalbad,precisionBad,recallBad,FBad,accuracy)
c additional predictionSize 1 333 59991 0.96 0.01 0.01 187756 128098 0.68 2.14 1.03 0.68 (nbgoodclauses,nbtotalgood,precisionGood,recallGood,FGood,nbbadclause,nbtotalbad,precisionBad,recallBad,FBad,accuracy)
c additional predictionSize 2 7829 59991 0.91 0.12 0.21 180260 128098 0.71 2.12 1.06 0.72 (nbgoodclauses,nbtotalgood,precisionGood,recallGood,FGood,nbbadclause,nbtotalbad,precisionBad,recallBad,FBad,accuracy)
c additional predictionSize 3 36443 59991 0.75 0.46 0.57 151646 128098 0.79 1.98 1.12 0.78 (nbgoodclauses,nbtotalgood,precisionGood,recallGood,FGood,nbbadclause,nbtotalbad,precisionBad,recallBad,FBad,accuracy)
c additional predictionSize 4 60238 59991 0.62 0.63 0.62 127851 128098 0.82 1.76 1.12 0.76 (nbgoodclauses,nbtotalgood,precisionGood,recallGood,FGood,nbbadclause,nbtotalbad,precisionBad,recallBad,FBad,accuracy)
c additional predictionSize 5 81238 59991 0.55 0.74 0.63 106851 128098 0.86 1.52 1.10 0.72 (nbgoodclauses,nbtotalgood,precisionGood,recallGood,FGood,nbbadclause,nbtotalbad,precisionBad,recallBad,FBad,accuracy)
c additional predictionSize 6 94519 59991 0.50 0.79 0.61 93570 128098 0.87 1.35 1.05 0.68 (nbgoodclauses,nbtotalgood,precisionGood,recallGood,FGood,nbbadclause,nbtotalbad,precisionBad,recallBad,FBad,accuracy)
c additional predictionSize 7 104438 59991 0.47 0.82 0.60 83651 128098 0.87 1.22 1.02 0.65 (nbgoodclauses,nbtotalgood,precisionGood,recallGood,FGood,nbbadclause,nbtotalbad,precisionBad,recallBad,FBad,accuracy)
c additional predictionSize 8 112618 59991 0.45 0.84 0.59 75471 128098 0.88 1.10 0.98 0.62 (nbgoodclauses,nbtotalgood,precisionGood,recallGood,FGood,nbbadclause,nbtotalbad,precisionBad,recallBad,FBad,accuracy)
c additional predictionSize 10 124965 59991 0.42 0.88 0.57 63124 128098 0.88 0.93 0.90 0.58 (nbgoodclauses,nbtotalgood,precisionGood,recallGood,FGood,nbbadclause,nbtotalbad,precisionBad,recallBad,FBad,accuracy)
c additional predictionSize 14 142304 59991 0.39 0.92 0.54 45785 128098 0.89 0.68 0.77 0.51 (nbgoodclauses,nbtotalgood,precisionGood,recallGood,FGood,nbbadclause,nbtotalbad,precisionBad,recallBad,FBad,accuracy)
c additional predictionSize 18 154271 59991 0.37 0.94 0.53 33818 128098 0.90 0.51 0.65 0.46 (nbgoodclauses,nbtotalgood,precisionGood,recallGood,FGood,nbbadclause,nbtotalbad,precisionBad,recallBad,FBad,accuracy)
c additional predictionSize 22 162536 59991 0.35 0.96 0.52 25553 128098 0.91 0.39 0.54 0.43 (nbgoodclauses,nbtotalgood,precisionGood,recallGood,FGood,nbbadclause,nbtotalbad,precisionBad,recallBad,FBad,accuracy)
c additional predictionSize 30 172733 59991 0.34 0.98 0.50 15356 128098 0.92 0.24 0.37 0.39 (nbgoodclauses,nbtotalgood,precisionGood,recallGood,FGood,nbbadclause,nbtotalbad,precisionBad,recallBad,FBad,accuracy)
c additional predictionSize 40 179380 59991 0.33 0.99 0.50 8709 128098 0.94 0.14 0.24 0.36 (nbgoodclauses,nbtotalgood,precisionGood,recallGood,FGood,nbbadclause,nbtotalbad,precisionBad,recallBad,FBad,accuracy)
c additional predictionAge 1 29310 59991 0.45 0.22 0.29 158779 128098 0.70 1.87 1.02 0.66 (nbgoodclauses,nbtotalgood,precisionGood,recallGood,FGood,nbbadclause,nbtotalbad,precisionBad,recallBad,FBad,accuracy)
c additional predictionAge 10 33956 59991 0.42 0.24 0.30 154133 128098 0.70 1.81 1.01 0.65 (nbgoodclauses,nbtotalgood,precisionGood,recallGood,FGood,nbbadclause,nbtotalbad,precisionBad,recallBad,FBad,accuracy)
c additional predictionAge 25 35162 59991 0.41 0.24 0.31 152927 128098 0.70 1.79 1.01 0.65 (nbgoodclauses,nbtotalgood,precisionGood,recallGood,FGood,nbbadclause,nbtotalbad,precisionBad,recallBad,FBad,accuracy)
c additional predictionAge 50 36060 59991 0.41 0.25 0.31 152029 128098 0.70 1.78 1.01 0.65 (nbgoodclauses,nbtotalgood,precisionGood,recallGood,FGood,nbbadclause,nbtotalbad,precisionBad,recallBad,FBad,accuracy)
c additional predictionAge 100 36944 59991 0.41 0.25 0.31 151145 128098 0.70 1.77 1.01 0.64 (nbgoodclauses,nbtotalgood,precisionGood,recallGood,FGood,nbbadclause,nbtotalbad,precisionBad,recallBad,FBad,accuracy)
c additional predictionAge 250 38045 59991 0.41 0.26 0.32 150044 128098 0.70 1.76 1.00 0.64 (nbgoodclauses,nbtotalgood,precisionGood,recallGood,FGood,nbbadclause,nbtotalbad,precisionBad,recallBad,FBad,accuracy)
c additional predictionAge 500 39063 59991 0.41 0.26 0.32 149026 128098 0.70 1.75 1.00 0.64 (nbgoodclauses,nbtotalgood,precisionGood,recallGood,FGood,nbbadclause,nbtotalbad,precisionBad,recallBad,FBad,accuracy)
c additional predictionAge 1000 40512 59991 0.40 0.27 0.33 147577 128098 0.70 1.73 1.00 0.64 (nbgoodclauses,nbtotalgood,precisionGood,recallGood,FGood,nbbadclause,nbtotalbad,precisionBad,recallBad,FBad,accuracy)
c additional predictionAge 2500 43749 59991 0.40 0.29 0.34 144340 128098 0.71 1.70 1.00 0.63 (nbgoodclauses,nbtotalgood,precisionGood,recallGood,FGood,nbbadclause,nbtotalbad,precisionBad,recallBad,FBad,accuracy)
c additional predictionAge 5000 47559 59991 0.40 0.31 0.35 140530 128098 0.71 1.66 0.99 0.63 (nbgoodclauses,nbtotalgood,precisionGood,recallGood,FGood,nbbadclause,nbtotalbad,precisionBad,recallBad,FBad,accuracy)
c additional predictionAge 10000 55276 59991 0.39 0.36 0.37 132813 128098 0.71 1.57 0.98 0.62 (nbgoodclauses,nbtotalgood,precisionGood,recallGood,FGood,nbbadclause,nbtotalbad,precisionBad,recallBad,FBad,accuracy)
c additional predictionAge 25000 71848 59991 0.37 0.45 0.41 116241 128098 0.71 1.38 0.94 0.58 (nbgoodclauses,nbtotalgood,precisionGood,recallGood,FGood,nbbadclause,nbtotalbad,precisionBad,recallBad,FBad,accuracy)
c additional predictionAge 50000 96102 59991 0.36 0.57 0.44 91987 128098 0.72 1.11 0.87 0.54 (nbgoodclauses,nbtotalgood,precisionGood,recallGood,FGood,nbbadclause,nbtotalbad,precisionBad,recallBad,FBad,accuracy)
c additional predictionAge 100000 139846 59991 0.34 0.79 0.47 48243 128098 0.74 0.60 0.66 0.44 (nbgoodclauses,nbtotalgood,precisionGood,recallGood,FGood,nbbadclause,nbtotalbad,precisionBad,recallBad,FBad,accuracy)
c additional predictionTicks 1 29327 59991 0.45 0.22 0.29 158762 128098 0.70 1.87 1.02 0.66 (nbgoodclauses,nbtotalgood,precisionGood,recallGood,FGood,nbbadclause,nbtotalbad,precisionBad,recallBad,FBad,accuracy)
c additional predictionTicks 10 48358 59991 0.41 0.33 0.36 139731 128098 0.71 1.66 1.00 0.63 (nbgoodclauses,nbtotalgood,precisionGood,recallGood,FGood,nbbadclause,nbtotalbad,precisionBad,recallBad,FBad,accuracy)
c additional predictionTicks 25 54928 59991 0.40 0.37 0.39 133161 128098 0.72 1.59 0.99 0.63 (nbgoodclauses,nbtotalgood,precisionGood,recallGood,FGood,nbbadclause,nbtotalbad,precisionBad,recallBad,FBad,accuracy)
c additional predictionTicks 50 60520 59991 0.40 0.41 0.40 127569 128098 0.72 1.53 0.98 0.62 (nbgoodclauses,nbtotalgood,precisionGood,recallGood,FGood,nbbadclause,nbtotalbad,precisionBad,recallBad,FBad,accuracy)
c additional predictionTicks 100 65461 59991 0.40 0.44 0.42 122628 128098 0.73 1.48 0.97 0.61 (nbgoodclauses,nbtotalgood,precisionGood,recallGood,FGood,nbbadclause,nbtotalbad,precisionBad,recallBad,FBad,accuracy)
c additional predictionTicks 250 71960 59991 0.40 0.48 0.44 116129 128098 0.73 1.42 0.97 0.61 (nbgoodclauses,nbtotalgood,precisionGood,recallGood,FGood,nbbadclause,nbtotalbad,precisionBad,recallBad,FBad,accuracy)
c additional predictionTicks 500 77690 59991 0.40 0.52 0.45 110399 128098 0.74 1.36 0.96 0.60 (nbgoodclauses,nbtotalgood,precisionGood,recallGood,FGood,nbbadclause,nbtotalbad,precisionBad,recallBad,FBad,accuracy)
c additional predictionTicks 1000 84446 59991 0.40 0.56 0.47 103643 128098 0.75 1.29 0.94 0.59 (nbgoodclauses,nbtotalgood,precisionGood,recallGood,FGood,nbbadclause,nbtotalbad,precisionBad,recallBad,FBad,accuracy)
c additional predictionTicks 2500 98521 59991 0.39 0.64 0.49 89568 128098 0.76 1.13 0.91 0.57 (nbgoodclauses,nbtotalgood,precisionGood,recallGood,FGood,nbbadclause,nbtotalbad,precisionBad,recallBad,FBad,accuracy)
c additional predictionTicks 5000 115077 59991 0.38 0.73 0.50 73012 128098 0.77 0.94 0.85 0.53 (nbgoodclauses,nbtotalgood,precisionGood,recallGood,FGood,nbbadclause,nbtotalbad,precisionBad,recallBad,FBad,accuracy)
c additional predictionTicks 10000 138305 59991 0.36 0.84 0.51 49784 128098 0.80 0.67 0.73 0.48 (nbgoodclauses,nbtotalgood,precisionGood,recallGood,FGood,nbbadclause,nbtotalbad,precisionBad,recallBad,FBad,accuracy)
c additional predictionTicks 25000 168125 59991 0.34 0.94 0.50 19964 128098 0.83 0.27 0.41 0.39 (nbgoodclauses,nbtotalgood,precisionGood,recallGood,FGood,nbbadclause,nbtotalbad,precisionBad,recallBad,FBad,accuracy)
c additional predictionTicks 50000 181907 59991 0.32 0.98 0.49 6182 128098 0.83 0.09 0.16 0.34 (nbgoodclauses,nbtotalgood,precisionGood,recallGood,FGood,nbbadclause,nbtotalbad,precisionBad,recallBad,FBad,accuracy)
c additional predictionTicks 100000 187450 59991 0.32 1.00 0.48 639 128098 0.83 0.01 0.02 0.32 (nbgoodclauses,nbtotalgood,precisionGood,recallGood,FGood,nbbadclause,nbtotalbad,precisionBad,recallBad,FBad,accuracy)
c additional lifetimeGood 1 2 14 202 5800 26455 69585 108294 126997 156995 188137 188166 (0,1,5,10,25,50,75,90,95,99,100-1,100)
c additional lifetimeBad 1 2 8 106 6723 30043 73208 112028 131878 156046 187659 187739 (0,1,5,10,25,50,75,90,95,99,100-1,100)
c additional lifetimeBadBad 1 2 2 2 8 2003 23192 60874 89540 129181 186449 186675 (0,1,5,10,25,50,75,90,95,99,100-1,100)
c additional compositionBad 1 2 3 4 7 15 34 70 108 213 2193 3019 (0,1,5,10,25,50,75,90,95,99,100-1,100)
c additional compositionBadWithGood 0 0 0 0 1 3 9 22 34 72 361 530 (0,1,5,10,25,50,75,90,95,99,100-1,100)
c additional compositionBadWithBad 0 0 0 0 0 1 2 4 7 13 156 196 (0,1,5,10,25,50,75,90,95,99,100-1,100)
c additional compositionBadWithInitial 0 1 2 2 5 10 22 45 69 141 1737 2502 (0,1,5,10,25,50,75,90,95,99,100-1,100)
c additional compositionGood 1 2 2 2 4 7 14 34 60 150 691 837 (0,1,5,10,25,50,75,90,95,99,100-1,100)
c additional compositionGoodWithGood 0 0 0 0 1 2 6 14 25 60 321 385 (0,1,5,10,25,50,75,90,95,99,100-1,100)
c additional compositionGoodWithInitial 0 0 1 1 2 4 9 20 35 99 583 594 (0,1,5,10,25,50,75,90,95,99,100-1,100)
c additional propagationGood total 8289905 percentiles 0 1 1 2 9 52 169 383 584 1061 2606 2748 (0,1,5,10,25,50,75,90,95,99,100-1,100)
c additional propagationBad total 1510372 percentiles 1 1 1 1 1 2 8 28 54 147 2072 2088 (0,1,5,10,25,50,75,90,95,99,100-1,100)
c additional resolutionGood total 1276224 percentiles 0 1 1 1 3 9 26 54 81 159 596 680 (0,1,5,10,25,50,75,90,95,99,100-1,100)
c additional resolutionBad total 221852 percentiles 0 0 0 0 0 1 2 4 7 16 99 131 (0,1,5,10,25,50,75,90,95,99,100-1,100)
No graph is dumped
c =========================================================================================================
c result of core 0 is UNSAT
c One thread has finished
c Core 0 said it finished
c result of core 1 is UNKNOWN
c restarts              : 280 (335 conflicts in avg)
c blocked restarts      : 522 (multiple: 106) 
c last block at restart : 276
c nb ReduceDB           : 6
c nb removed Clauses    : 78906
c nb learnts DL2        : 14595
c nb learnts size 2     : 3744
c nb learnts size 1     : 143
c conflicts             : 94045          (3014 /sec)
c decisions             : 611623         (0.00 % random) (19603 /sec)
c propagations          : 31508894       (1009892 /sec)
c conflict literals     : 1135225        (6.98 % deleted)
c nb reduced Clauses    : 1770
c CPU time              : 31.2003 s

s INDETERMINATE
