c
c This is glucose-proof 1.0 based on  2.1 --  (thanks to MiniSAT)
c
c EXPERIMENTAL EASY PARALLEL (ROUND ROBIN) VERSION
c
c WARNING: for repeatability, setting FPU to use double precision
c Parallel version 14 solvers created.
c ========================================[ Problem Statistics ]===========================================
c |                                                                                                       |
c |  Number of variables:          9868                                                                   |
c |  Number of clauses:          105644                                                                   |
c |  Parse time:                   0.37 s                                                                 |
c |                                                                                                       |
c ========================================[ MAGIC CONSTANTS ]==============================================
c | Constants are supposed to work well together :-)                                                      |
c | however, if you find better choices, please let us known...                                           |
c |-------------------------------------------------------------------------------------------------------|
c |                                |                                |                                     |
c | - Restarts:                    | - Reduce Clause DB:            | - Minimize Asserting:               |
c |   * LBD Queue    :     50      |   * First     :   4000         |    * size <  30                     |
c |   * Trail  Queue :   5000      |   * Inc       :    300         |    * lbd  <   6                     |
c |   * K            :   0.80      |   * Special   :   1000         |                                     |
c |   * R            :   1.40      |   * Protected :  (lbd)< 30     |                                     |
c |                                |                                |                                     |
c ==================================[ Search Statistics (every  10000 conflicts) ]=========================
c |                                                                                                       |
c |          RESTARTS           |          ORIGINAL         |              LEARNT              | Progress |
c |       NB   Blocked  Avg Cfc |    Vars  Clauses Literals |   Red   Learnts    LBD2  Removed |          |
c =========================================================================================================
c |       88         0      113 |    9868   105644   334132 |     1     8005       25     2126 |  0.000 % |
c |       98        41      204 |    9867   105644   334132 |     3     6955       28    13803 |  0.010 % |
c |       98       176      306 |    9867   105644   334132 |     3    16955       28    13803 |  0.010 % |
c |       98       241      408 |    9867   105644   334132 |     4    17684       28    23353 |  0.010 % |
c |      109       309      458 |    9864   105644   334132 |     5    13209       28    35576 |  0.041 % |
c |      164       374      365 |    9862   105644   334132 |     5    21809       28    35576 |  0.061 % |
c |      187       447      374 |    9862   105644   334132 |     6    19451       29    48391 |  0.061 % |
c |      187       456      427 |    9862   105644   334132 |     6    29451       30    48391 |  0.061 % |
c |      187       463      481 |    9862   105644   334132 |     7    23460       31    64974 |  0.061 % |
c |      247       520      404 |    9861   105644   334132 |     7    33460       31    64974 |  0.071 % |
c |      247       554      445 |    9861   105644   334132 |     8    24394       33    84717 |  0.071 % |
c |      282       599      425 |    9861   105644   334132 |     8    34394       33    84717 |  0.071 % |
c |      326       647      398 |    9861   105644   334132 |     9    22405       34   107482 |  0.071 % |
c |      351       729      398 |    9861   105644   334132 |     9    32405       36   107482 |  0.071 % |
c |      427       791      351 |    9861   105644   334132 |     9    42405       37   107482 |  0.071 % |
c |      546       860      293 |    9861   105644   334132 |    10    27758       37   132959 |  0.071 % |
c |      616       906      275 |    9861   105644   334132 |    10    37758       37   132959 |  0.071 % |
c |      616      1005      292 |    9861   105644   334132 |    10    47758       37   132959 |  0.071 % |
c |      667      1049      284 |    9861   105644   334132 |    11    30402       38   161291 |  0.071 % |
c |      686      1112      291 |    9861   105644   334132 |    11    40402       38   161291 |  0.071 % |
c |      722      1192      290 |    9861   105644   334132 |    11    50402       39   161291 |  0.071 % |
c empty clause found by core 9 at conflict 210726
*
c checking the resolution graph...OK
c All useful bySize 91969 clauses, percentiles 0 2 2 2 2 15 114 119 121 135 176 177 (0,1,5,10,25,50,75,90,95,99,100-1,100)
c All useless bySize 2964057 clauses, percentiles 0 2 15 42 104 118 127 170 229 316 1426 1453 (0,1,5,10,25,50,75,90,95,99,100-1,100)
c ProofOnly useful bySize 44692 clauses, percentiles 0 4 17 28 55 115 118 121 124 141 176 177 (0,1,5,10,25,50,75,90,95,99,100-1,100)
c ProofOnly useless bySize 2905468 clauses, percentiles 2 6 28 48 110 119 127 172 231 318 1426 1453 (0,1,5,10,25,50,75,90,95,99,100-1,100)
c All useful byFinalLBD 91969 clauses, percentiles 0 2 2 2 2 5 33 39 42 101 121 123 (0,1,5,10,25,50,75,90,95,99,100-1,100)
c All useless byFinalLBD 2964057 clauses, percentiles 0 2 6 20 42 72 114 119 128 167 544 562 (0,1,5,10,25,50,75,90,95,99,100-1,100)
c ProofOnly useful byFinalLBD 44692 clauses, percentiles 0 2 3 4 7 33 39 42 49 116 121 123 (0,1,5,10,25,50,75,90,95,99,100-1,100)
c ProofOnly useless byFinalLBD 2905468 clauses, percentiles 1 4 11 25 43 73 114 119 129 168 544 562 (0,1,5,10,25,50,75,90,95,99,100-1,100)
c All useful byInitialLBD 91969 clauses, percentiles 0 2 2 2 2 6 36 40 45 107 122 123 (0,1,5,10,25,50,75,90,95,99,100-1,100)
c All useless byInitialLBD 2964057 clauses, percentiles 0 2 7 23 43 74 114 119 129 167 544 562 (0,1,5,10,25,50,75,90,95,99,100-1,100)
c ProofOnly useful byInitialLBD 44692 clauses, percentiles 0 3 4 5 17 37 40 45 53 116 122 123 (0,1,5,10,25,50,75,90,95,99,100-1,100)
c ProofOnly useless byInitialLBD 2905468 clauses, percentiles 2 4 14 28 45 75 115 119 129 168 544 562 (0,1,5,10,25,50,75,90,95,99,100-1,100)
c Literals ProofOnly useful 4074184
c Literals ProofOnly useless 349586923
c additional windowsGood 1 1 1 1 1 1 1 1 1 1 3 3 (0,1,5,10,25,50,75,90,95,99,100-1,100)
c additional windowsBad 1 6 13 13 13 13 41 139 265 825 7321 8511 (0,1,5,10,25,50,75,90,95,99,100-1,100)
c additional 1WindowNoDecision 44662 21716 0.49 6 2 0.33 (nbWindowsGood,nbWindowsNoDecisionGood,nbWindowsBad,nbWindowsNoDecisionBad
c additional topclausessize all (10%,5%,1%,top) 123.90 128.09 142.90 177
c additional topclausessize proofonly (10%,5%,1%,top) 125.54 130.38 144.98 177
c additional topclausesinitialLBD all (10%,5%,1%,top) 122.80 126.63 141.22 177
c additional topclausesinitialLBD proofonly (10%,5%,1%,top) 121.99 125.55 139.57 177
c additional topclausesfinalLBD all (10%,5%,1%,top) 120.68 123.95 136.45 177
c additional topclausesfinalLBD proofonly (10%,5%,1%,top) 120.18 123.38 135.20 177
c additional predictionInitialLBD 1 18 44692 1.00 0.00 0.00 2950142 2905468 0.98 65.01 1.94 0.98 (nbgoodclauses,nbtotalgood,precisionGood,recallGood,FGood,nbbadclause,nbtotalbad,precisionBad,recallBad,FBad,accuracy)
c additional predictionInitialLBD 2 643 44692 0.44 0.01 0.01 2949517 2905468 0.98 65.00 1.94 0.98 (nbgoodclauses,nbtotalgood,precisionGood,recallGood,FGood,nbbadclause,nbtotalbad,precisionBad,recallBad,FBad,accuracy)
c additional predictionInitialLBD 3 9211 44692 0.09 0.02 0.03 2940949 2905468 0.99 64.82 1.94 0.98 (nbgoodclauses,nbtotalgood,precisionGood,recallGood,FGood,nbbadclause,nbtotalbad,precisionBad,recallBad,FBad,accuracy)
c additional predictionInitialLBD 4 32754 44692 0.07 0.05 0.06 2917406 2905468 0.99 64.33 1.94 0.98 (nbgoodclauses,nbtotalgood,precisionGood,recallGood,FGood,nbbadclause,nbtotalbad,precisionBad,recallBad,FBad,accuracy)
c additional predictionInitialLBD 5 66152 44692 0.07 0.11 0.09 2884008 2905468 0.99 63.64 1.94 0.97 (nbgoodclauses,nbtotalgood,precisionGood,recallGood,FGood,nbbadclause,nbtotalbad,precisionBad,recallBad,FBad,accuracy)
c additional predictionInitialLBD 6 92750 44692 0.07 0.15 0.10 2857410 2905468 0.99 63.09 1.94 0.96 (nbgoodclauses,nbtotalgood,precisionGood,recallGood,FGood,nbbadclause,nbtotalbad,precisionBad,recallBad,FBad,accuracy)
c additional predictionInitialLBD 7 109470 44692 0.07 0.18 0.10 2840690 2905468 0.99 62.74 1.94 0.95 (nbgoodclauses,nbtotalgood,precisionGood,recallGood,FGood,nbbadclause,nbtotalbad,precisionBad,recallBad,FBad,accuracy)
c additional predictionInitialLBD 8 120914 44692 0.07 0.19 0.10 2829246 2905468 0.99 62.50 1.94 0.95 (nbgoodclauses,nbtotalgood,precisionGood,recallGood,FGood,nbbadclause,nbtotalbad,precisionBad,recallBad,FBad,accuracy)
c additional predictionInitialLBD 10 136674 44692 0.07 0.21 0.10 2813486 2905468 0.99 62.16 1.94 0.94 (nbgoodclauses,nbtotalgood,precisionGood,recallGood,FGood,nbbadclause,nbtotalbad,precisionBad,recallBad,FBad,accuracy)
c additional predictionInitialLBD 14 164738 44692 0.06 0.23 0.10 2785422 2905468 0.99 61.56 1.94 0.94 (nbgoodclauses,nbtotalgood,precisionGood,recallGood,FGood,nbbadclause,nbtotalbad,precisionBad,recallBad,FBad,accuracy)
c additional predictionInitialLBD 18 211644 44692 0.05 0.26 0.09 2738516 2905468 0.99 60.53 1.94 0.92 (nbgoodclauses,nbtotalgood,precisionGood,recallGood,FGood,nbbadclause,nbtotalbad,precisionBad,recallBad,FBad,accuracy)
c additional predictionInitialLBD 22 246830 44692 0.05 0.27 0.08 2703330 2905468 0.99 59.76 1.94 0.91 (nbgoodclauses,nbtotalgood,precisionGood,recallGood,FGood,nbbadclause,nbtotalbad,precisionBad,recallBad,FBad,accuracy)
c additional predictionInitialLBD 30 344526 44692 0.05 0.37 0.09 2605634 2905468 0.99 57.67 1.95 0.88 (nbgoodclauses,nbtotalgood,precisionGood,recallGood,FGood,nbbadclause,nbtotalbad,precisionBad,recallBad,FBad,accuracy)
c additional predictionInitialLBD 40 608668 44692 0.06 0.80 0.11 2341492 2905468 1.00 52.19 1.95 0.80 (nbgoodclauses,nbtotalgood,precisionGood,recallGood,FGood,nbbadclause,nbtotalbad,precisionBad,recallBad,FBad,accuracy)
c additional predictionFinallLBD 1 1536 44692 0.11 0.00 0.01 2948624 2905468 0.98 1.00 0.99 0.98 (nbgoodclauses,nbtotalgood,precisionGood,recallGood,FGood,nbbadclause,nbtotalbad,precisionBad,recallBad,FBad,accuracy)
c additional predictionFinallLBD 2 10402 44692 0.16 0.04 0.06 2939758 2905468 0.99 1.00 0.99 0.98 (nbgoodclauses,nbtotalgood,precisionGood,recallGood,FGood,nbbadclause,nbtotalbad,precisionBad,recallBad,FBad,accuracy)
c additional predictionFinallLBD 3 29344 44692 0.14 0.09 0.11 2920816 2905468 0.99 0.99 0.99 0.98 (nbgoodclauses,nbtotalgood,precisionGood,recallGood,FGood,nbbadclause,nbtotalbad,precisionBad,recallBad,FBad,accuracy)
c additional predictionFinallLBD 4 59411 44692 0.12 0.16 0.14 2890749 2905468 0.99 0.98 0.98 0.97 (nbgoodclauses,nbtotalgood,precisionGood,recallGood,FGood,nbbadclause,nbtotalbad,precisionBad,recallBad,FBad,accuracy)
c additional predictionFinallLBD 5 92185 44692 0.10 0.21 0.14 2857975 2905468 0.99 0.97 0.98 0.96 (nbgoodclauses,nbtotalgood,precisionGood,recallGood,FGood,nbbadclause,nbtotalbad,precisionBad,recallBad,FBad,accuracy)
c additional predictionFinallLBD 6 116590 44692 0.09 0.25 0.14 2833570 2905468 0.99 0.96 0.98 0.95 (nbgoodclauses,nbtotalgood,precisionGood,recallGood,FGood,nbbadclause,nbtotalbad,precisionBad,recallBad,FBad,accuracy)
c additional predictionFinallLBD 7 130998 44692 0.09 0.26 0.13 2819162 2905468 0.99 0.96 0.97 0.95 (nbgoodclauses,nbtotalgood,precisionGood,recallGood,FGood,nbbadclause,nbtotalbad,precisionBad,recallBad,FBad,accuracy)
c additional predictionFinallLBD 8 141573 44692 0.09 0.27 0.13 2808587 2905468 0.99 0.96 0.97 0.95 (nbgoodclauses,nbtotalgood,precisionGood,recallGood,FGood,nbbadclause,nbtotalbad,precisionBad,recallBad,FBad,accuracy)
c additional predictionFinallLBD 10 157004 44692 0.08 0.28 0.13 2793156 2905468 0.99 0.95 0.97 0.94 (nbgoodclauses,nbtotalgood,precisionGood,recallGood,FGood,nbbadclause,nbtotalbad,precisionBad,recallBad,FBad,accuracy)
c additional predictionFinallLBD 14 191721 44692 0.07 0.31 0.12 2758439 2905468 0.99 0.94 0.96 0.93 (nbgoodclauses,nbtotalgood,precisionGood,recallGood,FGood,nbbadclause,nbtotalbad,precisionBad,recallBad,FBad,accuracy)
c additional predictionFinallLBD 18 238024 44692 0.06 0.32 0.10 2712136 2905468 0.99 0.92 0.95 0.91 (nbgoodclauses,nbtotalgood,precisionGood,recallGood,FGood,nbbadclause,nbtotalbad,precisionBad,recallBad,FBad,accuracy)
c additional predictionFinallLBD 22 275614 44692 0.06 0.34 0.10 2674546 2905468 0.99 0.91 0.95 0.90 (nbgoodclauses,nbtotalgood,precisionGood,recallGood,FGood,nbbadclause,nbtotalbad,precisionBad,recallBad,FBad,accuracy)
c additional predictionFinallLBD 30 379915 44692 0.05 0.44 0.09 2570245 2905468 0.99 0.88 0.93 0.87 (nbgoodclauses,nbtotalgood,precisionGood,recallGood,FGood,nbbadclause,nbtotalbad,precisionBad,recallBad,FBad,accuracy)
c additional predictionFinallLBD 40 655786 44692 0.06 0.86 0.11 2294374 2905468 1.00 0.79 0.88 0.79 (nbgoodclauses,nbtotalgood,precisionGood,recallGood,FGood,nbbadclause,nbtotalbad,precisionBad,recallBad,FBad,accuracy)
c additional predictionSize 1 18 44692 1.00 0.00 0.00 2950142 2905468 0.98 65.01 1.94 0.98 (nbgoodclauses,nbtotalgood,precisionGood,recallGood,FGood,nbbadclause,nbtotalbad,precisionBad,recallBad,FBad,accuracy)
c additional predictionSize 2 335 44692 0.68 0.01 0.01 2949825 2905468 0.98 65.01 1.94 0.98 (nbgoodclauses,nbtotalgood,precisionGood,recallGood,FGood,nbbadclause,nbtotalbad,precisionBad,recallBad,FBad,accuracy)
c additional predictionSize 3 4426 44692 0.06 0.01 0.01 2945734 2905468 0.98 64.92 1.94 0.98 (nbgoodclauses,nbtotalgood,precisionGood,recallGood,FGood,nbbadclause,nbtotalbad,precisionBad,recallBad,FBad,accuracy)
c additional predictionSize 4 13379 44692 0.04 0.01 0.02 2936781 2905468 0.98 64.72 1.94 0.98 (nbgoodclauses,nbtotalgood,precisionGood,recallGood,FGood,nbbadclause,nbtotalbad,precisionBad,recallBad,FBad,accuracy)
c additional predictionSize 5 22277 44692 0.03 0.02 0.02 2927883 2905468 0.98 64.53 1.94 0.98 (nbgoodclauses,nbtotalgood,precisionGood,recallGood,FGood,nbbadclause,nbtotalbad,precisionBad,recallBad,FBad,accuracy)
c additional predictionSize 6 36219 44692 0.02 0.02 0.02 2913941 2905468 0.98 64.22 1.94 0.97 (nbgoodclauses,nbtotalgood,precisionGood,recallGood,FGood,nbbadclause,nbtotalbad,precisionBad,recallBad,FBad,accuracy)
c additional predictionSize 7 56756 44692 0.02 0.02 0.02 2893404 2905468 0.98 63.76 1.94 0.97 (nbgoodclauses,nbtotalgood,precisionGood,recallGood,FGood,nbbadclause,nbtotalbad,precisionBad,recallBad,FBad,accuracy)
c additional predictionSize 8 67359 44692 0.02 0.03 0.02 2882801 2905468 0.98 63.53 1.94 0.96 (nbgoodclauses,nbtotalgood,precisionGood,recallGood,FGood,nbbadclause,nbtotalbad,precisionBad,recallBad,FBad,accuracy)
c additional predictionSize 10 76866 44692 0.02 0.03 0.02 2873294 2905468 0.98 63.32 1.94 0.96 (nbgoodclauses,nbtotalgood,precisionGood,recallGood,FGood,nbbadclause,nbtotalbad,precisionBad,recallBad,FBad,accuracy)
c additional predictionSize 14 90994 44692 0.02 0.04 0.03 2859166 2905468 0.99 63.02 1.94 0.96 (nbgoodclauses,nbtotalgood,precisionGood,recallGood,FGood,nbbadclause,nbtotalbad,precisionBad,recallBad,FBad,accuracy)
c additional predictionSize 18 107090 44692 0.02 0.06 0.03 2843070 2905468 0.99 62.67 1.94 0.95 (nbgoodclauses,nbtotalgood,precisionGood,recallGood,FGood,nbbadclause,nbtotalbad,precisionBad,recallBad,FBad,accuracy)
c additional predictionSize 22 125230 44692 0.03 0.07 0.04 2824930 2905468 0.99 62.28 1.94 0.94 (nbgoodclauses,nbtotalgood,precisionGood,recallGood,FGood,nbbadclause,nbtotalbad,precisionBad,recallBad,FBad,accuracy)
c additional predictionSize 30 164579 44692 0.03 0.12 0.05 2785581 2905468 0.99 61.45 1.94 0.93 (nbgoodclauses,nbtotalgood,precisionGood,recallGood,FGood,nbbadclause,nbtotalbad,precisionBad,recallBad,FBad,accuracy)
c additional predictionSize 40 228968 44692 0.03 0.17 0.06 2721192 2905468 0.99 60.06 1.94 0.91 (nbgoodclauses,nbtotalgood,precisionGood,recallGood,FGood,nbbadclause,nbtotalbad,precisionBad,recallBad,FBad,accuracy)
c additional predictionAge 1 103636 44692 0.03 0.07 0.04 2846524 2905468 0.99 62.76 1.94 0.95 (nbgoodclauses,nbtotalgood,precisionGood,recallGood,FGood,nbbadclause,nbtotalbad,precisionBad,recallBad,FBad,accuracy)
c additional predictionAge 10 103638 44692 0.03 0.07 0.04 2846522 2905468 0.99 62.76 1.94 0.95 (nbgoodclauses,nbtotalgood,precisionGood,recallGood,FGood,nbbadclause,nbtotalbad,precisionBad,recallBad,FBad,accuracy)
c additional predictionAge 25 155822 44692 0.03 0.09 0.04 2794338 2905468 0.99 61.62 1.94 0.93 (nbgoodclauses,nbtotalgood,precisionGood,recallGood,FGood,nbbadclause,nbtotalbad,precisionBad,recallBad,FBad,accuracy)
c additional predictionAge 50 178593 44692 0.02 0.10 0.04 2771567 2905468 0.99 61.11 1.94 0.93 (nbgoodclauses,nbtotalgood,precisionGood,recallGood,FGood,nbbadclause,nbtotalbad,precisionBad,recallBad,FBad,accuracy)
c additional predictionAge 100 197478 44692 0.02 0.11 0.04 2752682 2905468 0.99 60.70 1.94 0.92 (nbgoodclauses,nbtotalgood,precisionGood,recallGood,FGood,nbbadclause,nbtotalbad,precisionBad,recallBad,FBad,accuracy)
c additional predictionAge 250 221527 44692 0.02 0.12 0.04 2728633 2905468 0.99 60.17 1.94 0.91 (nbgoodclauses,nbtotalgood,precisionGood,recallGood,FGood,nbbadclause,nbtotalbad,precisionBad,recallBad,FBad,accuracy)
c additional predictionAge 500 243044 44692 0.02 0.13 0.04 2707116 2905468 0.99 59.70 1.94 0.91 (nbgoodclauses,nbtotalgood,precisionGood,recallGood,FGood,nbbadclause,nbtotalbad,precisionBad,recallBad,FBad,accuracy)
c additional predictionAge 1000 264943 44692 0.02 0.14 0.04 2685217 2905468 0.99 59.22 1.94 0.90 (nbgoodclauses,nbtotalgood,precisionGood,recallGood,FGood,nbbadclause,nbtotalbad,precisionBad,recallBad,FBad,accuracy)
c additional predictionAge 2500 299816 44692 0.02 0.16 0.04 2650344 2905468 0.99 58.46 1.94 0.89 (nbgoodclauses,nbtotalgood,precisionGood,recallGood,FGood,nbbadclause,nbtotalbad,precisionBad,recallBad,FBad,accuracy)
c additional predictionAge 5000 335331 44692 0.02 0.17 0.04 2614829 2905468 0.99 57.68 1.94 0.88 (nbgoodclauses,nbtotalgood,precisionGood,recallGood,FGood,nbbadclause,nbtotalbad,precisionBad,recallBad,FBad,accuracy)
c additional predictionAge 10000 380281 44692 0.02 0.20 0.04 2569879 2905468 0.99 56.70 1.94 0.86 (nbgoodclauses,nbtotalgood,precisionGood,recallGood,FGood,nbbadclause,nbtotalbad,precisionBad,recallBad,FBad,accuracy)
c additional predictionAge 25000 447907 44692 0.02 0.23 0.04 2502253 2905468 0.99 55.22 1.94 0.84 (nbgoodclauses,nbtotalgood,precisionGood,recallGood,FGood,nbbadclause,nbtotalbad,precisionBad,recallBad,FBad,accuracy)
c additional predictionAge 50000 501868 44692 0.02 0.25 0.04 2448292 2905468 0.99 54.03 1.94 0.82 (nbgoodclauses,nbtotalgood,precisionGood,recallGood,FGood,nbbadclause,nbtotalbad,precisionBad,recallBad,FBad,accuracy)
c additional predictionAge 100000 576551 44692 0.02 0.27 0.04 2373609 2905468 0.99 52.38 1.94 0.80 (nbgoodclauses,nbtotalgood,precisionGood,recallGood,FGood,nbbadclause,nbtotalbad,precisionBad,recallBad,FBad,accuracy)
c additional predictionTicks 1 246026 44692 0.02 0.14 0.04 2704134 2905468 0.99 59.64 1.94 0.91 (nbgoodclauses,nbtotalgood,precisionGood,recallGood,FGood,nbbadclause,nbtotalbad,precisionBad,recallBad,FBad,accuracy)
c additional predictionTicks 10 360380 44692 0.02 0.20 0.04 2589780 2905468 0.99 57.14 1.94 0.87 (nbgoodclauses,nbtotalgood,precisionGood,recallGood,FGood,nbbadclause,nbtotalbad,precisionBad,recallBad,FBad,accuracy)
c additional predictionTicks 25 642237 44692 0.02 0.31 0.04 2307923 2905468 0.99 50.95 1.94 0.78 (nbgoodclauses,nbtotalgood,precisionGood,recallGood,FGood,nbbadclause,nbtotalbad,precisionBad,recallBad,FBad,accuracy)
c additional predictionTicks 50 861512 44692 0.02 0.39 0.04 2088648 2905468 0.99 46.13 1.93 0.70 (nbgoodclauses,nbtotalgood,precisionGood,recallGood,FGood,nbbadclause,nbtotalbad,precisionBad,recallBad,FBad,accuracy)
c additional predictionTicks 100 1100535 44692 0.02 0.48 0.04 1849625 2905468 0.99 40.86 1.93 0.63 (nbgoodclauses,nbtotalgood,precisionGood,recallGood,FGood,nbbadclause,nbtotalbad,precisionBad,recallBad,FBad,accuracy)
c additional predictionTicks 250 1349886 44692 0.02 0.56 0.04 1600274 2905468 0.99 35.36 1.92 0.54 (nbgoodclauses,nbtotalgood,precisionGood,recallGood,FGood,nbbadclause,nbtotalbad,precisionBad,recallBad,FBad,accuracy)
c additional predictionTicks 500 1524357 44692 0.02 0.61 0.03 1425803 2905468 0.99 31.51 1.92 0.49 (nbgoodclauses,nbtotalgood,precisionGood,recallGood,FGood,nbbadclause,nbtotalbad,precisionBad,recallBad,FBad,accuracy)
c additional predictionTicks 1000 1681682 44692 0.02 0.67 0.03 1268478 2905468 0.99 28.05 1.91 0.44 (nbgoodclauses,nbtotalgood,precisionGood,recallGood,FGood,nbbadclause,nbtotalbad,precisionBad,recallBad,FBad,accuracy)
c additional predictionTicks 2500 1893487 44692 0.02 0.74 0.03 1056673 2905468 0.99 23.38 1.90 0.37 (nbgoodclauses,nbtotalgood,precisionGood,recallGood,FGood,nbbadclause,nbtotalbad,precisionBad,recallBad,FBad,accuracy)
c additional predictionTicks 5000 2052256 44692 0.02 0.79 0.03 897904 2905468 0.99 19.89 1.89 0.31 (nbgoodclauses,nbtotalgood,precisionGood,recallGood,FGood,nbbadclause,nbtotalbad,precisionBad,recallBad,FBad,accuracy)
c additional predictionTicks 10000 2196950 44692 0.02 0.84 0.03 753210 2905468 0.99 16.70 1.87 0.27 (nbgoodclauses,nbtotalgood,precisionGood,recallGood,FGood,nbbadclause,nbtotalbad,precisionBad,recallBad,FBad,accuracy)
c additional predictionTicks 25000 2359773 44692 0.02 0.89 0.03 590387 2905468 0.99 13.10 1.84 0.21 (nbgoodclauses,nbtotalgood,precisionGood,recallGood,FGood,nbbadclause,nbtotalbad,precisionBad,recallBad,FBad,accuracy)
c additional predictionTicks 50000 2479892 44692 0.02 0.92 0.03 470268 2905468 0.99 10.45 1.81 0.17 (nbgoodclauses,nbtotalgood,precisionGood,recallGood,FGood,nbbadclause,nbtotalbad,precisionBad,recallBad,FBad,accuracy)
c additional predictionTicks 100000 2608701 44692 0.02 0.95 0.03 341459 2905468 0.99 7.59 1.76 0.13 (nbgoodclauses,nbtotalgood,precisionGood,recallGood,FGood,nbbadclause,nbtotalbad,precisionBad,recallBad,FBad,accuracy)
c additional lifetimeGood 14 14 14 28 3010 359157 1308351 2011609 2369596 2719804 2946086 2946492 (0,1,5,10,25,50,75,90,95,99,100-1,100)
c additional lifetimeBad 1 14 14 28 2660 210311 1073337 1813080 2210779 2701254 2949249 2949277 (0,1,5,10,25,50,75,90,95,99,100-1,100)
c additional lifetimeBadBad 4 14 14 14 196 19404 332038 1105117 1571163 2310000 2949249 2949277 (0,1,5,10,25,50,75,90,95,99,100-1,100)
c additional compositionBad 1 3 6 9 17 26 44 73 112 804 1941 1957 (0,1,5,10,25,50,75,90,95,99,100-1,100)
c additional compositionBadWithGood 0 0 0 0 1 2 3 4 4 6 87 90 (0,1,5,10,25,50,75,90,95,99,100-1,100)
c additional compositionBadWithBad 0 0 0 0 1 2 4 7 12 35 187 218 (0,1,5,10,25,50,75,90,95,99,100-1,100)
c additional compositionBadWithInitial 0 1 3 6 13 22 38 63 96 770 1895 1900 (0,1,5,10,25,50,75,90,95,99,100-1,100)
c additional compositionGood 1 3 5 8 13 21 30 45 57 101 1569 1574 (0,1,5,10,25,50,75,90,95,99,100-1,100)
c additional compositionGoodWithGood 0 0 0 1 2 3 5 7 9 14 64 73 (0,1,5,10,25,50,75,90,95,99,100-1,100)
c additional compositionGoodWithInitial 0 1 3 6 10 18 26 39 49 84 1563 1568 (0,1,5,10,25,50,75,90,95,99,100-1,100)
c additional propagationGood total 1806875 percentiles 0 1 1 1 2 5 18 69 153 843 4367 5424 (0,1,5,10,25,50,75,90,95,99,100-1,100)
c additional propagationBad total 31551337 percentiles 1 1 1 1 1 2 5 16 35 161 11170 11204 (0,1,5,10,25,50,75,90,95,99,100-1,100)
c additional resolutionGood total 546964 percentiles 0 1 1 1 1 3 8 22 46 190 1430 2168 (0,1,5,10,25,50,75,90,95,99,100-1,100)
c additional resolutionBad total 11159768 percentiles 0 0 0 0 1 1 3 7 12 42 5579 7344 (0,1,5,10,25,50,75,90,95,99,100-1,100)
No graph is dumped
c result of core 9 is UNSAT
c One thread has finished
c Core 9 said it finished
c result of core 0 is UNKNOWN
c result of core 2 is UNKNOWN
c result of core 1 is UNKNOWN
c result of core 4 is UNKNOWN
c result of core 5 is UNKNOWN
c result of core 3 is UNKNOWN
c result of core 6 is UNKNOWN
c result of core 11 is UNKNOWN
c result of core 13 is UNKNOWN
c result of core 12 is UNKNOWN
c result of core 10 is UNKNOWN
c result of core 8 is UNKNOWN
c result of core 7 is UNKNOWN
c restarts              : 724 (291 conflicts in avg)
c blocked restarts      : 1197 (multiple: 125) 
c last block at restart : 722
c nb ReduceDB           : 11
c nb removed Clauses    : 161291
c nb learnts DL2        : 39
c nb learnts size 2     : 23
c nb learnts size 1     : 0
c conflicts             : 210726         (313 /sec)
c decisions             : 1250121        (0.00 % random) (1856 /sec)
c propagations          : 69582830       (103281 /sec)
c conflict literals     : 29896100       (1.38 % deleted)
c nb reduced Clauses    : 160
c CPU time              : 673.725 s

s INDETERMINATE
