c
c This is glucose-proof 1.0 based on  2.1 --  (thanks to MiniSAT)
c
c EXPERIMENTAL EASY PARALLEL (ROUND ROBIN) VERSION
c
c WARNING: for repeatability, setting FPU to use double precision
c Parallel version 6 solvers created.
c ========================================[ Problem Statistics ]===========================================
c |                                                                                                       |
c |  Number of variables:         35876                                                                   |
c |  Number of clauses:          487093                                                                   |
c |  Parse time:                   0.66 s                                                                 |
c |                                                                                                       |
c ========================================[ MAGIC CONSTANTS ]==============================================
c | Constants are supposed to work well together :-)                                                      |
c | however, if you find better choices, please let us known...                                           |
c |-------------------------------------------------------------------------------------------------------|
c |                                |                                |                                     |
c | - Restarts:                    | - Reduce Clause DB:            | - Minimize Asserting:               |
c |   * LBD Queue    :     50      |   * First     :   4000         |    * size <  30                     |
c |   * Trail  Queue :   5000      |   * Inc       :    300         |    * lbd  <   6                     |
c |   * K            :   0.80      |   * Special   :   1000         |                                     |
c |   * R            :   1.40      |   * Protected :  (lbd)< 30     |                                     |
c |                                |                                |                                     |
c ==================================[ Search Statistics (every  10000 conflicts) ]=========================
c |                                                                                                       |
c |          RESTARTS           |          ORIGINAL         |              LEARNT              | Progress |
c |       NB   Blocked  Avg Cfc |    Vars  Clauses Literals |   Red   Learnts    LBD2  Removed |          |
c =========================================================================================================
c |       73         0      136 |   32241   487093  1134983 |     1     7869      353     2362 | 10.132 % |
c |      132         6      151 |   31192   487093  1134983 |     3     6859      610    14267 | 13.056 % |
c |      192        18      156 |   30210   487093  1134983 |     3    16728      819    14267 | 15.793 % |
c empty clause found by core 0 at conflict 38065
*
c checking the resolution graph...OK
c All useful bySize 265716 clauses, percentiles 0 2 2 2 2 2 4 94 683 3135 9344 9413 (0,1,5,10,25,50,75,90,95,99,100-1,100)
c All useless bySize 454807 clauses, percentiles 0 0 2 2 2 2 447 2464 3601 5932 9980 10138 (0,1,5,10,25,50,75,90,95,99,100-1,100)
c ProofOnly useful bySize 59583 clauses, percentiles 0 1 2 3 10 64 513 2154 2989 5246 9344 9413 (0,1,5,10,25,50,75,90,95,99,100-1,100)
c ProofOnly useless bySize 168802 clauses, percentiles 2 6 28 68 271 1093 2595 4095 5141 6935 9980 10138 (0,1,5,10,25,50,75,90,95,99,100-1,100)
c All useful byFinalLBD 265716 clauses, percentiles 0 1 2 2 2 2 2 5 15 103 1697 1697 (0,1,5,10,25,50,75,90,95,99,100-1,100)
c All useless byFinalLBD 454807 clauses, percentiles 0 0 2 2 2 2 18 101 219 713 3791 5019 (0,1,5,10,25,50,75,90,95,99,100-1,100)
c ProofOnly useful byFinalLBD 59583 clauses, percentiles 0 1 1 1 2 3 8 35 90 412 1697 1697 (0,1,5,10,25,50,75,90,95,99,100-1,100)
c ProofOnly useless byFinalLBD 168802 clauses, percentiles 1 2 3 5 13 36 112 285 489 1122 3791 5019 (0,1,5,10,25,50,75,90,95,99,100-1,100)
c All useful byInitialLBD 265716 clauses, percentiles 0 2 2 2 2 2 3 12 32 209 2128 2134 (0,1,5,10,25,50,75,90,95,99,100-1,100)
c All useless byInitialLBD 454807 clauses, percentiles 0 0 2 2 2 2 22 114 239 747 3791 5019 (0,1,5,10,25,50,75,90,95,99,100-1,100)
c ProofOnly useful byInitialLBD 59583 clauses, percentiles 0 1 2 2 4 8 24 85 184 607 2128 2134 (0,1,5,10,25,50,75,90,95,99,100-1,100)
c ProofOnly useless byInitialLBD 168802 clauses, percentiles 2 3 5 8 16 43 125 310 523 1153 3791 5019 (0,1,5,10,25,50,75,90,95,99,100-1,100)
c Literals ProofOnly useful 34820419
c Literals ProofOnly useless 280029461
c additional windowsGood 1 1 1 1 1 1 2 2 3 4 10 10 (0,1,5,10,25,50,75,90,95,99,100-1,100)
c additional windowsBad 1 1 1 1 1 3 5 7 11 20 98 135 (0,1,5,10,25,50,75,90,95,99,100-1,100)
c additional 1WindowNoDecision 32497 18955 0.58 11782 6500 0.55 (nbWindowsGood,nbWindowsNoDecisionGood,nbWindowsBad,nbWindowsNoDecisionBad
c additional topclausessize all (10%,5%,1%,top) 1281.60 2287.45 4520.62 9413
c additional topclausessize proofonly (10%,5%,1%,top) 1965.47 3033.92 5185.98 9413
c additional topclausesinitialLBD all (10%,5%,1%,top) 1180.47 2123.28 4374.70 9413
c additional topclausesinitialLBD proofonly (10%,5%,1%,top) 1097.85 1982.17 4243.51 9413
c additional topclausesfinalLBD all (10%,5%,1%,top) 804.89 1507.05 3788.93 9413
c additional topclausesfinalLBD proofonly (10%,5%,1%,top) 765.90 1434.70 3707.22 9413
c additional predictionInitialLBD 1 1016 59583 1.00 0.02 0.03 227369 168802 0.74 2.83 1.18 0.74 (nbgoodclauses,nbtotalgood,precisionGood,recallGood,FGood,nbbadclause,nbtotalbad,precisionBad,recallBad,FBad,accuracy)
c additional predictionInitialLBD 2 7208 59583 0.92 0.11 0.20 221177 168802 0.76 2.82 1.20 0.77 (nbgoodclauses,nbtotalgood,precisionGood,recallGood,FGood,nbbadclause,nbtotalbad,precisionBad,recallBad,FBad,accuracy)
c additional predictionInitialLBD 3 16159 59583 0.84 0.23 0.36 212226 168802 0.78 2.79 1.22 0.79 (nbgoodclauses,nbtotalgood,precisionGood,recallGood,FGood,nbbadclause,nbtotalbad,precisionBad,recallBad,FBad,accuracy)
c additional predictionInitialLBD 4 24073 59583 0.76 0.31 0.44 204312 168802 0.80 2.74 1.24 0.79 (nbgoodclauses,nbtotalgood,precisionGood,recallGood,FGood,nbbadclause,nbtotalbad,precisionBad,recallBad,FBad,accuracy)
c additional predictionInitialLBD 5 31608 59583 0.71 0.38 0.49 196777 168802 0.81 2.68 1.25 0.80 (nbgoodclauses,nbtotalgood,precisionGood,recallGood,FGood,nbbadclause,nbtotalbad,precisionBad,recallBad,FBad,accuracy)
c additional predictionInitialLBD 6 38519 59583 0.67 0.43 0.53 189866 168802 0.82 2.62 1.25 0.80 (nbgoodclauses,nbtotalgood,precisionGood,recallGood,FGood,nbbadclause,nbtotalbad,precisionBad,recallBad,FBad,accuracy)
c additional predictionInitialLBD 7 45040 59583 0.63 0.48 0.55 183345 168802 0.83 2.56 1.25 0.79 (nbgoodclauses,nbtotalgood,precisionGood,recallGood,FGood,nbbadclause,nbtotalbad,precisionBad,recallBad,FBad,accuracy)
c additional predictionInitialLBD 8 51020 59583 0.61 0.52 0.56 177365 168802 0.84 2.50 1.26 0.79 (nbgoodclauses,nbtotalgood,precisionGood,recallGood,FGood,nbbadclause,nbtotalbad,precisionBad,recallBad,FBad,accuracy)
c additional predictionInitialLBD 10 61245 59583 0.56 0.58 0.57 167140 168802 0.85 2.38 1.25 0.77 (nbgoodclauses,nbtotalgood,precisionGood,recallGood,FGood,nbbadclause,nbtotalbad,precisionBad,recallBad,FBad,accuracy)
c additional predictionInitialLBD 14 77537 59583 0.50 0.65 0.57 150848 168802 0.86 2.18 1.24 0.74 (nbgoodclauses,nbtotalgood,precisionGood,recallGood,FGood,nbbadclause,nbtotalbad,precisionBad,recallBad,FBad,accuracy)
c additional predictionInitialLBD 18 90694 59583 0.46 0.70 0.56 137691 168802 0.87 2.02 1.22 0.71 (nbgoodclauses,nbtotalgood,precisionGood,recallGood,FGood,nbbadclause,nbtotalbad,precisionBad,recallBad,FBad,accuracy)
c additional predictionInitialLBD 22 101115 59583 0.44 0.74 0.55 127270 168802 0.88 1.88 1.20 0.68 (nbgoodclauses,nbtotalgood,precisionGood,recallGood,FGood,nbbadclause,nbtotalbad,precisionBad,recallBad,FBad,accuracy)
c additional predictionInitialLBD 30 116770 59583 0.40 0.79 0.53 111615 168802 0.89 1.66 1.16 0.64 (nbgoodclauses,nbtotalgood,precisionGood,recallGood,FGood,nbbadclause,nbtotalbad,precisionBad,recallBad,FBad,accuracy)
c additional predictionInitialLBD 40 131189 59583 0.37 0.83 0.52 97196 168802 0.89 1.46 1.11 0.60 (nbgoodclauses,nbtotalgood,precisionGood,recallGood,FGood,nbbadclause,nbtotalbad,precisionBad,recallBad,FBad,accuracy)
c additional predictionFinallLBD 1 12903 59583 0.89 0.19 0.32 215482 168802 0.78 0.99 0.87 0.78 (nbgoodclauses,nbtotalgood,precisionGood,recallGood,FGood,nbbadclause,nbtotalbad,precisionBad,recallBad,FBad,accuracy)
c additional predictionFinallLBD 2 29977 59583 0.85 0.43 0.57 198408 168802 0.83 0.97 0.89 0.83 (nbgoodclauses,nbtotalgood,precisionGood,recallGood,FGood,nbbadclause,nbtotalbad,precisionBad,recallBad,FBad,accuracy)
c additional predictionFinallLBD 3 42194 59583 0.79 0.56 0.65 186191 168802 0.86 0.95 0.90 0.85 (nbgoodclauses,nbtotalgood,precisionGood,recallGood,FGood,nbbadclause,nbtotalbad,precisionBad,recallBad,FBad,accuracy)
c additional predictionFinallLBD 4 51089 59583 0.74 0.64 0.68 177296 168802 0.88 0.92 0.90 0.85 (nbgoodclauses,nbtotalgood,precisionGood,recallGood,FGood,nbbadclause,nbtotalbad,precisionBad,recallBad,FBad,accuracy)
c additional predictionFinallLBD 5 57817 59583 0.70 0.68 0.69 170568 168802 0.89 0.90 0.89 0.84 (nbgoodclauses,nbtotalgood,precisionGood,recallGood,FGood,nbbadclause,nbtotalbad,precisionBad,recallBad,FBad,accuracy)
c additional predictionFinallLBD 6 63643 59583 0.67 0.71 0.69 164742 168802 0.90 0.87 0.89 0.83 (nbgoodclauses,nbtotalgood,precisionGood,recallGood,FGood,nbbadclause,nbtotalbad,precisionBad,recallBad,FBad,accuracy)
c additional predictionFinallLBD 7 68951 59583 0.64 0.74 0.68 159434 168802 0.90 0.85 0.88 0.82 (nbgoodclauses,nbtotalgood,precisionGood,recallGood,FGood,nbbadclause,nbtotalbad,precisionBad,recallBad,FBad,accuracy)
c additional predictionFinallLBD 8 73945 59583 0.61 0.76 0.68 154440 168802 0.91 0.83 0.87 0.81 (nbgoodclauses,nbtotalgood,precisionGood,recallGood,FGood,nbbadclause,nbtotalbad,precisionBad,recallBad,FBad,accuracy)
c additional predictionFinallLBD 10 82709 59583 0.57 0.79 0.66 145676 168802 0.91 0.79 0.85 0.79 (nbgoodclauses,nbtotalgood,precisionGood,recallGood,FGood,nbbadclause,nbtotalbad,precisionBad,recallBad,FBad,accuracy)
c additional predictionFinallLBD 14 96728 59583 0.51 0.82 0.63 131657 168802 0.92 0.72 0.81 0.75 (nbgoodclauses,nbtotalgood,precisionGood,recallGood,FGood,nbbadclause,nbtotalbad,precisionBad,recallBad,FBad,accuracy)
c additional predictionFinallLBD 18 107841 59583 0.47 0.85 0.60 120544 168802 0.93 0.66 0.77 0.71 (nbgoodclauses,nbtotalgood,precisionGood,recallGood,FGood,nbbadclause,nbtotalbad,precisionBad,recallBad,FBad,accuracy)
c additional predictionFinallLBD 22 116619 59583 0.44 0.87 0.59 111766 168802 0.93 0.61 0.74 0.68 (nbgoodclauses,nbtotalgood,precisionGood,recallGood,FGood,nbbadclause,nbtotalbad,precisionBad,recallBad,FBad,accuracy)
c additional predictionFinallLBD 30 130245 59583 0.41 0.89 0.56 98140 168802 0.93 0.54 0.69 0.63 (nbgoodclauses,nbtotalgood,precisionGood,recallGood,FGood,nbbadclause,nbtotalbad,precisionBad,recallBad,FBad,accuracy)
c additional predictionFinallLBD 40 142956 59583 0.38 0.91 0.53 85429 168802 0.94 0.47 0.63 0.59 (nbgoodclauses,nbtotalgood,precisionGood,recallGood,FGood,nbbadclause,nbtotalbad,precisionBad,recallBad,FBad,accuracy)
c additional predictionSize 1 1016 59583 1.00 0.02 0.03 227369 168802 0.74 2.83 1.18 0.74 (nbgoodclauses,nbtotalgood,precisionGood,recallGood,FGood,nbbadclause,nbtotalbad,precisionBad,recallBad,FBad,accuracy)
c additional predictionSize 2 3530 59583 0.99 0.06 0.11 224855 168802 0.75 2.83 1.19 0.75 (nbgoodclauses,nbtotalgood,precisionGood,recallGood,FGood,nbbadclause,nbtotalbad,precisionBad,recallBad,FBad,accuracy)
c additional predictionSize 3 7062 59583 0.93 0.11 0.20 221323 168802 0.76 2.82 1.20 0.77 (nbgoodclauses,nbtotalgood,precisionGood,recallGood,FGood,nbbadclause,nbtotalbad,precisionBad,recallBad,FBad,accuracy)
c additional predictionSize 4 10647 59583 0.91 0.16 0.28 217738 168802 0.77 2.82 1.21 0.78 (nbgoodclauses,nbtotalgood,precisionGood,recallGood,FGood,nbbadclause,nbtotalbad,precisionBad,recallBad,FBad,accuracy)
c additional predictionSize 5 12957 59583 0.89 0.19 0.32 215428 168802 0.78 2.81 1.22 0.78 (nbgoodclauses,nbtotalgood,precisionGood,recallGood,FGood,nbbadclause,nbtotalbad,precisionBad,recallBad,FBad,accuracy)
c additional predictionSize 6 14347 59583 0.87 0.21 0.34 214038 168802 0.78 2.80 1.22 0.79 (nbgoodclauses,nbtotalgood,precisionGood,recallGood,FGood,nbbadclause,nbtotalbad,precisionBad,recallBad,FBad,accuracy)
c additional predictionSize 7 15587 59583 0.85 0.22 0.35 212798 168802 0.78 2.79 1.22 0.79 (nbgoodclauses,nbtotalgood,precisionGood,recallGood,FGood,nbbadclause,nbtotalbad,precisionBad,recallBad,FBad,accuracy)
c additional predictionSize 8 16656 59583 0.84 0.23 0.37 211729 168802 0.78 2.79 1.22 0.79 (nbgoodclauses,nbtotalgood,precisionGood,recallGood,FGood,nbbadclause,nbtotalbad,precisionBad,recallBad,FBad,accuracy)
c additional predictionSize 10 18549 59583 0.82 0.25 0.39 209836 168802 0.79 2.78 1.23 0.79 (nbgoodclauses,nbtotalgood,precisionGood,recallGood,FGood,nbbadclause,nbtotalbad,precisionBad,recallBad,FBad,accuracy)
c additional predictionSize 14 21678 59583 0.79 0.29 0.42 206707 168802 0.79 2.76 1.23 0.79 (nbgoodclauses,nbtotalgood,precisionGood,recallGood,FGood,nbbadclause,nbtotalbad,precisionBad,recallBad,FBad,accuracy)
c additional predictionSize 18 25152 59583 0.76 0.32 0.45 203233 168802 0.80 2.73 1.24 0.80 (nbgoodclauses,nbtotalgood,precisionGood,recallGood,FGood,nbbadclause,nbtotalbad,precisionBad,recallBad,FBad,accuracy)
c additional predictionSize 22 27988 59583 0.75 0.35 0.48 200397 168802 0.81 2.71 1.24 0.80 (nbgoodclauses,nbtotalgood,precisionGood,recallGood,FGood,nbbadclause,nbtotalbad,precisionBad,recallBad,FBad,accuracy)
c additional predictionSize 30 32834 59583 0.72 0.40 0.51 195551 168802 0.82 2.68 1.25 0.80 (nbgoodclauses,nbtotalgood,precisionGood,recallGood,FGood,nbbadclause,nbtotalbad,precisionBad,recallBad,FBad,accuracy)
c additional predictionSize 40 37251 59583 0.69 0.43 0.53 191134 168802 0.82 2.64 1.26 0.80 (nbgoodclauses,nbtotalgood,precisionGood,recallGood,FGood,nbbadclause,nbtotalbad,precisionBad,recallBad,FBad,accuracy)
c additional predictionAge 1 11257 59583 0.75 0.14 0.24 217128 168802 0.76 2.79 1.20 0.76 (nbgoodclauses,nbtotalgood,precisionGood,recallGood,FGood,nbbadclause,nbtotalbad,precisionBad,recallBad,FBad,accuracy)
c additional predictionAge 10 11480 59583 0.74 0.14 0.24 216905 168802 0.76 2.78 1.20 0.76 (nbgoodclauses,nbtotalgood,precisionGood,recallGood,FGood,nbbadclause,nbtotalbad,precisionBad,recallBad,FBad,accuracy)
c additional predictionAge 25 13868 59583 0.65 0.15 0.24 214517 168802 0.76 2.75 1.20 0.76 (nbgoodclauses,nbtotalgood,precisionGood,recallGood,FGood,nbbadclause,nbtotalbad,precisionBad,recallBad,FBad,accuracy)
c additional predictionAge 50 14968 59583 0.62 0.16 0.25 213417 168802 0.76 2.74 1.19 0.75 (nbgoodclauses,nbtotalgood,precisionGood,recallGood,FGood,nbbadclause,nbtotalbad,precisionBad,recallBad,FBad,accuracy)
c additional predictionAge 100 15892 59583 0.60 0.16 0.25 212493 168802 0.76 2.73 1.19 0.75 (nbgoodclauses,nbtotalgood,precisionGood,recallGood,FGood,nbbadclause,nbtotalbad,precisionBad,recallBad,FBad,accuracy)
c additional predictionAge 250 17019 59583 0.58 0.17 0.26 211366 168802 0.76 2.71 1.19 0.75 (nbgoodclauses,nbtotalgood,precisionGood,recallGood,FGood,nbbadclause,nbtotalbad,precisionBad,recallBad,FBad,accuracy)
c additional predictionAge 500 17657 59583 0.57 0.17 0.26 210728 168802 0.77 2.71 1.19 0.75 (nbgoodclauses,nbtotalgood,precisionGood,recallGood,FGood,nbbadclause,nbtotalbad,precisionBad,recallBad,FBad,accuracy)
c additional predictionAge 1000 18284 59583 0.56 0.17 0.27 210101 168802 0.77 2.70 1.19 0.75 (nbgoodclauses,nbtotalgood,precisionGood,recallGood,FGood,nbbadclause,nbtotalbad,precisionBad,recallBad,FBad,accuracy)
c additional predictionAge 2500 19867 59583 0.55 0.18 0.27 208518 168802 0.77 2.68 1.19 0.75 (nbgoodclauses,nbtotalgood,precisionGood,recallGood,FGood,nbbadclause,nbtotalbad,precisionBad,recallBad,FBad,accuracy)
c additional predictionAge 5000 22420 59583 0.52 0.20 0.29 205965 168802 0.77 2.65 1.19 0.74 (nbgoodclauses,nbtotalgood,precisionGood,recallGood,FGood,nbbadclause,nbtotalbad,precisionBad,recallBad,FBad,accuracy)
c additional predictionAge 10000 27493 59583 0.49 0.22 0.31 200892 168802 0.77 2.60 1.19 0.74 (nbgoodclauses,nbtotalgood,precisionGood,recallGood,FGood,nbbadclause,nbtotalbad,precisionBad,recallBad,FBad,accuracy)
c additional predictionAge 25000 41837 59583 0.41 0.29 0.34 186548 168802 0.77 2.42 1.17 0.71 (nbgoodclauses,nbtotalgood,precisionGood,recallGood,FGood,nbbadclause,nbtotalbad,precisionBad,recallBad,FBad,accuracy)
c additional predictionAge 50000 65377 59583 0.35 0.39 0.37 163008 168802 0.78 2.12 1.14 0.66 (nbgoodclauses,nbtotalgood,precisionGood,recallGood,FGood,nbbadclause,nbtotalbad,precisionBad,recallBad,FBad,accuracy)
c additional predictionAge 100000 111022 59583 0.30 0.57 0.40 117363 168802 0.78 1.54 1.03 0.55 (nbgoodclauses,nbtotalgood,precisionGood,recallGood,FGood,nbbadclause,nbtotalbad,precisionBad,recallBad,FBad,accuracy)
c additional predictionTicks 1 12000 59583 0.75 0.15 0.25 216385 168802 0.77 2.78 1.20 0.77 (nbgoodclauses,nbtotalgood,precisionGood,recallGood,FGood,nbbadclause,nbtotalbad,precisionBad,recallBad,FBad,accuracy)
c additional predictionTicks 10 21804 59583 0.62 0.23 0.33 206581 168802 0.78 2.70 1.21 0.76 (nbgoodclauses,nbtotalgood,precisionGood,recallGood,FGood,nbbadclause,nbtotalbad,precisionBad,recallBad,FBad,accuracy)
c additional predictionTicks 25 40353 59583 0.47 0.32 0.38 188032 168802 0.78 2.48 1.19 0.73 (nbgoodclauses,nbtotalgood,precisionGood,recallGood,FGood,nbbadclause,nbtotalbad,precisionBad,recallBad,FBad,accuracy)
c additional predictionTicks 50 52370 59583 0.43 0.38 0.40 176015 168802 0.79 2.33 1.18 0.71 (nbgoodclauses,nbtotalgood,precisionGood,recallGood,FGood,nbbadclause,nbtotalbad,precisionBad,recallBad,FBad,accuracy)
c additional predictionTicks 100 65513 59583 0.40 0.44 0.42 162872 168802 0.80 2.17 1.17 0.68 (nbgoodclauses,nbtotalgood,precisionGood,recallGood,FGood,nbbadclause,nbtotalbad,precisionBad,recallBad,FBad,accuracy)
c additional predictionTicks 250 83890 59583 0.37 0.52 0.43 144495 168802 0.80 1.94 1.14 0.64 (nbgoodclauses,nbtotalgood,precisionGood,recallGood,FGood,nbbadclause,nbtotalbad,precisionBad,recallBad,FBad,accuracy)
c additional predictionTicks 500 96679 59583 0.35 0.57 0.44 131706 168802 0.81 1.78 1.11 0.61 (nbgoodclauses,nbtotalgood,precisionGood,recallGood,FGood,nbbadclause,nbtotalbad,precisionBad,recallBad,FBad,accuracy)
c additional predictionTicks 1000 109409 59583 0.34 0.62 0.44 118976 168802 0.81 1.62 1.08 0.59 (nbgoodclauses,nbtotalgood,precisionGood,recallGood,FGood,nbbadclause,nbtotalbad,precisionBad,recallBad,FBad,accuracy)
c additional predictionTicks 2500 129706 59583 0.32 0.70 0.44 98679 168802 0.82 1.36 1.02 0.54 (nbgoodclauses,nbtotalgood,precisionGood,recallGood,FGood,nbbadclause,nbtotalbad,precisionBad,recallBad,FBad,accuracy)
c additional predictionTicks 5000 149421 59583 0.31 0.78 0.44 78964 168802 0.83 1.10 0.95 0.49 (nbgoodclauses,nbtotalgood,precisionGood,recallGood,FGood,nbbadclause,nbtotalbad,precisionBad,recallBad,FBad,accuracy)
c additional predictionTicks 10000 172642 59583 0.29 0.85 0.44 55743 168802 0.84 0.79 0.81 0.43 (nbgoodclauses,nbtotalgood,precisionGood,recallGood,FGood,nbbadclause,nbtotalbad,precisionBad,recallBad,FBad,accuracy)
c additional predictionTicks 25000 203196 59583 0.28 0.94 0.43 25189 168802 0.86 0.36 0.51 0.34 (nbgoodclauses,nbtotalgood,precisionGood,recallGood,FGood,nbbadclause,nbtotalbad,precisionBad,recallBad,FBad,accuracy)
c additional predictionTicks 50000 219822 59583 0.27 0.98 0.42 8563 168802 0.86 0.12 0.22 0.29 (nbgoodclauses,nbtotalgood,precisionGood,recallGood,FGood,nbbadclause,nbtotalbad,precisionBad,recallBad,FBad,accuracy)
c additional predictionTicks 100000 227012 59583 0.26 1.00 0.41 1373 168802 0.88 0.02 0.04 0.27 (nbgoodclauses,nbtotalgood,precisionGood,recallGood,FGood,nbbadclause,nbtotalbad,precisionBad,recallBad,FBad,accuracy)
c additional lifetimeGood 1 743 7551 16697 45023 92281 143919 185823 202118 220785 233414 233417 (0,1,5,10,25,50,75,90,95,99,100-1,100)
c additional lifetimeBad 1 535 6859 15021 40478 85556 139417 181216 199812 221243 233408 233415 (0,1,5,10,25,50,75,90,95,99,100-1,100)
c additional lifetimeBadBad 1 6 6 6 18 4517 38916 82192 109780 165512 231444 231477 (0,1,5,10,25,50,75,90,95,99,100-1,100)
c additional compositionBad 1 5 14 38 309 1248 2803 4918 7055 13137 24046 24273 (0,1,5,10,25,50,75,90,95,99,100-1,100)
c additional compositionBadWithGood 0 0 1 2 22 99 252 467 652 1163 2797 2880 (0,1,5,10,25,50,75,90,95,99,100-1,100)
c additional compositionBadWithBad 0 0 0 0 0 1 2 5 7 23 147 151 (0,1,5,10,25,50,75,90,95,99,100-1,100)
c additional compositionBadWithInitial 0 3 11 33 280 1136 2536 4448 6412 12146 23249 23481 (0,1,5,10,25,50,75,90,95,99,100-1,100)
c additional compositionGood 1 3 4 5 10 120 997 2793 4428 12890 23747 25852 (0,1,5,10,25,50,75,90,95,99,100-1,100)
c additional compositionGoodWithGood 0 0 0 0 1 13 95 285 467 1072 2678 2717 (0,1,5,10,25,50,75,90,95,99,100-1,100)
c additional compositionGoodWithInitial 0 2 3 5 9 106 897 2501 3974 11815 22889 24707 (0,1,5,10,25,50,75,90,95,99,100-1,100)
c additional propagationGood total 34520641 percentiles 0 1 1 1 4 39 242 1224 3316 9977 25361 27114 (0,1,5,10,25,50,75,90,95,99,100-1,100)
c additional propagationBad total 1244276 percentiles 1 1 1 1 1 2 3 9 22 115 2217 2557 (0,1,5,10,25,50,75,90,95,99,100-1,100)
c additional resolutionGood total 6347880 percentiles 0 0 1 1 3 12 57 244 581 1643 4158 4335 (0,1,5,10,25,50,75,90,95,99,100-1,100)
c additional resolutionBad total 381205 percentiles 0 0 0 0 1 1 2 4 6 24 428 446 (0,1,5,10,25,50,75,90,95,99,100-1,100)
No graph is dumped
c =========================================================================================================
c result of core 0 is UNSAT
c One thread has finished
c Core 0 said it finished
c result of core 1 is UNKNOWN
c result of core 5 is UNKNOWN
c result of core 3 is UNKNOWN
c result of core 2 is UNKNOWN
c result of core 4 is UNKNOWN
c restarts              : 243 (156 conflicts in avg)
c blocked restarts      : 41 (multiple: 24) 
c last block at restart : 242
c nb ReduceDB           : 4
c nb removed Clauses    : 23881
c nb learnts DL2        : 1002
c nb learnts size 2     : 402
c nb learnts size 1     : 187
c conflicts             : 38065          (12 /sec)
c decisions             : 995372         (0.00 % random) (315 /sec)
c propagations          : 123687010      (39185 /sec)
c conflict literals     : 52340224       (7.14 % deleted)
c nb reduced Clauses    : 175
c CPU time              : 3156.52 s

s INDETERMINATE
