c
c This is glucose-proof 1.0 based on  2.1 --  (thanks to MiniSAT)
c
c EXPERIMENTAL EASY PARALLEL (ROUND ROBIN) VERSION
c
c WARNING: for repeatability, setting FPU to use double precision
c Parallel version 6 solvers created.
c ========================================[ Problem Statistics ]===========================================
c |                                                                                                       |
c |  Number of variables:         35977                                                                   |
c |  Number of clauses:          483723                                                                   |
c |  Parse time:                   0.87 s                                                                 |
c |                                                                                                       |
c ========================================[ MAGIC CONSTANTS ]==============================================
c | Constants are supposed to work well together :-)                                                      |
c | however, if you find better choices, please let us known...                                           |
c |-------------------------------------------------------------------------------------------------------|
c |                                |                                |                                     |
c | - Restarts:                    | - Reduce Clause DB:            | - Minimize Asserting:               |
c |   * LBD Queue    :     50      |   * First     :   4000         |    * size <  30                     |
c |   * Trail  Queue :   5000      |   * Inc       :    300         |    * lbd  <   6                     |
c |   * K            :   0.80      |   * Special   :   1000         |                                     |
c |   * R            :   1.40      |   * Protected :  (lbd)< 30     |                                     |
c |                                |                                |                                     |
c ==================================[ Search Statistics (every  10000 conflicts) ]=========================
c |                                                                                                       |
c |          RESTARTS           |          ORIGINAL         |              LEARNT              | Progress |
c |       NB   Blocked  Avg Cfc |    Vars  Clauses Literals |   Red   Learnts    LBD2  Removed |          |
c =========================================================================================================
c |       26         0      384 |   35932   483723  1784801 |     1     7998       30     2282 |  0.125 % |
c |       53         7      377 |   35932   483723  1784801 |     3     6954       73    14404 |  0.125 % |
c |       88         9      340 |   35931   483723  1784801 |     3    16945       99    14404 |  0.128 % |
c |       95        10      421 |   35931   483723  1784801 |     4    17674      135    24334 |  0.128 % |
c |      109        17      458 |   35931   483723  1784801 |     5    15843      191    36848 |  0.128 % |
c |      124        17      483 |   35931   483723  1784801 |     5    25843      218    36848 |  0.128 % |
c |      163        17      429 |   35931   483723  1784801 |     6    21425      250    52358 |  0.128 % |
c |      176        30      454 |   35931   483723  1784801 |     6    31425      283    52358 |  0.128 % |
c |      184        32      489 |   35931   483723  1784801 |     7    24416      339    70463 |  0.128 % |
c |      219        33      456 |   35931   483723  1784801 |     7    34416      359    70463 |  0.128 % |
c |      267        33      411 |   35931   483723  1784801 |     8    24809      376    91422 |  0.128 % |
c |      284        34      422 |   35931   483723  1784801 |     8    34809      421    91422 |  0.128 % |
c |      305        34      426 |   35931   483723  1784801 |     9    22606      448   114811 |  0.128 % |
c |      327        36      428 |   35931   483723  1784801 |     9    32606      488   114811 |  0.128 % |
c |      332        54      451 |   35931   483723  1784801 |     9    42606      533   114811 |  0.128 % |
c |      364        62      439 |   35931   483723  1784801 |    10    27806      557   140891 |  0.128 % |
c |      391        62      434 |   35931   483723  1784801 |    10    37806      583   140891 |  0.128 % |
c |      423        62      425 |   35931   483723  1784801 |    10    47806      605   140891 |  0.128 % |
c |      455        62      417 |   35931   483723  1784801 |    11    30408      625   169658 |  0.128 % |
c |      495        62      404 |   35931   483723  1784801 |    11    40408      655   169658 |  0.128 % |
c |      503        62      417 |   35931   483723  1784801 |    11    50408      679   169658 |  0.128 % |
c |      530        62      415 |   35931   483723  1784801 |    12    30404      713   200588 |  0.128 % |
c |      552        62      416 |   35931   483723  1784801 |    12    40404      751   200588 |  0.128 % |
c |      569        62      421 |   35930   483723  1784801 |    12    50373      772   200588 |  0.131 % |
c |      575        71      434 |   35929   483723  1784801 |    12    60373      803   200588 |  0.133 % |
c |      625        72      416 |   35929   483723  1784801 |    13    37419      828   233961 |  0.133 % |
c |      646        73      417 |   35929   483723  1784801 |    13    47419      852   233961 |  0.133 % |
c |      663        73      422 |   35929   483723  1784801 |    13    57419      872   233961 |  0.133 % |
c |      678        73      427 |   35929   483723  1784801 |    13    67419      890   233961 |  0.133 % |
c |      710        74      422 |   35929   483723  1784801 |    14    42410      914   270381 |  0.133 % |
c |      730        75      424 |   35929   483723  1784801 |    14    52410      942   270381 |  0.133 % |
c |      775        75      412 |   35926   483723  1784801 |    14    62376      954   270381 |  0.142 % |
c |      795        75      415 |   35926   483723  1784801 |    14    72376      985   270381 |  0.142 % |
c |      807        76      421 |   35926   483723  1784801 |    15    44694     1020   309149 |  0.142 % |
c |      834        82      419 |   35926   483723  1784801 |    15    54694     1073   309149 |  0.142 % |
c |      882        84      408 |   35925   483723  1784801 |    15    64387     1090   309149 |  0.145 % |
c |      908        86      407 |   35856   483723  1784801 |    15    74387     1119   309149 |  0.336 % |
c Contradiction found while importing a unary clause clauses.
c Contradiction found while importing a unary clause clauses.
c Contradiction found while importing a unary clause clauses.
c empty clause found by core 0 at conflict 375778
*
c checking the resolution graph...OK
c All useful bySize 2011224 clauses, percentiles 0 3 4 7 19 33 52 73 87 118 243 252 (0,1,5,10,25,50,75,90,95,99,100-1,100)
c All useless bySize 727291 clauses, percentiles 0 2 2 3 4 7 35 58 72 103 278 281 (0,1,5,10,25,50,75,90,95,99,100-1,100)
c ProofOnly useful bySize 1889617 clauses, percentiles 0 5 8 13 21 35 54 74 88 119 243 252 (0,1,5,10,25,50,75,90,95,99,100-1,100)
c ProofOnly useless bySize 365046 clauses, percentiles 1 8 13 17 23 35 53 72 85 116 278 281 (0,1,5,10,25,50,75,90,95,99,100-1,100)
c All useful byFinalLBD 2011224 clauses, percentiles 0 1 3 4 6 8 10 12 13 15 24 25 (0,1,5,10,25,50,75,90,95,99,100-1,100)
c All useless byFinalLBD 727291 clauses, percentiles 0 2 2 3 4 4 10 12 13 16 27 27 (0,1,5,10,25,50,75,90,95,99,100-1,100)
c ProofOnly useful byFinalLBD 1889617 clauses, percentiles 0 1 3 5 6 8 10 12 13 15 24 25 (0,1,5,10,25,50,75,90,95,99,100-1,100)
c ProofOnly useless byFinalLBD 365046 clauses, percentiles 1 4 6 6 8 10 12 13 15 17 27 27 (0,1,5,10,25,50,75,90,95,99,100-1,100)
c All useful byInitialLBD 2011224 clauses, percentiles 0 3 4 4 6 8 10 12 13 15 25 25 (0,1,5,10,25,50,75,90,95,99,100-1,100)
c All useless byInitialLBD 727291 clauses, percentiles 0 2 2 3 4 4 10 12 14 16 27 27 (0,1,5,10,25,50,75,90,95,99,100-1,100)
c ProofOnly useful byInitialLBD 1889617 clauses, percentiles 0 3 4 5 7 9 10 12 13 15 25 25 (0,1,5,10,25,50,75,90,95,99,100-1,100)
c ProofOnly useless byInitialLBD 365046 clauses, percentiles 1 4 6 7 8 10 12 14 15 17 27 27 (0,1,5,10,25,50,75,90,95,99,100-1,100)
c Literals ProofOnly useful 75478701
c Literals ProofOnly useless 14786788
c additional windowsGood 1 1 1 1 2 4 5 11 21 65 278 311 (0,1,5,10,25,50,75,90,95,99,100-1,100)
c additional windowsBad 1 1 1 1 1 1 1 2 2 3 70 187 (0,1,5,10,25,50,75,90,95,99,100-1,100)
c additional 1WindowNoDecision 54746 25973 0.47 253745 127133 0.5 (nbWindowsGood,nbWindowsNoDecisionGood,nbWindowsBad,nbWindowsNoDecisionBad
c additional topclausessize all (10%,5%,1%,top) 92.43 105.90 135.31 252
c additional topclausessize proofonly (10%,5%,1%,top) 93.04 106.48 135.85 252
c additional topclausesinitialLBD all (10%,5%,1%,top) 84.73 98.47 128.52 252
c additional topclausesinitialLBD proofonly (10%,5%,1%,top) 79.04 93.04 123.53 252
c additional topclausesfinalLBD all (10%,5%,1%,top) 74.19 88.49 119.34 252
c additional topclausesfinalLBD proofonly (10%,5%,1%,top) 70.36 84.94 116.09 252
c additional predictionInitialLBD 1 31 1889617 0.77 0.00 0.00 2254632 365046 0.16 0.19 0.18 0.16 (nbgoodclauses,nbtotalgood,precisionGood,recallGood,FGood,nbbadclause,nbtotalbad,precisionBad,recallBad,FBad,accuracy)
c additional predictionInitialLBD 2 6620 1889617 0.98 0.00 0.01 2248043 365046 0.16 0.19 0.18 0.16 (nbgoodclauses,nbtotalgood,precisionGood,recallGood,FGood,nbbadclause,nbtotalbad,precisionBad,recallBad,FBad,accuracy)
c additional predictionInitialLBD 3 39458 1889617 0.98 0.02 0.04 2215205 365046 0.16 0.19 0.18 0.18 (nbgoodclauses,nbtotalgood,precisionGood,recallGood,FGood,nbbadclause,nbtotalbad,precisionBad,recallBad,FBad,accuracy)
c additional predictionInitialLBD 4 109886 1889617 0.96 0.06 0.11 2144777 365046 0.17 0.19 0.18 0.21 (nbgoodclauses,nbtotalgood,precisionGood,recallGood,FGood,nbbadclause,nbtotalbad,precisionBad,recallBad,FBad,accuracy)
c additional predictionInitialLBD 5 227378 1889617 0.94 0.11 0.20 2027285 365046 0.17 0.19 0.18 0.25 (nbgoodclauses,nbtotalgood,precisionGood,recallGood,FGood,nbbadclause,nbtotalbad,precisionBad,recallBad,FBad,accuracy)
c additional predictionInitialLBD 6 419363 1889617 0.93 0.21 0.34 1835300 365046 0.18 0.18 0.18 0.32 (nbgoodclauses,nbtotalgood,precisionGood,recallGood,FGood,nbbadclause,nbtotalbad,precisionBad,recallBad,FBad,accuracy)
c additional predictionInitialLBD 7 698441 1889617 0.91 0.34 0.49 1556222 365046 0.19 0.16 0.18 0.42 (nbgoodclauses,nbtotalgood,precisionGood,recallGood,FGood,nbbadclause,nbtotalbad,precisionBad,recallBad,FBad,accuracy)
c additional predictionInitialLBD 8 1039860 1889617 0.90 0.49 0.64 1214803 365046 0.21 0.14 0.17 0.53 (nbgoodclauses,nbtotalgood,precisionGood,recallGood,FGood,nbbadclause,nbtotalbad,precisionBad,recallBad,FBad,accuracy)
c additional predictionInitialLBD 10 1685266 1889617 0.87 0.78 0.82 569397 365046 0.26 0.08 0.12 0.72 (nbgoodclauses,nbtotalgood,precisionGood,recallGood,FGood,nbbadclause,nbtotalbad,precisionBad,recallBad,FBad,accuracy)
c additional predictionInitialLBD 14 2201668 1889617 0.84 0.98 0.91 52995 365046 0.41 0.01 0.02 0.83 (nbgoodclauses,nbtotalgood,precisionGood,recallGood,FGood,nbbadclause,nbtotalbad,precisionBad,recallBad,FBad,accuracy)
c additional predictionInitialLBD 18 2251737 1889617 0.84 1.00 0.91 2926 365046 0.55 0.00 0.00 0.84 (nbgoodclauses,nbtotalgood,precisionGood,recallGood,FGood,nbbadclause,nbtotalbad,precisionBad,recallBad,FBad,accuracy)
c additional predictionInitialLBD 22 2254553 1889617 0.84 1.00 0.91 110 365046 0.60 0.00 0.00 0.84 (nbgoodclauses,nbtotalgood,precisionGood,recallGood,FGood,nbbadclause,nbtotalbad,precisionBad,recallBad,FBad,accuracy)
c additional predictionInitialLBD 30 2254663 1889617 0.84 1.00 0.91 0 365046 -nan 0.00 -nan 0.84 (nbgoodclauses,nbtotalgood,precisionGood,recallGood,FGood,nbbadclause,nbtotalbad,precisionBad,recallBad,FBad,accuracy)
c additional predictionInitialLBD 40 2254663 1889617 0.84 1.00 0.91 0 365046 -nan 0.00 -nan 0.84 (nbgoodclauses,nbtotalgood,precisionGood,recallGood,FGood,nbbadclause,nbtotalbad,precisionBad,recallBad,FBad,accuracy)
c additional predictionFinallLBD 1 24727 1889617 1.00 0.01 0.03 2229936 365046 0.16 1.00 0.28 0.17 (nbgoodclauses,nbtotalgood,precisionGood,recallGood,FGood,nbbadclause,nbtotalbad,precisionBad,recallBad,FBad,accuracy)
c additional predictionFinallLBD 2 74659 1889617 0.99 0.04 0.08 2180004 365046 0.17 1.00 0.29 0.19 (nbgoodclauses,nbtotalgood,precisionGood,recallGood,FGood,nbbadclause,nbtotalbad,precisionBad,recallBad,FBad,accuracy)
c additional predictionFinallLBD 3 121713 1889617 0.98 0.06 0.12 2132950 365046 0.17 0.99 0.29 0.21 (nbgoodclauses,nbtotalgood,precisionGood,recallGood,FGood,nbbadclause,nbtotalbad,precisionBad,recallBad,FBad,accuracy)
c additional predictionFinallLBD 4 194081 1889617 0.97 0.10 0.18 2060582 365046 0.17 0.98 0.30 0.24 (nbgoodclauses,nbtotalgood,precisionGood,recallGood,FGood,nbbadclause,nbtotalbad,precisionBad,recallBad,FBad,accuracy)
c additional predictionFinallLBD 5 321071 1889617 0.95 0.16 0.28 1933592 365046 0.18 0.95 0.30 0.29 (nbgoodclauses,nbtotalgood,precisionGood,recallGood,FGood,nbbadclause,nbtotalbad,precisionBad,recallBad,FBad,accuracy)
c additional predictionFinallLBD 6 530111 1889617 0.93 0.26 0.41 1724552 365046 0.19 0.90 0.31 0.36 (nbgoodclauses,nbtotalgood,precisionGood,recallGood,FGood,nbbadclause,nbtotalbad,precisionBad,recallBad,FBad,accuracy)
c additional predictionFinallLBD 7 819824 1889617 0.91 0.40 0.55 1434839 365046 0.20 0.80 0.33 0.46 (nbgoodclauses,nbtotalgood,precisionGood,recallGood,FGood,nbbadclause,nbtotalbad,precisionBad,recallBad,FBad,accuracy)
c additional predictionFinallLBD 8 1155799 1889617 0.90 0.55 0.68 1098864 365046 0.22 0.68 0.34 0.57 (nbgoodclauses,nbtotalgood,precisionGood,recallGood,FGood,nbbadclause,nbtotalbad,precisionBad,recallBad,FBad,accuracy)
c additional predictionFinallLBD 10 1756099 1889617 0.87 0.81 0.84 498564 365046 0.28 0.38 0.32 0.74 (nbgoodclauses,nbtotalgood,precisionGood,recallGood,FGood,nbbadclause,nbtotalbad,precisionBad,recallBad,FBad,accuracy)
c additional predictionFinallLBD 14 2210623 1889617 0.84 0.99 0.91 44040 365046 0.45 0.05 0.10 0.84 (nbgoodclauses,nbtotalgood,precisionGood,recallGood,FGood,nbbadclause,nbtotalbad,precisionBad,recallBad,FBad,accuracy)
c additional predictionFinallLBD 18 2252287 1889617 0.84 1.00 0.91 2376 365046 0.57 0.00 0.01 0.84 (nbgoodclauses,nbtotalgood,precisionGood,recallGood,FGood,nbbadclause,nbtotalbad,precisionBad,recallBad,FBad,accuracy)
c additional predictionFinallLBD 22 2254580 1889617 0.84 1.00 0.91 83 365046 0.63 0.00 0.00 0.84 (nbgoodclauses,nbtotalgood,precisionGood,recallGood,FGood,nbbadclause,nbtotalbad,precisionBad,recallBad,FBad,accuracy)
c additional predictionFinallLBD 30 2254663 1889617 0.84 1.00 0.91 0 365046 -nan 0.00 -nan 0.84 (nbgoodclauses,nbtotalgood,precisionGood,recallGood,FGood,nbbadclause,nbtotalbad,precisionBad,recallBad,FBad,accuracy)
c additional predictionFinallLBD 40 2254663 1889617 0.84 1.00 0.91 0 365046 -nan 0.00 -nan 0.84 (nbgoodclauses,nbtotalgood,precisionGood,recallGood,FGood,nbbadclause,nbtotalbad,precisionBad,recallBad,FBad,accuracy)
c additional predictionSize 1 31 1889617 0.77 0.00 0.00 2254632 365046 0.16 0.19 0.18 0.16 (nbgoodclauses,nbtotalgood,precisionGood,recallGood,FGood,nbbadclause,nbtotalbad,precisionBad,recallBad,FBad,accuracy)
c additional predictionSize 2 275 1889617 0.92 0.00 0.00 2254388 365046 0.16 0.19 0.18 0.16 (nbgoodclauses,nbtotalgood,precisionGood,recallGood,FGood,nbbadclause,nbtotalbad,precisionBad,recallBad,FBad,accuracy)
c additional predictionSize 3 2281 1889617 0.98 0.00 0.00 2252382 365046 0.16 0.19 0.18 0.16 (nbgoodclauses,nbtotalgood,precisionGood,recallGood,FGood,nbbadclause,nbtotalbad,precisionBad,recallBad,FBad,accuracy)
c additional predictionSize 4 13838 1889617 0.99 0.01 0.01 2240825 365046 0.16 0.19 0.18 0.17 (nbgoodclauses,nbtotalgood,precisionGood,recallGood,FGood,nbbadclause,nbtotalbad,precisionBad,recallBad,FBad,accuracy)
c additional predictionSize 5 34235 1889617 0.99 0.02 0.04 2220428 365046 0.16 0.19 0.18 0.18 (nbgoodclauses,nbtotalgood,precisionGood,recallGood,FGood,nbbadclause,nbtotalbad,precisionBad,recallBad,FBad,accuracy)
c additional predictionSize 6 63259 1889617 0.98 0.03 0.06 2191404 365046 0.17 0.19 0.18 0.19 (nbgoodclauses,nbtotalgood,precisionGood,recallGood,FGood,nbbadclause,nbtotalbad,precisionBad,recallBad,FBad,accuracy)
c additional predictionSize 7 85009 1889617 0.97 0.04 0.08 2169654 365046 0.17 0.19 0.18 0.20 (nbgoodclauses,nbtotalgood,precisionGood,recallGood,FGood,nbbadclause,nbtotalbad,precisionBad,recallBad,FBad,accuracy)
c additional predictionSize 8 108870 1889617 0.96 0.06 0.10 2145793 365046 0.17 0.19 0.18 0.21 (nbgoodclauses,nbtotalgood,precisionGood,recallGood,FGood,nbbadclause,nbtotalbad,precisionBad,recallBad,FBad,accuracy)
c additional predictionSize 10 153377 1889617 0.94 0.08 0.14 2101286 365046 0.17 0.19 0.18 0.22 (nbgoodclauses,nbtotalgood,precisionGood,recallGood,FGood,nbbadclause,nbtotalbad,precisionBad,recallBad,FBad,accuracy)
c additional predictionSize 14 246989 1889617 0.91 0.12 0.21 2007674 365046 0.17 0.18 0.18 0.25 (nbgoodclauses,nbtotalgood,precisionGood,recallGood,FGood,nbbadclause,nbtotalbad,precisionBad,recallBad,FBad,accuracy)
c additional predictionSize 18 411420 1889617 0.88 0.19 0.31 1843243 365046 0.17 0.17 0.17 0.30 (nbgoodclauses,nbtotalgood,precisionGood,recallGood,FGood,nbbadclause,nbtotalbad,precisionBad,recallBad,FBad,accuracy)
c additional predictionSize 22 612869 1889617 0.86 0.28 0.42 1641794 365046 0.17 0.15 0.16 0.36 (nbgoodclauses,nbtotalgood,precisionGood,recallGood,FGood,nbbadclause,nbtotalbad,precisionBad,recallBad,FBad,accuracy)
c additional predictionSize 30 965411 1889617 0.84 0.43 0.57 1289252 365046 0.17 0.11 0.14 0.46 (nbgoodclauses,nbtotalgood,precisionGood,recallGood,FGood,nbbadclause,nbtotalbad,precisionBad,recallBad,FBad,accuracy)
c additional predictionSize 40 1328262 1889617 0.84 0.59 0.69 926401 365046 0.16 0.08 0.11 0.56 (nbgoodclauses,nbtotalgood,precisionGood,recallGood,FGood,nbbadclause,nbtotalbad,precisionBad,recallBad,FBad,accuracy)
c additional predictionAge 1 154673 1889617 0.89 0.07 0.13 2099990 365046 0.17 0.18 0.17 0.22 (nbgoodclauses,nbtotalgood,precisionGood,recallGood,FGood,nbbadclause,nbtotalbad,precisionBad,recallBad,FBad,accuracy)
c additional predictionAge 10 173352 1889617 0.88 0.08 0.15 2081311 365046 0.17 0.18 0.17 0.22 (nbgoodclauses,nbtotalgood,precisionGood,recallGood,FGood,nbbadclause,nbtotalbad,precisionBad,recallBad,FBad,accuracy)
c additional predictionAge 25 224215 1889617 0.87 0.10 0.18 2030448 365046 0.17 0.18 0.17 0.24 (nbgoodclauses,nbtotalgood,precisionGood,recallGood,FGood,nbbadclause,nbtotalbad,precisionBad,recallBad,FBad,accuracy)
c additional predictionAge 50 238138 1889617 0.87 0.11 0.19 2016525 365046 0.17 0.18 0.17 0.24 (nbgoodclauses,nbtotalgood,precisionGood,recallGood,FGood,nbbadclause,nbtotalbad,precisionBad,recallBad,FBad,accuracy)
c additional predictionAge 100 250514 1889617 0.87 0.11 0.20 2004149 365046 0.17 0.18 0.17 0.24 (nbgoodclauses,nbtotalgood,precisionGood,recallGood,FGood,nbbadclause,nbtotalbad,precisionBad,recallBad,FBad,accuracy)
c additional predictionAge 250 265774 1889617 0.86 0.12 0.21 1988889 365046 0.17 0.17 0.17 0.25 (nbgoodclauses,nbtotalgood,precisionGood,recallGood,FGood,nbbadclause,nbtotalbad,precisionBad,recallBad,FBad,accuracy)
c additional predictionAge 500 276524 1889617 0.86 0.13 0.22 1978139 365046 0.17 0.17 0.17 0.25 (nbgoodclauses,nbtotalgood,precisionGood,recallGood,FGood,nbbadclause,nbtotalbad,precisionBad,recallBad,FBad,accuracy)
c additional predictionAge 1000 287566 1889617 0.86 0.13 0.23 1967097 365046 0.17 0.17 0.17 0.25 (nbgoodclauses,nbtotalgood,precisionGood,recallGood,FGood,nbbadclause,nbtotalbad,precisionBad,recallBad,FBad,accuracy)
c additional predictionAge 2500 303240 1889617 0.86 0.14 0.24 1951423 365046 0.17 0.17 0.17 0.26 (nbgoodclauses,nbtotalgood,precisionGood,recallGood,FGood,nbbadclause,nbtotalbad,precisionBad,recallBad,FBad,accuracy)
c additional predictionAge 5000 317745 1889617 0.86 0.14 0.25 1936918 365046 0.17 0.17 0.17 0.26 (nbgoodclauses,nbtotalgood,precisionGood,recallGood,FGood,nbbadclause,nbtotalbad,precisionBad,recallBad,FBad,accuracy)
c additional predictionAge 10000 337112 1889617 0.86 0.15 0.26 1917551 365046 0.17 0.17 0.17 0.27 (nbgoodclauses,nbtotalgood,precisionGood,recallGood,FGood,nbbadclause,nbtotalbad,precisionBad,recallBad,FBad,accuracy)
c additional predictionAge 25000 374179 1889617 0.86 0.17 0.28 1880484 365046 0.17 0.17 0.17 0.28 (nbgoodclauses,nbtotalgood,precisionGood,recallGood,FGood,nbbadclause,nbtotalbad,precisionBad,recallBad,FBad,accuracy)
c additional predictionAge 50000 420426 1889617 0.86 0.19 0.31 1834237 365046 0.17 0.16 0.16 0.29 (nbgoodclauses,nbtotalgood,precisionGood,recallGood,FGood,nbbadclause,nbtotalbad,precisionBad,recallBad,FBad,accuracy)
c additional predictionAge 100000 496033 1889617 0.85 0.22 0.35 1758630 365046 0.17 0.15 0.16 0.32 (nbgoodclauses,nbtotalgood,precisionGood,recallGood,FGood,nbbadclause,nbtotalbad,precisionBad,recallBad,FBad,accuracy)
c additional predictionTicks 1 154982 1889617 0.89 0.07 0.13 2099681 365046 0.17 0.18 0.17 0.22 (nbgoodclauses,nbtotalgood,precisionGood,recallGood,FGood,nbbadclause,nbtotalbad,precisionBad,recallBad,FBad,accuracy)
c additional predictionTicks 10 248882 1889617 0.86 0.11 0.20 2005781 365046 0.17 0.18 0.17 0.24 (nbgoodclauses,nbtotalgood,precisionGood,recallGood,FGood,nbbadclause,nbtotalbad,precisionBad,recallBad,FBad,accuracy)
c additional predictionTicks 25 393343 1889617 0.85 0.18 0.29 1861320 365046 0.16 0.16 0.16 0.28 (nbgoodclauses,nbtotalgood,precisionGood,recallGood,FGood,nbbadclause,nbtotalbad,precisionBad,recallBad,FBad,accuracy)
c additional predictionTicks 50 485388 1889617 0.85 0.22 0.35 1769275 365046 0.16 0.15 0.16 0.31 (nbgoodclauses,nbtotalgood,precisionGood,recallGood,FGood,nbbadclause,nbtotalbad,precisionBad,recallBad,FBad,accuracy)
c additional predictionTicks 100 595255 1889617 0.85 0.27 0.41 1659408 365046 0.17 0.14 0.15 0.35 (nbgoodclauses,nbtotalgood,precisionGood,recallGood,FGood,nbbadclause,nbtotalbad,precisionBad,recallBad,FBad,accuracy)
c additional predictionTicks 250 761121 1889617 0.85 0.34 0.49 1493542 365046 0.17 0.13 0.15 0.39 (nbgoodclauses,nbtotalgood,precisionGood,recallGood,FGood,nbbadclause,nbtotalbad,precisionBad,recallBad,FBad,accuracy)
c additional predictionTicks 500 894624 1889617 0.84 0.40 0.54 1360039 365046 0.17 0.12 0.14 0.44 (nbgoodclauses,nbtotalgood,precisionGood,recallGood,FGood,nbbadclause,nbtotalbad,precisionBad,recallBad,FBad,accuracy)
c additional predictionTicks 1000 1035746 1889617 0.84 0.46 0.60 1218917 365046 0.17 0.11 0.13 0.48 (nbgoodclauses,nbtotalgood,precisionGood,recallGood,FGood,nbbadclause,nbtotalbad,precisionBad,recallBad,FBad,accuracy)
c additional predictionTicks 2500 1239313 1889617 0.84 0.55 0.67 1015350 365046 0.17 0.09 0.12 0.54 (nbgoodclauses,nbtotalgood,precisionGood,recallGood,FGood,nbbadclause,nbtotalbad,precisionBad,recallBad,FBad,accuracy)
c additional predictionTicks 5000 1405119 1889617 0.84 0.63 0.72 849544 365046 0.17 0.08 0.10 0.59 (nbgoodclauses,nbtotalgood,precisionGood,recallGood,FGood,nbbadclause,nbtotalbad,precisionBad,recallBad,FBad,accuracy)
c additional predictionTicks 10000 1574937 1889617 0.84 0.70 0.77 679726 365046 0.17 0.06 0.09 0.64 (nbgoodclauses,nbtotalgood,precisionGood,recallGood,FGood,nbbadclause,nbtotalbad,precisionBad,recallBad,FBad,accuracy)
c additional predictionTicks 25000 1787209 1889617 0.84 0.80 0.82 467454 365046 0.17 0.04 0.07 0.70 (nbgoodclauses,nbtotalgood,precisionGood,recallGood,FGood,nbbadclause,nbtotalbad,precisionBad,recallBad,FBad,accuracy)
c additional predictionTicks 50000 1918838 1889617 0.84 0.85 0.85 335825 365046 0.18 0.03 0.05 0.74 (nbgoodclauses,nbtotalgood,precisionGood,recallGood,FGood,nbbadclause,nbtotalbad,precisionBad,recallBad,FBad,accuracy)
c additional predictionTicks 100000 2028594 1889617 0.84 0.90 0.87 226069 365046 0.18 0.02 0.04 0.77 (nbgoodclauses,nbtotalgood,precisionGood,recallGood,FGood,nbbadclause,nbtotalbad,precisionBad,recallBad,FBad,accuracy)
c additional lifetimeGood 1 6 6 18 18684 310818 871013 1389964 1663282 2010514 2254129 2254488 (0,1,5,10,25,50,75,90,95,99,100-1,100)
c additional lifetimeBad 1 6 6 18 20142 300995 845512 1381559 1680609 2056244 2251343 2251655 (0,1,5,10,25,50,75,90,95,99,100-1,100)
c additional lifetimeBadBad 2 6 6 6 6 12 48 276 924 11082 2130560 2134640 (0,1,5,10,25,50,75,90,95,99,100-1,100)
c additional compositionBad 1 3 8 11 19 40 85 149 196 304 718 721 (0,1,5,10,25,50,75,90,95,99,100-1,100)
c additional compositionBadWithGood 0 0 0 1 2 4 7 13 17 30 100 102 (0,1,5,10,25,50,75,90,95,99,100-1,100)
c additional compositionBadWithBad 0 0 0 0 0 0 1 3 4 6 16 16 (0,1,5,10,25,50,75,90,95,99,100-1,100)
c additional compositionBadWithInitial 0 2 6 9 16 35 77 135 179 277 613 668 (0,1,5,10,25,50,75,90,95,99,100-1,100)
c additional compositionGood 1 3 5 8 17 42 93 164 216 331 773 816 (0,1,5,10,25,50,75,90,95,99,100-1,100)
c additional compositionGoodWithGood 0 0 0 1 2 5 9 16 22 36 118 127 (0,1,5,10,25,50,75,90,95,99,100-1,100)
c additional compositionGoodWithInitial 0 2 4 6 15 36 84 149 197 302 687 689 (0,1,5,10,25,50,75,90,95,99,100-1,100)
c additional propagationGood total 49799230 percentiles 0 1 1 1 1 1 2 6 27 452 131715 149752 (0,1,5,10,25,50,75,90,95,99,100-1,100)
c additional propagationBad total 563557 percentiles 1 1 1 1 1 1 2 2 3 8 260 749 (0,1,5,10,25,50,75,90,95,99,100-1,100)
c additional resolutionGood total 14061963 percentiles 0 1 1 1 1 1 2 4 11 114 31318 35699 (0,1,5,10,25,50,75,90,95,99,100-1,100)
c additional resolutionBad total 342427 percentiles 0 0 0 0 0 1 1 2 2 4 64 70 (0,1,5,10,25,50,75,90,95,99,100-1,100)
No graph is dumped
c =========================================================================================================
c result of core 0 is UNSAT
c One thread has finished
c Core 0 said it finished
c result of core 2 is UNKNOWN
c result of core 1 is UNKNOWN
c result of core 3 is UNKNOWN
c result of core 5 is UNKNOWN
c result of core 4 is UNKNOWN
c restarts              : 912 (412 conflicts in avg)
c blocked restarts      : 86 (multiple: 38) 
c last block at restart : 897
c nb ReduceDB           : 15
c nb removed Clauses    : 309149
c nb learnts DL2        : 1143
c nb learnts size 2     : 47
c nb learnts size 1     : 3
c conflicts             : 375778         (331 /sec)
c decisions             : 467047         (0.00 % random) (411 /sec)
c propagations          : 80955319       (71248 /sec)
c conflict literals     : 15197301       (19.46 % deleted)
c nb reduced Clauses    : 879
c CPU time              : 1136.24 s

s INDETERMINATE
