c
c This is glucose-proof 1.0 based on  2.1 --  (thanks to MiniSAT)
c
c EXPERIMENTAL EASY PARALLEL (ROUND ROBIN) VERSION
c
c WARNING: for repeatability, setting FPU to use double precision
c Parallel version 2 solvers created.
c ========================================[ Problem Statistics ]===========================================
c |                                                                                                       |
c |  Number of variables:         31269                                                                   |
c |  Number of clauses:          635766                                                                   |
c |  Parse time:                   0.42 s                                                                 |
c |                                                                                                       |
c ========================================[ MAGIC CONSTANTS ]==============================================
c | Constants are supposed to work well together :-)                                                      |
c | however, if you find better choices, please let us known...                                           |
c |-------------------------------------------------------------------------------------------------------|
c |                                |                                |                                     |
c | - Restarts:                    | - Reduce Clause DB:            | - Minimize Asserting:               |
c |   * LBD Queue    :     50      |   * First     :   4000         |    * size <  30                     |
c |   * Trail  Queue :   5000      |   * Inc       :    300         |    * lbd  <   6                     |
c |   * K            :   0.80      |   * Special   :   1000         |                                     |
c |   * R            :   1.40      |   * Protected :  (lbd)< 30     |                                     |
c |                                |                                |                                     |
c ==================================[ Search Statistics (every  10000 conflicts) ]=========================
c |                                                                                                       |
c |          RESTARTS           |          ORIGINAL         |              LEARNT              | Progress |
c |       NB   Blocked  Avg Cfc |    Vars  Clauses Literals |   Red   Learnts    LBD2  Removed |          |
c =========================================================================================================
c |        4         0     2500 |   31184   635766  2372553 |     1     8001       53     2033 |  0.272 % |
c |       38        17      526 |   31184   635766  2372553 |     3     6955       86    13191 |  0.272 % |
c |       65        19      461 |   31184   635766  2372553 |     3    16955      133    13191 |  0.272 % |
c |       72        33      555 |   31184   635766  2372553 |     4    17686      182    22568 |  0.272 % |
c |       95        33      526 |   31184   635766  2372553 |     5    15844      206    34501 |  0.272 % |
c |      128        33      468 |   31184   635766  2372553 |     5    25844      236    34501 |  0.272 % |
c |      152        33      460 |   31184   635766  2372553 |     6    21428      270    48991 |  0.272 % |
c |      170        40      470 |   31184   635766  2372553 |     6    31428      309    48991 |  0.272 % |
c |      199        45      452 |   31184   635766  2372553 |     7    24417      351    66239 |  0.272 % |
c |      222        45      450 |   31184   635766  2372553 |     7    34417      381    66239 |  0.272 % |
c |      244        45      450 |   31184   635766  2372553 |     8    24814      392    86261 |  0.272 % |
c |      258        50      465 |   31184   635766  2372553 |     8    34814      412    86261 |  0.272 % |
c |      282        56      460 |   31184   635766  2372553 |     9    22610      440   108965 |  0.272 % |
c |      291        56      481 |   31179   635766  2372553 |     9    32546      460   108965 |  0.288 % |
c |      310        56      483 |   31179   635766  2372553 |     9    42546      484   108965 |  0.288 % |
c |      320        56      500 |   31179   635766  2372553 |    10    27773      518   134071 |  0.288 % |
c |      327        56      519 |   31179   635766  2372553 |    10    37773      549   134071 |  0.288 % |
c |      327        56      550 |   31179   635766  2372553 |    10    47773      565   134071 |  0.288 % |
c |      341        56      557 |   31177   635766  2372553 |    11    24352      620   155729 |  0.294 % |
c |      351        56      569 |   31177   635766  2372553 |    11    34352      659   155729 |  0.294 % |
c |      351        56      598 |   31177   635766  2372553 |    11    44352      708   155729 |  0.294 % |
c |      355        56      619 |   31177   635766  2372553 |    12    27377      742   182938 |  0.294 % |
c |      372        56      618 |   31177   635766  2372553 |    12    37377      756   182938 |  0.294 % |
c |      395        56      607 |   31177   635766  2372553 |    12    47377      788   182938 |  0.294 % |
c |      422        56      592 |   31177   635766  2372553 |    12    57377      820   182938 |  0.294 % |
c |      437        56      594 |   31177   635766  2372553 |    13    36297      856   214245 |  0.294 % |
c |      438        56      616 |   31177   635766  2372553 |    13    46297      878   214245 |  0.294 % |
c |      460        56      608 |   31177   635766  2372553 |    13    56297      889   214245 |  0.294 % |
c |      468        56      619 |   31176   635766  2372553 |    13    61277      935   214245 |  0.297 % |
c |      487        56      616 |   31176   635766  2372553 |    14    39339      964   246639 |  0.297 % |
c |      538        57      576 |   31176   635766  2372553 |    14    49339      987   246639 |  0.297 % |
c |      569        57      562 |   31176   635766  2372553 |    14    59339     1012   246639 |  0.297 % |
c |      573        57      575 |   31176   635766  2372553 |    14    69339     1083   246639 |  0.297 % |
c |      612        58      555 |   31176   635766  2372553 |    15    43175     1114   283054 |  0.297 % |
c |      624        58      560 |   31176   635766  2372553 |    15    53175     1164   283054 |  0.297 % |
c |      661        58      544 |   31176   635766  2372553 |    15    63175     1193   283054 |  0.297 % |
c |      701        62      527 |   31176   635766  2372553 |    15    73175     1207   283054 |  0.297 % |
c |      716        62      530 |   31176   635766  2372553 |    16    43591     1234   322946 |  0.297 % |
c |      720        62      541 |   31176   635766  2372553 |    16    53591     1260   322946 |  0.297 % |
c |      726        65      550 |   31176   635766  2372553 |    16    63591     1299   322946 |  0.297 % |
c |      739        65      554 |   31176   635766  2372553 |    16    73591     1321   322946 |  0.297 % |
c |      754        65      557 |   31176   635766  2372553 |    16    83591     1340   322946 |  0.297 % |
c |      758        65      567 |   31175   635766  2372553 |    17    50798     1368   365858 |  0.301 % |
c |      764        65      575 |   31175   635766  2372553 |    17    60798     1385   365858 |  0.301 % |
c |      783        65      574 |   31175   635766  2372553 |    17    70798     1406   365858 |  0.301 % |
c |      793        65      580 |   31175   635766  2372553 |    17    80798     1420   365858 |  0.301 % |
c |      806        65      583 |   31175   635766  2372553 |    18    45509     1431   411392 |  0.301 % |
c |      812        67      591 |   31173   635766  2372553 |    18    54897     1465   411392 |  0.307 % |
c |      820        67      597 |   31173   635766  2372553 |    18    64897     1489   411392 |  0.307 % |
c |      829        67      603 |   31173   635766  2372553 |    18    74897     1507   411392 |  0.307 % |
c |      836        71      610 |   31173   635766  2372553 |    18    84897     1532   411392 |  0.307 % |
c |      837        71      621 |   31173   635766  2372553 |    18    94897     1579   411392 |  0.307 % |
c |      847        71      625 |   31173   635766  2372553 |    19    57150     1609   459353 |  0.307 % |
c |      857        71      630 |   31173   635766  2372553 |    19    67150     1621   459353 |  0.307 % |
c |      859        71      640 |   31173   635766  2372553 |    19    77150     1644   459353 |  0.307 % |
c |      868        71      645 |   31173   635766  2372553 |    19    87150     1661   459353 |  0.307 % |
c |      897        71      635 |   31173   635766  2372553 |    19    97150     1683   459353 |  0.307 % |
c |      902        76      643 |   31162   635766  2372553 |    20    52991     1722   506580 |  0.342 % |
c |      920        76      641 |   31162   635766  2372553 |    20    62991     1733   506580 |  0.342 % |
c |      929        76      645 |   31162   635766  2372553 |    20    71394     1756   506580 |  0.342 % |
c |      936        76      651 |   31073   635766  2372553 |    20    81392     1789   506580 |  0.627 % |
c |      948        76      654 |   31073   635766  2372553 |    20    91392     1797   506580 |  0.627 % |
c |      971        76      648 |   31053   635766  2372553 |    20    86036     1811   506580 |  0.691 % |
c |      993        76      644 |   31053   635766  2372553 |    21    53025     1824   549855 |  0.691 % |
c |      998        76      651 |   31053   635766  2372553 |    21    62066     1836   549855 |  0.691 % |
c |      999        76      660 |   30907   635766  2372553 |    21    72062     1879   549855 |  1.158 % |
c empty clause found by core 0 at conflict 661186
*
c checking the resolution graph...OK
c All useful bySize 1236847 clauses, percentiles 0 3 4 4 18 33 53 75 90 122 231 239 (0,1,5,10,25,50,75,90,95,99,100-1,100)
c All useless bySize 721332 clauses, percentiles 0 2 2 3 4 4 18 45 61 94 231 232 (0,1,5,10,25,50,75,90,95,99,100-1,100)
c ProofOnly useful bySize 1120553 clauses, percentiles 0 5 9 14 22 36 56 77 92 124 231 239 (0,1,5,10,25,50,75,90,95,99,100-1,100)
c ProofOnly useless bySize 201818 clauses, percentiles 1 8 14 17 24 36 54 74 88 119 231 232 (0,1,5,10,25,50,75,90,95,99,100-1,100)
c All useful byFinalLBD 1236847 clauses, percentiles 0 1 3 4 6 8 10 12 13 15 24 24 (0,1,5,10,25,50,75,90,95,99,100-1,100)
c All useless byFinalLBD 721332 clauses, percentiles 0 2 2 3 4 4 7 11 12 15 25 27 (0,1,5,10,25,50,75,90,95,99,100-1,100)
c ProofOnly useful byFinalLBD 1120553 clauses, percentiles 0 1 3 5 6 8 10 12 13 15 24 24 (0,1,5,10,25,50,75,90,95,99,100-1,100)
c ProofOnly useless byFinalLBD 201818 clauses, percentiles 1 4 6 7 8 10 12 13 15 17 25 27 (0,1,5,10,25,50,75,90,95,99,100-1,100)
c All useful byInitialLBD 1236847 clauses, percentiles 0 3 4 4 6 8 10 12 13 15 24 25 (0,1,5,10,25,50,75,90,95,99,100-1,100)
c All useless byInitialLBD 721332 clauses, percentiles 0 2 2 3 4 4 7 11 13 15 25 27 (0,1,5,10,25,50,75,90,95,99,100-1,100)
c ProofOnly useful byInitialLBD 1120553 clauses, percentiles 0 3 4 5 7 9 10 12 13 15 24 25 (0,1,5,10,25,50,75,90,95,99,100-1,100)
c ProofOnly useless byInitialLBD 201818 clauses, percentiles 1 5 6 7 8 10 12 14 15 17 25 27 (0,1,5,10,25,50,75,90,95,99,100-1,100)
c Literals ProofOnly useful 46533698
c Literals ProofOnly useless 8395921
c additional windowsGood 1 1 1 1 1 1 3 19 38 85 291 395 (0,1,5,10,25,50,75,90,95,99,100-1,100)
c additional windowsBad 1 1 1 1 1 1 1 1 1 5 130 143 (0,1,5,10,25,50,75,90,95,99,100-1,100)
c additional 1WindowNoDecision 125704 67218 0.53 162939 82547 0.51 (nbWindowsGood,nbWindowsNoDecisionGood,nbWindowsBad,nbWindowsNoDecisionBad
c additional topclausessize all (10%,5%,1%,top) 95.63 109.78 140.14 239
c additional topclausessize proofonly (10%,5%,1%,top) 96.63 110.74 141.00 239
c additional topclausesinitialLBD all (10%,5%,1%,top) 87.75 102.22 133.39 239
c additional topclausesinitialLBD proofonly (10%,5%,1%,top) 81.89 96.63 128.40 239
c additional topclausesfinalLBD all (10%,5%,1%,top) 76.73 91.75 124.04 239
c additional topclausesfinalLBD proofonly (10%,5%,1%,top) 72.79 88.10 120.75 239
c additional predictionInitialLBD 1 43 1120553 0.56 0.00 0.00 1322328 201818 0.15 0.18 0.17 0.15 (nbgoodclauses,nbtotalgood,precisionGood,recallGood,FGood,nbbadclause,nbtotalbad,precisionBad,recallBad,FBad,accuracy)
c additional predictionInitialLBD 2 3780 1120553 0.98 0.00 0.01 1318591 201818 0.15 0.18 0.17 0.16 (nbgoodclauses,nbtotalgood,precisionGood,recallGood,FGood,nbbadclause,nbtotalbad,precisionBad,recallBad,FBad,accuracy)
c additional predictionInitialLBD 3 22048 1120553 0.98 0.02 0.04 1300323 201818 0.15 0.18 0.17 0.17 (nbgoodclauses,nbtotalgood,precisionGood,recallGood,FGood,nbbadclause,nbtotalbad,precisionBad,recallBad,FBad,accuracy)
c additional predictionInitialLBD 4 62130 1120553 0.97 0.05 0.10 1260241 201818 0.16 0.18 0.17 0.20 (nbgoodclauses,nbtotalgood,precisionGood,recallGood,FGood,nbbadclause,nbtotalbad,precisionBad,recallBad,FBad,accuracy)
c additional predictionInitialLBD 5 131206 1120553 0.95 0.11 0.20 1191165 201818 0.16 0.17 0.17 0.24 (nbgoodclauses,nbtotalgood,precisionGood,recallGood,FGood,nbbadclause,nbtotalbad,precisionBad,recallBad,FBad,accuracy)
c additional predictionInitialLBD 6 245318 1120553 0.94 0.20 0.34 1077053 201818 0.17 0.17 0.17 0.31 (nbgoodclauses,nbtotalgood,precisionGood,recallGood,FGood,nbbadclause,nbtotalbad,precisionBad,recallBad,FBad,accuracy)
c additional predictionInitialLBD 7 409002 1120553 0.92 0.34 0.49 913369 201818 0.18 0.15 0.17 0.41 (nbgoodclauses,nbtotalgood,precisionGood,recallGood,FGood,nbbadclause,nbtotalbad,precisionBad,recallBad,FBad,accuracy)
c additional predictionInitialLBD 8 607384 1120553 0.90 0.49 0.64 714987 201818 0.20 0.13 0.16 0.52 (nbgoodclauses,nbtotalgood,precisionGood,recallGood,FGood,nbbadclause,nbtotalbad,precisionBad,recallBad,FBad,accuracy)
c additional predictionInitialLBD 10 983328 1120553 0.88 0.77 0.82 339043 201818 0.25 0.07 0.12 0.72 (nbgoodclauses,nbtotalgood,precisionGood,recallGood,FGood,nbbadclause,nbtotalbad,precisionBad,recallBad,FBad,accuracy)
c additional predictionInitialLBD 14 1289596 1120553 0.85 0.98 0.91 32775 201818 0.39 0.01 0.02 0.84 (nbgoodclauses,nbtotalgood,precisionGood,recallGood,FGood,nbbadclause,nbtotalbad,precisionBad,recallBad,FBad,accuracy)
c additional predictionInitialLBD 18 1320638 1120553 0.85 1.00 0.92 1733 201818 0.50 0.00 0.00 0.85 (nbgoodclauses,nbtotalgood,precisionGood,recallGood,FGood,nbbadclause,nbtotalbad,precisionBad,recallBad,FBad,accuracy)
c additional predictionInitialLBD 22 1322320 1120553 0.85 1.00 0.92 51 201818 0.65 0.00 0.00 0.85 (nbgoodclauses,nbtotalgood,precisionGood,recallGood,FGood,nbbadclause,nbtotalbad,precisionBad,recallBad,FBad,accuracy)
c additional predictionInitialLBD 30 1322371 1120553 0.85 1.00 0.92 0 201818 -nan 0.00 -nan 0.85 (nbgoodclauses,nbtotalgood,precisionGood,recallGood,FGood,nbbadclause,nbtotalbad,precisionBad,recallBad,FBad,accuracy)
c additional predictionInitialLBD 40 1322371 1120553 0.85 1.00 0.92 0 201818 -nan 0.00 -nan 0.85 (nbgoodclauses,nbtotalgood,precisionGood,recallGood,FGood,nbbadclause,nbtotalbad,precisionBad,recallBad,FBad,accuracy)
c additional predictionFinallLBD 1 15116 1120553 1.00 0.01 0.03 1307255 201818 0.15 1.00 0.27 0.16 (nbgoodclauses,nbtotalgood,precisionGood,recallGood,FGood,nbbadclause,nbtotalbad,precisionBad,recallBad,FBad,accuracy)
c additional predictionFinallLBD 2 43059 1120553 1.00 0.04 0.07 1279312 201818 0.16 1.00 0.27 0.18 (nbgoodclauses,nbtotalgood,precisionGood,recallGood,FGood,nbbadclause,nbtotalbad,precisionBad,recallBad,FBad,accuracy)
c additional predictionFinallLBD 3 68966 1120553 0.99 0.06 0.11 1253405 201818 0.16 1.00 0.28 0.20 (nbgoodclauses,nbtotalgood,precisionGood,recallGood,FGood,nbbadclause,nbtotalbad,precisionBad,recallBad,FBad,accuracy)
c additional predictionFinallLBD 4 110144 1120553 0.98 0.10 0.18 1212227 201818 0.16 0.99 0.28 0.23 (nbgoodclauses,nbtotalgood,precisionGood,recallGood,FGood,nbbadclause,nbtotalbad,precisionBad,recallBad,FBad,accuracy)
c additional predictionFinallLBD 5 187438 1120553 0.96 0.16 0.27 1134933 201818 0.17 0.96 0.29 0.28 (nbgoodclauses,nbtotalgood,precisionGood,recallGood,FGood,nbbadclause,nbtotalbad,precisionBad,recallBad,FBad,accuracy)
c additional predictionFinallLBD 6 311917 1120553 0.94 0.26 0.41 1010454 201818 0.18 0.91 0.30 0.36 (nbgoodclauses,nbtotalgood,precisionGood,recallGood,FGood,nbbadclause,nbtotalbad,precisionBad,recallBad,FBad,accuracy)
c additional predictionFinallLBD 7 481534 1120553 0.92 0.40 0.55 840837 201818 0.20 0.81 0.31 0.46 (nbgoodclauses,nbtotalgood,precisionGood,recallGood,FGood,nbbadclause,nbtotalbad,precisionBad,recallBad,FBad,accuracy)
c additional predictionFinallLBD 8 676312 1120553 0.91 0.55 0.68 646059 201818 0.21 0.69 0.33 0.57 (nbgoodclauses,nbtotalgood,precisionGood,recallGood,FGood,nbbadclause,nbtotalbad,precisionBad,recallBad,FBad,accuracy)
c additional predictionFinallLBD 10 1025552 1120553 0.88 0.81 0.84 296819 201818 0.27 0.39 0.32 0.74 (nbgoodclauses,nbtotalgood,precisionGood,recallGood,FGood,nbbadclause,nbtotalbad,precisionBad,recallBad,FBad,accuracy)
c additional predictionFinallLBD 14 1295138 1120553 0.85 0.99 0.91 27233 201818 0.42 0.06 0.10 0.84 (nbgoodclauses,nbtotalgood,precisionGood,recallGood,FGood,nbbadclause,nbtotalbad,precisionBad,recallBad,FBad,accuracy)
c additional predictionFinallLBD 18 1320949 1120553 0.85 1.00 0.92 1422 201818 0.54 0.00 0.01 0.85 (nbgoodclauses,nbtotalgood,precisionGood,recallGood,FGood,nbbadclause,nbtotalbad,precisionBad,recallBad,FBad,accuracy)
c additional predictionFinallLBD 22 1322330 1120553 0.85 1.00 0.92 41 201818 0.71 0.00 0.00 0.85 (nbgoodclauses,nbtotalgood,precisionGood,recallGood,FGood,nbbadclause,nbtotalbad,precisionBad,recallBad,FBad,accuracy)
c additional predictionFinallLBD 30 1322371 1120553 0.85 1.00 0.92 0 201818 -nan 0.00 -nan 0.85 (nbgoodclauses,nbtotalgood,precisionGood,recallGood,FGood,nbbadclause,nbtotalbad,precisionBad,recallBad,FBad,accuracy)
c additional predictionFinallLBD 40 1322371 1120553 0.85 1.00 0.92 0 201818 -nan 0.00 -nan 0.85 (nbgoodclauses,nbtotalgood,precisionGood,recallGood,FGood,nbbadclause,nbtotalbad,precisionBad,recallBad,FBad,accuracy)
c additional predictionSize 1 43 1120553 0.56 0.00 0.00 1322328 201818 0.15 0.18 0.17 0.15 (nbgoodclauses,nbtotalgood,precisionGood,recallGood,FGood,nbbadclause,nbtotalbad,precisionBad,recallBad,FBad,accuracy)
c additional predictionSize 2 171 1120553 0.85 0.00 0.00 1322200 201818 0.15 0.18 0.17 0.15 (nbgoodclauses,nbtotalgood,precisionGood,recallGood,FGood,nbbadclause,nbtotalbad,precisionBad,recallBad,FBad,accuracy)
c additional predictionSize 3 1330 1120553 0.98 0.00 0.00 1321041 201818 0.15 0.18 0.17 0.15 (nbgoodclauses,nbtotalgood,precisionGood,recallGood,FGood,nbbadclause,nbtotalbad,precisionBad,recallBad,FBad,accuracy)
c additional predictionSize 4 7697 1120553 0.99 0.01 0.01 1314674 201818 0.15 0.18 0.17 0.16 (nbgoodclauses,nbtotalgood,precisionGood,recallGood,FGood,nbbadclause,nbtotalbad,precisionBad,recallBad,FBad,accuracy)
c additional predictionSize 5 18688 1120553 0.99 0.02 0.03 1303683 201818 0.15 0.18 0.17 0.17 (nbgoodclauses,nbtotalgood,precisionGood,recallGood,FGood,nbbadclause,nbtotalbad,precisionBad,recallBad,FBad,accuracy)
c additional predictionSize 6 33575 1120553 0.98 0.03 0.06 1288796 201818 0.16 0.18 0.17 0.18 (nbgoodclauses,nbtotalgood,precisionGood,recallGood,FGood,nbbadclause,nbtotalbad,precisionBad,recallBad,FBad,accuracy)
c additional predictionSize 7 45302 1120553 0.97 0.04 0.08 1277069 201818 0.16 0.18 0.17 0.19 (nbgoodclauses,nbtotalgood,precisionGood,recallGood,FGood,nbbadclause,nbtotalbad,precisionBad,recallBad,FBad,accuracy)
c additional predictionSize 8 57947 1120553 0.96 0.05 0.09 1264424 201818 0.16 0.18 0.17 0.19 (nbgoodclauses,nbtotalgood,precisionGood,recallGood,FGood,nbbadclause,nbtotalbad,precisionBad,recallBad,FBad,accuracy)
c additional predictionSize 10 82148 1120553 0.95 0.07 0.13 1240223 201818 0.16 0.18 0.17 0.21 (nbgoodclauses,nbtotalgood,precisionGood,recallGood,FGood,nbbadclause,nbtotalbad,precisionBad,recallBad,FBad,accuracy)
c additional predictionSize 14 135393 1120553 0.92 0.11 0.20 1186978 201818 0.16 0.17 0.17 0.24 (nbgoodclauses,nbtotalgood,precisionGood,recallGood,FGood,nbbadclause,nbtotalbad,precisionBad,recallBad,FBad,accuracy)
c additional predictionSize 18 227357 1120553 0.89 0.18 0.30 1095014 201818 0.16 0.16 0.16 0.29 (nbgoodclauses,nbtotalgood,precisionGood,recallGood,FGood,nbbadclause,nbtotalbad,precisionBad,recallBad,FBad,accuracy)
c additional predictionSize 22 339936 1120553 0.87 0.26 0.40 982435 201818 0.16 0.14 0.15 0.34 (nbgoodclauses,nbtotalgood,precisionGood,recallGood,FGood,nbbadclause,nbtotalbad,precisionBad,recallBad,FBad,accuracy)
c additional predictionSize 30 540693 1120553 0.85 0.41 0.56 781678 201818 0.16 0.11 0.13 0.44 (nbgoodclauses,nbtotalgood,precisionGood,recallGood,FGood,nbbadclause,nbtotalbad,precisionBad,recallBad,FBad,accuracy)
c additional predictionSize 40 750210 1120553 0.85 0.57 0.68 572161 201818 0.15 0.08 0.10 0.55 (nbgoodclauses,nbtotalgood,precisionGood,recallGood,FGood,nbbadclause,nbtotalbad,precisionBad,recallBad,FBad,accuracy)
c additional predictionAge 1 85230 1120553 0.89 0.07 0.13 1237141 201818 0.16 0.17 0.16 0.20 (nbgoodclauses,nbtotalgood,precisionGood,recallGood,FGood,nbbadclause,nbtotalbad,precisionBad,recallBad,FBad,accuracy)
c additional predictionAge 10 127594 1120553 0.87 0.10 0.18 1194777 201818 0.16 0.17 0.16 0.22 (nbgoodclauses,nbtotalgood,precisionGood,recallGood,FGood,nbbadclause,nbtotalbad,precisionBad,recallBad,FBad,accuracy)
c additional predictionAge 25 137057 1120553 0.87 0.11 0.19 1185314 201818 0.15 0.16 0.16 0.23 (nbgoodclauses,nbtotalgood,precisionGood,recallGood,FGood,nbbadclause,nbtotalbad,precisionBad,recallBad,FBad,accuracy)
c additional predictionAge 50 144298 1120553 0.87 0.11 0.20 1178073 201818 0.15 0.16 0.16 0.23 (nbgoodclauses,nbtotalgood,precisionGood,recallGood,FGood,nbbadclause,nbtotalbad,precisionBad,recallBad,FBad,accuracy)
c additional predictionAge 100 150702 1120553 0.86 0.12 0.20 1171669 201818 0.15 0.16 0.16 0.24 (nbgoodclauses,nbtotalgood,precisionGood,recallGood,FGood,nbbadclause,nbtotalbad,precisionBad,recallBad,FBad,accuracy)
c additional predictionAge 250 159124 1120553 0.86 0.12 0.21 1163247 201818 0.15 0.16 0.16 0.24 (nbgoodclauses,nbtotalgood,precisionGood,recallGood,FGood,nbbadclause,nbtotalbad,precisionBad,recallBad,FBad,accuracy)
c additional predictionAge 500 165420 1120553 0.86 0.13 0.22 1156951 201818 0.15 0.16 0.16 0.24 (nbgoodclauses,nbtotalgood,precisionGood,recallGood,FGood,nbbadclause,nbtotalbad,precisionBad,recallBad,FBad,accuracy)
c additional predictionAge 1000 172472 1120553 0.86 0.13 0.23 1149899 201818 0.15 0.16 0.16 0.25 (nbgoodclauses,nbtotalgood,precisionGood,recallGood,FGood,nbbadclause,nbtotalbad,precisionBad,recallBad,FBad,accuracy)
c additional predictionAge 2500 183625 1120553 0.86 0.14 0.24 1138746 201818 0.15 0.16 0.16 0.25 (nbgoodclauses,nbtotalgood,precisionGood,recallGood,FGood,nbbadclause,nbtotalbad,precisionBad,recallBad,FBad,accuracy)
c additional predictionAge 5000 194861 1120553 0.86 0.15 0.25 1127510 201818 0.15 0.16 0.16 0.26 (nbgoodclauses,nbtotalgood,precisionGood,recallGood,FGood,nbbadclause,nbtotalbad,precisionBad,recallBad,FBad,accuracy)
c additional predictionAge 10000 209425 1120553 0.86 0.16 0.27 1112946 201818 0.15 0.15 0.15 0.27 (nbgoodclauses,nbtotalgood,precisionGood,recallGood,FGood,nbbadclause,nbtotalbad,precisionBad,recallBad,FBad,accuracy)
c additional predictionAge 25000 237008 1120553 0.86 0.18 0.30 1085363 201818 0.15 0.15 0.15 0.28 (nbgoodclauses,nbtotalgood,precisionGood,recallGood,FGood,nbbadclause,nbtotalbad,precisionBad,recallBad,FBad,accuracy)
c additional predictionAge 50000 272648 1120553 0.86 0.21 0.33 1049723 201818 0.15 0.14 0.15 0.30 (nbgoodclauses,nbtotalgood,precisionGood,recallGood,FGood,nbbadclause,nbtotalbad,precisionBad,recallBad,FBad,accuracy)
c additional predictionAge 100000 329846 1120553 0.86 0.25 0.39 992525 201818 0.16 0.14 0.15 0.33 (nbgoodclauses,nbtotalgood,precisionGood,recallGood,FGood,nbbadclause,nbtotalbad,precisionBad,recallBad,FBad,accuracy)
c additional predictionTicks 1 85591 1120553 0.89 0.07 0.13 1236780 201818 0.16 0.17 0.16 0.20 (nbgoodclauses,nbtotalgood,precisionGood,recallGood,FGood,nbbadclause,nbtotalbad,precisionBad,recallBad,FBad,accuracy)
c additional predictionTicks 10 234560 1120553 0.86 0.18 0.30 1087811 201818 0.15 0.15 0.15 0.28 (nbgoodclauses,nbtotalgood,precisionGood,recallGood,FGood,nbbadclause,nbtotalbad,precisionBad,recallBad,FBad,accuracy)
c additional predictionTicks 25 302295 1120553 0.85 0.23 0.36 1020076 201818 0.15 0.14 0.15 0.31 (nbgoodclauses,nbtotalgood,precisionGood,recallGood,FGood,nbbadclause,nbtotalbad,precisionBad,recallBad,FBad,accuracy)
c additional predictionTicks 50 367419 1120553 0.85 0.28 0.42 954952 201818 0.15 0.13 0.14 0.35 (nbgoodclauses,nbtotalgood,precisionGood,recallGood,FGood,nbbadclause,nbtotalbad,precisionBad,recallBad,FBad,accuracy)
c additional predictionTicks 100 433001 1120553 0.85 0.33 0.47 889370 201818 0.15 0.12 0.14 0.38 (nbgoodclauses,nbtotalgood,precisionGood,recallGood,FGood,nbbadclause,nbtotalbad,precisionBad,recallBad,FBad,accuracy)
c additional predictionTicks 250 524894 1120553 0.85 0.40 0.54 797477 201818 0.16 0.11 0.13 0.43 (nbgoodclauses,nbtotalgood,precisionGood,recallGood,FGood,nbbadclause,nbtotalbad,precisionBad,recallBad,FBad,accuracy)
c additional predictionTicks 500 599581 1120553 0.85 0.46 0.59 722790 201818 0.16 0.10 0.12 0.47 (nbgoodclauses,nbtotalgood,precisionGood,recallGood,FGood,nbbadclause,nbtotalbad,precisionBad,recallBad,FBad,accuracy)
c additional predictionTicks 1000 679142 1120553 0.85 0.52 0.64 643229 201818 0.16 0.09 0.12 0.51 (nbgoodclauses,nbtotalgood,precisionGood,recallGood,FGood,nbbadclause,nbtotalbad,precisionBad,recallBad,FBad,accuracy)
c additional predictionTicks 2500 794464 1120553 0.85 0.60 0.71 527907 201818 0.16 0.08 0.10 0.58 (nbgoodclauses,nbtotalgood,precisionGood,recallGood,FGood,nbbadclause,nbtotalbad,precisionBad,recallBad,FBad,accuracy)
c additional predictionTicks 5000 885434 1120553 0.85 0.67 0.75 436937 201818 0.16 0.06 0.09 0.63 (nbgoodclauses,nbtotalgood,precisionGood,recallGood,FGood,nbbadclause,nbtotalbad,precisionBad,recallBad,FBad,accuracy)
c additional predictionTicks 10000 974796 1120553 0.85 0.74 0.79 347575 201818 0.17 0.05 0.08 0.67 (nbgoodclauses,nbtotalgood,precisionGood,recallGood,FGood,nbbadclause,nbtotalbad,precisionBad,recallBad,FBad,accuracy)
c additional predictionTicks 25000 1087818 1120553 0.85 0.83 0.84 234553 201818 0.17 0.04 0.06 0.73 (nbgoodclauses,nbtotalgood,precisionGood,recallGood,FGood,nbbadclause,nbtotalbad,precisionBad,recallBad,FBad,accuracy)
c additional predictionTicks 50000 1162528 1120553 0.85 0.88 0.87 159843 201818 0.18 0.03 0.04 0.77 (nbgoodclauses,nbtotalgood,precisionGood,recallGood,FGood,nbbadclause,nbtotalbad,precisionBad,recallBad,FBad,accuracy)
c additional predictionTicks 100000 1233421 1120553 0.85 0.93 0.89 88950 201818 0.18 0.01 0.03 0.80 (nbgoodclauses,nbtotalgood,precisionGood,recallGood,FGood,nbbadclause,nbtotalbad,precisionBad,recallBad,FBad,accuracy)
c additional lifetimeGood 1 2 2 8 15982 197211 525973 810851 968186 1158214 1320655 1321545 (0,1,5,10,25,50,75,90,95,99,100-1,100)
c additional lifetimeBad 1 2 2 8 18494 206862 508017 796569 955117 1152546 1320857 1321106 (0,1,5,10,25,50,75,90,95,99,100-1,100)
c additional lifetimeBadBad 2 2 2 2 2 4 14 72 216 1714 1137484 1258571 (0,1,5,10,25,50,75,90,95,99,100-1,100)
c additional compositionBad 1 4 8 11 20 43 91 157 207 319 649 650 (0,1,5,10,25,50,75,90,95,99,100-1,100)
c additional compositionBadWithGood 0 0 0 1 2 4 8 14 19 32 97 97 (0,1,5,10,25,50,75,90,95,99,100-1,100)
c additional compositionBadWithBad 0 0 0 0 0 0 1 3 4 6 16 16 (0,1,5,10,25,50,75,90,95,99,100-1,100)
c additional compositionBadWithInitial 0 2 6 9 17 38 82 143 189 293 585 585 (0,1,5,10,25,50,75,90,95,99,100-1,100)
c additional compositionGood 1 3 5 9 19 47 103 178 233 351 795 876 (0,1,5,10,25,50,75,90,95,99,100-1,100)
c additional compositionGoodWithGood 0 0 0 1 2 5 10 18 25 41 111 116 (0,1,5,10,25,50,75,90,95,99,100-1,100)
c additional compositionGoodWithInitial 0 2 4 7 16 41 93 162 212 319 690 776 (0,1,5,10,25,50,75,90,95,99,100-1,100)
c additional propagationGood total 29206436 percentiles 0 1 1 1 1 1 2 6 29 550 79338 93554 (0,1,5,10,25,50,75,90,95,99,100-1,100)
c additional propagationBad total 301717 percentiles 1 1 1 1 1 1 2 2 3 7 92 103 (0,1,5,10,25,50,75,90,95,99,100-1,100)
c additional resolutionGood total 8386072 percentiles 0 1 1 1 1 1 2 4 12 139 23545 26219 (0,1,5,10,25,50,75,90,95,99,100-1,100)
c additional resolutionBad total 182365 percentiles 0 0 0 0 0 1 1 2 2 4 37 40 (0,1,5,10,25,50,75,90,95,99,100-1,100)
No graph is dumped
c =========================================================================================================
c result of core 0 is UNSAT
c One thread has finished
c Core 0 said it finished
c result of core 1 is UNKNOWN
c restarts              : 999 (661 conflicts in avg)
c blocked restarts      : 76 (multiple: 29) 
c last block at restart : 901
c nb ReduceDB           : 21
c nb removed Clauses    : 549855
c nb learnts DL2        : 1886
c nb learnts size 2     : 62
c nb learnts size 1     : 13
c conflicts             : 661186         (1229 /sec)
c decisions             : 805424         (0.00 % random) (1497 /sec)
c propagations          : 144075461      (267741 /sec)
c conflict literals     : 27257844       (19.90 % deleted)
c nb reduced Clauses    : 1665
c CPU time              : 538.115 s

s INDETERMINATE
