c
c This is glucose-proof 1.0 based on  2.1 --  (thanks to MiniSAT)
c
c EXPERIMENTAL EASY PARALLEL (ROUND ROBIN) VERSION
c
c WARNING: for repeatability, setting FPU to use double precision
c Parallel version 12 solvers created.
c ========================================[ Problem Statistics ]===========================================
c |                                                                                                       |
c |  Number of variables:         31269                                                                   |
c |  Number of clauses:          635766                                                                   |
c |  Parse time:                   2.24 s                                                                 |
c |                                                                                                       |
c ========================================[ MAGIC CONSTANTS ]==============================================
c | Constants are supposed to work well together :-)                                                      |
c | however, if you find better choices, please let us known...                                           |
c |-------------------------------------------------------------------------------------------------------|
c |                                |                                |                                     |
c | - Restarts:                    | - Reduce Clause DB:            | - Minimize Asserting:               |
c |   * LBD Queue    :     50      |   * First     :   4000         |    * size <  30                     |
c |   * Trail  Queue :   5000      |   * Inc       :    300         |    * lbd  <   6                     |
c |   * K            :   0.80      |   * Special   :   1000         |                                     |
c |   * R            :   1.40      |   * Protected :  (lbd)< 30     |                                     |
c |                                |                                |                                     |
c ==================================[ Search Statistics (every  10000 conflicts) ]=========================
c |                                                                                                       |
c |          RESTARTS           |          ORIGINAL         |              LEARNT              | Progress |
c |       NB   Blocked  Avg Cfc |    Vars  Clauses Literals |   Red   Learnts    LBD2  Removed |          |
c =========================================================================================================
c |       26         0      384 |   31202   635766  2372553 |     1     7997       46     2467 |  0.214 % |
c |       33         0      606 |   31202   635766  2372553 |     3     6946      135    15568 |  0.214 % |
c |       76         0      394 |   31202   635766  2372553 |     3    16946      188    15568 |  0.214 % |
c |      112         0      357 |   31202   635766  2372553 |     4    17675      224    26439 |  0.214 % |
c |      140         2      357 |   31202   635766  2372553 |     5    15837      262    40342 |  0.214 % |
c |      150         2      400 |   31202   635766  2372553 |     5    25837      312    40342 |  0.214 % |
c |      156         2      448 |   31198   635766  2372553 |     6    21283      372    56762 |  0.227 % |
c |      165         3      484 |   31197   635766  2372553 |     6    31283      407    56762 |  0.230 % |
c |      174         4      517 |   31197   635766  2372553 |     7    24342      448    75812 |  0.230 % |
c |      199         4      502 |   31197   635766  2372553 |     7    34342      488    75812 |  0.230 % |
c |      213         4      516 |   31197   635766  2372553 |     8    24773      510    97760 |  0.230 % |
c |      225        12      533 |   31197   635766  2372553 |     8    34773      580    97760 |  0.230 % |
c |      276        14      471 |   31185   635766  2372553 |     9    22173      598   121973 |  0.269 % |
c |      294        14      476 |   31183   635766  2372553 |     9    30511      624   121973 |  0.275 % |
c |      318        14      471 |   31180   635766  2372553 |     9    40511      641   121973 |  0.285 % |
c |      347        14      461 |   31178   635766  2372553 |    10    26747      670   147868 |  0.291 % |
c |      375        14      453 |   31178   635766  2372553 |    10    36747      690   147868 |  0.291 % |
c |      386        14      466 |   31124   635766  2372553 |    10    41650      724   147868 |  0.464 % |
c empty clause found by core 5 at conflict 186245
*
c checking the resolution graph...OK
c All useful bySize 1935272 clauses, percentiles 0 3 4 7 18 32 51 71 84 115 278 278 (0,1,5,10,25,50,75,90,95,99,100-1,100)
c All useless bySize 935972 clauses, percentiles 0 2 3 3 4 4 32 55 69 100 247 262 (0,1,5,10,25,50,75,90,95,99,100-1,100)
c ProofOnly useful bySize 1817800 clauses, percentiles 0 5 8 12 21 34 52 72 85 116 278 278 (0,1,5,10,25,50,75,90,95,99,100-1,100)
c ProofOnly useless bySize 417134 clauses, percentiles 1 7 13 16 23 35 52 72 85 115 247 262 (0,1,5,10,25,50,75,90,95,99,100-1,100)
c All useful byFinalLBD 1935272 clauses, percentiles 0 1 3 4 6 8 10 11 12 14 24 24 (0,1,5,10,25,50,75,90,95,99,100-1,100)
c All useless byFinalLBD 935972 clauses, percentiles 0 2 3 3 4 4 9 11 13 16 26 26 (0,1,5,10,25,50,75,90,95,99,100-1,100)
c ProofOnly useful byFinalLBD 1817800 clauses, percentiles 0 1 3 4 6 8 10 11 12 15 24 24 (0,1,5,10,25,50,75,90,95,99,100-1,100)
c ProofOnly useless byFinalLBD 417134 clauses, percentiles 1 4 5 6 7 9 11 13 14 17 26 26 (0,1,5,10,25,50,75,90,95,99,100-1,100)
c All useful byInitialLBD 1935272 clauses, percentiles 0 3 4 4 6 8 10 12 13 15 24 25 (0,1,5,10,25,50,75,90,95,99,100-1,100)
c All useless byInitialLBD 935972 clauses, percentiles 0 2 3 3 4 4 9 12 13 16 26 26 (0,1,5,10,25,50,75,90,95,99,100-1,100)
c ProofOnly useful byInitialLBD 1817800 clauses, percentiles 0 3 4 5 7 8 10 12 13 15 24 25 (0,1,5,10,25,50,75,90,95,99,100-1,100)
c ProofOnly useless byInitialLBD 417134 clauses, percentiles 1 4 5 6 8 9 11 13 14 17 26 26 (0,1,5,10,25,50,75,90,95,99,100-1,100)
c Literals ProofOnly useful 70594957
c Literals ProofOnly useless 16755601
c additional windowsGood 1 1 1 1 2 4 7 11 11 31 244 342 (0,1,5,10,25,50,75,90,95,99,100-1,100)
c additional windowsBad 1 1 1 1 1 1 1 2 2 4 118 178 (0,1,5,10,25,50,75,90,95,99,100-1,100)
c additional 1WindowNoDecision 63710 30311 0.48 268024 134075 0.5 (nbWindowsGood,nbWindowsNoDecisionGood,nbWindowsBad,nbWindowsNoDecisionBad
c additional topclausessize all (10%,5%,1%,top) 89.69 102.85 132.18 278
c additional topclausessize proofonly (10%,5%,1%,top) 90.27 103.44 132.71 278
c additional topclausesinitialLBD all (10%,5%,1%,top) 82.23 95.57 125.39 278
c additional topclausesinitialLBD proofonly (10%,5%,1%,top) 76.74 90.27 120.41 278
c additional topclausesfinalLBD all (10%,5%,1%,top) 72.08 85.86 116.22 278
c additional topclausesfinalLBD proofonly (10%,5%,1%,top) 68.40 82.43 112.98 278
c additional predictionInitialLBD 1 54 1817800 0.80 0.00 0.00 2234880 417134 0.19 0.23 0.21 0.19 (nbgoodclauses,nbtotalgood,precisionGood,recallGood,FGood,nbbadclause,nbtotalbad,precisionBad,recallBad,FBad,accuracy)
c additional predictionInitialLBD 2 7655 1817800 0.96 0.00 0.01 2227279 417134 0.19 0.23 0.21 0.19 (nbgoodclauses,nbtotalgood,precisionGood,recallGood,FGood,nbbadclause,nbtotalbad,precisionBad,recallBad,FBad,accuracy)
c additional predictionInitialLBD 3 44910 1817800 0.96 0.02 0.05 2190024 417134 0.19 0.23 0.21 0.21 (nbgoodclauses,nbtotalgood,precisionGood,recallGood,FGood,nbbadclause,nbtotalbad,precisionBad,recallBad,FBad,accuracy)
c additional predictionInitialLBD 4 124696 1817800 0.93 0.06 0.12 2110238 417134 0.19 0.23 0.21 0.24 (nbgoodclauses,nbtotalgood,precisionGood,recallGood,FGood,nbbadclause,nbtotalbad,precisionBad,recallBad,FBad,accuracy)
c additional predictionInitialLBD 5 255565 1817800 0.91 0.13 0.22 1979369 417134 0.20 0.22 0.21 0.28 (nbgoodclauses,nbtotalgood,precisionGood,recallGood,FGood,nbbadclause,nbtotalbad,precisionBad,recallBad,FBad,accuracy)
c additional predictionInitialLBD 6 465877 1817800 0.89 0.23 0.36 1769057 417134 0.21 0.20 0.20 0.35 (nbgoodclauses,nbtotalgood,precisionGood,recallGood,FGood,nbbadclause,nbtotalbad,precisionBad,recallBad,FBad,accuracy)
c additional predictionInitialLBD 7 759869 1817800 0.88 0.37 0.52 1475065 417134 0.22 0.18 0.20 0.44 (nbgoodclauses,nbtotalgood,precisionGood,recallGood,FGood,nbbadclause,nbtotalbad,precisionBad,recallBad,FBad,accuracy)
c additional predictionInitialLBD 8 1104845 1817800 0.86 0.52 0.65 1130089 417134 0.24 0.15 0.18 0.55 (nbgoodclauses,nbtotalgood,precisionGood,recallGood,FGood,nbbadclause,nbtotalbad,precisionBad,recallBad,FBad,accuracy)
c additional predictionInitialLBD 10 1728313 1817800 0.84 0.80 0.82 506621 417134 0.29 0.08 0.12 0.72 (nbgoodclauses,nbtotalgood,precisionGood,recallGood,FGood,nbbadclause,nbtotalbad,precisionBad,recallBad,FBad,accuracy)
c additional predictionInitialLBD 14 2190366 1817800 0.82 0.99 0.89 44568 417134 0.45 0.01 0.02 0.81 (nbgoodclauses,nbtotalgood,precisionGood,recallGood,FGood,nbbadclause,nbtotalbad,precisionBad,recallBad,FBad,accuracy)
c additional predictionInitialLBD 18 2232934 1817800 0.81 1.00 0.90 2000 417134 0.61 0.00 0.00 0.81 (nbgoodclauses,nbtotalgood,precisionGood,recallGood,FGood,nbbadclause,nbtotalbad,precisionBad,recallBad,FBad,accuracy)
c additional predictionInitialLBD 22 2234879 1817800 0.81 1.00 0.90 55 417134 0.65 0.00 0.00 0.81 (nbgoodclauses,nbtotalgood,precisionGood,recallGood,FGood,nbbadclause,nbtotalbad,precisionBad,recallBad,FBad,accuracy)
c additional predictionInitialLBD 30 2234934 1817800 0.81 1.00 0.90 0 417134 -nan 0.00 -nan 0.81 (nbgoodclauses,nbtotalgood,precisionGood,recallGood,FGood,nbbadclause,nbtotalbad,precisionBad,recallBad,FBad,accuracy)
c additional predictionInitialLBD 40 2234934 1817800 0.81 1.00 0.90 0 417134 -nan 0.00 -nan 0.81 (nbgoodclauses,nbtotalgood,precisionGood,recallGood,FGood,nbbadclause,nbtotalbad,precisionBad,recallBad,FBad,accuracy)
c additional predictionFinallLBD 1 23810 1817800 0.99 0.01 0.03 2211124 417134 0.19 1.00 0.32 0.20 (nbgoodclauses,nbtotalgood,precisionGood,recallGood,FGood,nbbadclause,nbtotalbad,precisionBad,recallBad,FBad,accuracy)
c additional predictionFinallLBD 2 76774 1817800 0.99 0.04 0.08 2158160 417134 0.19 1.00 0.32 0.22 (nbgoodclauses,nbtotalgood,precisionGood,recallGood,FGood,nbbadclause,nbtotalbad,precisionBad,recallBad,FBad,accuracy)
c additional predictionFinallLBD 3 130199 1817800 0.97 0.07 0.13 2104735 417134 0.20 0.99 0.33 0.24 (nbgoodclauses,nbtotalgood,precisionGood,recallGood,FGood,nbbadclause,nbtotalbad,precisionBad,recallBad,FBad,accuracy)
c additional predictionFinallLBD 4 214977 1817800 0.94 0.11 0.20 2019957 417134 0.20 0.97 0.33 0.27 (nbgoodclauses,nbtotalgood,precisionGood,recallGood,FGood,nbbadclause,nbtotalbad,precisionBad,recallBad,FBad,accuracy)
c additional predictionFinallLBD 5 354359 1817800 0.92 0.18 0.30 1880575 417134 0.21 0.93 0.34 0.32 (nbgoodclauses,nbtotalgood,precisionGood,recallGood,FGood,nbbadclause,nbtotalbad,precisionBad,recallBad,FBad,accuracy)
c additional predictionFinallLBD 6 578964 1817800 0.89 0.28 0.43 1655970 417134 0.21 0.85 0.34 0.39 (nbgoodclauses,nbtotalgood,precisionGood,recallGood,FGood,nbbadclause,nbtotalbad,precisionBad,recallBad,FBad,accuracy)
c additional predictionFinallLBD 7 880702 1817800 0.88 0.43 0.57 1354232 417134 0.23 0.74 0.35 0.48 (nbgoodclauses,nbtotalgood,precisionGood,recallGood,FGood,nbbadclause,nbtotalbad,precisionBad,recallBad,FBad,accuracy)
c additional predictionFinallLBD 8 1216891 1817800 0.86 0.58 0.69 1018043 417134 0.25 0.60 0.35 0.58 (nbgoodclauses,nbtotalgood,precisionGood,recallGood,FGood,nbbadclause,nbtotalbad,precisionBad,recallBad,FBad,accuracy)
c additional predictionFinallLBD 10 1793465 1817800 0.84 0.83 0.84 441469 417134 0.30 0.32 0.31 0.74 (nbgoodclauses,nbtotalgood,precisionGood,recallGood,FGood,nbbadclause,nbtotalbad,precisionBad,recallBad,FBad,accuracy)
c additional predictionFinallLBD 14 2198089 1817800 0.82 0.99 0.90 36845 417134 0.48 0.04 0.08 0.81 (nbgoodclauses,nbtotalgood,precisionGood,recallGood,FGood,nbbadclause,nbtotalbad,precisionBad,recallBad,FBad,accuracy)
c additional predictionFinallLBD 18 2233292 1817800 0.81 1.00 0.90 1642 417134 0.64 0.00 0.01 0.81 (nbgoodclauses,nbtotalgood,precisionGood,recallGood,FGood,nbbadclause,nbtotalbad,precisionBad,recallBad,FBad,accuracy)
c additional predictionFinallLBD 22 2234894 1817800 0.81 1.00 0.90 40 417134 0.78 0.00 0.00 0.81 (nbgoodclauses,nbtotalgood,precisionGood,recallGood,FGood,nbbadclause,nbtotalbad,precisionBad,recallBad,FBad,accuracy)
c additional predictionFinallLBD 30 2234934 1817800 0.81 1.00 0.90 0 417134 -nan 0.00 -nan 0.81 (nbgoodclauses,nbtotalgood,precisionGood,recallGood,FGood,nbbadclause,nbtotalbad,precisionBad,recallBad,FBad,accuracy)
c additional predictionFinallLBD 40 2234934 1817800 0.81 1.00 0.90 0 417134 -nan 0.00 -nan 0.81 (nbgoodclauses,nbtotalgood,precisionGood,recallGood,FGood,nbbadclause,nbtotalbad,precisionBad,recallBad,FBad,accuracy)
c additional predictionSize 1 54 1817800 0.80 0.00 0.00 2234880 417134 0.19 0.23 0.21 0.19 (nbgoodclauses,nbtotalgood,precisionGood,recallGood,FGood,nbbadclause,nbtotalbad,precisionBad,recallBad,FBad,accuracy)
c additional predictionSize 2 328 1817800 0.89 0.00 0.00 2234606 417134 0.19 0.23 0.21 0.19 (nbgoodclauses,nbtotalgood,precisionGood,recallGood,FGood,nbbadclause,nbtotalbad,precisionBad,recallBad,FBad,accuracy)
c additional predictionSize 3 2419 1817800 0.97 0.00 0.00 2232515 417134 0.19 0.23 0.21 0.19 (nbgoodclauses,nbtotalgood,precisionGood,recallGood,FGood,nbbadclause,nbtotalbad,precisionBad,recallBad,FBad,accuracy)
c additional predictionSize 4 15284 1817800 0.98 0.01 0.02 2219650 417134 0.19 0.23 0.21 0.19 (nbgoodclauses,nbtotalgood,precisionGood,recallGood,FGood,nbbadclause,nbtotalbad,precisionBad,recallBad,FBad,accuracy)
c additional predictionSize 5 37895 1817800 0.98 0.02 0.04 2197039 417134 0.19 0.23 0.21 0.20 (nbgoodclauses,nbtotalgood,precisionGood,recallGood,FGood,nbbadclause,nbtotalbad,precisionBad,recallBad,FBad,accuracy)
c additional predictionSize 6 68911 1817800 0.97 0.04 0.07 2166023 417134 0.19 0.23 0.21 0.22 (nbgoodclauses,nbtotalgood,precisionGood,recallGood,FGood,nbbadclause,nbtotalbad,precisionBad,recallBad,FBad,accuracy)
c additional predictionSize 7 92751 1817800 0.95 0.05 0.09 2142183 417134 0.19 0.23 0.21 0.22 (nbgoodclauses,nbtotalgood,precisionGood,recallGood,FGood,nbbadclause,nbtotalbad,precisionBad,recallBad,FBad,accuracy)
c additional predictionSize 8 117616 1817800 0.94 0.06 0.11 2117318 417134 0.19 0.23 0.21 0.23 (nbgoodclauses,nbtotalgood,precisionGood,recallGood,FGood,nbbadclause,nbtotalbad,precisionBad,recallBad,FBad,accuracy)
c additional predictionSize 10 165567 1817800 0.92 0.08 0.15 2069367 417134 0.20 0.22 0.21 0.25 (nbgoodclauses,nbtotalgood,precisionGood,recallGood,FGood,nbbadclause,nbtotalbad,precisionBad,recallBad,FBad,accuracy)
c additional predictionSize 14 265382 1817800 0.89 0.13 0.23 1969552 417134 0.20 0.21 0.20 0.28 (nbgoodclauses,nbtotalgood,precisionGood,recallGood,FGood,nbbadclause,nbtotalbad,precisionBad,recallBad,FBad,accuracy)
c additional predictionSize 18 434984 1817800 0.86 0.20 0.33 1799950 417134 0.20 0.20 0.20 0.33 (nbgoodclauses,nbtotalgood,precisionGood,recallGood,FGood,nbbadclause,nbtotalbad,precisionBad,recallBad,FBad,accuracy)
c additional predictionSize 22 634491 1817800 0.84 0.29 0.43 1600443 417134 0.20 0.17 0.18 0.38 (nbgoodclauses,nbtotalgood,precisionGood,recallGood,FGood,nbbadclause,nbtotalbad,precisionBad,recallBad,FBad,accuracy)
c additional predictionSize 30 982052 1817800 0.82 0.44 0.58 1252882 417134 0.19 0.13 0.16 0.47 (nbgoodclauses,nbtotalgood,precisionGood,recallGood,FGood,nbbadclause,nbtotalbad,precisionBad,recallBad,FBad,accuracy)
c additional predictionSize 40 1340857 1817800 0.82 0.60 0.69 894077 417134 0.19 0.09 0.13 0.57 (nbgoodclauses,nbtotalgood,precisionGood,recallGood,FGood,nbbadclause,nbtotalbad,precisionBad,recallBad,FBad,accuracy)
c additional predictionAge 1 170514 1817800 0.87 0.08 0.15 2064420 417134 0.19 0.22 0.20 0.24 (nbgoodclauses,nbtotalgood,precisionGood,recallGood,FGood,nbbadclause,nbtotalbad,precisionBad,recallBad,FBad,accuracy)
c additional predictionAge 10 170553 1817800 0.87 0.08 0.15 2064381 417134 0.19 0.22 0.20 0.24 (nbgoodclauses,nbtotalgood,precisionGood,recallGood,FGood,nbbadclause,nbtotalbad,precisionBad,recallBad,FBad,accuracy)
c additional predictionAge 25 223681 1817800 0.86 0.11 0.19 2011253 417134 0.19 0.21 0.20 0.26 (nbgoodclauses,nbtotalgood,precisionGood,recallGood,FGood,nbbadclause,nbtotalbad,precisionBad,recallBad,FBad,accuracy)
c additional predictionAge 50 242103 1817800 0.85 0.11 0.20 1992831 417134 0.19 0.21 0.20 0.26 (nbgoodclauses,nbtotalgood,precisionGood,recallGood,FGood,nbbadclause,nbtotalbad,precisionBad,recallBad,FBad,accuracy)
c additional predictionAge 100 256156 1817800 0.85 0.12 0.21 1978778 417134 0.19 0.21 0.20 0.27 (nbgoodclauses,nbtotalgood,precisionGood,recallGood,FGood,nbbadclause,nbtotalbad,precisionBad,recallBad,FBad,accuracy)
c additional predictionAge 250 273021 1817800 0.85 0.13 0.22 1961913 417134 0.19 0.21 0.20 0.27 (nbgoodclauses,nbtotalgood,precisionGood,recallGood,FGood,nbbadclause,nbtotalbad,precisionBad,recallBad,FBad,accuracy)
c additional predictionAge 500 285122 1817800 0.85 0.13 0.23 1949812 417134 0.19 0.21 0.20 0.27 (nbgoodclauses,nbtotalgood,precisionGood,recallGood,FGood,nbbadclause,nbtotalbad,precisionBad,recallBad,FBad,accuracy)
c additional predictionAge 1000 297114 1817800 0.84 0.14 0.24 1937820 417134 0.19 0.20 0.20 0.28 (nbgoodclauses,nbtotalgood,precisionGood,recallGood,FGood,nbbadclause,nbtotalbad,precisionBad,recallBad,FBad,accuracy)
c additional predictionAge 2500 313534 1817800 0.84 0.15 0.25 1921400 417134 0.19 0.20 0.20 0.28 (nbgoodclauses,nbtotalgood,precisionGood,recallGood,FGood,nbbadclause,nbtotalbad,precisionBad,recallBad,FBad,accuracy)
c additional predictionAge 5000 328239 1817800 0.84 0.15 0.26 1906695 417134 0.19 0.20 0.20 0.29 (nbgoodclauses,nbtotalgood,precisionGood,recallGood,FGood,nbbadclause,nbtotalbad,precisionBad,recallBad,FBad,accuracy)
c additional predictionAge 10000 347873 1817800 0.84 0.16 0.27 1887061 417134 0.19 0.20 0.20 0.29 (nbgoodclauses,nbtotalgood,precisionGood,recallGood,FGood,nbbadclause,nbtotalbad,precisionBad,recallBad,FBad,accuracy)
c additional predictionAge 25000 387496 1817800 0.84 0.18 0.29 1847438 417134 0.19 0.20 0.19 0.30 (nbgoodclauses,nbtotalgood,precisionGood,recallGood,FGood,nbbadclause,nbtotalbad,precisionBad,recallBad,FBad,accuracy)
c additional predictionAge 50000 436613 1817800 0.84 0.20 0.32 1798321 417134 0.19 0.19 0.19 0.32 (nbgoodclauses,nbtotalgood,precisionGood,recallGood,FGood,nbbadclause,nbtotalbad,precisionBad,recallBad,FBad,accuracy)
c additional predictionAge 100000 517096 1817800 0.84 0.24 0.37 1717838 417134 0.19 0.18 0.19 0.34 (nbgoodclauses,nbtotalgood,precisionGood,recallGood,FGood,nbbadclause,nbtotalbad,precisionBad,recallBad,FBad,accuracy)
c additional predictionTicks 1 171104 1817800 0.87 0.08 0.15 2063830 417134 0.19 0.22 0.20 0.24 (nbgoodclauses,nbtotalgood,precisionGood,recallGood,FGood,nbbadclause,nbtotalbad,precisionBad,recallBad,FBad,accuracy)
c additional predictionTicks 10 175092 1817800 0.87 0.08 0.15 2059842 417134 0.19 0.22 0.20 0.24 (nbgoodclauses,nbtotalgood,precisionGood,recallGood,FGood,nbbadclause,nbtotalbad,precisionBad,recallBad,FBad,accuracy)
c additional predictionTicks 25 348844 1817800 0.84 0.16 0.27 1886090 417134 0.19 0.20 0.20 0.29 (nbgoodclauses,nbtotalgood,precisionGood,recallGood,FGood,nbbadclause,nbtotalbad,precisionBad,recallBad,FBad,accuracy)
c additional predictionTicks 50 432417 1817800 0.83 0.20 0.32 1802517 417134 0.19 0.19 0.19 0.32 (nbgoodclauses,nbtotalgood,precisionGood,recallGood,FGood,nbbadclause,nbtotalbad,precisionBad,recallBad,FBad,accuracy)
c additional predictionTicks 100 534628 1817800 0.83 0.24 0.38 1700306 417134 0.19 0.18 0.19 0.34 (nbgoodclauses,nbtotalgood,precisionGood,recallGood,FGood,nbbadclause,nbtotalbad,precisionBad,recallBad,FBad,accuracy)
c additional predictionTicks 250 699720 1817800 0.83 0.32 0.46 1535214 417134 0.19 0.16 0.18 0.39 (nbgoodclauses,nbtotalgood,precisionGood,recallGood,FGood,nbbadclause,nbtotalbad,precisionBad,recallBad,FBad,accuracy)
c additional predictionTicks 500 845502 1817800 0.83 0.38 0.52 1389432 417134 0.19 0.15 0.17 0.43 (nbgoodclauses,nbtotalgood,precisionGood,recallGood,FGood,nbbadclause,nbtotalbad,precisionBad,recallBad,FBad,accuracy)
c additional predictionTicks 1000 1001054 1817800 0.82 0.45 0.58 1233880 417134 0.19 0.13 0.16 0.48 (nbgoodclauses,nbtotalgood,precisionGood,recallGood,FGood,nbbadclause,nbtotalbad,precisionBad,recallBad,FBad,accuracy)
c additional predictionTicks 2500 1223678 1817800 0.82 0.55 0.66 1011256 417134 0.20 0.11 0.14 0.54 (nbgoodclauses,nbtotalgood,precisionGood,recallGood,FGood,nbbadclause,nbtotalbad,precisionBad,recallBad,FBad,accuracy)
c additional predictionTicks 5000 1403150 1817800 0.82 0.63 0.71 831784 417134 0.20 0.09 0.12 0.59 (nbgoodclauses,nbtotalgood,precisionGood,recallGood,FGood,nbbadclause,nbtotalbad,precisionBad,recallBad,FBad,accuracy)
c additional predictionTicks 10000 1585488 1817800 0.82 0.71 0.76 649446 417134 0.20 0.07 0.11 0.64 (nbgoodclauses,nbtotalgood,precisionGood,recallGood,FGood,nbbadclause,nbtotalbad,precisionBad,recallBad,FBad,accuracy)
c additional predictionTicks 25000 1804579 1817800 0.82 0.81 0.82 430355 417134 0.21 0.05 0.08 0.70 (nbgoodclauses,nbtotalgood,precisionGood,recallGood,FGood,nbbadclause,nbtotalbad,precisionBad,recallBad,FBad,accuracy)
c additional predictionTicks 50000 1936842 1817800 0.82 0.87 0.84 298092 417134 0.22 0.04 0.06 0.74 (nbgoodclauses,nbtotalgood,precisionGood,recallGood,FGood,nbbadclause,nbtotalbad,precisionBad,recallBad,FBad,accuracy)
c additional predictionTicks 100000 2037557 1817800 0.82 0.92 0.86 197377 417134 0.22 0.02 0.04 0.76 (nbgoodclauses,nbtotalgood,precisionGood,recallGood,FGood,nbbadclause,nbtotalbad,precisionBad,recallBad,FBad,accuracy)
c additional lifetimeGood 1 12 12 48 22467 269307 750658 1250975 1542985 1944799 2234819 2234831 (0,1,5,10,25,50,75,90,95,99,100-1,100)
c additional lifetimeBad 1 12 12 72 35064 316384 832308 1357438 1684275 2042575 2233181 2234027 (0,1,5,10,25,50,75,90,95,99,100-1,100)
c additional lifetimeBadBad 2 12 12 12 12 24 108 828 3012 35160 2143207 2153335 (0,1,5,10,25,50,75,90,95,99,100-1,100)
c additional compositionBad 1 3 7 11 20 43 91 157 205 310 656 660 (0,1,5,10,25,50,75,90,95,99,100-1,100)
c additional compositionBadWithGood 0 0 0 1 2 4 8 16 25 49 130 132 (0,1,5,10,25,50,75,90,95,99,100-1,100)
c additional compositionBadWithBad 0 0 0 0 0 1 2 3 4 6 16 16 (0,1,5,10,25,50,75,90,95,99,100-1,100)
c additional compositionBadWithInitial 0 2 6 9 17 37 81 140 183 276 585 596 (0,1,5,10,25,50,75,90,95,99,100-1,100)
c additional compositionGood 1 3 5 8 17 42 94 163 214 324 729 777 (0,1,5,10,25,50,75,90,95,99,100-1,100)
c additional compositionGoodWithGood 0 0 0 1 2 5 9 17 23 41 141 146 (0,1,5,10,25,50,75,90,95,99,100-1,100)
c additional compositionGoodWithInitial 0 2 4 6 15 37 84 148 194 293 670 693 (0,1,5,10,25,50,75,90,95,99,100-1,100)
c additional propagationGood total 47723778 percentiles 0 1 1 1 1 1 2 6 25 385 130751 141767 (0,1,5,10,25,50,75,90,95,99,100-1,100)
c additional propagationBad total 670526 percentiles 1 1 1 1 1 1 2 3 4 9 192 280 (0,1,5,10,25,50,75,90,95,99,100-1,100)
c additional resolutionGood total 13636337 percentiles 0 1 1 1 1 1 2 4 10 101 32577 35991 (0,1,5,10,25,50,75,90,95,99,100-1,100)
c additional resolutionBad total 424388 percentiles 0 0 0 0 1 1 1 2 2 5 75 153 (0,1,5,10,25,50,75,90,95,99,100-1,100)
No graph is dumped
c result of core 5 is UNSAT
c One thread has finished
c Core 5 said it finished
c result of core 1 is UNKNOWN
c result of core 0 is UNKNOWN
c result of core 3 is UNKNOWN
c result of core 6 is UNKNOWN
c result of core 2 is UNKNOWN
c result of core 7 is UNKNOWN
c result of core 11 is UNKNOWN
c result of core 10 is UNKNOWN
c result of core 9 is UNKNOWN
c result of core 8 is UNKNOWN
c result of core 4 is UNKNOWN
c restarts              : 391 (476 conflicts in avg)
c blocked restarts      : 14 (multiple: 9) 
c last block at restart : 228
c nb ReduceDB           : 10
c nb removed Clauses    : 147868
c nb learnts DL2        : 756
c nb learnts size 2     : 26
c nb learnts size 1     : 6
c conflicts             : 186245         (169 /sec)
c decisions             : 230404         (0.00 % random) (209 /sec)
c propagations          : 41582646       (37744 /sec)
c conflict literals     : 7457459        (19.38 % deleted)
c nb reduced Clauses    : 488
c CPU time              : 1101.69 s

s INDETERMINATE
