c
c This is glucose-proof 1.0 based on  2.1 --  (thanks to MiniSAT)
c
c EXPERIMENTAL EASY PARALLEL (ROUND ROBIN) VERSION
c
c WARNING: for repeatability, setting FPU to use double precision
c Parallel version 16 solvers created.
c ========================================[ Problem Statistics ]===========================================
c |                                                                                                       |
c |  Number of variables:        120306                                                                   |
c |  Number of clauses:          802200                                                                   |
c |  Parse time:                   3.47 s                                                                 |
c |                                                                                                       |
c ========================================[ MAGIC CONSTANTS ]==============================================
c | Constants are supposed to work well together :-)                                                      |
c | however, if you find better choices, please let us known...                                           |
c |-------------------------------------------------------------------------------------------------------|
c |                                |                                |                                     |
c | - Restarts:                    | - Reduce Clause DB:            | - Minimize Asserting:               |
c |   * LBD Queue    :     50      |   * First     :   4000         |    * size <  30                     |
c |   * Trail  Queue :   5000      |   * Inc       :    300         |    * lbd  <   6                     |
c |   * K            :   0.80      |   * Special   :   1000         |                                     |
c |   * R            :   1.40      |   * Protected :  (lbd)< 30     |                                     |
c |                                |                                |                                     |
c ==================================[ Search Statistics (every  10000 conflicts) ]=========================
c |                                                                                                       |
c |          RESTARTS           |          ORIGINAL         |              LEARNT              | Progress |
c |       NB   Blocked  Avg Cfc |    Vars  Clauses Literals |   Red   Learnts    LBD2  Removed |          |
c =========================================================================================================
c |       98         0      102 |   74210   802200  2223232 |     1     7820      678     7342 | 38.316 % |
c |      147         0      136 |   72798   802200  2223232 |     3     6886      783    23683 | 39.489 % |
c |      172         0      174 |   71109   802200  2223232 |     3    16733      833    23683 | 40.893 % |
c |      189         0      211 |   70609   802200  2223232 |     4    17562      860    33535 | 41.309 % |
c Contradiction found while importing a unary clause clauses.
c empty clause found by core 8 at conflict 46408
*
c checking the resolution graph...OK
c All useful bySize 450282 clauses, percentiles 0 2 2 2 2 30 210 432 573 845 1668 1837 (0,1,5,10,25,50,75,90,95,99,100-1,100)
c All useless bySize 1113722 clauses, percentiles 0 0 2 2 2 3 120 358 513 811 1949 1954 (0,1,5,10,25,50,75,90,95,99,100-1,100)
c ProofOnly useful bySize 289474 clauses, percentiles 0 2 4 8 42 144 321 524 654 909 1668 1837 (0,1,5,10,25,50,75,90,95,99,100-1,100)
c ProofOnly useless bySize 453047 clauses, percentiles 1 3 9 15 66 177 354 556 688 951 1949 1954 (0,1,5,10,25,50,75,90,95,99,100-1,100)
c All useful byFinalLBD 450282 clauses, percentiles 0 1 2 2 2 4 9 12 14 20 162 191 (0,1,5,10,25,50,75,90,95,99,100-1,100)
c All useless byFinalLBD 1113722 clauses, percentiles 0 0 2 2 2 3 8 14 20 67 490 511 (0,1,5,10,25,50,75,90,95,99,100-1,100)
c ProofOnly useful byFinalLBD 289474 clauses, percentiles 0 1 1 2 4 7 10 13 15 22 162 191 (0,1,5,10,25,50,75,90,95,99,100-1,100)
c ProofOnly useless byFinalLBD 453047 clauses, percentiles 1 2 3 4 7 10 14 24 43 96 490 511 (0,1,5,10,25,50,75,90,95,99,100-1,100)
c All useful byInitialLBD 450282 clauses, percentiles 0 2 2 2 2 5 10 13 15 28 236 248 (0,1,5,10,25,50,75,90,95,99,100-1,100)
c All useless byInitialLBD 1113722 clauses, percentiles 0 0 2 2 2 3 9 15 21 70 490 511 (0,1,5,10,25,50,75,90,95,99,100-1,100)
c ProofOnly useful byInitialLBD 289474 clauses, percentiles 0 2 3 4 5 8 11 14 17 36 236 248 (0,1,5,10,25,50,75,90,95,99,100-1,100)
c ProofOnly useless byInitialLBD 453047 clauses, percentiles 1 3 4 5 7 10 15 25 45 98 490 511 (0,1,5,10,25,50,75,90,95,99,100-1,100)
c Literals ProofOnly useful 61630524
c Literals ProofOnly useless 108584112
c additional windowsGood 1 1 1 1 1 1 2 4 5 8 15 16 (0,1,5,10,25,50,75,90,95,99,100-1,100)
c additional windowsBad 1 1 1 1 1 2 3 7 9 15 61 61 (0,1,5,10,25,50,75,90,95,99,100-1,100)
c additional 1WindowNoDecision 88936 45670 0.51 65488 31210 0.48 (nbWindowsGood,nbWindowsNoDecisionGood,nbWindowsBad,nbWindowsNoDecisionBad
c additional topclausessize all (10%,5%,1%,top) 617.31 738.71 978.64 1837
c additional topclausessize proofonly (10%,5%,1%,top) 653.20 770.92 1004.74 1837
c additional topclausesinitialLBD all (10%,5%,1%,top) 564.15 691.47 940.63 1837
c additional topclausesinitialLBD proofonly (10%,5%,1%,top) 520.40 653.20 909.88 1837
c additional topclausesfinalLBD all (10%,5%,1%,top) 464.44 604.45 871.35 1837
c additional topclausesfinalLBD proofonly (10%,5%,1%,top) 433.95 577.80 850.54 1837
c additional predictionInitialLBD 1 1301 289474 0.97 0.00 0.01 741220 453047 0.61 1.56 0.88 0.61 (nbgoodclauses,nbtotalgood,precisionGood,recallGood,FGood,nbbadclause,nbtotalbad,precisionBad,recallBad,FBad,accuracy)
c additional predictionInitialLBD 2 16448 289474 0.73 0.04 0.08 726073 453047 0.62 1.55 0.88 0.62 (nbgoodclauses,nbtotalgood,precisionGood,recallGood,FGood,nbbadclause,nbtotalbad,precisionBad,recallBad,FBad,accuracy)
c additional predictionInitialLBD 3 42663 289474 0.66 0.10 0.17 699858 453047 0.63 1.52 0.89 0.63 (nbgoodclauses,nbtotalgood,precisionGood,recallGood,FGood,nbbadclause,nbtotalbad,precisionBad,recallBad,FBad,accuracy)
c additional predictionInitialLBD 4 81579 289474 0.61 0.17 0.27 660942 453047 0.64 1.45 0.89 0.63 (nbgoodclauses,nbtotalgood,precisionGood,recallGood,FGood,nbbadclause,nbtotalbad,precisionBad,recallBad,FBad,accuracy)
c additional predictionInitialLBD 5 131379 289474 0.57 0.26 0.36 611142 453047 0.65 1.37 0.88 0.63 (nbgoodclauses,nbtotalgood,precisionGood,recallGood,FGood,nbbadclause,nbtotalbad,precisionBad,recallBad,FBad,accuracy)
c additional predictionInitialLBD 6 188363 289474 0.54 0.35 0.43 554158 453047 0.66 1.27 0.87 0.63 (nbgoodclauses,nbtotalgood,precisionGood,recallGood,FGood,nbbadclause,nbtotalbad,precisionBad,recallBad,FBad,accuracy)
c additional predictionInitialLBD 7 250266 289474 0.51 0.44 0.48 492255 453047 0.67 1.14 0.85 0.62 (nbgoodclauses,nbtotalgood,precisionGood,recallGood,FGood,nbbadclause,nbtotalbad,precisionBad,recallBad,FBad,accuracy)
c additional predictionInitialLBD 8 314594 289474 0.49 0.54 0.51 427927 453047 0.69 1.01 0.82 0.60 (nbgoodclauses,nbtotalgood,precisionGood,recallGood,FGood,nbbadclause,nbtotalbad,precisionBad,recallBad,FBad,accuracy)
c additional predictionInitialLBD 10 437315 289474 0.47 0.70 0.56 305206 453047 0.72 0.76 0.74 0.57 (nbgoodclauses,nbtotalgood,precisionGood,recallGood,FGood,nbbadclause,nbtotalbad,precisionBad,recallBad,FBad,accuracy)
c additional predictionInitialLBD 14 599541 289474 0.44 0.90 0.59 142980 453047 0.80 0.40 0.53 0.51 (nbgoodclauses,nbtotalgood,precisionGood,recallGood,FGood,nbbadclause,nbtotalbad,precisionBad,recallBad,FBad,accuracy)
c additional predictionInitialLBD 18 662597 289474 0.42 0.96 0.59 79924 453047 0.87 0.24 0.38 0.47 (nbgoodclauses,nbtotalgood,precisionGood,recallGood,FGood,nbbadclause,nbtotalbad,precisionBad,recallBad,FBad,accuracy)
c additional predictionInitialLBD 22 684187 289474 0.41 0.98 0.58 58334 453047 0.89 0.18 0.30 0.45 (nbgoodclauses,nbtotalgood,precisionGood,recallGood,FGood,nbbadclause,nbtotalbad,precisionBad,recallBad,FBad,accuracy)
c additional predictionInitialLBD 30 701642 289474 0.41 0.99 0.58 40879 453047 0.91 0.13 0.22 0.43 (nbgoodclauses,nbtotalgood,precisionGood,recallGood,FGood,nbbadclause,nbtotalbad,precisionBad,recallBad,FBad,accuracy)
c additional predictionInitialLBD 40 713356 289474 0.40 0.99 0.57 29165 453047 0.92 0.09 0.17 0.42 (nbgoodclauses,nbtotalgood,precisionGood,recallGood,FGood,nbbadclause,nbtotalbad,precisionBad,recallBad,FBad,accuracy)
c additional predictionFinallLBD 1 18008 289474 0.83 0.05 0.10 724513 453047 0.62 0.99 0.76 0.63 (nbgoodclauses,nbtotalgood,precisionGood,recallGood,FGood,nbbadclause,nbtotalbad,precisionBad,recallBad,FBad,accuracy)
c additional predictionFinallLBD 2 57932 289474 0.78 0.16 0.26 684589 453047 0.64 0.97 0.77 0.65 (nbgoodclauses,nbtotalgood,precisionGood,recallGood,FGood,nbbadclause,nbtotalbad,precisionBad,recallBad,FBad,accuracy)
c additional predictionFinallLBD 3 96822 289474 0.72 0.24 0.36 645699 453047 0.66 0.94 0.78 0.67 (nbgoodclauses,nbtotalgood,precisionGood,recallGood,FGood,nbbadclause,nbtotalbad,precisionBad,recallBad,FBad,accuracy)
c additional predictionFinallLBD 4 139669 289474 0.66 0.32 0.43 602852 453047 0.67 0.89 0.77 0.67 (nbgoodclauses,nbtotalgood,precisionGood,recallGood,FGood,nbbadclause,nbtotalbad,precisionBad,recallBad,FBad,accuracy)
c additional predictionFinallLBD 5 186068 289474 0.60 0.39 0.47 556453 453047 0.68 0.84 0.75 0.66 (nbgoodclauses,nbtotalgood,precisionGood,recallGood,FGood,nbbadclause,nbtotalbad,precisionBad,recallBad,FBad,accuracy)
c additional predictionFinallLBD 6 237342 289474 0.56 0.46 0.50 505179 453047 0.69 0.77 0.73 0.65 (nbgoodclauses,nbtotalgood,precisionGood,recallGood,FGood,nbbadclause,nbtotalbad,precisionBad,recallBad,FBad,accuracy)
c additional predictionFinallLBD 7 294252 289474 0.53 0.53 0.53 448269 453047 0.70 0.69 0.70 0.63 (nbgoodclauses,nbtotalgood,precisionGood,recallGood,FGood,nbbadclause,nbtotalbad,precisionBad,recallBad,FBad,accuracy)
c additional predictionFinallLBD 8 353574 289474 0.50 0.61 0.55 388947 453047 0.71 0.61 0.66 0.61 (nbgoodclauses,nbtotalgood,precisionGood,recallGood,FGood,nbbadclause,nbtotalbad,precisionBad,recallBad,FBad,accuracy)
c additional predictionFinallLBD 10 467095 289474 0.47 0.76 0.58 275426 453047 0.74 0.45 0.56 0.57 (nbgoodclauses,nbtotalgood,precisionGood,recallGood,FGood,nbbadclause,nbtotalbad,precisionBad,recallBad,FBad,accuracy)
c additional predictionFinallLBD 14 616381 289474 0.44 0.93 0.59 126140 453047 0.84 0.23 0.37 0.51 (nbgoodclauses,nbtotalgood,precisionGood,recallGood,FGood,nbbadclause,nbtotalbad,precisionBad,recallBad,FBad,accuracy)
c additional predictionFinallLBD 18 673029 289474 0.42 0.98 0.59 69492 453047 0.92 0.14 0.24 0.47 (nbgoodclauses,nbtotalgood,precisionGood,recallGood,FGood,nbbadclause,nbtotalbad,precisionBad,recallBad,FBad,accuracy)
c additional predictionFinallLBD 22 691848 289474 0.41 0.99 0.58 50673 453047 0.94 0.11 0.19 0.45 (nbgoodclauses,nbtotalgood,precisionGood,recallGood,FGood,nbbadclause,nbtotalbad,precisionBad,recallBad,FBad,accuracy)
c additional predictionFinallLBD 30 706785 289474 0.41 1.00 0.58 35736 453047 0.96 0.08 0.14 0.43 (nbgoodclauses,nbtotalgood,precisionGood,recallGood,FGood,nbbadclause,nbtotalbad,precisionBad,recallBad,FBad,accuracy)
c additional predictionFinallLBD 40 716785 289474 0.40 1.00 0.57 25736 453047 0.97 0.05 0.10 0.42 (nbgoodclauses,nbtotalgood,precisionGood,recallGood,FGood,nbbadclause,nbtotalbad,precisionBad,recallBad,FBad,accuracy)
c additional predictionSize 1 1301 289474 0.97 0.00 0.01 741220 453047 0.61 1.56 0.88 0.61 (nbgoodclauses,nbtotalgood,precisionGood,recallGood,FGood,nbbadclause,nbtotalbad,precisionBad,recallBad,FBad,accuracy)
c additional predictionSize 2 9974 289474 0.78 0.03 0.05 732547 453047 0.62 1.56 0.88 0.62 (nbgoodclauses,nbtotalgood,precisionGood,recallGood,FGood,nbbadclause,nbtotalbad,precisionBad,recallBad,FBad,accuracy)
c additional predictionSize 3 18397 289474 0.71 0.05 0.08 724124 453047 0.62 1.55 0.88 0.62 (nbgoodclauses,nbtotalgood,precisionGood,recallGood,FGood,nbbadclause,nbtotalbad,precisionBad,recallBad,FBad,accuracy)
c additional predictionSize 4 24865 289474 0.66 0.06 0.10 717656 453047 0.62 1.54 0.88 0.62 (nbgoodclauses,nbtotalgood,precisionGood,recallGood,FGood,nbbadclause,nbtotalbad,precisionBad,recallBad,FBad,accuracy)
c additional predictionSize 5 31175 289474 0.63 0.07 0.12 711346 453047 0.62 1.53 0.88 0.62 (nbgoodclauses,nbtotalgood,precisionGood,recallGood,FGood,nbbadclause,nbtotalbad,precisionBad,recallBad,FBad,accuracy)
c additional predictionSize 6 37702 289474 0.61 0.08 0.14 704819 453047 0.62 1.51 0.88 0.62 (nbgoodclauses,nbtotalgood,precisionGood,recallGood,FGood,nbbadclause,nbtotalbad,precisionBad,recallBad,FBad,accuracy)
c additional predictionSize 7 45443 289474 0.60 0.09 0.16 697078 453047 0.62 1.50 0.88 0.62 (nbgoodclauses,nbtotalgood,precisionGood,recallGood,FGood,nbbadclause,nbtotalbad,precisionBad,recallBad,FBad,accuracy)
c additional predictionSize 8 53509 289474 0.58 0.11 0.18 689012 453047 0.63 1.49 0.88 0.62 (nbgoodclauses,nbtotalgood,precisionGood,recallGood,FGood,nbbadclause,nbtotalbad,precisionBad,recallBad,FBad,accuracy)
c additional predictionSize 10 69344 289474 0.55 0.13 0.21 673177 453047 0.63 1.46 0.88 0.62 (nbgoodclauses,nbtotalgood,precisionGood,recallGood,FGood,nbbadclause,nbtotalbad,precisionBad,recallBad,FBad,accuracy)
c additional predictionSize 14 92114 289474 0.52 0.16 0.25 650407 453047 0.63 1.41 0.87 0.61 (nbgoodclauses,nbtotalgood,precisionGood,recallGood,FGood,nbbadclause,nbtotalbad,precisionBad,recallBad,FBad,accuracy)
c additional predictionSize 18 107846 289474 0.50 0.19 0.27 634675 453047 0.63 1.38 0.86 0.61 (nbgoodclauses,nbtotalgood,precisionGood,recallGood,FGood,nbbadclause,nbtotalbad,precisionBad,recallBad,FBad,accuracy)
c additional predictionSize 22 119176 289474 0.49 0.20 0.28 623345 453047 0.63 1.35 0.86 0.61 (nbgoodclauses,nbtotalgood,precisionGood,recallGood,FGood,nbbadclause,nbtotalbad,precisionBad,recallBad,FBad,accuracy)
c additional predictionSize 30 136473 289474 0.47 0.22 0.30 606048 453047 0.63 1.32 0.85 0.60 (nbgoodclauses,nbtotalgood,precisionGood,recallGood,FGood,nbbadclause,nbtotalbad,precisionBad,recallBad,FBad,accuracy)
c additional predictionSize 40 154663 289474 0.46 0.25 0.32 587858 453047 0.63 1.28 0.84 0.59 (nbgoodclauses,nbtotalgood,precisionGood,recallGood,FGood,nbbadclause,nbtotalbad,precisionBad,recallBad,FBad,accuracy)
c additional predictionAge 1 13830 289474 0.43 0.02 0.04 728691 453047 0.61 1.54 0.87 0.61 (nbgoodclauses,nbtotalgood,precisionGood,recallGood,FGood,nbbadclause,nbtotalbad,precisionBad,recallBad,FBad,accuracy)
c additional predictionAge 10 13848 289474 0.43 0.02 0.04 728673 453047 0.61 1.54 0.87 0.61 (nbgoodclauses,nbtotalgood,precisionGood,recallGood,FGood,nbbadclause,nbtotalbad,precisionBad,recallBad,FBad,accuracy)
c additional predictionAge 25 14457 289474 0.42 0.02 0.04 728064 453047 0.61 1.54 0.87 0.61 (nbgoodclauses,nbtotalgood,precisionGood,recallGood,FGood,nbbadclause,nbtotalbad,precisionBad,recallBad,FBad,accuracy)
c additional predictionAge 50 19126 289474 0.39 0.03 0.05 723395 453047 0.61 1.53 0.87 0.60 (nbgoodclauses,nbtotalgood,precisionGood,recallGood,FGood,nbbadclause,nbtotalbad,precisionBad,recallBad,FBad,accuracy)
c additional predictionAge 100 21300 289474 0.39 0.03 0.05 721221 453047 0.61 1.52 0.87 0.60 (nbgoodclauses,nbtotalgood,precisionGood,recallGood,FGood,nbbadclause,nbtotalbad,precisionBad,recallBad,FBad,accuracy)
c additional predictionAge 250 24061 289474 0.38 0.03 0.06 718460 453047 0.61 1.51 0.87 0.60 (nbgoodclauses,nbtotalgood,precisionGood,recallGood,FGood,nbbadclause,nbtotalbad,precisionBad,recallBad,FBad,accuracy)
c additional predictionAge 500 25871 289474 0.38 0.03 0.06 716650 453047 0.61 1.51 0.87 0.60 (nbgoodclauses,nbtotalgood,precisionGood,recallGood,FGood,nbbadclause,nbtotalbad,precisionBad,recallBad,FBad,accuracy)
c additional predictionAge 1000 27718 289474 0.39 0.04 0.07 714803 453047 0.61 1.51 0.87 0.60 (nbgoodclauses,nbtotalgood,precisionGood,recallGood,FGood,nbbadclause,nbtotalbad,precisionBad,recallBad,FBad,accuracy)
c additional predictionAge 2500 30807 289474 0.39 0.04 0.07 711714 453047 0.61 1.50 0.87 0.60 (nbgoodclauses,nbtotalgood,precisionGood,recallGood,FGood,nbbadclause,nbtotalbad,precisionBad,recallBad,FBad,accuracy)
c additional predictionAge 5000 34834 289474 0.39 0.05 0.08 707687 453047 0.61 1.49 0.87 0.60 (nbgoodclauses,nbtotalgood,precisionGood,recallGood,FGood,nbbadclause,nbtotalbad,precisionBad,recallBad,FBad,accuracy)
c additional predictionAge 10000 41545 289474 0.38 0.05 0.10 700976 453047 0.61 1.48 0.86 0.60 (nbgoodclauses,nbtotalgood,precisionGood,recallGood,FGood,nbbadclause,nbtotalbad,precisionBad,recallBad,FBad,accuracy)
c additional predictionAge 25000 60447 289474 0.35 0.07 0.12 682074 453047 0.61 1.43 0.85 0.59 (nbgoodclauses,nbtotalgood,precisionGood,recallGood,FGood,nbbadclause,nbtotalbad,precisionBad,recallBad,FBad,accuracy)
c additional predictionAge 50000 90512 289474 0.33 0.10 0.15 652009 453047 0.60 1.35 0.83 0.57 (nbgoodclauses,nbtotalgood,precisionGood,recallGood,FGood,nbbadclause,nbtotalbad,precisionBad,recallBad,FBad,accuracy)
c additional predictionAge 100000 146855 289474 0.30 0.15 0.20 595666 453047 0.59 1.21 0.79 0.53 (nbgoodclauses,nbtotalgood,precisionGood,recallGood,FGood,nbbadclause,nbtotalbad,precisionBad,recallBad,FBad,accuracy)
c additional predictionTicks 1 14195 289474 0.43 0.02 0.04 728326 453047 0.61 1.54 0.87 0.61 (nbgoodclauses,nbtotalgood,precisionGood,recallGood,FGood,nbbadclause,nbtotalbad,precisionBad,recallBad,FBad,accuracy)
c additional predictionTicks 10 17488 289474 0.44 0.03 0.05 725033 453047 0.61 1.53 0.87 0.61 (nbgoodclauses,nbtotalgood,precisionGood,recallGood,FGood,nbbadclause,nbtotalbad,precisionBad,recallBad,FBad,accuracy)
c additional predictionTicks 25 49558 289474 0.42 0.07 0.12 692963 453047 0.61 1.47 0.86 0.60 (nbgoodclauses,nbtotalgood,precisionGood,recallGood,FGood,nbbadclause,nbtotalbad,precisionBad,recallBad,FBad,accuracy)
c additional predictionTicks 50 89388 289474 0.40 0.12 0.19 653133 453047 0.61 1.38 0.85 0.59 (nbgoodclauses,nbtotalgood,precisionGood,recallGood,FGood,nbbadclause,nbtotalbad,precisionBad,recallBad,FBad,accuracy)
c additional predictionTicks 100 123216 289474 0.40 0.17 0.24 619305 453047 0.61 1.31 0.83 0.58 (nbgoodclauses,nbtotalgood,precisionGood,recallGood,FGood,nbbadclause,nbtotalbad,precisionBad,recallBad,FBad,accuracy)
c additional predictionTicks 250 176811 289474 0.39 0.24 0.30 565710 453047 0.61 1.19 0.81 0.56 (nbgoodclauses,nbtotalgood,precisionGood,recallGood,FGood,nbbadclause,nbtotalbad,precisionBad,recallBad,FBad,accuracy)
c additional predictionTicks 500 223012 289474 0.40 0.31 0.34 519509 453047 0.61 1.10 0.79 0.55 (nbgoodclauses,nbtotalgood,precisionGood,recallGood,FGood,nbbadclause,nbtotalbad,precisionBad,recallBad,FBad,accuracy)
c additional predictionTicks 1000 270720 289474 0.40 0.37 0.39 471801 453047 0.62 1.00 0.76 0.54 (nbgoodclauses,nbtotalgood,precisionGood,recallGood,FGood,nbbadclause,nbtotalbad,precisionBad,recallBad,FBad,accuracy)
c additional predictionTicks 2500 339335 289474 0.40 0.47 0.43 403186 453047 0.62 0.86 0.72 0.52 (nbgoodclauses,nbtotalgood,precisionGood,recallGood,FGood,nbbadclause,nbtotalbad,precisionBad,recallBad,FBad,accuracy)
c additional predictionTicks 5000 395507 289474 0.40 0.55 0.46 347014 453047 0.62 0.75 0.68 0.50 (nbgoodclauses,nbtotalgood,precisionGood,recallGood,FGood,nbbadclause,nbtotalbad,precisionBad,recallBad,FBad,accuracy)
c additional predictionTicks 10000 459367 289474 0.39 0.63 0.48 283154 453047 0.62 0.60 0.61 0.48 (nbgoodclauses,nbtotalgood,precisionGood,recallGood,FGood,nbbadclause,nbtotalbad,precisionBad,recallBad,FBad,accuracy)
c additional predictionTicks 25000 556950 289474 0.38 0.74 0.51 185571 453047 0.60 0.38 0.47 0.44 (nbgoodclauses,nbtotalgood,precisionGood,recallGood,FGood,nbbadclause,nbtotalbad,precisionBad,recallBad,FBad,accuracy)
c additional predictionTicks 50000 632807 289474 0.38 0.84 0.52 109714 453047 0.57 0.22 0.31 0.41 (nbgoodclauses,nbtotalgood,precisionGood,recallGood,FGood,nbbadclause,nbtotalbad,precisionBad,recallBad,FBad,accuracy)
c additional predictionTicks 100000 693774 289474 0.38 0.92 0.54 48747 453047 0.54 0.09 0.16 0.39 (nbgoodclauses,nbtotalgood,precisionGood,recallGood,FGood,nbbadclause,nbtotalbad,precisionBad,recallBad,FBad,accuracy)
c additional lifetimeGood 1 64 34482 89139 220667 366902 488994 575504 619252 689859 761571 761603 (0,1,5,10,25,50,75,90,95,99,100-1,100)
c additional lifetimeBad 1 32 11076 32377 98794 223159 396891 545865 606188 690697 761788 761789 (0,1,5,10,25,50,75,90,95,99,100-1,100)
c additional lifetimeBadBad 2 16 16 16 32 160 33522 165435 292702 501449 750936 753080 (0,1,5,10,25,50,75,90,95,99,100-1,100)
c additional compositionBad 1 4 9 15 51 225 705 1461 2058 3429 10167 10181 (0,1,5,10,25,50,75,90,95,99,100-1,100)
c additional compositionBadWithGood 0 0 1 2 5 21 68 153 223 375 885 893 (0,1,5,10,25,50,75,90,95,99,100-1,100)
c additional compositionBadWithBad 0 0 0 0 0 1 2 4 6 10 38 39 (0,1,5,10,25,50,75,90,95,99,100-1,100)
c additional compositionBadWithInitial 0 2 7 11 41 196 629 1320 1862 3124 9459 9531 (0,1,5,10,25,50,75,90,95,99,100-1,100)
c additional compositionGood 1 3 6 10 32 187 680 1513 2166 3592 8842 10978 (0,1,5,10,25,50,75,90,95,99,100-1,100)
c additional compositionGoodWithGood 0 0 1 2 5 21 76 178 258 422 929 951 (0,1,5,10,25,50,75,90,95,99,100-1,100)
c additional compositionGoodWithInitial 0 1 4 7 24 160 598 1350 1937 3233 7891 10091 (0,1,5,10,25,50,75,90,95,99,100-1,100)
c additional propagationGood total 139824486 percentiles 0 1 1 1 1 2 14 118 465 9049 187266 188363 (0,1,5,10,25,50,75,90,95,99,100-1,100)
c additional propagationBad total 4766841 percentiles 1 1 1 1 1 1 2 7 16 110 150459 183658 (0,1,5,10,25,50,75,90,95,99,100-1,100)
c additional resolutionGood total 19735801 percentiles 0 1 1 1 1 1 6 28 71 819 48364 49566 (0,1,5,10,25,50,75,90,95,99,100-1,100)
c additional resolutionBad total 724935 percentiles 0 0 0 0 1 1 1 2 4 13 528 665 (0,1,5,10,25,50,75,90,95,99,100-1,100)
No graph is dumped
c result of core 8 is UNSAT
c One thread has finished
c Core 8 said it finished
c result of core 0 is UNKNOWN
c result of core 9 is UNKNOWN
c result of core 7 is UNKNOWN
c result of core 6 is UNKNOWN
c result of core 15 is UNKNOWN
c result of core 2 is UNKNOWN
c result of core 4 is UNKNOWN
c result of core 3 is UNKNOWN
c result of core 1 is UNKNOWN
c result of core 12 is UNKNOWN
c result of core 11 is UNKNOWN
c result of core 5 is UNKNOWN
c result of core 13 is UNKNOWN
c result of core 10 is UNKNOWN
c result of core 14 is UNKNOWN
c restarts              : 196 (236 conflicts in avg)
c blocked restarts      : 0 (multiple: 0) 
c last block at restart : 0
c nb ReduceDB           : 5
c nb removed Clauses    : 43167
c nb learnts DL2        : 885
c nb learnts size 2     : 481
c nb learnts size 1     : 83
c conflicts             : 46408          (17 /sec)
c decisions             : 303373         (0.00 % random) (114 /sec)
c propagations          : 243768981      (91441 /sec)
c conflict literals     : 11403554       (17.61 % deleted)
c nb reduced Clauses    : 286
c CPU time              : 2665.85 s

s INDETERMINATE
