c
c This is glucose-proof 1.0 based on  2.1 --  (thanks to MiniSAT)
c
c EXPERIMENTAL EASY PARALLEL (ROUND ROBIN) VERSION
c
c WARNING: for repeatability, setting FPU to use double precision
c Parallel version 8 solvers created.
c ========================================[ Problem Statistics ]===========================================
c |                                                                                                       |
c |  Number of variables:         64616                                                                   |
c |  Number of clauses:          376290                                                                   |
c |  Parse time:                   0.68 s                                                                 |
c |                                                                                                       |
c ========================================[ MAGIC CONSTANTS ]==============================================
c | Constants are supposed to work well together :-)                                                      |
c | however, if you find better choices, please let us known...                                           |
c |-------------------------------------------------------------------------------------------------------|
c |                                |                                |                                     |
c | - Restarts:                    | - Reduce Clause DB:            | - Minimize Asserting:               |
c |   * LBD Queue    :     50      |   * First     :   4000         |    * size <  30                     |
c |   * Trail  Queue :   5000      |   * Inc       :    300         |    * lbd  <   6                     |
c |   * K            :   0.80      |   * Special   :   1000         |                                     |
c |   * R            :   1.40      |   * Protected :  (lbd)< 30     |                                     |
c |                                |                                |                                     |
c ==================================[ Search Statistics (every  10000 conflicts) ]=========================
c |                                                                                                       |
c |          RESTARTS           |          ORIGINAL         |              LEARNT              | Progress |
c |       NB   Blocked  Avg Cfc |    Vars  Clauses Literals |   Red   Learnts    LBD2  Removed |          |
c =========================================================================================================
c |      105         0       95 |   44581   376290  1029434 |     1     7550      457     3400 | 31.006 % |
c empty clause found by core 1 at conflict 14983
*
c checking the resolution graph...OK
c All useful bySize 63289 clauses, percentiles 0 2 2 2 2 2 3 12 69 193 479 496 (0,1,5,10,25,50,75,90,95,99,100-1,100)
c All useless bySize 435855 clauses, percentiles 0 2 2 2 2 3 5 131 229 447 1424 1585 (0,1,5,10,25,50,75,90,95,99,100-1,100)
c ProofOnly useful bySize 12203 clauses, percentiles 0 1 2 2 3 14 72 144 195 306 479 496 (0,1,5,10,25,50,75,90,95,99,100-1,100)
c ProofOnly useless bySize 107655 clauses, percentiles 1 2 5 9 33 102 199 328 421 626 1424 1585 (0,1,5,10,25,50,75,90,95,99,100-1,100)
c All useful byFinalLBD 63289 clauses, percentiles 0 1 2 2 2 2 3 5 7 39 187 187 (0,1,5,10,25,50,75,90,95,99,100-1,100)
c All useless byFinalLBD 435855 clauses, percentiles 0 1 2 2 2 3 5 13 30 95 450 454 (0,1,5,10,25,50,75,90,95,99,100-1,100)
c ProofOnly useful byFinalLBD 12203 clauses, percentiles 0 1 1 1 2 2 5 15 42 111 187 187 (0,1,5,10,25,50,75,90,95,99,100-1,100)
c ProofOnly useless byFinalLBD 107655 clauses, percentiles 1 1 2 3 5 10 24 56 86 154 450 454 (0,1,5,10,25,50,75,90,95,99,100-1,100)
c All useful byInitialLBD 63289 clauses, percentiles 0 2 2 2 2 2 3 6 10 56 187 189 (0,1,5,10,25,50,75,90,95,99,100-1,100)
c All useless byInitialLBD 435855 clauses, percentiles 0 2 2 2 2 3 5 15 34 99 450 454 (0,1,5,10,25,50,75,90,95,99,100-1,100)
c ProofOnly useful byInitialLBD 12203 clauses, percentiles 0 1 2 2 3 4 9 28 57 121 187 189 (0,1,5,10,25,50,75,90,95,99,100-1,100)
c ProofOnly useless byInitialLBD 107655 clauses, percentiles 1 2 3 4 6 11 27 61 91 158 450 454 (0,1,5,10,25,50,75,90,95,99,100-1,100)
c Literals ProofOnly useful 590918
c Literals ProofOnly useless 15073819
c additional windowsGood 1 1 1 1 1 1 1 2 2 3 6 9 (0,1,5,10,25,50,75,90,95,99,100-1,100)
c additional windowsBad 1 1 1 1 3 7 9 22 33 81 370 527 (0,1,5,10,25,50,75,90,95,99,100-1,100)
c additional 1WindowNoDecision 9337 4680 0.50 1099 460 0.42 (nbWindowsGood,nbWindowsNoDecisionGood,nbWindowsBad,nbWindowsNoDecisionBad
c additional topclausessize all (10%,5%,1%,top) 89.33 145.45 257.94 496
c additional topclausessize proofonly (10%,5%,1%,top) 131.56 183.10 292.06 496
c additional topclausesinitialLBD all (10%,5%,1%,top) 87.86 141.20 251.99 496
c additional topclausesinitialLBD proofonly (10%,5%,1%,top) 86.50 137.61 246.50 496
c additional topclausesfinalLBD all (10%,5%,1%,top) 66.94 114.15 223.34 496
c additional topclausesfinalLBD proofonly (10%,5%,1%,top) 66.25 112.38 219.89 496
c additional predictionInitialLBD 1 434 12203 0.86 0.03 0.06 119424 107655 0.90 8.82 1.63 0.90 (nbgoodclauses,nbtotalgood,precisionGood,recallGood,FGood,nbbadclause,nbtotalbad,precisionBad,recallBad,FBad,accuracy)
c additional predictionInitialLBD 2 5546 12203 0.47 0.21 0.29 114312 107655 0.92 8.58 1.66 0.90 (nbgoodclauses,nbtotalgood,precisionGood,recallGood,FGood,nbbadclause,nbtotalbad,precisionBad,recallBad,FBad,accuracy)
c additional predictionInitialLBD 3 13859 12203 0.37 0.42 0.39 105999 107655 0.93 8.11 1.67 0.87 (nbgoodclauses,nbtotalgood,precisionGood,recallGood,FGood,nbbadclause,nbtotalbad,precisionBad,recallBad,FBad,accuracy)
c additional predictionInitialLBD 4 23129 12203 0.28 0.53 0.36 96729 107655 0.94 7.45 1.67 0.81 (nbgoodclauses,nbtotalgood,precisionGood,recallGood,FGood,nbbadclause,nbtotalbad,precisionBad,recallBad,FBad,accuracy)
c additional predictionInitialLBD 5 32007 12203 0.23 0.61 0.34 87851 107655 0.95 6.81 1.66 0.75 (nbgoodclauses,nbtotalgood,precisionGood,recallGood,FGood,nbbadclause,nbtotalbad,precisionBad,recallBad,FBad,accuracy)
c additional predictionInitialLBD 6 39600 12203 0.20 0.66 0.31 80258 107655 0.95 6.24 1.65 0.70 (nbgoodclauses,nbtotalgood,precisionGood,recallGood,FGood,nbbadclause,nbtotalbad,precisionBad,recallBad,FBad,accuracy)
c additional predictionInitialLBD 7 46209 12203 0.19 0.71 0.30 73649 107655 0.95 5.74 1.63 0.66 (nbgoodclauses,nbtotalgood,precisionGood,recallGood,FGood,nbbadclause,nbtotalbad,precisionBad,recallBad,FBad,accuracy)
c additional predictionInitialLBD 8 51732 12203 0.17 0.74 0.28 68126 107655 0.95 5.32 1.62 0.62 (nbgoodclauses,nbtotalgood,precisionGood,recallGood,FGood,nbbadclause,nbtotalbad,precisionBad,recallBad,FBad,accuracy)
c additional predictionInitialLBD 10 60683 12203 0.16 0.78 0.26 59175 107655 0.96 4.63 1.58 0.55 (nbgoodclauses,nbtotalgood,precisionGood,recallGood,FGood,nbbadclause,nbtotalbad,precisionBad,recallBad,FBad,accuracy)
c additional predictionInitialLBD 14 72834 12203 0.14 0.83 0.24 47024 107655 0.96 3.69 1.52 0.46 (nbgoodclauses,nbtotalgood,precisionGood,recallGood,FGood,nbbadclause,nbtotalbad,precisionBad,recallBad,FBad,accuracy)
c additional predictionInitialLBD 18 80843 12203 0.13 0.86 0.23 39015 107655 0.96 3.06 1.46 0.40 (nbgoodclauses,nbtotalgood,precisionGood,recallGood,FGood,nbbadclause,nbtotalbad,precisionBad,recallBad,FBad,accuracy)
c additional predictionInitialLBD 22 86549 12203 0.12 0.88 0.22 33309 107655 0.96 2.61 1.40 0.36 (nbgoodclauses,nbtotalgood,precisionGood,recallGood,FGood,nbbadclause,nbtotalbad,precisionBad,recallBad,FBad,accuracy)
c additional predictionInitialLBD 30 94527 12203 0.12 0.91 0.21 25331 107655 0.96 1.98 1.29 0.29 (nbgoodclauses,nbtotalgood,precisionGood,recallGood,FGood,nbbadclause,nbtotalbad,precisionBad,recallBad,FBad,accuracy)
c additional predictionInitialLBD 40 100908 12203 0.11 0.92 0.20 18950 107655 0.95 1.48 1.16 0.24 (nbgoodclauses,nbtotalgood,precisionGood,recallGood,FGood,nbbadclause,nbtotalbad,precisionBad,recallBad,FBad,accuracy)
c additional predictionFinallLBD 1 5160 12203 0.51 0.22 0.31 114698 107655 0.92 0.98 0.95 0.90 (nbgoodclauses,nbtotalgood,precisionGood,recallGood,FGood,nbbadclause,nbtotalbad,precisionBad,recallBad,FBad,accuracy)
c additional predictionFinallLBD 2 15709 12203 0.40 0.52 0.45 104149 107655 0.94 0.91 0.93 0.87 (nbgoodclauses,nbtotalgood,precisionGood,recallGood,FGood,nbbadclause,nbtotalbad,precisionBad,recallBad,FBad,accuracy)
c additional predictionFinallLBD 3 25168 12203 0.32 0.65 0.43 94690 107655 0.96 0.84 0.89 0.82 (nbgoodclauses,nbtotalgood,precisionGood,recallGood,FGood,nbbadclause,nbtotalbad,precisionBad,recallBad,FBad,accuracy)
c additional predictionFinallLBD 4 34410 12203 0.26 0.73 0.38 85448 107655 0.96 0.76 0.85 0.76 (nbgoodclauses,nbtotalgood,precisionGood,recallGood,FGood,nbbadclause,nbtotalbad,precisionBad,recallBad,FBad,accuracy)
c additional predictionFinallLBD 5 42272 12203 0.22 0.77 0.35 77586 107655 0.96 0.70 0.81 0.70 (nbgoodclauses,nbtotalgood,precisionGood,recallGood,FGood,nbbadclause,nbtotalbad,precisionBad,recallBad,FBad,accuracy)
c additional predictionFinallLBD 6 49277 12203 0.20 0.81 0.32 70581 107655 0.97 0.63 0.77 0.65 (nbgoodclauses,nbtotalgood,precisionGood,recallGood,FGood,nbbadclause,nbtotalbad,precisionBad,recallBad,FBad,accuracy)
c additional predictionFinallLBD 7 55195 12203 0.18 0.83 0.30 64663 107655 0.97 0.58 0.73 0.61 (nbgoodclauses,nbtotalgood,precisionGood,recallGood,FGood,nbbadclause,nbtotalbad,precisionBad,recallBad,FBad,accuracy)
c additional predictionFinallLBD 8 60079 12203 0.17 0.85 0.29 59779 107655 0.97 0.54 0.69 0.57 (nbgoodclauses,nbtotalgood,precisionGood,recallGood,FGood,nbbadclause,nbtotalbad,precisionBad,recallBad,FBad,accuracy)
c additional predictionFinallLBD 10 67942 12203 0.16 0.87 0.26 51916 107655 0.97 0.47 0.63 0.51 (nbgoodclauses,nbtotalgood,precisionGood,recallGood,FGood,nbbadclause,nbtotalbad,precisionBad,recallBad,FBad,accuracy)
c additional predictionFinallLBD 14 78565 12203 0.14 0.90 0.24 41293 107655 0.97 0.37 0.54 0.43 (nbgoodclauses,nbtotalgood,precisionGood,recallGood,FGood,nbbadclause,nbtotalbad,precisionBad,recallBad,FBad,accuracy)
c additional predictionFinallLBD 18 85535 12203 0.13 0.91 0.23 34323 107655 0.97 0.31 0.47 0.37 (nbgoodclauses,nbtotalgood,precisionGood,recallGood,FGood,nbbadclause,nbtotalbad,precisionBad,recallBad,FBad,accuracy)
c additional predictionFinallLBD 22 90492 12203 0.12 0.92 0.22 29366 107655 0.97 0.26 0.42 0.33 (nbgoodclauses,nbtotalgood,precisionGood,recallGood,FGood,nbbadclause,nbtotalbad,precisionBad,recallBad,FBad,accuracy)
c additional predictionFinallLBD 30 97431 12203 0.12 0.94 0.21 22427 107655 0.97 0.20 0.33 0.28 (nbgoodclauses,nbtotalgood,precisionGood,recallGood,FGood,nbbadclause,nbtotalbad,precisionBad,recallBad,FBad,accuracy)
c additional predictionFinallLBD 40 103068 12203 0.11 0.95 0.20 16790 107655 0.96 0.15 0.26 0.23 (nbgoodclauses,nbtotalgood,precisionGood,recallGood,FGood,nbbadclause,nbtotalbad,precisionBad,recallBad,FBad,accuracy)
c additional predictionSize 1 434 12203 0.86 0.03 0.06 119424 107655 0.90 8.82 1.63 0.90 (nbgoodclauses,nbtotalgood,precisionGood,recallGood,FGood,nbbadclause,nbtotalbad,precisionBad,recallBad,FBad,accuracy)
c additional predictionSize 2 3186 12203 0.55 0.14 0.23 116672 107655 0.91 8.70 1.65 0.90 (nbgoodclauses,nbtotalgood,precisionGood,recallGood,FGood,nbbadclause,nbtotalbad,precisionBad,recallBad,FBad,accuracy)
c additional predictionSize 3 6485 12203 0.48 0.26 0.34 113373 107655 0.92 8.55 1.66 0.90 (nbgoodclauses,nbtotalgood,precisionGood,recallGood,FGood,nbbadclause,nbtotalbad,precisionBad,recallBad,FBad,accuracy)
c additional predictionSize 4 8689 12203 0.43 0.31 0.36 111169 107655 0.92 8.42 1.66 0.89 (nbgoodclauses,nbtotalgood,precisionGood,recallGood,FGood,nbbadclause,nbtotalbad,precisionBad,recallBad,FBad,accuracy)
c additional predictionSize 5 10907 12203 0.39 0.35 0.37 108951 107655 0.93 8.28 1.67 0.88 (nbgoodclauses,nbtotalgood,precisionGood,recallGood,FGood,nbbadclause,nbtotalbad,precisionBad,recallBad,FBad,accuracy)
c additional predictionSize 6 12503 12203 0.37 0.38 0.37 107355 107655 0.93 8.18 1.67 0.87 (nbgoodclauses,nbtotalgood,precisionGood,recallGood,FGood,nbbadclause,nbtotalbad,precisionBad,recallBad,FBad,accuracy)
c additional predictionSize 7 14157 12203 0.35 0.41 0.38 105701 107655 0.93 8.07 1.67 0.86 (nbgoodclauses,nbtotalgood,precisionGood,recallGood,FGood,nbbadclause,nbtotalbad,precisionBad,recallBad,FBad,accuracy)
c additional predictionSize 8 15547 12203 0.33 0.42 0.37 104311 107655 0.93 7.97 1.67 0.85 (nbgoodclauses,nbtotalgood,precisionGood,recallGood,FGood,nbbadclause,nbtotalbad,precisionBad,recallBad,FBad,accuracy)
c additional predictionSize 10 18533 12203 0.30 0.46 0.37 101325 107655 0.94 7.76 1.67 0.84 (nbgoodclauses,nbtotalgood,precisionGood,recallGood,FGood,nbbadclause,nbtotalbad,precisionBad,recallBad,FBad,accuracy)
c additional predictionSize 14 22754 12203 0.27 0.51 0.35 97104 107655 0.94 7.46 1.67 0.81 (nbgoodclauses,nbtotalgood,precisionGood,recallGood,FGood,nbbadclause,nbtotalbad,precisionBad,recallBad,FBad,accuracy)
c additional predictionSize 18 26312 12203 0.25 0.54 0.34 93546 107655 0.94 7.21 1.66 0.79 (nbgoodclauses,nbtotalgood,precisionGood,recallGood,FGood,nbbadclause,nbtotalbad,precisionBad,recallBad,FBad,accuracy)
c additional predictionSize 22 29042 12203 0.24 0.57 0.34 90816 107655 0.94 7.01 1.66 0.77 (nbgoodclauses,nbtotalgood,precisionGood,recallGood,FGood,nbbadclause,nbtotalbad,precisionBad,recallBad,FBad,accuracy)
c additional predictionSize 30 33583 12203 0.22 0.62 0.33 86275 107655 0.95 6.69 1.66 0.74 (nbgoodclauses,nbtotalgood,precisionGood,recallGood,FGood,nbbadclause,nbtotalbad,precisionBad,recallBad,FBad,accuracy)
c additional predictionSize 40 38132 12203 0.21 0.66 0.32 81726 107655 0.95 6.35 1.65 0.71 (nbgoodclauses,nbtotalgood,precisionGood,recallGood,FGood,nbbadclause,nbtotalbad,precisionBad,recallBad,FBad,accuracy)
c additional predictionAge 1 9359 12203 0.24 0.18 0.21 110499 107655 0.91 8.24 1.64 0.86 (nbgoodclauses,nbtotalgood,precisionGood,recallGood,FGood,nbbadclause,nbtotalbad,precisionBad,recallBad,FBad,accuracy)
c additional predictionAge 10 9863 12203 0.23 0.19 0.21 109995 107655 0.91 8.20 1.64 0.85 (nbgoodclauses,nbtotalgood,precisionGood,recallGood,FGood,nbbadclause,nbtotalbad,precisionBad,recallBad,FBad,accuracy)
c additional predictionAge 25 11985 12203 0.21 0.20 0.20 107873 107655 0.91 8.04 1.63 0.84 (nbgoodclauses,nbtotalgood,precisionGood,recallGood,FGood,nbbadclause,nbtotalbad,precisionBad,recallBad,FBad,accuracy)
c additional predictionAge 50 13208 12203 0.19 0.21 0.20 106650 107655 0.91 7.95 1.63 0.83 (nbgoodclauses,nbtotalgood,precisionGood,recallGood,FGood,nbbadclause,nbtotalbad,precisionBad,recallBad,FBad,accuracy)
c additional predictionAge 100 14382 12203 0.19 0.22 0.20 105476 107655 0.91 7.86 1.63 0.82 (nbgoodclauses,nbtotalgood,precisionGood,recallGood,FGood,nbbadclause,nbtotalbad,precisionBad,recallBad,FBad,accuracy)
c additional predictionAge 250 15830 12203 0.18 0.23 0.20 104028 107655 0.91 7.76 1.63 0.81 (nbgoodclauses,nbtotalgood,precisionGood,recallGood,FGood,nbbadclause,nbtotalbad,precisionBad,recallBad,FBad,accuracy)
c additional predictionAge 500 16754 12203 0.18 0.24 0.20 103104 107655 0.91 7.69 1.63 0.81 (nbgoodclauses,nbtotalgood,precisionGood,recallGood,FGood,nbbadclause,nbtotalbad,precisionBad,recallBad,FBad,accuracy)
c additional predictionAge 1000 17720 12203 0.18 0.25 0.21 102138 107655 0.91 7.62 1.63 0.80 (nbgoodclauses,nbtotalgood,precisionGood,recallGood,FGood,nbbadclause,nbtotalbad,precisionBad,recallBad,FBad,accuracy)
c additional predictionAge 2500 19836 12203 0.17 0.28 0.22 100022 107655 0.91 7.48 1.63 0.79 (nbgoodclauses,nbtotalgood,precisionGood,recallGood,FGood,nbbadclause,nbtotalbad,precisionBad,recallBad,FBad,accuracy)
c additional predictionAge 5000 22897 12203 0.17 0.32 0.23 96961 107655 0.91 7.27 1.63 0.77 (nbgoodclauses,nbtotalgood,precisionGood,recallGood,FGood,nbbadclause,nbtotalbad,precisionBad,recallBad,FBad,accuracy)
c additional predictionAge 10000 28937 12203 0.17 0.39 0.23 90921 107655 0.92 6.84 1.62 0.74 (nbgoodclauses,nbtotalgood,precisionGood,recallGood,FGood,nbbadclause,nbtotalbad,precisionBad,recallBad,FBad,accuracy)
c additional predictionAge 25000 45055 12203 0.15 0.54 0.23 74803 107655 0.92 5.67 1.59 0.63 (nbgoodclauses,nbtotalgood,precisionGood,recallGood,FGood,nbbadclause,nbtotalbad,precisionBad,recallBad,FBad,accuracy)
c additional predictionAge 50000 67780 12203 0.13 0.72 0.22 52078 107655 0.93 3.99 1.51 0.48 (nbgoodclauses,nbtotalgood,precisionGood,recallGood,FGood,nbbadclause,nbtotalbad,precisionBad,recallBad,FBad,accuracy)
c additional predictionAge 100000 108225 12203 0.10 0.92 0.19 11633 107655 0.92 0.87 0.89 0.18 (nbgoodclauses,nbtotalgood,precisionGood,recallGood,FGood,nbbadclause,nbtotalbad,precisionBad,recallBad,FBad,accuracy)
c additional predictionTicks 1 9501 12203 0.24 0.19 0.21 110357 107655 0.91 8.23 1.64 0.86 (nbgoodclauses,nbtotalgood,precisionGood,recallGood,FGood,nbbadclause,nbtotalbad,precisionBad,recallBad,FBad,accuracy)
c additional predictionTicks 10 18951 12203 0.18 0.28 0.22 100907 107655 0.91 7.55 1.63 0.80 (nbgoodclauses,nbtotalgood,precisionGood,recallGood,FGood,nbbadclause,nbtotalbad,precisionBad,recallBad,FBad,accuracy)
c additional predictionTicks 25 30781 12203 0.15 0.37 0.21 89077 107655 0.91 6.67 1.61 0.72 (nbgoodclauses,nbtotalgood,precisionGood,recallGood,FGood,nbbadclause,nbtotalbad,precisionBad,recallBad,FBad,accuracy)
c additional predictionTicks 50 38441 12203 0.14 0.44 0.21 81417 107655 0.92 6.11 1.59 0.67 (nbgoodclauses,nbtotalgood,precisionGood,recallGood,FGood,nbbadclause,nbtotalbad,precisionBad,recallBad,FBad,accuracy)
c additional predictionTicks 100 46189 12203 0.13 0.50 0.21 73669 107655 0.92 5.54 1.57 0.61 (nbgoodclauses,nbtotalgood,precisionGood,recallGood,FGood,nbbadclause,nbtotalbad,precisionBad,recallBad,FBad,accuracy)
c additional predictionTicks 250 55754 12203 0.13 0.58 0.21 64104 107655 0.92 4.83 1.55 0.55 (nbgoodclauses,nbtotalgood,precisionGood,recallGood,FGood,nbbadclause,nbtotalbad,precisionBad,recallBad,FBad,accuracy)
c additional predictionTicks 500 61920 12203 0.13 0.64 0.21 57938 107655 0.92 4.39 1.53 0.51 (nbgoodclauses,nbtotalgood,precisionGood,recallGood,FGood,nbbadclause,nbtotalbad,precisionBad,recallBad,FBad,accuracy)
c additional predictionTicks 1000 68306 12203 0.12 0.70 0.21 51552 107655 0.93 3.92 1.50 0.47 (nbgoodclauses,nbtotalgood,precisionGood,recallGood,FGood,nbbadclause,nbtotalbad,precisionBad,recallBad,FBad,accuracy)
c additional predictionTicks 2500 78702 12203 0.12 0.79 0.21 41156 107655 0.94 3.16 1.45 0.40 (nbgoodclauses,nbtotalgood,precisionGood,recallGood,FGood,nbbadclause,nbtotalbad,precisionBad,recallBad,FBad,accuracy)
c additional predictionTicks 5000 88307 12203 0.12 0.86 0.21 31551 107655 0.95 2.45 1.37 0.34 (nbgoodclauses,nbtotalgood,precisionGood,recallGood,FGood,nbbadclause,nbtotalbad,precisionBad,recallBad,FBad,accuracy)
c additional predictionTicks 10000 99086 12203 0.11 0.92 0.20 20772 107655 0.95 1.62 1.20 0.26 (nbgoodclauses,nbtotalgood,precisionGood,recallGood,FGood,nbbadclause,nbtotalbad,precisionBad,recallBad,FBad,accuracy)
c additional predictionTicks 25000 112108 12203 0.11 0.98 0.19 7750 107655 0.96 0.61 0.75 0.16 (nbgoodclauses,nbtotalgood,precisionGood,recallGood,FGood,nbbadclause,nbtotalbad,precisionBad,recallBad,FBad,accuracy)
c additional predictionTicks 50000 118000 12203 0.10 1.00 0.19 1858 107655 0.97 0.15 0.26 0.12 (nbgoodclauses,nbtotalgood,precisionGood,recallGood,FGood,nbbadclause,nbtotalbad,precisionBad,recallBad,FBad,accuracy)
c additional predictionTicks 100000 119811 12203 0.10 1.00 0.18 47 107655 0.96 0.00 0.01 0.10 (nbgoodclauses,nbtotalgood,precisionGood,recallGood,FGood,nbbadclause,nbtotalbad,precisionBad,recallBad,FBad,accuracy)
c additional lifetimeGood 2 8 32 304 4697 20539 50192 85657 101833 114382 122459 122468 (0,1,5,10,25,50,75,90,95,99,100-1,100)
c additional lifetimeBad 1 8 32 529 8371 26874 53933 77848 90594 108773 122715 122818 (0,1,5,10,25,50,75,90,95,99,100-1,100)
c additional lifetimeBadBad 1 8 8 16 64 5896 25412 54470 71765 98673 122147 122155 (0,1,5,10,25,50,75,90,95,99,100-1,100)
c additional compositionBad 1 3 6 10 24 68 180 405 623 1216 5498 5575 (0,1,5,10,25,50,75,90,95,99,100-1,100)
c additional compositionBadWithGood 0 0 0 0 1 4 11 26 39 77 206 221 (0,1,5,10,25,50,75,90,95,99,100-1,100)
c additional compositionBadWithBad 0 0 0 0 1 2 4 7 11 22 92 101 (0,1,5,10,25,50,75,90,95,99,100-1,100)
c additional compositionBadWithInitial 0 2 5 8 21 59 163 377 582 1141 5341 5418 (0,1,5,10,25,50,75,90,95,99,100-1,100)
c additional compositionGood 1 3 4 5 9 24 74 215 380 913 2825 2834 (0,1,5,10,25,50,75,90,95,99,100-1,100)
c additional compositionGoodWithGood 0 0 0 0 1 2 6 16 25 54 152 157 (0,1,5,10,25,50,75,90,95,99,100-1,100)
c additional compositionGoodWithInitial 0 1 3 4 8 21 66 199 355 868 2718 2749 (0,1,5,10,25,50,75,90,95,99,100-1,100)
c additional propagationGood total 2412660 percentiles 0 1 1 1 4 21 116 542 1083 2742 6395 6424 (0,1,5,10,25,50,75,90,95,99,100-1,100)
c additional propagationBad total 1609150 percentiles 1 1 1 1 1 2 5 22 54 244 4350 8073 (0,1,5,10,25,50,75,90,95,99,100-1,100)
c additional resolutionGood total 370565 percentiles 0 0 1 1 2 7 24 72 137 379 1330 1985 (0,1,5,10,25,50,75,90,95,99,100-1,100)
c additional resolutionBad total 297542 percentiles 0 0 0 0 1 1 2 6 11 30 217 233 (0,1,5,10,25,50,75,90,95,99,100-1,100)
No graph is dumped
c result of core 1 is UNSAT
c One thread has finished
c Core 1 said it finished
c result of core 0 is UNKNOWN
c result of core 3 is UNKNOWN
c result of core 5 is UNKNOWN
c result of core 4 is UNKNOWN
c result of core 2 is UNKNOWN
c result of core 6 is UNKNOWN
c result of core 7 is UNKNOWN
c restarts              : 156 (96 conflicts in avg)
c blocked restarts      : 11 (multiple: 4) 
c last block at restart : 147
c nb ReduceDB           : 2
c nb removed Clauses    : 8866
c nb learnts DL2        : 599
c nb learnts size 2     : 313
c nb learnts size 1     : 57
c conflicts             : 14983          (183 /sec)
c decisions             : 139095         (0.00 % random) (1704 /sec)
c propagations          : 23541066       (288311 /sec)
c conflict literals     : 2013711        (10.36 % deleted)
c nb reduced Clauses    : 276
c CPU time              : 81.6516 s

s INDETERMINATE
