c
c This is glucose-proof 1.0 based on  2.1 --  (thanks to MiniSAT)
c
c EXPERIMENTAL EASY PARALLEL (ROUND ROBIN) VERSION
c
c WARNING: for repeatability, setting FPU to use double precision
c Parallel version 6 solvers created.
c ========================================[ Problem Statistics ]===========================================
c |                                                                                                       |
c |  Number of variables:         64616                                                                   |
c |  Number of clauses:          376290                                                                   |
c |  Parse time:                   0.55 s                                                                 |
c |                                                                                                       |
c ========================================[ MAGIC CONSTANTS ]==============================================
c | Constants are supposed to work well together :-)                                                      |
c | however, if you find better choices, please let us known...                                           |
c |-------------------------------------------------------------------------------------------------------|
c |                                |                                |                                     |
c | - Restarts:                    | - Reduce Clause DB:            | - Minimize Asserting:               |
c |   * LBD Queue    :     50      |   * First     :   4000         |    * size <  30                     |
c |   * Trail  Queue :   5000      |   * Inc       :    300         |    * lbd  <   6                     |
c |   * K            :   0.80      |   * Special   :   1000         |                                     |
c |   * R            :   1.40      |   * Protected :  (lbd)< 30     |                                     |
c |                                |                                |                                     |
c ==================================[ Search Statistics (every  10000 conflicts) ]=========================
c |                                                                                                       |
c |          RESTARTS           |          ORIGINAL         |              LEARNT              | Progress |
c |       NB   Blocked  Avg Cfc |    Vars  Clauses Literals |   Red   Learnts    LBD2  Removed |          |
c =========================================================================================================
c |       84         0      119 |   48848   376290  1029434 |     1     7799      477     3031 | 24.403 % |
c |      163        10      122 |   45463   376290  1029434 |     3     6451      783    15748 | 29.641 % |
c |      224        42      133 |   42075   376290  1029434 |     3    15181     1100    15748 | 34.885 % |
c empty clause found by core 5 at conflict 30281
*
c checking the resolution graph...OK
c All useful bySize 92881 clauses, percentiles 0 2 2 2 2 2 5 73 143 342 932 946 (0,1,5,10,25,50,75,90,95,99,100-1,100)
c All useless bySize 467483 clauses, percentiles 0 2 2 2 2 3 47 227 355 629 1563 1655 (0,1,5,10,25,50,75,90,95,99,100-1,100)
c ProofOnly useful bySize 28225 clauses, percentiles 0 1 2 3 5 23 102 202 291 474 932 946 (0,1,5,10,25,50,75,90,95,99,100-1,100)
c ProofOnly useless bySize 153461 clauses, percentiles 1 3 6 12 51 132 264 429 548 782 1563 1655 (0,1,5,10,25,50,75,90,95,99,100-1,100)
c All useful byFinalLBD 92881 clauses, percentiles 0 1 1 2 2 2 3 6 11 43 193 195 (0,1,5,10,25,50,75,90,95,99,100-1,100)
c All useless byFinalLBD 467483 clauses, percentiles 0 1 2 2 2 3 6 24 46 118 659 660 (0,1,5,10,25,50,75,90,95,99,100-1,100)
c ProofOnly useful byFinalLBD 28225 clauses, percentiles 0 1 1 1 2 3 7 19 33 79 193 195 (0,1,5,10,25,50,75,90,95,99,100-1,100)
c ProofOnly useless byFinalLBD 153461 clauses, percentiles 1 1 2 3 6 12 30 63 93 182 659 660 (0,1,5,10,25,50,75,90,95,99,100-1,100)
c All useful byInitialLBD 92881 clauses, percentiles 0 2 2 2 2 2 4 10 19 59 197 227 (0,1,5,10,25,50,75,90,95,99,100-1,100)
c All useless byInitialLBD 467483 clauses, percentiles 0 2 2 2 2 3 7 27 50 123 660 665 (0,1,5,10,25,50,75,90,95,99,100-1,100)
c ProofOnly useful byInitialLBD 28225 clauses, percentiles 0 1 2 2 3 5 12 28 46 105 197 227 (0,1,5,10,25,50,75,90,95,99,100-1,100)
c ProofOnly useless byInitialLBD 153461 clauses, percentiles 1 2 3 4 7 14 33 68 98 188 660 665 (0,1,5,10,25,50,75,90,95,99,100-1,100)
c Literals ProofOnly useful 2022506
c Literals ProofOnly useless 28345980
c additional windowsGood 1 1 1 1 1 1 1 2 2 3 11 11 (0,1,5,10,25,50,75,90,95,99,100-1,100)
c additional windowsBad 1 1 1 1 2 5 5 13 21 47 646 870 (0,1,5,10,25,50,75,90,95,99,100-1,100)
c additional 1WindowNoDecision 19841 10395 0.52 4024 1807 0.45 (nbWindowsGood,nbWindowsNoDecisionGood,nbWindowsBad,nbWindowsNoDecisionBad
c additional topclausessize all (10%,5%,1%,top) 183.59 262.21 447.61 946
c additional topclausessize proofonly (10%,5%,1%,top) 231.17 313.08 493.92 946
c additional topclausesinitialLBD all (10%,5%,1%,top) 169.47 245.85 432.66 946
c additional topclausesinitialLBD proofonly (10%,5%,1%,top) 157.75 232.17 419.37 946
c additional topclausesfinalLBD all (10%,5%,1%,top) 125.88 197.26 383.22 946
c additional topclausesfinalLBD proofonly (10%,5%,1%,top) 119.72 189.35 373.85 946
c additional predictionInitialLBD 1 486 28225 0.91 0.02 0.03 181200 153461 0.85 5.44 1.47 0.85 (nbgoodclauses,nbtotalgood,precisionGood,recallGood,FGood,nbbadclause,nbtotalbad,precisionBad,recallBad,FBad,accuracy)
c additional predictionInitialLBD 2 6570 28225 0.63 0.15 0.24 175116 153461 0.86 5.35 1.49 0.85 (nbgoodclauses,nbtotalgood,precisionGood,recallGood,FGood,nbbadclause,nbtotalbad,precisionBad,recallBad,FBad,accuracy)
c additional predictionInitialLBD 3 16932 28225 0.53 0.32 0.40 164754 153461 0.88 5.15 1.51 0.85 (nbgoodclauses,nbtotalgood,precisionGood,recallGood,FGood,nbbadclause,nbtotalbad,precisionBad,recallBad,FBad,accuracy)
c additional predictionInitialLBD 4 28750 28225 0.42 0.43 0.43 152936 153461 0.89 4.85 1.51 0.82 (nbgoodclauses,nbtotalgood,precisionGood,recallGood,FGood,nbbadclause,nbtotalbad,precisionBad,recallBad,FBad,accuracy)
c additional predictionInitialLBD 5 40146 28225 0.36 0.52 0.43 141540 153461 0.90 4.53 1.51 0.78 (nbgoodclauses,nbtotalgood,precisionGood,recallGood,FGood,nbbadclause,nbtotalbad,precisionBad,recallBad,FBad,accuracy)
c additional predictionInitialLBD 6 50275 28225 0.32 0.58 0.42 131411 153461 0.91 4.23 1.50 0.75 (nbgoodclauses,nbtotalgood,precisionGood,recallGood,FGood,nbbadclause,nbtotalbad,precisionBad,recallBad,FBad,accuracy)
c additional predictionInitialLBD 7 59209 28225 0.30 0.62 0.40 122477 153461 0.91 3.96 1.48 0.71 (nbgoodclauses,nbtotalgood,precisionGood,recallGood,FGood,nbbadclause,nbtotalbad,precisionBad,recallBad,FBad,accuracy)
c additional predictionInitialLBD 8 67131 28225 0.28 0.66 0.39 114555 153461 0.92 3.72 1.47 0.68 (nbgoodclauses,nbtotalgood,precisionGood,recallGood,FGood,nbbadclause,nbtotalbad,precisionBad,recallBad,FBad,accuracy)
c additional predictionInitialLBD 10 80299 28225 0.25 0.71 0.37 101387 153461 0.92 3.31 1.44 0.62 (nbgoodclauses,nbtotalgood,precisionGood,recallGood,FGood,nbbadclause,nbtotalbad,precisionBad,recallBad,FBad,accuracy)
c additional predictionInitialLBD 14 99426 28225 0.22 0.78 0.35 82260 153461 0.93 2.70 1.38 0.54 (nbgoodclauses,nbtotalgood,precisionGood,recallGood,FGood,nbbadclause,nbtotalbad,precisionBad,recallBad,FBad,accuracy)
c additional predictionInitialLBD 18 113034 28225 0.21 0.83 0.33 68652 153461 0.93 2.27 1.32 0.48 (nbgoodclauses,nbtotalgood,precisionGood,recallGood,FGood,nbbadclause,nbtotalbad,precisionBad,recallBad,FBad,accuracy)
c additional predictionInitialLBD 22 123203 28225 0.20 0.87 0.32 58483 153461 0.94 1.94 1.26 0.44 (nbgoodclauses,nbtotalgood,precisionGood,recallGood,FGood,nbbadclause,nbtotalbad,precisionBad,recallBad,FBad,accuracy)
c additional predictionInitialLBD 30 137220 28225 0.19 0.91 0.31 44466 153461 0.94 1.49 1.15 0.37 (nbgoodclauses,nbtotalgood,precisionGood,recallGood,FGood,nbbadclause,nbtotalbad,precisionBad,recallBad,FBad,accuracy)
c additional predictionInitialLBD 40 149129 28225 0.18 0.94 0.30 32557 153461 0.95 1.09 1.02 0.32 (nbgoodclauses,nbtotalgood,precisionGood,recallGood,FGood,nbbadclause,nbtotalbad,precisionBad,recallBad,FBad,accuracy)
c additional predictionFinallLBD 1 7660 28225 0.66 0.18 0.28 174026 153461 0.87 0.98 0.92 0.86 (nbgoodclauses,nbtotalgood,precisionGood,recallGood,FGood,nbbadclause,nbtotalbad,precisionBad,recallBad,FBad,accuracy)
c additional predictionFinallLBD 2 21659 28225 0.56 0.43 0.48 160027 153461 0.90 0.94 0.92 0.86 (nbgoodclauses,nbtotalgood,precisionGood,recallGood,FGood,nbbadclause,nbtotalbad,precisionBad,recallBad,FBad,accuracy)
c additional predictionFinallLBD 3 33721 28225 0.47 0.56 0.51 147965 153461 0.92 0.88 0.90 0.83 (nbgoodclauses,nbtotalgood,precisionGood,recallGood,FGood,nbbadclause,nbtotalbad,precisionBad,recallBad,FBad,accuracy)
c additional predictionFinallLBD 4 45440 28225 0.40 0.65 0.50 136246 153461 0.93 0.82 0.87 0.80 (nbgoodclauses,nbtotalgood,precisionGood,recallGood,FGood,nbbadclause,nbtotalbad,precisionBad,recallBad,FBad,accuracy)
c additional predictionFinallLBD 5 55880 28225 0.36 0.70 0.47 125806 153461 0.93 0.77 0.84 0.76 (nbgoodclauses,nbtotalgood,precisionGood,recallGood,FGood,nbbadclause,nbtotalbad,precisionBad,recallBad,FBad,accuracy)
c additional predictionFinallLBD 6 65308 28225 0.32 0.74 0.45 116378 153461 0.94 0.71 0.81 0.72 (nbgoodclauses,nbtotalgood,precisionGood,recallGood,FGood,nbbadclause,nbtotalbad,precisionBad,recallBad,FBad,accuracy)
c additional predictionFinallLBD 7 73621 28225 0.30 0.77 0.43 108065 153461 0.94 0.66 0.78 0.68 (nbgoodclauses,nbtotalgood,precisionGood,recallGood,FGood,nbbadclause,nbtotalbad,precisionBad,recallBad,FBad,accuracy)
c additional predictionFinallLBD 8 80870 28225 0.28 0.79 0.41 100816 153461 0.94 0.62 0.75 0.65 (nbgoodclauses,nbtotalgood,precisionGood,recallGood,FGood,nbbadclause,nbtotalbad,precisionBad,recallBad,FBad,accuracy)
c additional predictionFinallLBD 10 92690 28225 0.25 0.83 0.39 88996 153461 0.94 0.55 0.69 0.59 (nbgoodclauses,nbtotalgood,precisionGood,recallGood,FGood,nbbadclause,nbtotalbad,precisionBad,recallBad,FBad,accuracy)
c additional predictionFinallLBD 14 109670 28225 0.22 0.87 0.36 72016 153461 0.95 0.45 0.61 0.51 (nbgoodclauses,nbtotalgood,precisionGood,recallGood,FGood,nbbadclause,nbtotalbad,precisionBad,recallBad,FBad,accuracy)
c additional predictionFinallLBD 18 121588 28225 0.21 0.90 0.34 60098 153461 0.95 0.37 0.54 0.45 (nbgoodclauses,nbtotalgood,precisionGood,recallGood,FGood,nbbadclause,nbtotalbad,precisionBad,recallBad,FBad,accuracy)
c additional predictionFinallLBD 22 130493 28225 0.20 0.92 0.33 51193 153461 0.96 0.32 0.48 0.41 (nbgoodclauses,nbtotalgood,precisionGood,recallGood,FGood,nbbadclause,nbtotalbad,precisionBad,recallBad,FBad,accuracy)
c additional predictionFinallLBD 30 142606 28225 0.19 0.94 0.31 39080 153461 0.96 0.24 0.39 0.35 (nbgoodclauses,nbtotalgood,precisionGood,recallGood,FGood,nbbadclause,nbtotalbad,precisionBad,recallBad,FBad,accuracy)
c additional predictionFinallLBD 40 153045 28225 0.18 0.96 0.30 28641 153461 0.96 0.18 0.30 0.30 (nbgoodclauses,nbtotalgood,precisionGood,recallGood,FGood,nbbadclause,nbtotalbad,precisionBad,recallBad,FBad,accuracy)
c additional predictionSize 1 486 28225 0.91 0.02 0.03 181200 153461 0.85 5.44 1.47 0.85 (nbgoodclauses,nbtotalgood,precisionGood,recallGood,FGood,nbbadclause,nbtotalbad,precisionBad,recallBad,FBad,accuracy)
c additional predictionSize 2 3779 28225 0.71 0.09 0.17 177907 153461 0.86 5.40 1.48 0.85 (nbgoodclauses,nbtotalgood,precisionGood,recallGood,FGood,nbbadclause,nbtotalbad,precisionBad,recallBad,FBad,accuracy)
c additional predictionSize 3 8105 28225 0.64 0.18 0.29 173581 153461 0.87 5.33 1.49 0.86 (nbgoodclauses,nbtotalgood,precisionGood,recallGood,FGood,nbbadclause,nbtotalbad,precisionBad,recallBad,FBad,accuracy)
c additional predictionSize 4 11124 28225 0.59 0.23 0.33 170562 153461 0.87 5.28 1.50 0.86 (nbgoodclauses,nbtotalgood,precisionGood,recallGood,FGood,nbbadclause,nbtotalbad,precisionBad,recallBad,FBad,accuracy)
c additional predictionSize 5 14352 28225 0.54 0.28 0.37 167334 153461 0.88 5.21 1.50 0.85 (nbgoodclauses,nbtotalgood,precisionGood,recallGood,FGood,nbbadclause,nbtotalbad,precisionBad,recallBad,FBad,accuracy)
c additional predictionSize 6 16614 28225 0.52 0.30 0.38 165072 153461 0.88 5.15 1.50 0.85 (nbgoodclauses,nbtotalgood,precisionGood,recallGood,FGood,nbbadclause,nbtotalbad,precisionBad,recallBad,FBad,accuracy)
c additional predictionSize 7 18828 28225 0.49 0.33 0.40 162858 153461 0.88 5.10 1.51 0.84 (nbgoodclauses,nbtotalgood,precisionGood,recallGood,FGood,nbbadclause,nbtotalbad,precisionBad,recallBad,FBad,accuracy)
c additional predictionSize 8 20735 28225 0.48 0.35 0.40 160951 153461 0.89 5.05 1.51 0.84 (nbgoodclauses,nbtotalgood,precisionGood,recallGood,FGood,nbbadclause,nbtotalbad,precisionBad,recallBad,FBad,accuracy)
c additional predictionSize 10 24704 28225 0.44 0.39 0.41 156982 153461 0.89 4.95 1.51 0.83 (nbgoodclauses,nbtotalgood,precisionGood,recallGood,FGood,nbbadclause,nbtotalbad,precisionBad,recallBad,FBad,accuracy)
c additional predictionSize 14 30260 28225 0.41 0.44 0.42 151426 153461 0.89 4.80 1.51 0.81 (nbgoodclauses,nbtotalgood,precisionGood,recallGood,FGood,nbbadclause,nbtotalbad,precisionBad,recallBad,FBad,accuracy)
c additional predictionSize 18 34779 28225 0.38 0.47 0.42 146907 153461 0.90 4.68 1.51 0.80 (nbgoodclauses,nbtotalgood,precisionGood,recallGood,FGood,nbbadclause,nbtotalbad,precisionBad,recallBad,FBad,accuracy)
c additional predictionSize 22 38332 28225 0.37 0.50 0.42 143354 153461 0.90 4.58 1.51 0.79 (nbgoodclauses,nbtotalgood,precisionGood,recallGood,FGood,nbbadclause,nbtotalbad,precisionBad,recallBad,FBad,accuracy)
c additional predictionSize 30 43985 28225 0.34 0.53 0.42 137701 153461 0.90 4.41 1.50 0.77 (nbgoodclauses,nbtotalgood,precisionGood,recallGood,FGood,nbbadclause,nbtotalbad,precisionBad,recallBad,FBad,accuracy)
c additional predictionSize 40 49828 28225 0.33 0.57 0.42 131858 153461 0.91 4.25 1.50 0.75 (nbgoodclauses,nbtotalgood,precisionGood,recallGood,FGood,nbbadclause,nbtotalbad,precisionBad,recallBad,FBad,accuracy)
c additional predictionAge 1 11173 28225 0.38 0.15 0.22 170513 153461 0.86 5.19 1.48 0.83 (nbgoodclauses,nbtotalgood,precisionGood,recallGood,FGood,nbbadclause,nbtotalbad,precisionBad,recallBad,FBad,accuracy)
c additional predictionAge 10 11774 28225 0.37 0.16 0.22 169912 153461 0.86 5.18 1.47 0.83 (nbgoodclauses,nbtotalgood,precisionGood,recallGood,FGood,nbbadclause,nbtotalbad,precisionBad,recallBad,FBad,accuracy)
c additional predictionAge 25 15101 28225 0.32 0.17 0.23 166585 153461 0.86 5.08 1.47 0.82 (nbgoodclauses,nbtotalgood,precisionGood,recallGood,FGood,nbbadclause,nbtotalbad,precisionBad,recallBad,FBad,accuracy)
c additional predictionAge 50 16549 28225 0.31 0.18 0.23 165137 153461 0.86 5.03 1.47 0.81 (nbgoodclauses,nbtotalgood,precisionGood,recallGood,FGood,nbbadclause,nbtotalbad,precisionBad,recallBad,FBad,accuracy)
c additional predictionAge 100 18011 28225 0.30 0.19 0.23 163675 153461 0.86 4.99 1.47 0.80 (nbgoodclauses,nbtotalgood,precisionGood,recallGood,FGood,nbbadclause,nbtotalbad,precisionBad,recallBad,FBad,accuracy)
c additional predictionAge 250 19839 28225 0.28 0.20 0.23 161847 153461 0.86 4.93 1.47 0.80 (nbgoodclauses,nbtotalgood,precisionGood,recallGood,FGood,nbbadclause,nbtotalbad,precisionBad,recallBad,FBad,accuracy)
c additional predictionAge 500 20994 28225 0.28 0.21 0.24 160692 153461 0.86 4.90 1.46 0.79 (nbgoodclauses,nbtotalgood,precisionGood,recallGood,FGood,nbbadclause,nbtotalbad,precisionBad,recallBad,FBad,accuracy)
c additional predictionAge 1000 22080 28225 0.28 0.22 0.24 159606 153461 0.86 4.87 1.46 0.79 (nbgoodclauses,nbtotalgood,precisionGood,recallGood,FGood,nbbadclause,nbtotalbad,precisionBad,recallBad,FBad,accuracy)
c additional predictionAge 2500 24379 28225 0.27 0.23 0.25 157307 153461 0.86 4.81 1.46 0.78 (nbgoodclauses,nbtotalgood,precisionGood,recallGood,FGood,nbbadclause,nbtotalbad,precisionBad,recallBad,FBad,accuracy)
c additional predictionAge 5000 28000 28225 0.26 0.26 0.26 153686 153461 0.86 4.71 1.46 0.77 (nbgoodclauses,nbtotalgood,precisionGood,recallGood,FGood,nbbadclause,nbtotalbad,precisionBad,recallBad,FBad,accuracy)
c additional predictionAge 10000 33882 28225 0.25 0.30 0.28 147804 153461 0.87 4.54 1.46 0.75 (nbgoodclauses,nbtotalgood,precisionGood,recallGood,FGood,nbbadclause,nbtotalbad,precisionBad,recallBad,FBad,accuracy)
c additional predictionAge 25000 50891 28225 0.22 0.40 0.29 130795 153461 0.87 4.03 1.43 0.69 (nbgoodclauses,nbtotalgood,precisionGood,recallGood,FGood,nbbadclause,nbtotalbad,precisionBad,recallBad,FBad,accuracy)
c additional predictionAge 50000 76358 28225 0.20 0.53 0.29 105328 153461 0.87 3.26 1.38 0.59 (nbgoodclauses,nbtotalgood,precisionGood,recallGood,FGood,nbbadclause,nbtotalbad,precisionBad,recallBad,FBad,accuracy)
c additional predictionAge 100000 123236 28225 0.17 0.76 0.28 58450 153461 0.88 1.83 1.19 0.40 (nbgoodclauses,nbtotalgood,precisionGood,recallGood,FGood,nbbadclause,nbtotalbad,precisionBad,recallBad,FBad,accuracy)
c additional predictionTicks 1 11357 28225 0.38 0.15 0.22 170329 153461 0.86 5.19 1.48 0.83 (nbgoodclauses,nbtotalgood,precisionGood,recallGood,FGood,nbbadclause,nbtotalbad,precisionBad,recallBad,FBad,accuracy)
c additional predictionTicks 10 23721 28225 0.28 0.23 0.25 157965 153461 0.86 4.83 1.46 0.79 (nbgoodclauses,nbtotalgood,precisionGood,recallGood,FGood,nbbadclause,nbtotalbad,precisionBad,recallBad,FBad,accuracy)
c additional predictionTicks 25 43250 28225 0.22 0.34 0.27 138436 153461 0.86 4.24 1.44 0.71 (nbgoodclauses,nbtotalgood,precisionGood,recallGood,FGood,nbbadclause,nbtotalbad,precisionBad,recallBad,FBad,accuracy)
c additional predictionTicks 50 53904 28225 0.20 0.39 0.27 127782 153461 0.87 3.92 1.42 0.67 (nbgoodclauses,nbtotalgood,precisionGood,recallGood,FGood,nbbadclause,nbtotalbad,precisionBad,recallBad,FBad,accuracy)
c additional predictionTicks 100 64836 28225 0.20 0.45 0.27 116850 153461 0.87 3.59 1.40 0.63 (nbgoodclauses,nbtotalgood,precisionGood,recallGood,FGood,nbbadclause,nbtotalbad,precisionBad,recallBad,FBad,accuracy)
c additional predictionTicks 250 78175 28225 0.19 0.52 0.28 103511 153461 0.87 3.19 1.37 0.58 (nbgoodclauses,nbtotalgood,precisionGood,recallGood,FGood,nbbadclause,nbtotalbad,precisionBad,recallBad,FBad,accuracy)
c additional predictionTicks 500 86901 28225 0.19 0.58 0.28 94785 153461 0.87 2.94 1.35 0.55 (nbgoodclauses,nbtotalgood,precisionGood,recallGood,FGood,nbbadclause,nbtotalbad,precisionBad,recallBad,FBad,accuracy)
c additional predictionTicks 1000 95298 28225 0.19 0.63 0.29 86388 153461 0.88 2.69 1.33 0.52 (nbgoodclauses,nbtotalgood,precisionGood,recallGood,FGood,nbbadclause,nbtotalbad,precisionBad,recallBad,FBad,accuracy)
c additional predictionTicks 2500 108993 28225 0.18 0.71 0.29 72693 153461 0.89 2.29 1.28 0.47 (nbgoodclauses,nbtotalgood,precisionGood,recallGood,FGood,nbbadclause,nbtotalbad,precisionBad,recallBad,FBad,accuracy)
c additional predictionTicks 5000 123046 28225 0.18 0.78 0.29 58640 153461 0.89 1.86 1.21 0.41 (nbgoodclauses,nbtotalgood,precisionGood,recallGood,FGood,nbbadclause,nbtotalbad,precisionBad,recallBad,FBad,accuracy)
c additional predictionTicks 10000 140520 28225 0.17 0.86 0.29 41166 153461 0.90 1.32 1.07 0.34 (nbgoodclauses,nbtotalgood,precisionGood,recallGood,FGood,nbbadclause,nbtotalbad,precisionBad,recallBad,FBad,accuracy)
c additional predictionTicks 25000 163668 28225 0.16 0.95 0.28 18018 153461 0.91 0.58 0.71 0.24 (nbgoodclauses,nbtotalgood,precisionGood,recallGood,FGood,nbbadclause,nbtotalbad,precisionBad,recallBad,FBad,accuracy)
c additional predictionTicks 50000 175819 28225 0.16 0.98 0.27 5867 153461 0.92 0.19 0.32 0.18 (nbgoodclauses,nbtotalgood,precisionGood,recallGood,FGood,nbbadclause,nbtotalbad,precisionBad,recallBad,FBad,accuracy)
c additional predictionTicks 100000 180857 28225 0.16 1.00 0.27 829 153461 0.93 0.03 0.05 0.16 (nbgoodclauses,nbtotalgood,precisionGood,recallGood,FGood,nbbadclause,nbtotalbad,precisionBad,recallBad,FBad,accuracy)
c additional lifetimeGood 1 6 78 1651 13538 41675 83870 113614 129356 155146 183981 184001 (0,1,5,10,25,50,75,90,95,99,100-1,100)
c additional lifetimeBad 1 6 52 1784 14041 42428 83818 121576 139442 163422 183974 183995 (0,1,5,10,25,50,75,90,95,99,100-1,100)
c additional lifetimeBadBad 5 6 6 6 30 4095 29369 68535 98246 145005 182590 182668 (0,1,5,10,25,50,75,90,95,99,100-1,100)
c additional compositionBad 1 3 7 11 29 80 215 484 745 1475 5836 6187 (0,1,5,10,25,50,75,90,95,99,100-1,100)
c additional compositionBadWithGood 0 0 0 0 2 6 17 40 65 136 436 438 (0,1,5,10,25,50,75,90,95,99,100-1,100)
c additional compositionBadWithBad 0 0 0 0 1 2 3 6 9 18 70 72 (0,1,5,10,25,50,75,90,95,99,100-1,100)
c additional compositionBadWithInitial 0 2 5 9 24 69 193 443 686 1368 5706 6036 (0,1,5,10,25,50,75,90,95,99,100-1,100)
c additional compositionGood 1 3 4 5 9 25 79 227 403 932 5022 5265 (0,1,5,10,25,50,75,90,95,99,100-1,100)
c additional compositionGoodWithGood 0 0 0 0 1 3 9 26 45 109 481 521 (0,1,5,10,25,50,75,90,95,99,100-1,100)
c additional compositionGoodWithInitial 0 1 3 4 8 21 69 201 366 845 4541 4744 (0,1,5,10,25,50,75,90,95,99,100-1,100)
c additional propagationGood total 5930329 percentiles 0 1 1 1 3 20 119 474 1023 3366 11310 11402 (0,1,5,10,25,50,75,90,95,99,100-1,100)
c additional propagationBad total 1938169 percentiles 1 1 1 1 1 2 5 17 43 196 5313 6880 (0,1,5,10,25,50,75,90,95,99,100-1,100)
c additional resolutionGood total 1024302 percentiles 0 0 1 1 2 7 26 74 145 507 2612 2664 (0,1,5,10,25,50,75,90,95,99,100-1,100)
c additional resolutionBad total 398310 percentiles 0 0 0 0 1 1 2 5 10 27 174 233 (0,1,5,10,25,50,75,90,95,99,100-1,100)
No graph is dumped
c result of core 5 is UNSAT
c One thread has finished
c Core 5 said it finished
c result of core 1 is UNKNOWN
c result of core 0 is UNKNOWN
c result of core 2 is UNKNOWN
c result of core 4 is UNKNOWN
c result of core 3 is UNKNOWN
c restarts              : 230 (131 conflicts in avg)
c blocked restarts      : 42 (multiple: 18) 
c last block at restart : 208
c nb ReduceDB           : 3
c nb removed Clauses    : 15748
c nb learnts DL2        : 1105
c nb learnts size 2     : 591
c nb learnts size 1     : 89
c conflicts             : 30281          (229 /sec)
c decisions             : 249796         (0.00 % random) (1891 /sec)
c propagations          : 42060754       (318387 /sec)
c conflict literals     : 4900000        (9.94 % deleted)
c nb reduced Clauses    : 506
c CPU time              : 132.106 s

s INDETERMINATE
