c
c This is glucose-proof 1.0 based on  2.1 --  (thanks to MiniSAT)
c
c EXPERIMENTAL EASY PARALLEL (ROUND ROBIN) VERSION
c
c WARNING: for repeatability, setting FPU to use double precision
c Parallel version 8 solvers created.
c ========================================[ Problem Statistics ]===========================================
c |                                                                                                       |
c |  Number of variables:         11770                                                                   |
c |  Number of clauses:          290887                                                                   |
c |  Parse time:                   0.52 s                                                                 |
c |                                                                                                       |
c ========================================[ MAGIC CONSTANTS ]==============================================
c | Constants are supposed to work well together :-)                                                      |
c | however, if you find better choices, please let us known...                                           |
c |-------------------------------------------------------------------------------------------------------|
c |                                |                                |                                     |
c | - Restarts:                    | - Reduce Clause DB:            | - Minimize Asserting:               |
c |   * LBD Queue    :     50      |   * First     :   4000         |    * size <  30                     |
c |   * Trail  Queue :   5000      |   * Inc       :    300         |    * lbd  <   6                     |
c |   * K            :   0.80      |   * Special   :   1000         |                                     |
c |   * R            :   1.40      |   * Protected :  (lbd)< 30     |                                     |
c |                                |                                |                                     |
c ==================================[ Search Statistics (every  10000 conflicts) ]=========================
c |                                                                                                       |
c |          RESTARTS           |          ORIGINAL         |              LEARNT              | Progress |
c |       NB   Blocked  Avg Cfc |    Vars  Clauses Literals |   Red   Learnts    LBD2  Removed |          |
c =========================================================================================================
c |       48         0      208 |   11762   290887   906562 |     1     8003       39     2208 |  0.069 % |
c |       48        64      416 |   11762   290887   906562 |     3     6956       71    13359 |  0.069 % |
c |      115        95      260 |   11761   290887   906562 |     3    16952      136    13359 |  0.076 % |
c |      165       111      242 |   11761   290887   906562 |     4    17679      153    22708 |  0.076 % |
c |      170       151      294 |   11761   290887   906562 |     5    15853      160    34623 |  0.076 % |
c |      176       167      340 |   11760   290887   906562 |     5    25850      181    34623 |  0.085 % |
c |      187       210      374 |   11759   290887   906562 |     6    21430      186    49181 |  0.093 % |
c |      197       257      406 |   11759   290887   906562 |     6    31430      202    49181 |  0.093 % |
c |      197       286      456 |   11759   290887   906562 |     7    24427      212    66315 |  0.093 % |
c |      198       298      505 |   11707   290887   906562 |     7    34426      224    66315 |  0.535 % |
c |      209       325      526 |   11707   290887   906562 |     8    24815      230    86053 |  0.535 % |
c |      209       350      574 |   11707   290887   906562 |     8    34815      236    86053 |  0.535 % |
c |      209       386      622 |   11707   290887   906562 |     9    22610      238   108338 |  0.535 % |
c |      209       417      669 |   11707   290887   906562 |     9    32610      242   108338 |  0.535 % |
c |      209       438      717 |   11707   290887   906562 |     9    42610      243   108338 |  0.535 % |
c |      209       461      765 |   11707   290887   906562 |    10    27808      243   133329 |  0.535 % |
c |      209       486      813 |   11707   290887   906562 |    10    37808      246   133329 |  0.535 % |
c |      209       507      861 |   11707   290887   906562 |    10    47808      247   133329 |  0.535 % |
c |      209       531      909 |   11707   290887   906562 |    11    30404      248   161033 |  0.535 % |
c |      209       554      956 |   11707   290887   906562 |    11    40404      250   161033 |  0.535 % |
c |      209       578     1004 |   11707   290887   906562 |    11    50404      252   161033 |  0.535 % |
c |      209       598     1052 |   11707   290887   906562 |    12    30409      254   191308 |  0.535 % |
c |      209       615     1100 |   11707   290887   906562 |    12    40409      258   191308 |  0.535 % |
c |      209       635     1148 |   11707   290887   906562 |    12    50409      258   191308 |  0.535 % |
c |      209       650     1196 |   11707   290887   906562 |    12    60409      261   191308 |  0.535 % |
c |      209       669     1244 |   11707   290887   906562 |    13    37812      261   224051 |  0.535 % |
c |      209       684     1291 |   11707   290887   906562 |    13    47812      262   224051 |  0.535 % |
c |      209       695     1339 |   11707   290887   906562 |    13    57812      263   224051 |  0.535 % |
c |      209       706     1387 |   11707   290887   906562 |    13    67812      265   224051 |  0.535 % |
c |      209       725     1435 |   11707   290887   906562 |    14    42613      266   259417 |  0.535 % |
c |      209       742     1483 |   11707   290887   906562 |    14    52613      266   259417 |  0.535 % |
c |      209       756     1531 |   11707   290887   906562 |    14    62613      266   259417 |  0.535 % |
c |      209       764     1578 |   11707   290887   906562 |    14    72613      266   259417 |  0.535 % |
c |      209       780     1626 |   11707   290887   906562 |    15    44813      266   297393 |  0.535 % |
c |      209       796     1674 |   11707   290887   906562 |    15    54813      266   297393 |  0.535 % |
c |      209       812     1722 |   11707   290887   906562 |    15    64813      267   297393 |  0.535 % |
c |      209       827     1770 |   11707   290887   906562 |    15    74813      267   297393 |  0.535 % |
c |      209       840     1818 |   11707   290887   906562 |    16    44411      267   338262 |  0.535 % |
c |      209       855     1866 |   11707   290887   906562 |    16    54411      267   338262 |  0.535 % |
c |      209       868     1913 |   11707   290887   906562 |    16    64411      267   338262 |  0.535 % |
c |      209       881     1961 |   11707   290887   906562 |    16    74411      267   338262 |  0.535 % |
c |      209       891     2009 |   11707   290887   906562 |    16    84411      267   338262 |  0.535 % |
c |      229       923     1877 |   11706   290887   906562 |    17    51414      277   381679 |  0.544 % |
c |      229       951     1921 |   11706   290887   906562 |    17    61414      277   381679 |  0.544 % |
c |      229       974     1965 |   11706   290887   906562 |    17    71414      280   381679 |  0.544 % |
c |      229       998     2008 |   11706   290887   906562 |    17    81414      280   381679 |  0.544 % |
c |      229      1021     2052 |   11706   290887   906562 |    18    45813      282   427939 |  0.544 % |
c |      229      1043     2096 |   11706   290887   906562 |    18    55813      282   427939 |  0.544 % |
c |      229      1059     2139 |   11706   290887   906562 |    18    65813      282   427939 |  0.544 % |
c |      234      1079     2136 |   11706   290887   906562 |    18    75813      287   427939 |  0.544 % |
c |      239      1139     2133 |   11706   290887   906562 |    18    85813      308   427939 |  0.544 % |
c |      250      1159     2080 |   11702   290887   906562 |    18    95806      315   427939 |  0.578 % |
c |      250      1187     2120 |   11702   290887   906562 |    19    57609      318   476510 |  0.578 % |
c |      250      1222     2160 |   11702   290887   906562 |    19    67609      318   476510 |  0.578 % |
c |      250      1249     2200 |   11702   290887   906562 |    19    77609      322   476510 |  0.578 % |
c |      250      1270     2240 |   11702   290887   906562 |    19    87609      327   476510 |  0.578 % |
c |      250      1302     2280 |   11702   290887   906562 |    19    97609      333   476510 |  0.578 % |
c |      250      1341     2320 |   11702   290887   906562 |    20    56805      335   527701 |  0.578 % |
c |      250      1367     2360 |   11702   290887   906562 |    20    66805      341   527701 |  0.578 % |
c |      250      1397     2400 |   11702   290887   906562 |    20    76805      346   527701 |  0.578 % |
c |      250      1444     2440 |   11702   290887   906562 |    20    86805      352   527701 |  0.578 % |
c |      250      1490     2480 |   11702   290887   906562 |    20    96805      357   527701 |  0.578 % |
c |      250      1519     2520 |   11702   290887   906562 |    20   106805      358   527701 |  0.578 % |
c |      250      1539     2560 |   11702   290887   906562 |    21    63401      371   581575 |  0.578 % |
c |      250      1570     2600 |   11702   290887   906562 |    21    73401      374   581575 |  0.578 % |
c |      250      1626     2640 |   11701   290887   906562 |    21    83398      400   581575 |  0.586 % |
c |      250      1658     2680 |   11701   290887   906562 |    21    93398      402   581575 |  0.586 % |
c |      253      1713     2687 |   11701   290887   906562 |    21   103398      425   581575 |  0.586 % |
c |      253      1777     2727 |   11701   290887   906562 |    22    57403      434   638217 |  0.586 % |
c |      253      1819     2766 |   11701   290887   906562 |    22    67403      434   638217 |  0.586 % |
c |      253      1878     2806 |   11701   290887   906562 |    22    77403      436   638217 |  0.586 % |
c |      253      1951     2845 |   11701   290887   906562 |    22    87403      444   638217 |  0.586 % |
c |      253      2023     2885 |   11697   290887   906562 |    22    97384      450   638217 |  0.620 % |
c |      255      2081     2901 |   11696   290887   906562 |    22   107384      476   638217 |  0.629 % |
c |      255      2116     2941 |   11696   290887   906562 |    23    58803      489   697410 |  0.629 % |
c |      255      2185     2980 |   11696   290887   906562 |    23    68803      498   697410 |  0.629 % |
c |      255      2206     3019 |   11696   290887   906562 |    23    78803      500   697410 |  0.629 % |
c |      255      2263     3058 |   11696   290887   906562 |    23    88803      502   697410 |  0.629 % |
c empty clause found by core 7 at conflict 789878
*
c checking the resolution graph...OK
c All useful bySize 495545 clauses, percentiles 0 2 2 2 35 173 308 466 548 704 889 899 (0,1,5,10,25,50,75,90,95,99,100-1,100)
c All useless bySize 6114558 clauses, percentiles 0 2 31 67 166 279 390 591 691 844 1607 1627 (0,1,5,10,25,50,75,90,95,99,100-1,100)
c ProofOnly useful bySize 405267 clauses, percentiles 0 3 22 39 105 231 332 489 580 716 889 899 (0,1,5,10,25,50,75,90,95,99,100-1,100)
c ProofOnly useless bySize 5913757 clauses, percentiles 1 22 55 86 182 285 399 598 696 847 1607 1627 (0,1,5,10,25,50,75,90,95,99,100-1,100)
c All useful byFinalLBD 495545 clauses, percentiles 0 2 2 2 6 13 19 25 29 37 131 131 (0,1,5,10,25,50,75,90,95,99,100-1,100)
c All useless byFinalLBD 6114558 clauses, percentiles 0 2 7 14 25 36 44 51 57 74 201 203 (0,1,5,10,25,50,75,90,95,99,100-1,100)
c ProofOnly useful byFinalLBD 405267 clauses, percentiles 0 2 4 5 10 14 20 26 29 36 80 80 (0,1,5,10,25,50,75,90,95,99,100-1,100)
c ProofOnly useless byFinalLBD 5913757 clauses, percentiles 1 5 12 17 26 36 45 52 57 74 201 203 (0,1,5,10,25,50,75,90,95,99,100-1,100)
c All useful byInitialLBD 495545 clauses, percentiles 0 2 2 2 8 14 21 27 31 39 131 131 (0,1,5,10,25,50,75,90,95,99,100-1,100)
c All useless byInitialLBD 6114558 clauses, percentiles 0 2 10 16 26 37 45 52 58 75 202 203 (0,1,5,10,25,50,75,90,95,99,100-1,100)
c ProofOnly useful byInitialLBD 405267 clauses, percentiles 0 3 6 8 12 16 22 27 31 38 87 88 (0,1,5,10,25,50,75,90,95,99,100-1,100)
c ProofOnly useless byInitialLBD 5913757 clauses, percentiles 1 8 14 18 27 37 46 53 58 76 202 203 (0,1,5,10,25,50,75,90,95,99,100-1,100)
c Literals ProofOnly useful 98771671
c Literals ProofOnly useless 1854898421
c additional windowsGood 1 1 1 1 1 1 1 1 1 2 4 4 (0,1,5,10,25,50,75,90,95,99,100-1,100)
c additional windowsBad 1 1 1 1 2 7 7 15 31 207 9343 13122 (0,1,5,10,25,50,75,90,95,99,100-1,100)
c additional 1WindowNoDecision 367320 186481 0.51 49536 24160 0.49 (nbWindowsGood,nbWindowsNoDecisionGood,nbWindowsBad,nbWindowsNoDecisionBad
c additional topclausessize all (10%,5%,1%,top) 572.62 644.38 748.24 899
c additional topclausessize proofonly (10%,5%,1%,top) 582.65 653.26 752.35 899
c additional topclausesinitialLBD all (10%,5%,1%,top) 529.98 609.29 732.16 899
c additional topclausesinitialLBD proofonly (10%,5%,1%,top) 491.84 582.65 718.56 899
c additional topclausesfinalLBD all (10%,5%,1%,top) 457.02 556.09 703.71 899
c additional topclausesfinalLBD proofonly (10%,5%,1%,top) 434.61 534.74 692.70 899
c additional predictionInitialLBD 1 29 405267 0.86 0.00 0.00 6318995 5913757 0.94 14.59 1.76 0.94 (nbgoodclauses,nbtotalgood,precisionGood,recallGood,FGood,nbbadclause,nbtotalbad,precisionBad,recallBad,FBad,accuracy)
c additional predictionInitialLBD 2 7180 405267 0.50 0.01 0.02 6311844 5913757 0.94 14.58 1.76 0.94 (nbgoodclauses,nbtotalgood,precisionGood,recallGood,FGood,nbbadclause,nbtotalbad,precisionBad,recallBad,FBad,accuracy)
c additional predictionInitialLBD 3 17310 405267 0.43 0.02 0.04 6301714 5913757 0.94 14.57 1.76 0.94 (nbgoodclauses,nbtotalgood,precisionGood,recallGood,FGood,nbbadclause,nbtotalbad,precisionBad,recallBad,FBad,accuracy)
c additional predictionInitialLBD 4 27836 405267 0.40 0.03 0.05 6291188 5913757 0.94 14.55 1.76 0.94 (nbgoodclauses,nbtotalgood,precisionGood,recallGood,FGood,nbbadclause,nbtotalbad,precisionBad,recallBad,FBad,accuracy)
c additional predictionInitialLBD 5 40578 405267 0.40 0.04 0.07 6278446 5913757 0.94 14.53 1.76 0.93 (nbgoodclauses,nbtotalgood,precisionGood,recallGood,FGood,nbbadclause,nbtotalbad,precisionBad,recallBad,FBad,accuracy)
c additional predictionInitialLBD 6 57792 405267 0.40 0.06 0.10 6261232 5913757 0.94 14.51 1.76 0.93 (nbgoodclauses,nbtotalgood,precisionGood,recallGood,FGood,nbbadclause,nbtotalbad,precisionBad,recallBad,FBad,accuracy)
c additional predictionInitialLBD 7 85283 405267 0.39 0.08 0.13 6233741 5913757 0.94 14.46 1.77 0.93 (nbgoodclauses,nbtotalgood,precisionGood,recallGood,FGood,nbbadclause,nbtotalbad,precisionBad,recallBad,FBad,accuracy)
c additional predictionInitialLBD 8 120706 405267 0.38 0.11 0.18 6198318 5913757 0.94 14.41 1.77 0.93 (nbgoodclauses,nbtotalgood,precisionGood,recallGood,FGood,nbbadclause,nbtotalbad,precisionBad,recallBad,FBad,accuracy)
c additional predictionInitialLBD 10 214797 405267 0.37 0.20 0.26 6104227 5913757 0.95 14.26 1.78 0.93 (nbgoodclauses,nbtotalgood,precisionGood,recallGood,FGood,nbbadclause,nbtotalbad,precisionBad,recallBad,FBad,accuracy)
c additional predictionInitialLBD 14 490969 405267 0.34 0.41 0.37 5828055 5913757 0.96 13.79 1.79 0.91 (nbgoodclauses,nbtotalgood,precisionGood,recallGood,FGood,nbbadclause,nbtotalbad,precisionBad,recallBad,FBad,accuracy)
c additional predictionInitialLBD 18 847751 405267 0.29 0.61 0.39 5471273 5913757 0.97 13.11 1.81 0.88 (nbgoodclauses,nbtotalgood,precisionGood,recallGood,FGood,nbbadclause,nbtotalbad,precisionBad,recallBad,FBad,accuracy)
c additional predictionInitialLBD 22 1266659 405267 0.25 0.78 0.38 5052365 5913757 0.98 12.24 1.82 0.83 (nbgoodclauses,nbtotalgood,precisionGood,recallGood,FGood,nbbadclause,nbtotalbad,precisionBad,recallBad,FBad,accuracy)
c additional predictionInitialLBD 30 2326122 405267 0.16 0.95 0.28 3992902 5913757 0.99 9.80 1.81 0.69 (nbgoodclauses,nbtotalgood,precisionGood,recallGood,FGood,nbbadclause,nbtotalbad,precisionBad,recallBad,FBad,accuracy)
c additional predictionInitialLBD 40 3912824 405267 0.10 1.00 0.19 2406200 5913757 1.00 5.93 1.71 0.44 (nbgoodclauses,nbtotalgood,precisionGood,recallGood,FGood,nbbadclause,nbtotalbad,precisionBad,recallBad,FBad,accuracy)
c additional predictionFinallLBD 1 4700 405267 0.50 0.01 0.01 6314324 5913757 0.94 1.00 0.97 0.94 (nbgoodclauses,nbtotalgood,precisionGood,recallGood,FGood,nbbadclause,nbtotalbad,precisionBad,recallBad,FBad,accuracy)
c additional predictionFinallLBD 2 23313 405267 0.47 0.03 0.05 6295711 5913757 0.94 1.00 0.97 0.94 (nbgoodclauses,nbtotalgood,precisionGood,recallGood,FGood,nbbadclause,nbtotalbad,precisionBad,recallBad,FBad,accuracy)
c additional predictionFinallLBD 3 47907 405267 0.42 0.05 0.09 6271117 5913757 0.94 1.00 0.97 0.93 (nbgoodclauses,nbtotalgood,precisionGood,recallGood,FGood,nbbadclause,nbtotalbad,precisionBad,recallBad,FBad,accuracy)
c additional predictionFinallLBD 4 78464 405267 0.39 0.07 0.13 6240560 5913757 0.94 0.99 0.97 0.93 (nbgoodclauses,nbtotalgood,precisionGood,recallGood,FGood,nbbadclause,nbtotalbad,precisionBad,recallBad,FBad,accuracy)
c additional predictionFinallLBD 5 114934 405267 0.37 0.10 0.16 6204090 5913757 0.94 0.99 0.96 0.93 (nbgoodclauses,nbtotalgood,precisionGood,recallGood,FGood,nbbadclause,nbtotalbad,precisionBad,recallBad,FBad,accuracy)
c additional predictionFinallLBD 6 154398 405267 0.36 0.14 0.20 6164626 5913757 0.94 0.98 0.96 0.93 (nbgoodclauses,nbtotalgood,precisionGood,recallGood,FGood,nbbadclause,nbtotalbad,precisionBad,recallBad,FBad,accuracy)
c additional predictionFinallLBD 7 196219 405267 0.35 0.17 0.23 6122805 5913757 0.95 0.98 0.96 0.93 (nbgoodclauses,nbtotalgood,precisionGood,recallGood,FGood,nbbadclause,nbtotalbad,precisionBad,recallBad,FBad,accuracy)
c additional predictionFinallLBD 8 241897 405267 0.35 0.21 0.26 6077127 5913757 0.95 0.97 0.96 0.92 (nbgoodclauses,nbtotalgood,precisionGood,recallGood,FGood,nbbadclause,nbtotalbad,precisionBad,recallBad,FBad,accuracy)
c additional predictionFinallLBD 10 348983 405267 0.34 0.30 0.32 5970041 5913757 0.95 0.96 0.96 0.92 (nbgoodclauses,nbtotalgood,precisionGood,recallGood,FGood,nbbadclause,nbtotalbad,precisionBad,recallBad,FBad,accuracy)
c additional predictionFinallLBD 14 635365 405267 0.32 0.50 0.39 5683659 5913757 0.96 0.93 0.95 0.90 (nbgoodclauses,nbtotalgood,precisionGood,recallGood,FGood,nbbadclause,nbtotalbad,precisionBad,recallBad,FBad,accuracy)
c additional predictionFinallLBD 18 993615 405267 0.28 0.68 0.40 5325409 5913757 0.98 0.88 0.92 0.87 (nbgoodclauses,nbtotalgood,precisionGood,recallGood,FGood,nbbadclause,nbtotalbad,precisionBad,recallBad,FBad,accuracy)
c additional predictionFinallLBD 22 1412347 405267 0.24 0.83 0.37 4906677 5913757 0.99 0.82 0.89 0.82 (nbgoodclauses,nbtotalgood,precisionGood,recallGood,FGood,nbbadclause,nbtotalbad,precisionBad,recallBad,FBad,accuracy)
c additional predictionFinallLBD 30 2494369 405267 0.16 0.96 0.27 3824655 5913757 1.00 0.64 0.78 0.66 (nbgoodclauses,nbtotalgood,precisionGood,recallGood,FGood,nbbadclause,nbtotalbad,precisionBad,recallBad,FBad,accuracy)
c additional predictionFinallLBD 40 4089235 405267 0.10 1.00 0.18 2229789 5913757 1.00 0.38 0.55 0.42 (nbgoodclauses,nbtotalgood,precisionGood,recallGood,FGood,nbbadclause,nbtotalbad,precisionBad,recallBad,FBad,accuracy)
c additional predictionSize 1 29 405267 0.86 0.00 0.00 6318995 5913757 0.94 14.59 1.76 0.94 (nbgoodclauses,nbtotalgood,precisionGood,recallGood,FGood,nbbadclause,nbtotalbad,precisionBad,recallBad,FBad,accuracy)
c additional predictionSize 2 6113 405267 0.51 0.01 0.02 6312911 5913757 0.94 14.58 1.76 0.94 (nbgoodclauses,nbtotalgood,precisionGood,recallGood,FGood,nbbadclause,nbtotalbad,precisionBad,recallBad,FBad,accuracy)
c additional predictionSize 3 9606 405267 0.47 0.01 0.02 6309418 5913757 0.94 14.58 1.76 0.94 (nbgoodclauses,nbtotalgood,precisionGood,recallGood,FGood,nbbadclause,nbtotalbad,precisionBad,recallBad,FBad,accuracy)
c additional predictionSize 4 12741 405267 0.43 0.01 0.03 6306283 5913757 0.94 14.57 1.76 0.94 (nbgoodclauses,nbtotalgood,precisionGood,recallGood,FGood,nbbadclause,nbtotalbad,precisionBad,recallBad,FBad,accuracy)
c additional predictionSize 5 16079 405267 0.39 0.02 0.03 6302945 5913757 0.94 14.57 1.76 0.94 (nbgoodclauses,nbtotalgood,precisionGood,recallGood,FGood,nbbadclause,nbtotalbad,precisionBad,recallBad,FBad,accuracy)
c additional predictionSize 6 18798 405267 0.37 0.02 0.03 6300226 5913757 0.94 14.56 1.76 0.94 (nbgoodclauses,nbtotalgood,precisionGood,recallGood,FGood,nbbadclause,nbtotalbad,precisionBad,recallBad,FBad,accuracy)
c additional predictionSize 7 21369 405267 0.36 0.02 0.04 6297655 5913757 0.94 14.56 1.76 0.93 (nbgoodclauses,nbtotalgood,precisionGood,recallGood,FGood,nbbadclause,nbtotalbad,precisionBad,recallBad,FBad,accuracy)
c additional predictionSize 8 23597 405267 0.35 0.02 0.04 6295427 5913757 0.94 14.55 1.76 0.93 (nbgoodclauses,nbtotalgood,precisionGood,recallGood,FGood,nbbadclause,nbtotalbad,precisionBad,recallBad,FBad,accuracy)
c additional predictionSize 10 29282 405267 0.33 0.02 0.04 6289742 5913757 0.94 14.54 1.76 0.93 (nbgoodclauses,nbtotalgood,precisionGood,recallGood,FGood,nbbadclause,nbtotalbad,precisionBad,recallBad,FBad,accuracy)
c additional predictionSize 14 42411 405267 0.30 0.03 0.06 6276613 5913757 0.94 14.52 1.76 0.93 (nbgoodclauses,nbtotalgood,precisionGood,recallGood,FGood,nbbadclause,nbtotalbad,precisionBad,recallBad,FBad,accuracy)
c additional predictionSize 18 60508 405267 0.27 0.04 0.07 6258516 5913757 0.94 14.48 1.76 0.93 (nbgoodclauses,nbtotalgood,precisionGood,recallGood,FGood,nbbadclause,nbtotalbad,precisionBad,recallBad,FBad,accuracy)
c additional predictionSize 22 81769 405267 0.25 0.05 0.08 6237255 5913757 0.94 14.44 1.76 0.93 (nbgoodclauses,nbtotalgood,precisionGood,recallGood,FGood,nbbadclause,nbtotalbad,precisionBad,recallBad,FBad,accuracy)
c additional predictionSize 30 135436 405267 0.22 0.07 0.11 6183588 5913757 0.94 14.33 1.76 0.92 (nbgoodclauses,nbtotalgood,precisionGood,recallGood,FGood,nbbadclause,nbtotalbad,precisionBad,recallBad,FBad,accuracy)
c additional predictionSize 40 234935 405267 0.18 0.10 0.13 6084089 5913757 0.94 14.12 1.76 0.91 (nbgoodclauses,nbtotalgood,precisionGood,recallGood,FGood,nbbadclause,nbtotalbad,precisionBad,recallBad,FBad,accuracy)
c additional predictionAge 1 75267 405267 0.20 0.04 0.06 6243757 5913757 0.94 14.44 1.76 0.93 (nbgoodclauses,nbtotalgood,precisionGood,recallGood,FGood,nbbadclause,nbtotalbad,precisionBad,recallBad,FBad,accuracy)
c additional predictionAge 10 84153 405267 0.18 0.04 0.06 6234871 5913757 0.94 14.42 1.76 0.93 (nbgoodclauses,nbtotalgood,precisionGood,recallGood,FGood,nbbadclause,nbtotalbad,precisionBad,recallBad,FBad,accuracy)
c additional predictionAge 25 119898 405267 0.14 0.04 0.06 6199126 5913757 0.94 14.34 1.76 0.92 (nbgoodclauses,nbtotalgood,precisionGood,recallGood,FGood,nbbadclause,nbtotalbad,precisionBad,recallBad,FBad,accuracy)
c additional predictionAge 50 140149 405267 0.13 0.04 0.07 6178875 5913757 0.94 14.29 1.76 0.92 (nbgoodclauses,nbtotalgood,precisionGood,recallGood,FGood,nbbadclause,nbtotalbad,precisionBad,recallBad,FBad,accuracy)
c additional predictionAge 100 165944 405267 0.12 0.05 0.07 6153080 5913757 0.94 14.23 1.76 0.92 (nbgoodclauses,nbtotalgood,precisionGood,recallGood,FGood,nbbadclause,nbtotalbad,precisionBad,recallBad,FBad,accuracy)
c additional predictionAge 250 208057 405267 0.11 0.05 0.07 6110967 5913757 0.94 14.13 1.76 0.91 (nbgoodclauses,nbtotalgood,precisionGood,recallGood,FGood,nbbadclause,nbtotalbad,precisionBad,recallBad,FBad,accuracy)
c additional predictionAge 500 241308 405267 0.10 0.06 0.07 6077716 5913757 0.94 14.06 1.76 0.91 (nbgoodclauses,nbtotalgood,precisionGood,recallGood,FGood,nbbadclause,nbtotalbad,precisionBad,recallBad,FBad,accuracy)
c additional predictionAge 1000 274762 405267 0.10 0.06 0.08 6044262 5913757 0.94 13.98 1.76 0.90 (nbgoodclauses,nbtotalgood,precisionGood,recallGood,FGood,nbbadclause,nbtotalbad,precisionBad,recallBad,FBad,accuracy)
c additional predictionAge 2500 321299 405267 0.09 0.07 0.08 5997725 5913757 0.94 13.87 1.76 0.89 (nbgoodclauses,nbtotalgood,precisionGood,recallGood,FGood,nbbadclause,nbtotalbad,precisionBad,recallBad,FBad,accuracy)
c additional predictionAge 5000 360057 405267 0.09 0.08 0.08 5958967 5913757 0.94 13.78 1.76 0.89 (nbgoodclauses,nbtotalgood,precisionGood,recallGood,FGood,nbbadclause,nbtotalbad,precisionBad,recallBad,FBad,accuracy)
c additional predictionAge 10000 402979 405267 0.08 0.08 0.08 5916045 5913757 0.94 13.68 1.75 0.88 (nbgoodclauses,nbtotalgood,precisionGood,recallGood,FGood,nbbadclause,nbtotalbad,precisionBad,recallBad,FBad,accuracy)
c additional predictionAge 25000 470986 405267 0.08 0.09 0.09 5848038 5913757 0.94 13.52 1.75 0.87 (nbgoodclauses,nbtotalgood,precisionGood,recallGood,FGood,nbbadclause,nbtotalbad,precisionBad,recallBad,FBad,accuracy)
c additional predictionAge 50000 538536 405267 0.08 0.10 0.09 5780488 5913757 0.94 13.36 1.75 0.86 (nbgoodclauses,nbtotalgood,precisionGood,recallGood,FGood,nbbadclause,nbtotalbad,precisionBad,recallBad,FBad,accuracy)
c additional predictionAge 100000 635001 405267 0.07 0.11 0.09 5684023 5913757 0.94 13.14 1.75 0.85 (nbgoodclauses,nbtotalgood,precisionGood,recallGood,FGood,nbbadclause,nbtotalbad,precisionBad,recallBad,FBad,accuracy)
c additional predictionTicks 1 79231 405267 0.20 0.04 0.06 6239793 5913757 0.94 14.44 1.76 0.93 (nbgoodclauses,nbtotalgood,precisionGood,recallGood,FGood,nbbadclause,nbtotalbad,precisionBad,recallBad,FBad,accuracy)
c additional predictionTicks 10 326932 405267 0.10 0.08 0.09 5992092 5913757 0.94 13.87 1.76 0.89 (nbgoodclauses,nbtotalgood,precisionGood,recallGood,FGood,nbbadclause,nbtotalbad,precisionBad,recallBad,FBad,accuracy)
c additional predictionTicks 25 602833 405267 0.09 0.13 0.10 5716191 5913757 0.94 13.23 1.75 0.86 (nbgoodclauses,nbtotalgood,precisionGood,recallGood,FGood,nbbadclause,nbtotalbad,precisionBad,recallBad,FBad,accuracy)
c additional predictionTicks 50 886690 405267 0.08 0.17 0.11 5432334 5913757 0.94 12.58 1.75 0.82 (nbgoodclauses,nbtotalgood,precisionGood,recallGood,FGood,nbbadclause,nbtotalbad,precisionBad,recallBad,FBad,accuracy)
c additional predictionTicks 100 1315250 405267 0.07 0.24 0.11 5003774 5913757 0.94 11.59 1.74 0.76 (nbgoodclauses,nbtotalgood,precisionGood,recallGood,FGood,nbbadclause,nbtotalbad,precisionBad,recallBad,FBad,accuracy)
c additional predictionTicks 250 2120255 405267 0.07 0.36 0.12 4198769 5913757 0.94 9.72 1.71 0.65 (nbgoodclauses,nbtotalgood,precisionGood,recallGood,FGood,nbbadclause,nbtotalbad,precisionBad,recallBad,FBad,accuracy)
c additional predictionTicks 500 2785668 405267 0.07 0.46 0.12 3533356 5913757 0.94 8.18 1.68 0.55 (nbgoodclauses,nbtotalgood,precisionGood,recallGood,FGood,nbbadclause,nbtotalbad,precisionBad,recallBad,FBad,accuracy)
c additional predictionTicks 1000 3449711 405267 0.07 0.56 0.12 2869313 5913757 0.94 6.64 1.64 0.46 (nbgoodclauses,nbtotalgood,precisionGood,recallGood,FGood,nbbadclause,nbtotalbad,precisionBad,recallBad,FBad,accuracy)
c additional predictionTicks 2500 4226170 405267 0.06 0.68 0.12 2092854 5913757 0.94 4.84 1.57 0.35 (nbgoodclauses,nbtotalgood,precisionGood,recallGood,FGood,nbbadclause,nbtotalbad,precisionBad,recallBad,FBad,accuracy)
c additional predictionTicks 5000 4731860 405267 0.06 0.76 0.12 1587164 5913757 0.94 3.67 1.49 0.28 (nbgoodclauses,nbtotalgood,precisionGood,recallGood,FGood,nbbadclause,nbtotalbad,precisionBad,recallBad,FBad,accuracy)
c additional predictionTicks 10000 5162484 405267 0.06 0.82 0.12 1156540 5913757 0.94 2.68 1.39 0.22 (nbgoodclauses,nbtotalgood,precisionGood,recallGood,FGood,nbbadclause,nbtotalbad,precisionBad,recallBad,FBad,accuracy)
c additional predictionTicks 25000 5605861 405267 0.06 0.88 0.12 713163 5913757 0.93 1.64 1.19 0.16 (nbgoodclauses,nbtotalgood,precisionGood,recallGood,FGood,nbbadclause,nbtotalbad,precisionBad,recallBad,FBad,accuracy)
c additional predictionTicks 50000 5844519 405267 0.06 0.92 0.12 474505 5913757 0.93 1.09 1.00 0.13 (nbgoodclauses,nbtotalgood,precisionGood,recallGood,FGood,nbbadclause,nbtotalbad,precisionBad,recallBad,FBad,accuracy)
c additional predictionTicks 100000 6012917 405267 0.06 0.95 0.12 306107 5913757 0.93 0.70 0.80 0.11 (nbgoodclauses,nbtotalgood,precisionGood,recallGood,FGood,nbbadclause,nbtotalbad,precisionBad,recallBad,FBad,accuracy)
c additional lifetimeGood 1 8 136 4432 98744 532735 3723334 5369043 5682801 6086442 6319172 6319178 (0,1,5,10,25,50,75,90,95,99,100-1,100)
c additional lifetimeBad 1 8 40 1120 83636 777180 2528772 4451333 5191130 6024758 6319167 6319197 (0,1,5,10,25,50,75,90,95,99,100-1,100)
c additional lifetimeBadBad 1 8 16 112 17872 325408 1407111 3031204 3956483 5355426 6318707 6318739 (0,1,5,10,25,50,75,90,95,99,100-1,100)
c additional compositionBad 1 2 4 7 19 47 92 144 177 258 827 897 (0,1,5,10,25,50,75,90,95,99,100-1,100)
c additional compositionBadWithGood 0 0 0 0 1 3 8 14 20 37 176 181 (0,1,5,10,25,50,75,90,95,99,100-1,100)
c additional compositionBadWithBad 0 0 1 1 3 7 15 26 33 42 86 97 (0,1,5,10,25,50,75,90,95,99,100-1,100)
c additional compositionBadWithInitial 0 0 2 4 12 33 68 110 139 215 780 797 (0,1,5,10,25,50,75,90,95,99,100-1,100)
c additional compositionGood 2 2 3 5 12 38 92 144 181 285 939 993 (0,1,5,10,25,50,75,90,95,99,100-1,100)
c additional compositionGoodWithGood 0 0 1 2 4 14 29 45 53 66 186 204 (0,1,5,10,25,50,75,90,95,99,100-1,100)
c additional compositionGoodWithInitial 0 0 2 2 6 21 62 101 139 250 833 934 (0,1,5,10,25,50,75,90,95,99,100-1,100)
c additional propagationGood total 98682674 percentiles 0 1 1 1 1 2 4 26 115 2737 332430 347208 (0,1,5,10,25,50,75,90,95,99,100-1,100)
c additional propagationBad total 167758750 percentiles 1 1 1 1 1 1 3 6 13 156 511220 629640 (0,1,5,10,25,50,75,90,95,99,100-1,100)
c additional resolutionGood total 15857633 percentiles 0 1 1 1 1 2 4 18 65 624 45730 53800 (0,1,5,10,25,50,75,90,95,99,100-1,100)
c additional resolutionBad total 62886784 percentiles 0 0 0 1 1 1 3 5 10 88 62061 80392 (0,1,5,10,25,50,75,90,95,99,100-1,100)
No graph is dumped
c result of core 7 is UNSAT
c One thread has finished
c Core 7 said it finished
c result of core 0 is UNKNOWN
c result of core 1 is UNKNOWN
c result of core 3 is UNKNOWN
c result of core 4 is UNKNOWN
c result of core 5 is UNKNOWN
c result of core 6 is UNKNOWN
c result of core 2 is UNKNOWN
c restarts              : 255 (3097 conflicts in avg)
c blocked restarts      : 2338 (multiple: 41) 
c last block at restart : 255
c nb ReduceDB           : 23
c nb removed Clauses    : 697410
c nb learnts DL2        : 557
c nb learnts size 2     : 459
c nb learnts size 1     : 3
c conflicts             : 789878         (447 /sec)
c decisions             : 2677458        (0.00 % random) (1515 /sec)
c propagations          : 250819748      (141965 /sec)
c conflict literals     : 252079975      (6.17 % deleted)
c nb reduced Clauses    : 726
c CPU time              : 1766.77 s

s INDETERMINATE
