c
c This is glucose-proof 1.0 based on  2.1 --  (thanks to MiniSAT)
c
c EXPERIMENTAL EASY PARALLEL (ROUND ROBIN) VERSION
c
c WARNING: for repeatability, setting FPU to use double precision
c Parallel version 12 solvers created.
c ========================================[ Problem Statistics ]===========================================
c |                                                                                                       |
c |  Number of variables:         11770                                                                   |
c |  Number of clauses:          290887                                                                   |
c |  Parse time:                   0.64 s                                                                 |
c |                                                                                                       |
c ========================================[ MAGIC CONSTANTS ]==============================================
c | Constants are supposed to work well together :-)                                                      |
c | however, if you find better choices, please let us known...                                           |
c |-------------------------------------------------------------------------------------------------------|
c |                                |                                |                                     |
c | - Restarts:                    | - Reduce Clause DB:            | - Minimize Asserting:               |
c |   * LBD Queue    :     50      |   * First     :   4000         |    * size <  30                     |
c |   * Trail  Queue :   5000      |   * Inc       :    300         |    * lbd  <   6                     |
c |   * K            :   0.80      |   * Special   :   1000         |                                     |
c |   * R            :   1.40      |   * Protected :  (lbd)< 30     |                                     |
c |                                |                                |                                     |
c ==================================[ Search Statistics (every  10000 conflicts) ]=========================
c |                                                                                                       |
c |          RESTARTS           |          ORIGINAL         |              LEARNT              | Progress |
c |       NB   Blocked  Avg Cfc |    Vars  Clauses Literals |   Red   Learnts    LBD2  Removed |          |
c =========================================================================================================
c |      108         0       92 |   11756   290887   906562 |     1     8001       75     2345 |  0.120 % |
c |      115        47      173 |   11756   290887   906562 |     3     6950       91    13811 |  0.120 % |
c |      115        58      260 |   11756   290887   906562 |     3    16950       91    13811 |  0.120 % |
c |      115        59      347 |   11756   290887   906562 |     4    17677       93    23258 |  0.120 % |
c |      115        61      434 |   11756   290887   906562 |     5    15843       93    35285 |  0.120 % |
c |      115        62      521 |   11756   290887   906562 |     5    25843       93    35285 |  0.120 % |
c |      115        65      608 |   11756   290887   906562 |     6    21426       93    50055 |  0.120 % |
c |      115        67      695 |   11756   290887   906562 |     6    31426       93    50055 |  0.120 % |
c |      115        73      782 |   11756   290887   906562 |     7    24416       95    67405 |  0.120 % |
c |      115        77      869 |   11756   290887   906562 |     7    34416       95    67405 |  0.120 % |
c |      115        79      956 |   11756   290887   906562 |     8    24811       95    87306 |  0.120 % |
c |      115        85     1043 |   11756   290887   906562 |     8    34811       95    87306 |  0.120 % |
c |      118        88     1101 |   11756   290887   906562 |     9    22608       98   109681 |  0.120 % |
c |      124       143     1129 |   11756   290887   906562 |     9    32608      108   109681 |  0.120 % |
c |      136       187     1102 |   11754   290887   906562 |     9    42608      142   109681 |  0.137 % |
c |      173       213      924 |   11754   290887   906562 |    10    27807      155   134774 |  0.136 % |
c |      188       228      904 |   11702   290887   906562 |    10    37807      218   134774 |  0.578 % |
c |      188       228      957 |   11702   290887   906562 |    10    47807      243   134774 |  0.578 % |
c |      188       278     1010 |   11702   290887   906562 |    11    30403      278   162823 |  0.578 % |
c |      278       332      719 |   11702   290887   906562 |    11    40403      281   162823 |  0.578 % |
c |      278       347      755 |   11702   290887   906562 |    11    50403      285   162823 |  0.578 % |
c |      278       367      791 |   11702   290887   906562 |    12    30404      285   193373 |  0.578 % |
c |      278       386      827 |   11702   290887   906562 |    12    40404      293   193373 |  0.578 % |
c |      278       411      863 |   11702   290887   906562 |    12    50404      294   193373 |  0.578 % |
c |      278       462      899 |   11702   290887   906562 |    12    60404      295   193373 |  0.578 % |
c |      293       511      887 |   11697   290887   906562 |    13    37805      330   226474 |  0.620 % |
c |      294       549      918 |   11696   290887   906562 |    13    47805      337   226474 |  0.630 % |
c |      295       631      949 |   11645   290887   906562 |    13    57805      385   226474 |  1.062 % |
c |      328       670      884 |   11639   290887   906562 |    13    27540      409   226474 |  1.114 % |
c |      417       693      719 |   11637   290887   906562 |    14    22474      441   242390 |  1.130 % |
c |      447       710      693 |   11635   290887   906562 |    14    32473      475   242390 |  1.148 % |
c |      474       767      675 |   11488   290887   906562 |    14    42473      513   242390 |  2.396 % |
c empty clause found by core 8 at conflict 323126
*
c checking the resolution graph...OK
c All useful bySize 272607 clauses, percentiles 0 2 2 2 9 126 284 417 525 683 851 877 (0,1,5,10,25,50,75,90,95,99,100-1,100)
c All useless bySize 3896248 clauses, percentiles 0 2 2 38 133 266 376 592 697 848 1479 1481 (0,1,5,10,25,50,75,90,95,99,100-1,100)
c ProofOnly useful bySize 203350 clauses, percentiles 0 3 18 34 80 219 319 474 565 699 851 877 (0,1,5,10,25,50,75,90,95,99,100-1,100)
c ProofOnly useless bySize 3674159 clauses, percentiles 1 16 40 68 161 277 387 606 704 853 1479 1481 (0,1,5,10,25,50,75,90,95,99,100-1,100)
c All useful byFinalLBD 272607 clauses, percentiles 0 2 2 2 3 10 16 22 26 38 131 131 (0,1,5,10,25,50,75,90,95,99,100-1,100)
c All useless byFinalLBD 3896248 clauses, percentiles 0 2 2 9 23 38 48 58 66 82 165 193 (0,1,5,10,25,50,75,90,95,99,100-1,100)
c ProofOnly useful byFinalLBD 203350 clauses, percentiles 0 2 3 4 8 13 18 22 26 34 66 68 (0,1,5,10,25,50,75,90,95,99,100-1,100)
c ProofOnly useless byFinalLBD 3674159 clauses, percentiles 1 4 9 15 27 40 49 58 67 83 165 193 (0,1,5,10,25,50,75,90,95,99,100-1,100)
c All useful byInitialLBD 272607 clauses, percentiles 0 2 2 2 5 12 18 24 28 41 131 131 (0,1,5,10,25,50,75,90,95,99,100-1,100)
c All useless byInitialLBD 3896248 clauses, percentiles 0 2 2 12 25 40 49 59 67 83 165 193 (0,1,5,10,25,50,75,90,95,99,100-1,100)
c ProofOnly useful byInitialLBD 203350 clauses, percentiles 0 2 5 7 10 15 19 24 28 37 68 70 (0,1,5,10,25,50,75,90,95,99,100-1,100)
c ProofOnly useless byInitialLBD 3674159 clauses, percentiles 1 6 12 17 28 41 50 59 67 84 165 193 (0,1,5,10,25,50,75,90,95,99,100-1,100)
c Literals ProofOnly useful 46637082
c Literals ProofOnly useless 1119156567
c additional windowsGood 1 1 1 1 1 1 1 1 1 2 3 3 (0,1,5,10,25,50,75,90,95,99,100-1,100)
c additional windowsBad 1 2 2 8 11 11 11 23 47 179 2843 3155 (0,1,5,10,25,50,75,90,95,99,100-1,100)
c additional 1WindowNoDecision 186905 94383 0.50 223 97 0.43 (nbWindowsGood,nbWindowsNoDecisionGood,nbWindowsBad,nbWindowsNoDecisionBad
c additional topclausessize all (10%,5%,1%,top) 546.73 621.16 724.11 877
c additional topclausessize proofonly (10%,5%,1%,top) 563.10 633.78 729.63 877
c additional topclausesinitialLBD all (10%,5%,1%,top) 501.13 589.15 710.18 877
c additional topclausesinitialLBD proofonly (10%,5%,1%,top) 466.44 563.10 698.18 877
c additional topclausesfinalLBD all (10%,5%,1%,top) 431.85 530.71 683.74 877
c additional topclausesfinalLBD proofonly (10%,5%,1%,top) 411.33 508.14 673.78 877
c additional predictionInitialLBD 1 44 203350 0.82 0.00 0.00 3877465 3674159 0.95 18.07 1.80 0.95 (nbgoodclauses,nbtotalgood,precisionGood,recallGood,FGood,nbbadclause,nbtotalbad,precisionBad,recallBad,FBad,accuracy)
c additional predictionInitialLBD 2 6471 203350 0.34 0.01 0.02 3871038 3674159 0.95 18.05 1.80 0.95 (nbgoodclauses,nbtotalgood,precisionGood,recallGood,FGood,nbbadclause,nbtotalbad,precisionBad,recallBad,FBad,accuracy)
c additional predictionInitialLBD 3 17651 203350 0.31 0.03 0.05 3859858 3674159 0.95 18.01 1.80 0.95 (nbgoodclauses,nbtotalgood,precisionGood,recallGood,FGood,nbbadclause,nbtotalbad,precisionBad,recallBad,FBad,accuracy)
c additional predictionInitialLBD 4 28457 203350 0.29 0.04 0.07 3849052 3674159 0.95 17.97 1.80 0.94 (nbgoodclauses,nbtotalgood,precisionGood,recallGood,FGood,nbbadclause,nbtotalbad,precisionBad,recallBad,FBad,accuracy)
c additional predictionInitialLBD 5 41577 203350 0.30 0.06 0.10 3835932 3674159 0.95 17.92 1.80 0.94 (nbgoodclauses,nbtotalgood,precisionGood,recallGood,FGood,nbbadclause,nbtotalbad,precisionBad,recallBad,FBad,accuracy)
c additional predictionInitialLBD 6 58467 203350 0.30 0.09 0.13 3819042 3674159 0.95 17.87 1.81 0.94 (nbgoodclauses,nbtotalgood,precisionGood,recallGood,FGood,nbbadclause,nbtotalbad,precisionBad,recallBad,FBad,accuracy)
c additional predictionInitialLBD 7 83682 203350 0.29 0.12 0.17 3793827 3674159 0.95 17.78 1.81 0.94 (nbgoodclauses,nbtotalgood,precisionGood,recallGood,FGood,nbbadclause,nbtotalbad,precisionBad,recallBad,FBad,accuracy)
c additional predictionInitialLBD 8 113562 203350 0.29 0.16 0.20 3763947 3674159 0.95 17.67 1.81 0.93 (nbgoodclauses,nbtotalgood,precisionGood,recallGood,FGood,nbbadclause,nbtotalbad,precisionBad,recallBad,FBad,accuracy)
c additional predictionInitialLBD 10 185086 203350 0.28 0.25 0.27 3692423 3674159 0.96 17.41 1.82 0.93 (nbgoodclauses,nbtotalgood,precisionGood,recallGood,FGood,nbbadclause,nbtotalbad,precisionBad,recallBad,FBad,accuracy)
c additional predictionInitialLBD 14 360990 203350 0.27 0.49 0.35 3516519 3674159 0.97 16.78 1.83 0.91 (nbgoodclauses,nbtotalgood,precisionGood,recallGood,FGood,nbbadclause,nbtotalbad,precisionBad,recallBad,FBad,accuracy)
c additional predictionInitialLBD 18 573874 203350 0.25 0.71 0.37 3303635 3674159 0.98 15.95 1.85 0.87 (nbgoodclauses,nbtotalgood,precisionGood,recallGood,FGood,nbbadclause,nbtotalbad,precisionBad,recallBad,FBad,accuracy)
c additional predictionInitialLBD 22 804054 203350 0.22 0.86 0.35 3073455 3674159 0.99 14.97 1.86 0.83 (nbgoodclauses,nbtotalgood,precisionGood,recallGood,FGood,nbbadclause,nbtotalbad,precisionBad,recallBad,FBad,accuracy)
c additional predictionInitialLBD 30 1274926 203350 0.15 0.97 0.27 2602583 3674159 1.00 12.77 1.85 0.72 (nbgoodclauses,nbtotalgood,precisionGood,recallGood,FGood,nbbadclause,nbtotalbad,precisionBad,recallBad,FBad,accuracy)
c additional predictionInitialLBD 40 2015091 203350 0.10 0.99 0.18 1862418 3674159 1.00 9.15 1.80 0.53 (nbgoodclauses,nbtotalgood,precisionGood,recallGood,FGood,nbbadclause,nbtotalbad,precisionBad,recallBad,FBad,accuracy)
c additional predictionFinallLBD 1 3736 203350 0.36 0.01 0.01 3873773 3674159 0.95 1.00 0.97 0.95 (nbgoodclauses,nbtotalgood,precisionGood,recallGood,FGood,nbbadclause,nbtotalbad,precisionBad,recallBad,FBad,accuracy)
c additional predictionFinallLBD 2 21200 203350 0.33 0.03 0.06 3856309 3674159 0.95 1.00 0.97 0.95 (nbgoodclauses,nbtotalgood,precisionGood,recallGood,FGood,nbbadclause,nbtotalbad,precisionBad,recallBad,FBad,accuracy)
c additional predictionFinallLBD 3 45256 203350 0.31 0.07 0.11 3832253 3674159 0.95 0.99 0.97 0.94 (nbgoodclauses,nbtotalgood,precisionGood,recallGood,FGood,nbbadclause,nbtotalbad,precisionBad,recallBad,FBad,accuracy)
c additional predictionFinallLBD 4 74343 203350 0.29 0.11 0.16 3803166 3674159 0.95 0.99 0.97 0.94 (nbgoodclauses,nbtotalgood,precisionGood,recallGood,FGood,nbbadclause,nbtotalbad,precisionBad,recallBad,FBad,accuracy)
c additional predictionFinallLBD 5 108169 203350 0.27 0.15 0.19 3769340 3674159 0.95 0.98 0.97 0.93 (nbgoodclauses,nbtotalgood,precisionGood,recallGood,FGood,nbbadclause,nbtotalbad,precisionBad,recallBad,FBad,accuracy)
c additional predictionFinallLBD 6 142284 203350 0.26 0.18 0.22 3735225 3674159 0.96 0.97 0.96 0.93 (nbgoodclauses,nbtotalgood,precisionGood,recallGood,FGood,nbbadclause,nbtotalbad,precisionBad,recallBad,FBad,accuracy)
c additional predictionFinallLBD 7 177521 203350 0.26 0.23 0.24 3699988 3674159 0.96 0.96 0.96 0.93 (nbgoodclauses,nbtotalgood,precisionGood,recallGood,FGood,nbbadclause,nbtotalbad,precisionBad,recallBad,FBad,accuracy)
c additional predictionFinallLBD 8 212785 203350 0.26 0.27 0.26 3664724 3674159 0.96 0.96 0.96 0.92 (nbgoodclauses,nbtotalgood,precisionGood,recallGood,FGood,nbbadclause,nbtotalbad,precisionBad,recallBad,FBad,accuracy)
c additional predictionFinallLBD 10 286444 203350 0.26 0.37 0.31 3591065 3674159 0.96 0.94 0.95 0.91 (nbgoodclauses,nbtotalgood,precisionGood,recallGood,FGood,nbbadclause,nbtotalbad,precisionBad,recallBad,FBad,accuracy)
c additional predictionFinallLBD 14 457238 203350 0.26 0.59 0.36 3420271 3674159 0.98 0.91 0.94 0.89 (nbgoodclauses,nbtotalgood,precisionGood,recallGood,FGood,nbbadclause,nbtotalbad,precisionBad,recallBad,FBad,accuracy)
c additional predictionFinallLBD 18 665977 203350 0.24 0.78 0.37 3211532 3674159 0.99 0.86 0.92 0.86 (nbgoodclauses,nbtotalgood,precisionGood,recallGood,FGood,nbbadclause,nbtotalbad,precisionBad,recallBad,FBad,accuracy)
c additional predictionFinallLBD 22 887686 203350 0.21 0.90 0.34 2989823 3674159 0.99 0.81 0.89 0.81 (nbgoodclauses,nbtotalgood,precisionGood,recallGood,FGood,nbbadclause,nbtotalbad,precisionBad,recallBad,FBad,accuracy)
c additional predictionFinallLBD 30 1353124 203350 0.15 0.98 0.26 2524385 3674159 1.00 0.69 0.81 0.70 (nbgoodclauses,nbtotalgood,precisionGood,recallGood,FGood,nbbadclause,nbtotalbad,precisionBad,recallBad,FBad,accuracy)
c additional predictionFinallLBD 40 2106280 203350 0.10 1.00 0.18 1771229 3674159 1.00 0.48 0.65 0.51 (nbgoodclauses,nbtotalgood,precisionGood,recallGood,FGood,nbbadclause,nbtotalbad,precisionBad,recallBad,FBad,accuracy)
c additional predictionSize 1 44 203350 0.82 0.00 0.00 3877465 3674159 0.95 18.07 1.80 0.95 (nbgoodclauses,nbtotalgood,precisionGood,recallGood,FGood,nbbadclause,nbtotalbad,precisionBad,recallBad,FBad,accuracy)
c additional predictionSize 2 5383 203350 0.34 0.01 0.02 3872126 3674159 0.95 18.05 1.80 0.95 (nbgoodclauses,nbtotalgood,precisionGood,recallGood,FGood,nbbadclause,nbtotalbad,precisionBad,recallBad,FBad,accuracy)
c additional predictionSize 3 8550 203350 0.32 0.01 0.03 3868959 3674159 0.95 18.04 1.80 0.95 (nbgoodclauses,nbtotalgood,precisionGood,recallGood,FGood,nbbadclause,nbtotalbad,precisionBad,recallBad,FBad,accuracy)
c additional predictionSize 4 11611 203350 0.29 0.02 0.03 3865898 3674159 0.95 18.03 1.80 0.95 (nbgoodclauses,nbtotalgood,precisionGood,recallGood,FGood,nbbadclause,nbtotalbad,precisionBad,recallBad,FBad,accuracy)
c additional predictionSize 5 14910 203350 0.27 0.02 0.04 3862599 3674159 0.95 18.01 1.80 0.95 (nbgoodclauses,nbtotalgood,precisionGood,recallGood,FGood,nbbadclause,nbtotalbad,precisionBad,recallBad,FBad,accuracy)
c additional predictionSize 6 17850 203350 0.26 0.02 0.04 3859659 3674159 0.95 18.00 1.80 0.95 (nbgoodclauses,nbtotalgood,precisionGood,recallGood,FGood,nbbadclause,nbtotalbad,precisionBad,recallBad,FBad,accuracy)
c additional predictionSize 7 20447 203350 0.25 0.03 0.05 3857062 3674159 0.95 17.99 1.80 0.94 (nbgoodclauses,nbtotalgood,precisionGood,recallGood,FGood,nbbadclause,nbtotalbad,precisionBad,recallBad,FBad,accuracy)
c additional predictionSize 8 22855 203350 0.24 0.03 0.05 3854654 3674159 0.95 17.98 1.80 0.94 (nbgoodclauses,nbtotalgood,precisionGood,recallGood,FGood,nbbadclause,nbtotalbad,precisionBad,recallBad,FBad,accuracy)
c additional predictionSize 10 29036 203350 0.23 0.03 0.06 3848473 3674159 0.95 17.96 1.80 0.94 (nbgoodclauses,nbtotalgood,precisionGood,recallGood,FGood,nbbadclause,nbtotalbad,precisionBad,recallBad,FBad,accuracy)
c additional predictionSize 14 40394 203350 0.21 0.04 0.07 3837115 3674159 0.95 17.91 1.80 0.94 (nbgoodclauses,nbtotalgood,precisionGood,recallGood,FGood,nbbadclause,nbtotalbad,precisionBad,recallBad,FBad,accuracy)
c additional predictionSize 18 58520 203350 0.18 0.05 0.08 3818989 3674159 0.95 17.83 1.80 0.94 (nbgoodclauses,nbtotalgood,precisionGood,recallGood,FGood,nbbadclause,nbtotalbad,precisionBad,recallBad,FBad,accuracy)
c additional predictionSize 22 80504 203350 0.15 0.06 0.09 3797005 3674159 0.95 17.73 1.80 0.93 (nbgoodclauses,nbtotalgood,precisionGood,recallGood,FGood,nbbadclause,nbtotalbad,precisionBad,recallBad,FBad,accuracy)
c additional predictionSize 30 132234 203350 0.13 0.09 0.10 3745275 3674159 0.95 17.50 1.80 0.92 (nbgoodclauses,nbtotalgood,precisionGood,recallGood,FGood,nbbadclause,nbtotalbad,precisionBad,recallBad,FBad,accuracy)
c additional predictionSize 40 210792 203350 0.12 0.12 0.12 3666717 3674159 0.95 17.15 1.80 0.91 (nbgoodclauses,nbtotalgood,precisionGood,recallGood,FGood,nbbadclause,nbtotalbad,precisionBad,recallBad,FBad,accuracy)
c additional predictionAge 1 78289 203350 0.15 0.06 0.08 3799220 3674159 0.95 17.74 1.80 0.93 (nbgoodclauses,nbtotalgood,precisionGood,recallGood,FGood,nbbadclause,nbtotalbad,precisionBad,recallBad,FBad,accuracy)
c additional predictionAge 10 78297 203350 0.15 0.06 0.08 3799212 3674159 0.95 17.74 1.80 0.93 (nbgoodclauses,nbtotalgood,precisionGood,recallGood,FGood,nbbadclause,nbtotalbad,precisionBad,recallBad,FBad,accuracy)
c additional predictionAge 25 105854 203350 0.12 0.06 0.08 3771655 3674159 0.95 17.61 1.80 0.93 (nbgoodclauses,nbtotalgood,precisionGood,recallGood,FGood,nbbadclause,nbtotalbad,precisionBad,recallBad,FBad,accuracy)
c additional predictionAge 50 121398 203350 0.11 0.07 0.08 3756111 3674159 0.95 17.54 1.80 0.92 (nbgoodclauses,nbtotalgood,precisionGood,recallGood,FGood,nbbadclause,nbtotalbad,precisionBad,recallBad,FBad,accuracy)
c additional predictionAge 100 138168 203350 0.10 0.07 0.08 3739341 3674159 0.95 17.46 1.80 0.92 (nbgoodclauses,nbtotalgood,precisionGood,recallGood,FGood,nbbadclause,nbtotalbad,precisionBad,recallBad,FBad,accuracy)
c additional predictionAge 250 166427 203350 0.09 0.08 0.08 3711082 3674159 0.95 17.33 1.80 0.91 (nbgoodclauses,nbtotalgood,precisionGood,recallGood,FGood,nbbadclause,nbtotalbad,precisionBad,recallBad,FBad,accuracy)
c additional predictionAge 500 191735 203350 0.09 0.08 0.08 3685774 3674159 0.95 17.21 1.80 0.91 (nbgoodclauses,nbtotalgood,precisionGood,recallGood,FGood,nbbadclause,nbtotalbad,precisionBad,recallBad,FBad,accuracy)
c additional predictionAge 1000 217040 203350 0.08 0.09 0.08 3660469 3674159 0.95 17.09 1.80 0.90 (nbgoodclauses,nbtotalgood,precisionGood,recallGood,FGood,nbbadclause,nbtotalbad,precisionBad,recallBad,FBad,accuracy)
c additional predictionAge 2500 249729 203350 0.08 0.10 0.09 3627780 3674159 0.95 16.94 1.80 0.89 (nbgoodclauses,nbtotalgood,precisionGood,recallGood,FGood,nbbadclause,nbtotalbad,precisionBad,recallBad,FBad,accuracy)
c additional predictionAge 5000 276187 203350 0.08 0.10 0.09 3601322 3674159 0.95 16.81 1.80 0.89 (nbgoodclauses,nbtotalgood,precisionGood,recallGood,FGood,nbbadclause,nbtotalbad,precisionBad,recallBad,FBad,accuracy)
c additional predictionAge 10000 305310 203350 0.07 0.11 0.09 3572199 3674159 0.95 16.68 1.80 0.88 (nbgoodclauses,nbtotalgood,precisionGood,recallGood,FGood,nbbadclause,nbtotalbad,precisionBad,recallBad,FBad,accuracy)
c additional predictionAge 25000 351551 203350 0.07 0.12 0.09 3525958 3674159 0.95 16.46 1.80 0.87 (nbgoodclauses,nbtotalgood,precisionGood,recallGood,FGood,nbbadclause,nbtotalbad,precisionBad,recallBad,FBad,accuracy)
c additional predictionAge 50000 404061 203350 0.07 0.13 0.09 3473448 3674159 0.95 16.21 1.79 0.86 (nbgoodclauses,nbtotalgood,precisionGood,recallGood,FGood,nbbadclause,nbtotalbad,precisionBad,recallBad,FBad,accuracy)
c additional predictionAge 100000 484544 203350 0.06 0.15 0.09 3392965 3674159 0.95 15.83 1.79 0.84 (nbgoodclauses,nbtotalgood,precisionGood,recallGood,FGood,nbbadclause,nbtotalbad,precisionBad,recallBad,FBad,accuracy)
c additional predictionTicks 1 84222 203350 0.14 0.06 0.08 3793287 3674159 0.95 17.71 1.80 0.93 (nbgoodclauses,nbtotalgood,precisionGood,recallGood,FGood,nbbadclause,nbtotalbad,precisionBad,recallBad,FBad,accuracy)
c additional predictionTicks 10 96917 203350 0.14 0.07 0.09 3780592 3674159 0.95 17.66 1.80 0.93 (nbgoodclauses,nbtotalgood,precisionGood,recallGood,FGood,nbbadclause,nbtotalbad,precisionBad,recallBad,FBad,accuracy)
c additional predictionTicks 25 359810 203350 0.08 0.14 0.10 3517699 3674159 0.95 16.43 1.80 0.87 (nbgoodclauses,nbtotalgood,precisionGood,recallGood,FGood,nbbadclause,nbtotalbad,precisionBad,recallBad,FBad,accuracy)
c additional predictionTicks 50 525947 203350 0.07 0.18 0.10 3351562 3674159 0.95 15.66 1.79 0.83 (nbgoodclauses,nbtotalgood,precisionGood,recallGood,FGood,nbbadclause,nbtotalbad,precisionBad,recallBad,FBad,accuracy)
c additional predictionTicks 100 753601 203350 0.06 0.23 0.10 3123908 3674159 0.95 14.60 1.78 0.78 (nbgoodclauses,nbtotalgood,precisionGood,recallGood,FGood,nbbadclause,nbtotalbad,precisionBad,recallBad,FBad,accuracy)
c additional predictionTicks 250 1202865 203350 0.06 0.34 0.10 2674644 3674159 0.95 12.49 1.77 0.67 (nbgoodclauses,nbtotalgood,precisionGood,recallGood,FGood,nbbadclause,nbtotalbad,precisionBad,recallBad,FBad,accuracy)
c additional predictionTicks 500 1639121 203350 0.06 0.44 0.10 2238388 3674159 0.95 10.45 1.74 0.57 (nbgoodclauses,nbtotalgood,precisionGood,recallGood,FGood,nbbadclause,nbtotalbad,precisionBad,recallBad,FBad,accuracy)
c additional predictionTicks 1000 2075209 203350 0.05 0.54 0.10 1802300 3674159 0.95 8.41 1.70 0.47 (nbgoodclauses,nbtotalgood,precisionGood,recallGood,FGood,nbbadclause,nbtotalbad,precisionBad,recallBad,FBad,accuracy)
c additional predictionTicks 2500 2589300 203350 0.05 0.67 0.10 1288209 3674159 0.95 6.00 1.64 0.35 (nbgoodclauses,nbtotalgood,precisionGood,recallGood,FGood,nbbadclause,nbtotalbad,precisionBad,recallBad,FBad,accuracy)
c additional predictionTicks 5000 2912108 203350 0.05 0.74 0.10 965401 3674159 0.95 4.49 1.56 0.27 (nbgoodclauses,nbtotalgood,precisionGood,recallGood,FGood,nbbadclause,nbtotalbad,precisionBad,recallBad,FBad,accuracy)
c additional predictionTicks 10000 3174377 203350 0.05 0.81 0.10 703132 3674159 0.94 3.27 1.47 0.21 (nbgoodclauses,nbtotalgood,precisionGood,recallGood,FGood,nbbadclause,nbtotalbad,precisionBad,recallBad,FBad,accuracy)
c additional predictionTicks 25000 3434876 203350 0.05 0.87 0.10 442633 3674159 0.94 2.05 1.29 0.15 (nbgoodclauses,nbtotalgood,precisionGood,recallGood,FGood,nbbadclause,nbtotalbad,precisionBad,recallBad,FBad,accuracy)
c additional predictionTicks 50000 3578381 203350 0.05 0.91 0.10 299128 3674159 0.94 1.38 1.12 0.12 (nbgoodclauses,nbtotalgood,precisionGood,recallGood,FGood,nbbadclause,nbtotalbad,precisionBad,recallBad,FBad,accuracy)
c additional predictionTicks 100000 3687069 203350 0.05 0.94 0.10 190440 3674159 0.93 0.88 0.90 0.10 (nbgoodclauses,nbtotalgood,precisionGood,recallGood,FGood,nbbadclause,nbtotalbad,precisionBad,recallBad,FBad,accuracy)
c additional lifetimeGood 1 12 204 4920 103175 769569 2039997 3015160 3482543 3812872 3877891 3877914 (0,1,5,10,25,50,75,90,95,99,100-1,100)
c additional lifetimeBad 1 12 60 1344 64046 431856 1349899 2741189 3277011 3741536 3877901 3877903 (0,1,5,10,25,50,75,90,95,99,100-1,100)
c additional lifetimeBadBad 1 12 24 156 18516 208056 790248 1759472 2599225 3330902 3877798 3877848 (0,1,5,10,25,50,75,90,95,99,100-1,100)
c additional compositionBad 1 2 4 7 18 44 87 133 158 238 858 909 (0,1,5,10,25,50,75,90,95,99,100-1,100)
c additional compositionBadWithGood 0 0 0 0 1 3 7 14 21 39 206 208 (0,1,5,10,25,50,75,90,95,99,100-1,100)
c additional compositionBadWithBad 0 0 1 1 3 7 15 27 34 43 82 100 (0,1,5,10,25,50,75,90,95,99,100-1,100)
c additional compositionBadWithInitial 0 0 2 4 11 31 64 98 118 195 793 815 (0,1,5,10,25,50,75,90,95,99,100-1,100)
c additional compositionGood 1 2 3 4 10 38 101 149 187 293 907 966 (0,1,5,10,25,50,75,90,95,99,100-1,100)
c additional compositionGoodWithGood 0 0 0 1 3 12 28 45 52 67 208 211 (0,1,5,10,25,50,75,90,95,99,100-1,100)
c additional compositionGoodWithInitial 0 0 2 2 6 22 71 110 146 238 779 859 (0,1,5,10,25,50,75,90,95,99,100-1,100)
c additional propagationGood total 33733744 percentiles 0 1 1 1 1 2 5 39 160 3128 120391 138479 (0,1,5,10,25,50,75,90,95,99,100-1,100)
c additional propagationBad total 101851180 percentiles 1 1 1 1 1 1 3 6 17 207 320001 320023 (0,1,5,10,25,50,75,90,95,99,100-1,100)
c additional resolutionGood total 8729030 percentiles 0 1 1 1 1 2 5 25 81 736 23888 29512 (0,1,5,10,25,50,75,90,95,99,100-1,100)
c additional resolutionBad total 38806270 percentiles 0 0 0 1 1 1 3 5 12 110 38037 40775 (0,1,5,10,25,50,75,90,95,99,100-1,100)
No graph is dumped
c result of core 8 is UNSAT
c One thread has finished
c Core 8 said it finished
c result of core 2 is UNKNOWN
c result of core 0 is UNKNOWN
c result of core 7 is UNKNOWN
c result of core 1 is UNKNOWN
c result of core 3 is UNKNOWN
c result of core 6 is UNKNOWN
c result of core 4 is UNKNOWN
c result of core 11 is UNKNOWN
c result of core 10 is UNKNOWN
c result of core 5 is UNKNOWN
c result of core 9 is UNKNOWN
c restarts              : 474 (681 conflicts in avg)
c blocked restarts      : 796 (multiple: 97) 
c last block at restart : 474
c nb ReduceDB           : 14
c nb removed Clauses    : 242390
c nb learnts DL2        : 523
c nb learnts size 2     : 414
c nb learnts size 1     : 4
c conflicts             : 323126         (392 /sec)
c decisions             : 1411680        (0.00 % random) (1711 /sec)
c propagations          : 100117198      (121324 /sec)
c conflict literals     : 87290988       (2.90 % deleted)
c nb reduced Clauses    : 828
c CPU time              : 825.207 s

s INDETERMINATE
