c
c This is glucose-proof 1.0 based on  2.1 --  (thanks to MiniSAT)
c
c EXPERIMENTAL EASY PARALLEL (ROUND ROBIN) VERSION
c
c WARNING: for repeatability, setting FPU to use double precision
c Parallel version 8 solvers created.
c ========================================[ Problem Statistics ]===========================================
c |                                                                                                       |
c |  Number of variables:        136945                                                                   |
c |  Number of clauses:         3190485                                                                   |
c |  Parse time:                   6.23 s                                                                 |
c |                                                                                                       |
c ========================================[ MAGIC CONSTANTS ]==============================================
c | Constants are supposed to work well together :-)                                                      |
c | however, if you find better choices, please let us known...                                           |
c |-------------------------------------------------------------------------------------------------------|
c |                                |                                |                                     |
c | - Restarts:                    | - Reduce Clause DB:            | - Minimize Asserting:               |
c |   * LBD Queue    :     50      |   * First     :   4000         |    * size <  30                     |
c |   * Trail  Queue :   5000      |   * Inc       :    300         |    * lbd  <   6                     |
c |   * K            :   0.80      |   * Special   :   1000         |                                     |
c |   * R            :   1.40      |   * Protected :  (lbd)< 30     |                                     |
c |                                |                                |                                     |
c ==================================[ Search Statistics (every  10000 conflicts) ]=========================
c |                                                                                                       |
c |          RESTARTS           |          ORIGINAL         |              LEARNT              | Progress |
c |       NB   Blocked  Avg Cfc |    Vars  Clauses Literals |   Red   Learnts    LBD2  Removed |          |
c =========================================================================================================
c |       62         0      161 |  135472  3190485  9430813 |     1     8000      150     2690 |  1.076 % |
c |      122         0      163 |  135471  3190485  9430813 |     3     6971      222    15481 |  1.076 % |
c |      174         0      172 |  135470  3190485  9430813 |     3    16970      298    15481 |  1.077 % |
c |      211         4      189 |  135470  3190485  9430813 |     4    17695      343    25882 |  1.077 % |
c |      268         9      186 |  135463  3190485  9430813 |     5    15867      446    38660 |  1.082 % |
c |      358        10      167 |  135463  3190485  9430813 |     5    25845      556    38660 |  1.082 % |
c |      434        10      161 |  135463  3190485  9430813 |     6    21439      617    54519 |  1.082 % |
c |      512        11      156 |  135462  3190485  9430813 |     6    31439      650    54519 |  1.083 % |
c |      566        11      159 |  135461  3190485  9430813 |     7    24492      708    72655 |  1.084 % |
c |      653        14      153 |  135461  3190485  9430813 |     7    34492      755    72655 |  1.084 % |
c |      757        14      145 |  135459  3190485  9430813 |     8    24878      795    93635 |  1.085 % |
c |      833        15      144 |  135459  3190485  9430813 |     8    34878      837    93635 |  1.085 % |
c |      918        15      141 |  135459  3190485  9430813 |     9    22665      922   116981 |  1.085 % |
c |      952        16      147 |  135459  3190485  9430813 |     9    32665      970   116981 |  1.085 % |
c |      987        16      151 |  135458  3190485  9430813 |     9    42665     1001   116981 |  1.086 % |
c |     1003        18      159 |  135458  3190485  9430813 |    10    27852     1018   142982 |  1.086 % |
c |     1010        20      168 |  135458  3190485  9430813 |    10    37852     1022   142982 |  1.086 % |
c |     1107        22      162 |  135458  3190485  9430813 |    10    47852     1080   142982 |  1.086 % |
c |     1207        22      157 |  135454  3190485  9430813 |    11    30454     1119   171372 |  1.089 % |
c |     1230        23      162 |  135454  3190485  9430813 |    11    40454     1134   171372 |  1.089 % |
c |     1334        23      157 |  135454  3190485  9430813 |    11    50454     1196   171372 |  1.089 % |
c |     1389        23      158 |  135453  3190485  9430813 |    12    30570     1238   202383 |  1.089 % |
c |     1479        23      155 |  135444  3190485  9430813 |    12    40568     1289   202383 |  1.096 % |
c |     1562        23      153 |  135444  3190485  9430813 |    12    50568     1331   202383 |  1.096 % |
c |     1661        23      150 |  135444  3190485  9430813 |    12    60568     1373   202383 |  1.096 % |
c |     1775        23      146 |  135442  3190485  9430813 |    13    38014     1431   236254 |  1.098 % |
c |     1864        23      144 |  135442  3190485  9430813 |    13    48014     1495   236254 |  1.098 % |
c |     1947        23      143 |  122025  3190485  9430813 |    13    58001     1529   236254 | 10.895 % |
c |     2061        23      140 |  122025  3190485  9430813 |    13    67789     1571   236254 | 10.895 % |
c |     2138        24      140 |  122024  3190485  9430813 |    14    42625     1600   273188 | 10.896 % |
c |     2239        24      138 |  122024  3190485  9430813 |    14    52625     1674   273188 | 10.896 % |
c |     2341        24      136 |  122022  3190485  9430813 |    14    62625     1711   273188 | 10.897 % |
c |     2442        24      135 |  122022  3190485  9430813 |    14    72625     1752   273188 | 10.897 % |
c |     2540        24      133 |  122021  3190485  9430813 |    15    44919     1779   312600 | 10.898 % |
c |     2636        24      132 |  122019  3190485  9430813 |    15    54919     1804   312600 | 10.899 % |
c |     2730        24      131 |  122016  3190485  9430813 |    15    64919     1850   312600 | 10.902 % |
c |     2760        31      134 |  121998  3190485  9430813 |    15    74915     1872   312600 | 10.915 % |
c |     2849        31      133 |  121996  3190485  9430813 |    16    44623     1892   354500 | 10.916 % |
c |     2919        31      133 |  121992  3190485  9430813 |    16    54621     1917   354500 | 10.919 % |
c |     2969        31      134 |  121992  3190485  9430813 |    16    64621     1942   354500 | 10.919 % |
c |     3044        31      134 |  121989  3190485  9430813 |    16    74619     1976   354500 | 10.921 % |
c |     3096        31      135 |  121989  3190485  9430813 |    16    84619     1995   354500 | 10.921 % |
c |     3153        32      136 |  121986  3190485  9430813 |    17    51625     2054   399251 | 10.923 % |
c |     3246        32      135 |  121985  3190485  9430813 |    17    61624     2071   399251 | 10.924 % |
c |     3318        32      135 |  121985  3190485  9430813 |    17    71624     2080   399251 | 10.924 % |
c |     3388        32      135 |  121985  3190485  9430813 |    17    81624     2098   399251 | 10.924 % |
c |     3422        32      137 |  121985  3190485  9430813 |    18    45978     2104   446438 | 10.924 % |
c |     3442        32      139 |  121983  3190485  9430813 |    18    55978     2111   446438 | 10.926 % |
c |     3528        32      138 |  121983  3190485  9430813 |    18    65978     2134   446438 | 10.926 % |
c |     3621        32      138 |  121980  3190485  9430813 |    18    75978     2146   446438 | 10.928 % |
c |     3717        32      137 |  121979  3190485  9430813 |    18    85978     2149   446438 | 10.928 % |
c |     3764        32      138 |  121979  3190485  9430813 |    18    95978     2154   446438 | 10.929 % |
c |     3826        32      138 |  121979  3190485  9430813 |    19    57726     2180   496775 | 10.929 % |
c |     3871        32      139 |  121978  3190485  9430813 |    19    67726     2189   496775 | 10.929 % |
c |     3905        32      140 |  121978  3190485  9430813 |    19    77726     2192   496775 | 10.929 % |
c |     3937        32      142 |  121978  3190485  9430813 |    19    87726     2202   496775 | 10.929 % |
c |     3989        33      142 |  121978  3190485  9430813 |    19    97726     2221   496775 | 10.929 % |
c |     4040        33      143 |  121976  3190485  9430813 |    20    56893     2226   549146 | 10.931 % |
c |     4083        33      144 |  121975  3190485  9430813 |    20    66893     2231   549146 | 10.932 % |
c |     4134        37      145 |  121967  3190485  9430813 |    20    76893     2248   549146 | 10.937 % |
c |     4165        37      146 |  121967  3190485  9430813 |    20    86893     2252   549146 | 10.937 % |
c |     4207        38      147 |  121846  3190485  9430813 |    20    96790     2267   549146 | 11.026 % |
c |     4275        40      147 |  121844  3190485  9430813 |    20   106790     2284   549146 | 11.027 % |
c |     4358        40      146 |  121842  3190485  9430813 |    21    63402     2319   604519 | 11.029 % |
c |     4436        40      146 |  121842  3190485  9430813 |    21    73402     2343   604519 | 11.029 % |
c |     4496        40      146 |  121842  3190485  9430813 |    21    83402     2358   604519 | 11.029 % |
c |     4638        41      144 |  121839  3190485  9430813 |    21    93402     2377   604519 | 11.031 % |
c |     4787        41      142 |  121839  3190485  9430813 |    21   103401     2392   604519 | 11.031 % |
c |     4834        41      142 |  121839  3190485  9430813 |    22    57408     2404   662318 | 11.031 % |
c |     4879        42      143 |  121839  3190485  9430813 |    22    67408     2417   662318 | 11.031 % |
c |     4950        42      143 |  121837  3190485  9430813 |    22    77408     2430   662318 | 11.032 % |
c |     4987        42      144 |  121837  3190485  9430813 |    22    87407     2439   662318 | 11.032 % |
c |     5022        42      145 |  121837  3190485  9430813 |    22    97407     2441   662318 | 11.032 % |
c |     5032        42      147 |  121837  3190485  9430813 |    22   107407     2442   662318 | 11.032 % |
c |     5113        42      146 |  121835  3190485  9430813 |    23    58832     2452   722458 | 11.034 % |
c |     5184        42      146 |  121834  3190485  9430813 |    23    68832     2477   722458 | 11.034 % |
c |     5237        42      147 |  121834  3190485  9430813 |    23    78831     2491   722458 | 11.034 % |
c |     5277        42      147 |  121834  3190485  9430813 |    23    88831     2497   722458 | 11.034 % |
c |     5281        43      149 |  121834  3190485  9430813 |    23    98831     2498   722458 | 11.034 % |
c |     5298        43      151 |  121833  3190485  9430813 |    23   108831     2504   722458 | 11.035 % |
c |     5321        43      152 |  121833  3190485  9430813 |    23   118831     2508   722458 | 11.035 % |
c |     5343        43      153 |  121833  3190485  9430813 |    24    67658     2514   785223 | 11.035 % |
c |     5349        44      155 |  121833  3190485  9430813 |    24    77658     2522   785223 | 11.035 % |
c |     5392        44      155 |  121831  3190485  9430813 |    24    87655     2533   785223 | 11.037 % |
c |     5486        44      154 |  121831  3190485  9430813 |    24    97655     2552   785223 | 11.037 % |
c |     5626        44      152 |  121831  3190485  9430813 |    24   107655     2560   785223 | 11.037 % |
c |     5735        44      151 |  121831  3190485  9430813 |    24   117655     2571   785223 | 11.037 % |
c |     5816        45      151 |  121830  3190485  9430813 |    24   127655     2581   785223 | 11.037 % |
c |     5935        45      149 |  121830  3190485  9430813 |    25    74001     2590   850272 | 11.037 % |
c |     6085        45      147 |  121829  3190485  9430813 |    25    84000     2602   850272 | 11.038 % |
c |     6163        47      147 |  121829  3190485  9430813 |    25    94000     2624   850272 | 11.038 % |
c |     6244        47      147 |  121829  3190485  9430813 |    25   104000     2631   850272 | 11.038 % |
c |     6293        47      147 |  121828  3190485  9430813 |    25   114000     2640   850272 | 11.039 % |
c |     6396        47      146 |  121827  3190485  9430813 |    25   124000     2648   850272 | 11.039 % |
c |     6520        47      145 |  121825  3190485  9430813 |    26    67544     2655   918019 | 11.041 % |
c |     6559        47      146 |  121689  3190485  9430813 |    26    77544     2661   918019 | 11.140 % |
c |     6580        50      147 |  121688  3190485  9430813 |    26    87543     2669   918019 | 11.141 % |
c |     6607        50      148 |  121688  3190485  9430813 |    26    97543     2674   918019 | 11.141 % |
c |     6677        50      148 |  121687  3190485  9430813 |    26   107416     2681   918019 | 11.142 % |
c |     6724        50      148 |  121687  3190485  9430813 |    26   117416     2686   918019 | 11.142 % |
c |     6756        50      149 |  121687  3190485  9430813 |    26   127416     2694   918019 | 11.142 % |
c |     6814        50      149 |  121687  3190485  9430813 |    26   137416     2705   918019 | 11.142 % |
c |     6870        50      149 |  121685  3190485  9430813 |    27    78479     2711   988151 | 11.143 % |
c |     6895        50      150 |  121685  3190485  9430813 |    27    88479     2713   988151 | 11.143 % |
c |     6896        50      152 |  121684  3190485  9430813 |    27    98479     2714   988151 | 11.144 % |
c |     6949        50      152 |  121684  3190485  9430813 |    27   108479     2723   988151 | 11.144 % |
c |     7012        50      152 |  121684  3190485  9430813 |    27   118479     2725   988151 | 11.144 % |
c |     7038        51      153 |  121684  3190485  9430813 |    27   128479     2735   988151 | 11.144 % |
c |     7078        52      153 |  121683  3190485  9430813 |    27   138479     2760   988151 | 11.145 % |
c |     7093        53      155 |  121683  3190485  9430813 |    28    76854     2765  1061132 | 11.145 % |
c |     7093        53      156 |  121682  3190485  9430813 |    28    86854     2766  1061132 | 11.145 % |
c |     7098        53      157 |  121682  3190485  9430813 |    28    96854     2769  1061132 | 11.145 % |
c |     7123        53      158 |  121682  3190485  9430813 |    28   106854     2781  1061132 | 11.145 % |
c |     7144        53      159 |  121681  3190485  9430813 |    28   116854     2797  1061132 | 11.146 % |
c |     7244        53      158 |  121679  3190485  9430813 |    28   126853     2805  1061132 | 11.148 % |
c |     7266        53      159 |  121679  3190485  9430813 |    28   136853     2809  1061132 | 11.148 % |
c |     7326        54      159 |  121679  3190485  9430813 |    28   146853     2817  1061132 | 11.148 % |
c |     7383        54      159 |  121679  3190485  9430813 |    29    82738     2839  1136349 | 11.148 % |
c |     7445        55      159 |  121679  3190485  9430813 |    29    92738     2849  1136349 | 11.148 % |
c |     7564        55      158 |  121679  3190485  9430813 |    29   102738     2854  1136349 | 11.148 % |
c |     7637        55      158 |  121679  3190485  9430813 |    29   112738     2865  1136349 | 11.148 % |
c |     7716        55      158 |  121679  3190485  9430813 |    29   122738     2868  1136349 | 11.148 % |
c |     7745        55      158 |  121679  3190485  9430813 |    29   132738     2873  1136349 | 11.148 % |
c |     7801        55      158 |  121679  3190485  9430813 |    29   142738     2880  1136349 | 11.148 % |
c |     7885        55      158 |  121678  3190485  9430813 |    29   152737     2897  1136349 | 11.148 % |
c |     7912        55      159 |  121678  3190485  9430813 |    30    85896     2908  1214346 | 11.148 % |
c |     7931        55      160 |  121678  3190485  9430813 |    30    95896     2912  1214346 | 11.148 % |
c |     7965        55      160 |  121677  3190485  9430813 |    30   105896     2916  1214346 | 11.149 % |
c |     8031        55      160 |  121676  3190485  9430813 |    30   115896     2931  1214346 | 11.150 % |
c |     8064        56      161 |  121673  3190485  9430813 |    30   125894     2944  1214346 | 11.152 % |
c |     8108        57      161 |  121673  3190485  9430813 |    30   135894     2957  1214346 | 11.152 % |
c |     8189        57      161 |  121673  3190485  9430813 |    30   145893     2987  1214346 | 11.152 % |
c |     8211        57      161 |  121673  3190485  9430813 |    30   155893     2988  1214346 | 11.152 % |
c |     8230        57      162 |  121673  3190485  9430813 |    31    86481     3001  1294919 | 11.152 % |
c |     8265        57      163 |  121673  3190485  9430813 |    31    96481     3011  1294919 | 11.152 % |
c |     8304        57      163 |  121673  3190485  9430813 |    31   106481     3022  1294919 | 11.152 % |
c |     8344        57      164 |  121673  3190485  9430813 |    31   116481     3033  1294919 | 11.152 % |
c |     8383        58      164 |  121673  3190485  9430813 |    31   126481     3039  1294919 | 11.152 % |
c |     8396        58      165 |  121671  3190485  9430813 |    31   136481     3046  1294919 | 11.153 % |
c |     8434        58      165 |  121670  3190485  9430813 |    31   146481     3062  1294919 | 11.154 % |
c |     8461        58      166 |  121669  3190485  9430813 |    31   156481     3066  1294919 | 11.155 % |
c |     8477        58      167 |  121669  3190485  9430813 |    32    84470     3069  1378204 | 11.155 % |
c |     8479        58      168 |  121669  3190485  9430813 |    32    94470     3070  1378204 | 11.155 % |
c |     8495        58      169 |  121669  3190485  9430813 |    32   104470     3073  1378204 | 11.155 % |
c |     8531        58      169 |  121669  3190485  9430813 |    32   114470     3088  1378204 | 11.155 % |
c |     8560        59      170 |  121668  3190485  9430813 |    32   124470     3089  1378204 | 11.156 % |
c |     8621        59      170 |  121668  3190485  9430813 |    32   134470     3105  1378204 | 11.156 % |
c |     8672        59      170 |  121668  3190485  9430813 |    32   144470     3118  1378204 | 11.156 % |
c |     8728        59      170 |  121668  3190485  9430813 |    32   154470     3134  1378204 | 11.156 % |
c |     8813        59      170 |  121668  3190485  9430813 |    32   164470     3155  1378204 | 11.156 % |
c |     8854        59      170 |  121668  3190485  9430813 |    33    89889     3178  1463825 | 11.156 % |
c |     8858        59      171 |  121668  3190485  9430813 |    33    99889     3183  1463825 | 11.156 % |
c |     8868        59      172 |  121668  3190485  9430813 |    33   109889     3190  1463825 | 11.156 % |
c |     8958        59      171 |  121668  3190485  9430813 |    33   119889     3209  1463825 | 11.156 % |
c |     8958        59      173 |  121668  3190485  9430813 |    33   129889     3215  1463825 | 11.156 % |
c |     9002        60      173 |  121667  3190485  9430813 |    33   139889     3226  1463825 | 11.156 % |
c |     9033        60      173 |  121667  3190485  9430813 |    33   149889     3231  1463825 | 11.156 % |
c |     9033        60      174 |  121667  3190485  9430813 |    33   159889     3236  1463825 | 11.156 % |
c |     9042        60      175 |  121666  3190485  9430813 |    33   169889     3241  1463825 | 11.157 % |
c |     9128        60      175 |  121666  3190485  9430813 |    34    92704     3255  1552169 | 11.157 % |
c |     9190        60      175 |  121666  3190485  9430813 |    34   102704     3270  1552169 | 11.157 % |
c |     9327        60      173 |  121666  3190485  9430813 |    34   112704     3303  1552169 | 11.157 % |
c |     9451        60      172 |  121664  3190485  9430813 |    34   122704     3320  1552169 | 11.158 % |
c |     9503        60      172 |  121664  3190485  9430813 |    34   132704     3329  1552169 | 11.158 % |
c |     9554        60      172 |  121660  3190485  9430813 |    34   142701     3343  1552169 | 11.162 % |
c |     9590        60      173 |  121660  3190485  9430813 |    34   152701     3354  1552169 | 11.161 % |
c |     9608        65      173 |  121660  3190485  9430813 |    34   162701     3356  1552169 | 11.161 % |
c |     9654        65      174 |  121660  3190485  9430813 |    34   172701     3358  1552169 | 11.161 % |
c |     9683        65      174 |  121659  3190485  9430813 |    35    92883     3369  1643375 | 11.162 % |
c |     9690        66      175 |  121659  3190485  9430813 |    35   102883     3390  1643375 | 11.162 % |
c |     9745        66      175 |  121659  3190485  9430813 |    35   112883     3394  1643375 | 11.162 % |
c |     9745        67      176 |  121659  3190485  9430813 |    35   122883     3395  1643375 | 11.162 % |
c |     9745        68      177 |  118456  3190485  9430813 |    35   132882     3404  1643375 | 13.501 % |
c empty clause found by core 0 at conflict 1730130
*
c checking the resolution graph...OK
c All useful bySize 1753254 clauses, percentiles 0 2 2 2 3 55 194 550 1485 7132 14160 14194 (0,1,5,10,25,50,75,90,95,99,100-1,100)
c All useless bySize 15279161 clauses, percentiles 0 2 2 2 35 119 291 770 1565 5676 14176 14184 (0,1,5,10,25,50,75,90,95,99,100-1,100)
c ProofOnly useful bySize 1267869 clauses, percentiles 0 3 8 17 43 113 278 866 2429 8078 14160 14194 (0,1,5,10,25,50,75,90,95,99,100-1,100)
c ProofOnly useless bySize 12573164 clauses, percentiles 1 6 21 38 77 161 358 929 1952 6170 14176 14184 (0,1,5,10,25,50,75,90,95,99,100-1,100)
c All useful byFinalLBD 1753254 clauses, percentiles 0 2 2 2 3 8 14 20 24 39 2710 3625 (0,1,5,10,25,50,75,90,95,99,100-1,100)
c All useless byFinalLBD 15279161 clauses, percentiles 0 2 2 2 8 16 26 39 48 71 2723 3174 (0,1,5,10,25,50,75,90,95,99,100-1,100)
c ProofOnly useful byFinalLBD 1267869 clauses, percentiles 0 2 3 4 7 10 16 21 25 37 314 376 (0,1,5,10,25,50,75,90,95,99,100-1,100)
c ProofOnly useless byFinalLBD 12573164 clauses, percentiles 1 3 6 8 12 19 29 41 51 73 1743 2313 (0,1,5,10,25,50,75,90,95,99,100-1,100)
c All useful byInitialLBD 1753254 clauses, percentiles 0 2 2 2 3 10 17 23 28 45 2710 3625 (0,1,5,10,25,50,75,90,95,99,100-1,100)
c All useless byInitialLBD 15279161 clauses, percentiles 0 2 2 2 10 18 28 40 50 72 2723 3174 (0,1,5,10,25,50,75,90,95,99,100-1,100)
c ProofOnly useful byInitialLBD 1267869 clauses, percentiles 0 2 5 6 9 13 19 25 30 44 376 377 (0,1,5,10,25,50,75,90,95,99,100-1,100)
c ProofOnly useless byInitialLBD 12573164 clauses, percentiles 1 5 8 10 14 21 30 43 52 74 1760 2313 (0,1,5,10,25,50,75,90,95,99,100-1,100)
c Literals ProofOnly useful 617796090
c Literals ProofOnly useless 5885405398
c additional windowsGood 1 1 1 1 1 1 1 1 1 2 7 7 (0,1,5,10,25,50,75,90,95,99,100-1,100)
c additional windowsBad 1 1 1 1 4 7 7 20 31 93 2727 3895 (0,1,5,10,25,50,75,90,95,99,100-1,100)
c additional 1WindowNoDecision 1144550 541111 0.47 183708 75129 0.41 (nbWindowsGood,nbWindowsNoDecisionGood,nbWindowsBad,nbWindowsNoDecisionBad
c additional topclausessize all (10%,5%,1%,top) 2719.71 4557.60 9063.28 14194
c additional topclausessize proofonly (10%,5%,1%,top) 3058.96 5019.94 9343.68 14194
c additional topclausesinitialLBD all (10%,5%,1%,top) 2116.59 3659.56 8426.59 14194
c additional topclausesinitialLBD proofonly (10%,5%,1%,top) 1741.49 3058.98 7846.24 14194
c additional topclausesfinalLBD all (10%,5%,1%,top) 1407.00 2498.23 7099.62 14194
c additional topclausesfinalLBD proofonly (10%,5%,1%,top) 1238.70 2209.44 6627.33 14194
c additional predictionInitialLBD 1 129 1267869 0.98 0.00 0.00 13840904 12573164 0.91 9.92 1.66 0.91 (nbgoodclauses,nbtotalgood,precisionGood,recallGood,FGood,nbbadclause,nbtotalbad,precisionBad,recallBad,FBad,accuracy)
c additional predictionInitialLBD 2 26516 1267869 0.54 0.01 0.02 13814517 12573164 0.91 9.91 1.67 0.91 (nbgoodclauses,nbtotalgood,precisionGood,recallGood,FGood,nbbadclause,nbtotalbad,precisionBad,recallBad,FBad,accuracy)
c additional predictionInitialLBD 3 85262 1267869 0.35 0.02 0.04 13755771 12573164 0.91 9.87 1.67 0.91 (nbgoodclauses,nbtotalgood,precisionGood,recallGood,FGood,nbbadclause,nbtotalbad,precisionBad,recallBad,FBad,accuracy)
c additional predictionInitialLBD 4 168605 1267869 0.32 0.04 0.07 13672428 12573164 0.91 9.83 1.67 0.90 (nbgoodclauses,nbtotalgood,precisionGood,recallGood,FGood,nbbadclause,nbtotalbad,precisionBad,recallBad,FBad,accuracy)
c additional predictionInitialLBD 5 293642 1267869 0.31 0.07 0.12 13547391 12573164 0.91 9.76 1.67 0.90 (nbgoodclauses,nbtotalgood,precisionGood,recallGood,FGood,nbbadclause,nbtotalbad,precisionBad,recallBad,FBad,accuracy)
c additional predictionInitialLBD 6 455632 1267869 0.30 0.11 0.16 13385401 12573164 0.92 9.66 1.67 0.90 (nbgoodclauses,nbtotalgood,precisionGood,recallGood,FGood,nbbadclause,nbtotalbad,precisionBad,recallBad,FBad,accuracy)
c additional predictionInitialLBD 7 710851 1267869 0.28 0.16 0.20 13130182 12573164 0.92 9.51 1.68 0.89 (nbgoodclauses,nbtotalgood,precisionGood,recallGood,FGood,nbbadclause,nbtotalbad,precisionBad,recallBad,FBad,accuracy)
c additional predictionInitialLBD 8 1019012 1267869 0.26 0.21 0.23 12822021 12573164 0.92 9.32 1.68 0.87 (nbgoodclauses,nbtotalgood,precisionGood,recallGood,FGood,nbbadclause,nbtotalbad,precisionBad,recallBad,FBad,accuracy)
c additional predictionInitialLBD 10 1795491 1267869 0.23 0.33 0.27 12045542 12573164 0.93 8.83 1.68 0.84 (nbgoodclauses,nbtotalgood,precisionGood,recallGood,FGood,nbbadclause,nbtotalbad,precisionBad,recallBad,FBad,accuracy)
c additional predictionInitialLBD 14 3914843 1267869 0.18 0.57 0.28 9926190 12573164 0.95 7.40 1.68 0.73 (nbgoodclauses,nbtotalgood,precisionGood,recallGood,FGood,nbbadclause,nbtotalbad,precisionBad,recallBad,FBad,accuracy)
c additional predictionInitialLBD 18 6181792 1267869 0.15 0.75 0.25 7659241 12573164 0.96 5.79 1.64 0.60 (nbgoodclauses,nbtotalgood,precisionGood,recallGood,FGood,nbbadclause,nbtotalbad,precisionBad,recallBad,FBad,accuracy)
c additional predictionInitialLBD 22 8113644 1267869 0.13 0.86 0.23 5727389 12573164 0.97 4.38 1.59 0.48 (nbgoodclauses,nbtotalgood,precisionGood,recallGood,FGood,nbbadclause,nbtotalbad,precisionBad,recallBad,FBad,accuracy)
c additional predictionInitialLBD 30 10682609 1267869 0.11 0.96 0.20 3158424 12573164 0.98 2.45 1.40 0.31 (nbgoodclauses,nbtotalgood,precisionGood,recallGood,FGood,nbbadclause,nbtotalbad,precisionBad,recallBad,FBad,accuracy)
c additional predictionInitialLBD 40 12333591 1267869 0.10 0.99 0.18 1507442 12573164 0.99 1.18 1.07 0.20 (nbgoodclauses,nbtotalgood,precisionGood,recallGood,FGood,nbbadclause,nbtotalbad,precisionBad,recallBad,FBad,accuracy)
c additional predictionFinallLBD 1 14950 1267869 0.55 0.01 0.01 13826083 12573164 0.91 1.00 0.95 0.91 (nbgoodclauses,nbtotalgood,precisionGood,recallGood,FGood,nbbadclause,nbtotalbad,precisionBad,recallBad,FBad,accuracy)
c additional predictionFinallLBD 2 90697 1267869 0.49 0.03 0.06 13750336 12573164 0.91 1.00 0.95 0.91 (nbgoodclauses,nbtotalgood,precisionGood,recallGood,FGood,nbbadclause,nbtotalbad,precisionBad,recallBad,FBad,accuracy)
c additional predictionFinallLBD 3 230506 1267869 0.41 0.07 0.13 13610527 12573164 0.91 0.99 0.95 0.91 (nbgoodclauses,nbtotalgood,precisionGood,recallGood,FGood,nbbadclause,nbtotalbad,precisionBad,recallBad,FBad,accuracy)
c additional predictionFinallLBD 4 399668 1267869 0.40 0.12 0.19 13441365 12573164 0.92 0.98 0.95 0.90 (nbgoodclauses,nbtotalgood,precisionGood,recallGood,FGood,nbbadclause,nbtotalbad,precisionBad,recallBad,FBad,accuracy)
c additional predictionFinallLBD 5 643027 1267869 0.37 0.19 0.25 13198006 12573164 0.92 0.97 0.94 0.90 (nbgoodclauses,nbtotalgood,precisionGood,recallGood,FGood,nbbadclause,nbtotalbad,precisionBad,recallBad,FBad,accuracy)
c additional predictionFinallLBD 6 975992 1267869 0.32 0.25 0.28 12865041 12573164 0.93 0.95 0.94 0.88 (nbgoodclauses,nbtotalgood,precisionGood,recallGood,FGood,nbbadclause,nbtotalbad,precisionBad,recallBad,FBad,accuracy)
c additional predictionFinallLBD 7 1397746 1267869 0.29 0.32 0.30 12443287 12573164 0.93 0.92 0.93 0.87 (nbgoodclauses,nbtotalgood,precisionGood,recallGood,FGood,nbbadclause,nbtotalbad,precisionBad,recallBad,FBad,accuracy)
c additional predictionFinallLBD 8 1860025 1267869 0.26 0.38 0.31 11981008 12573164 0.93 0.89 0.91 0.84 (nbgoodclauses,nbtotalgood,precisionGood,recallGood,FGood,nbbadclause,nbtotalbad,precisionBad,recallBad,FBad,accuracy)
c additional predictionFinallLBD 10 2862602 1267869 0.22 0.51 0.31 10978431 12573164 0.94 0.82 0.88 0.79 (nbgoodclauses,nbtotalgood,precisionGood,recallGood,FGood,nbbadclause,nbtotalbad,precisionBad,recallBad,FBad,accuracy)
c additional predictionFinallLBD 14 5059937 1267869 0.18 0.70 0.28 8781096 12573164 0.96 0.67 0.79 0.67 (nbgoodclauses,nbtotalgood,precisionGood,recallGood,FGood,nbbadclause,nbtotalbad,precisionBad,recallBad,FBad,accuracy)
c additional predictionFinallLBD 18 7150179 1267869 0.15 0.83 0.25 6690854 12573164 0.97 0.52 0.67 0.54 (nbgoodclauses,nbtotalgood,precisionGood,recallGood,FGood,nbbadclause,nbtotalbad,precisionBad,recallBad,FBad,accuracy)
c additional predictionFinallLBD 22 8856594 1267869 0.13 0.92 0.23 4984439 12573164 0.98 0.39 0.56 0.44 (nbgoodclauses,nbtotalgood,precisionGood,recallGood,FGood,nbbadclause,nbtotalbad,precisionBad,recallBad,FBad,accuracy)
c additional predictionFinallLBD 30 11072203 1267869 0.11 0.98 0.20 2768830 12573164 0.99 0.22 0.36 0.29 (nbgoodclauses,nbtotalgood,precisionGood,recallGood,FGood,nbbadclause,nbtotalbad,precisionBad,recallBad,FBad,accuracy)
c additional predictionFinallLBD 40 12498425 1267869 0.10 0.99 0.18 1342608 12573164 0.99 0.11 0.19 0.19 (nbgoodclauses,nbtotalgood,precisionGood,recallGood,FGood,nbbadclause,nbtotalbad,precisionBad,recallBad,FBad,accuracy)
c additional predictionSize 1 129 1267869 0.98 0.00 0.00 13840904 12573164 0.91 9.92 1.66 0.91 (nbgoodclauses,nbtotalgood,precisionGood,recallGood,FGood,nbbadclause,nbtotalbad,precisionBad,recallBad,FBad,accuracy)
c additional predictionSize 2 21714 1267869 0.57 0.01 0.02 13819319 12573164 0.91 9.91 1.67 0.91 (nbgoodclauses,nbtotalgood,precisionGood,recallGood,FGood,nbbadclause,nbtotalbad,precisionBad,recallBad,FBad,accuracy)
c additional predictionSize 3 62941 1267869 0.33 0.02 0.03 13778092 12573164 0.91 9.88 1.67 0.91 (nbgoodclauses,nbtotalgood,precisionGood,recallGood,FGood,nbbadclause,nbtotalbad,precisionBad,recallBad,FBad,accuracy)
c additional predictionSize 4 99129 1267869 0.30 0.02 0.04 13741904 12573164 0.91 9.86 1.67 0.91 (nbgoodclauses,nbtotalgood,precisionGood,recallGood,FGood,nbbadclause,nbtotalbad,precisionBad,recallBad,FBad,accuracy)
c additional predictionSize 5 133634 1267869 0.28 0.03 0.05 13707399 12573164 0.91 9.84 1.67 0.90 (nbgoodclauses,nbtotalgood,precisionGood,recallGood,FGood,nbbadclause,nbtotalbad,precisionBad,recallBad,FBad,accuracy)
c additional predictionSize 6 178611 1267869 0.26 0.04 0.07 13662422 12573164 0.91 9.81 1.67 0.90 (nbgoodclauses,nbtotalgood,precisionGood,recallGood,FGood,nbbadclause,nbtotalbad,precisionBad,recallBad,FBad,accuracy)
c additional predictionSize 7 230561 1267869 0.25 0.05 0.08 13610472 12573164 0.91 9.78 1.67 0.90 (nbgoodclauses,nbtotalgood,precisionGood,recallGood,FGood,nbbadclause,nbtotalbad,precisionBad,recallBad,FBad,accuracy)
c additional predictionSize 8 286318 1267869 0.24 0.05 0.09 13554715 12573164 0.91 9.74 1.67 0.90 (nbgoodclauses,nbtotalgood,precisionGood,recallGood,FGood,nbbadclause,nbtotalbad,precisionBad,recallBad,FBad,accuracy)
c additional predictionSize 10 406652 1267869 0.21 0.07 0.10 13434381 12573164 0.91 9.66 1.67 0.89 (nbgoodclauses,nbtotalgood,precisionGood,recallGood,FGood,nbbadclause,nbtotalbad,precisionBad,recallBad,FBad,accuracy)
c additional predictionSize 14 570931 1267869 0.20 0.09 0.12 13270102 12573164 0.91 9.55 1.67 0.88 (nbgoodclauses,nbtotalgood,precisionGood,recallGood,FGood,nbbadclause,nbtotalbad,precisionBad,recallBad,FBad,accuracy)
c additional predictionSize 18 687926 1267869 0.19 0.10 0.14 13153107 12573164 0.91 9.48 1.67 0.88 (nbgoodclauses,nbtotalgood,precisionGood,recallGood,FGood,nbbadclause,nbtotalbad,precisionBad,recallBad,FBad,accuracy)
c additional predictionSize 22 820487 1267869 0.19 0.12 0.15 13020546 12573164 0.91 9.39 1.67 0.87 (nbgoodclauses,nbtotalgood,precisionGood,recallGood,FGood,nbbadclause,nbtotalbad,precisionBad,recallBad,FBad,accuracy)
c additional predictionSize 30 1164538 1267869 0.19 0.17 0.18 12676495 12573164 0.92 9.17 1.67 0.86 (nbgoodclauses,nbtotalgood,precisionGood,recallGood,FGood,nbbadclause,nbtotalbad,precisionBad,recallBad,FBad,accuracy)
c additional predictionSize 40 1667039 1267869 0.18 0.23 0.20 12173994 12573164 0.92 8.83 1.67 0.83 (nbgoodclauses,nbtotalgood,precisionGood,recallGood,FGood,nbbadclause,nbtotalbad,precisionBad,recallBad,FBad,accuracy)
c additional predictionAge 1 648905 1267869 0.15 0.08 0.10 13192128 12573164 0.91 9.48 1.66 0.88 (nbgoodclauses,nbtotalgood,precisionGood,recallGood,FGood,nbbadclause,nbtotalbad,precisionBad,recallBad,FBad,accuracy)
c additional predictionAge 10 723113 1267869 0.14 0.08 0.10 13117920 12573164 0.91 9.42 1.66 0.87 (nbgoodclauses,nbtotalgood,precisionGood,recallGood,FGood,nbbadclause,nbtotalbad,precisionBad,recallBad,FBad,accuracy)
c additional predictionAge 25 840082 1267869 0.12 0.08 0.10 13000951 12573164 0.91 9.34 1.66 0.86 (nbgoodclauses,nbtotalgood,precisionGood,recallGood,FGood,nbbadclause,nbtotalbad,precisionBad,recallBad,FBad,accuracy)
c additional predictionAge 50 901284 1267869 0.12 0.09 0.10 12939749 12573164 0.91 9.29 1.66 0.86 (nbgoodclauses,nbtotalgood,precisionGood,recallGood,FGood,nbbadclause,nbtotalbad,precisionBad,recallBad,FBad,accuracy)
c additional predictionAge 100 962479 1267869 0.12 0.09 0.10 12878554 12573164 0.91 9.25 1.66 0.86 (nbgoodclauses,nbtotalgood,precisionGood,recallGood,FGood,nbbadclause,nbtotalbad,precisionBad,recallBad,FBad,accuracy)
c additional predictionAge 250 1043055 1267869 0.12 0.10 0.11 12797978 12573164 0.91 9.19 1.66 0.85 (nbgoodclauses,nbtotalgood,precisionGood,recallGood,FGood,nbbadclause,nbtotalbad,precisionBad,recallBad,FBad,accuracy)
c additional predictionAge 500 1089512 1267869 0.12 0.10 0.11 12751521 12573164 0.91 9.16 1.66 0.85 (nbgoodclauses,nbtotalgood,precisionGood,recallGood,FGood,nbbadclause,nbtotalbad,precisionBad,recallBad,FBad,accuracy)
c additional predictionAge 1000 1128283 1267869 0.12 0.10 0.11 12712750 12573164 0.91 9.13 1.66 0.85 (nbgoodclauses,nbtotalgood,precisionGood,recallGood,FGood,nbbadclause,nbtotalbad,precisionBad,recallBad,FBad,accuracy)
c additional predictionAge 2500 1180442 1267869 0.12 0.11 0.11 12660591 12573164 0.91 9.10 1.66 0.84 (nbgoodclauses,nbtotalgood,precisionGood,recallGood,FGood,nbbadclause,nbtotalbad,precisionBad,recallBad,FBad,accuracy)
c additional predictionAge 5000 1230336 1267869 0.12 0.12 0.12 12610697 12573164 0.91 9.06 1.66 0.84 (nbgoodclauses,nbtotalgood,precisionGood,recallGood,FGood,nbbadclause,nbtotalbad,precisionBad,recallBad,FBad,accuracy)
c additional predictionAge 10000 1291804 1267869 0.12 0.12 0.12 12549229 12573164 0.91 9.02 1.66 0.84 (nbgoodclauses,nbtotalgood,precisionGood,recallGood,FGood,nbbadclause,nbtotalbad,precisionBad,recallBad,FBad,accuracy)
c additional predictionAge 25000 1393361 1267869 0.12 0.13 0.13 12447672 12573164 0.91 8.95 1.65 0.83 (nbgoodclauses,nbtotalgood,precisionGood,recallGood,FGood,nbbadclause,nbtotalbad,precisionBad,recallBad,FBad,accuracy)
c additional predictionAge 50000 1495294 1267869 0.12 0.14 0.13 12345739 12573164 0.91 8.88 1.65 0.83 (nbgoodclauses,nbtotalgood,precisionGood,recallGood,FGood,nbbadclause,nbtotalbad,precisionBad,recallBad,FBad,accuracy)
c additional predictionAge 100000 1627161 1267869 0.12 0.16 0.14 12213872 12573164 0.91 8.79 1.65 0.82 (nbgoodclauses,nbtotalgood,precisionGood,recallGood,FGood,nbbadclause,nbtotalbad,precisionBad,recallBad,FBad,accuracy)
c additional predictionTicks 1 762940 1267869 0.14 0.08 0.11 13078093 12573164 0.91 9.40 1.66 0.87 (nbgoodclauses,nbtotalgood,precisionGood,recallGood,FGood,nbbadclause,nbtotalbad,precisionBad,recallBad,FBad,accuracy)
c additional predictionTicks 10 1676223 1267869 0.11 0.15 0.13 12164810 12573164 0.91 8.74 1.65 0.81 (nbgoodclauses,nbtotalgood,precisionGood,recallGood,FGood,nbbadclause,nbtotalbad,precisionBad,recallBad,FBad,accuracy)
c additional predictionTicks 25 2434939 1267869 0.10 0.20 0.14 11406094 12573164 0.91 8.20 1.64 0.77 (nbgoodclauses,nbtotalgood,precisionGood,recallGood,FGood,nbbadclause,nbtotalbad,precisionBad,recallBad,FBad,accuracy)
c additional predictionTicks 50 2968731 1267869 0.10 0.24 0.14 10872302 12573164 0.91 7.81 1.63 0.74 (nbgoodclauses,nbtotalgood,precisionGood,recallGood,FGood,nbbadclause,nbtotalbad,precisionBad,recallBad,FBad,accuracy)
c additional predictionTicks 100 3595162 1267869 0.10 0.28 0.15 10245871 12573164 0.91 7.36 1.62 0.70 (nbgoodclauses,nbtotalgood,precisionGood,recallGood,FGood,nbbadclause,nbtotalbad,precisionBad,recallBad,FBad,accuracy)
c additional predictionTicks 250 4559253 1267869 0.10 0.36 0.16 9281780 12573164 0.91 6.68 1.60 0.64 (nbgoodclauses,nbtotalgood,precisionGood,recallGood,FGood,nbbadclause,nbtotalbad,precisionBad,recallBad,FBad,accuracy)
c additional predictionTicks 500 5295648 1267869 0.10 0.42 0.16 8545385 12573164 0.91 6.16 1.59 0.60 (nbgoodclauses,nbtotalgood,precisionGood,recallGood,FGood,nbbadclause,nbtotalbad,precisionBad,recallBad,FBad,accuracy)
c additional predictionTicks 1000 6076721 1267869 0.10 0.48 0.17 7764312 12573164 0.92 5.61 1.57 0.56 (nbgoodclauses,nbtotalgood,precisionGood,recallGood,FGood,nbbadclause,nbtotalbad,precisionBad,recallBad,FBad,accuracy)
c additional predictionTicks 2500 7160950 1267869 0.10 0.57 0.17 6680083 12573164 0.92 4.84 1.55 0.50 (nbgoodclauses,nbtotalgood,precisionGood,recallGood,FGood,nbbadclause,nbtotalbad,precisionBad,recallBad,FBad,accuracy)
c additional predictionTicks 5000 8024894 1267869 0.10 0.64 0.17 5816139 12573164 0.92 4.23 1.51 0.45 (nbgoodclauses,nbtotalgood,precisionGood,recallGood,FGood,nbbadclause,nbtotalbad,precisionBad,recallBad,FBad,accuracy)
c additional predictionTicks 10000 8884498 1267869 0.10 0.70 0.18 4956535 12573164 0.92 3.61 1.47 0.40 (nbgoodclauses,nbtotalgood,precisionGood,recallGood,FGood,nbbadclause,nbtotalbad,precisionBad,recallBad,FBad,accuracy)
c additional predictionTicks 25000 9942571 1267869 0.10 0.78 0.18 3898462 12573164 0.93 2.85 1.40 0.33 (nbgoodclauses,nbtotalgood,precisionGood,recallGood,FGood,nbbadclause,nbtotalbad,precisionBad,recallBad,FBad,accuracy)
c additional predictionTicks 50000 10665343 1267869 0.10 0.82 0.18 3175690 12573164 0.93 2.33 1.33 0.29 (nbgoodclauses,nbtotalgood,precisionGood,recallGood,FGood,nbbadclause,nbtotalbad,precisionBad,recallBad,FBad,accuracy)
c additional predictionTicks 100000 11363862 1267869 0.10 0.87 0.17 2477171 12573164 0.93 1.82 1.23 0.25 (nbgoodclauses,nbtotalgood,precisionGood,recallGood,FGood,nbbadclause,nbtotalbad,precisionBad,recallBad,FBad,accuracy)
c additional lifetimeGood 1 8 696 21032 447567 3356288 7832827 10593464 11593738 13142911 13841876 13841879 (0,1,5,10,25,50,75,90,95,99,100-1,100)
c additional lifetimeBad 1 8 96 5272 285532 2566742 6821498 10011117 11357611 13035751 13841856 13841904 (0,1,5,10,25,50,75,90,95,99,100-1,100)
c additional lifetimeBadBad 4 8 16 80 18144 408379 2416489 5971944 7834070 10533343 13830726 13837722 (0,1,5,10,25,50,75,90,95,99,100-1,100)
c additional compositionBad 1 2 4 5 10 28 65 124 180 439 10414 11322 (0,1,5,10,25,50,75,90,95,99,100-1,100)
c additional compositionBadWithGood 0 0 0 0 1 5 13 25 37 73 766 869 (0,1,5,10,25,50,75,90,95,99,100-1,100)
c additional compositionBadWithBad 0 0 0 0 1 3 10 25 35 59 309 352 (0,1,5,10,25,50,75,90,95,99,100-1,100)
c additional compositionBadWithInitial 0 0 1 3 6 15 39 78 121 352 9963 10843 (0,1,5,10,25,50,75,90,95,99,100-1,100)
c additional compositionGood 1 2 3 4 7 19 56 118 191 597 13276 14105 (0,1,5,10,25,50,75,90,95,99,100-1,100)
c additional compositionGoodWithGood 0 0 0 1 2 8 22 44 65 126 956 1005 (0,1,5,10,25,50,75,90,95,99,100-1,100)
c additional compositionGoodWithInitial 0 0 1 2 4 10 33 73 127 498 12320 13595 (0,1,5,10,25,50,75,90,95,99,100-1,100)
c additional propagationGood total 767555383 percentiles 0 1 1 1 2 6 32 274 1191 10569 377101 507969 (0,1,5,10,25,50,75,90,95,99,100-1,100)
c additional propagationBad total 692170205 percentiles 1 1 1 1 1 2 5 22 61 747 282047 302170 (0,1,5,10,25,50,75,90,95,99,100-1,100)
c additional resolutionGood total 57985872 percentiles 0 1 1 1 2 4 12 60 155 722 51504 57752 (0,1,5,10,25,50,75,90,95,99,100-1,100)
c additional resolutionBad total 105019607 percentiles 0 0 0 0 1 1 3 8 18 141 10382 15326 (0,1,5,10,25,50,75,90,95,99,100-1,100)
No graph is dumped
c =========================================================================================================
c result of core 0 is UNSAT
c One thread has finished
c Core 0 said it finished
c result of core 1 is UNKNOWN
c result of core 2 is UNKNOWN
c result of core 4 is UNKNOWN
c result of core 7 is UNKNOWN
c result of core 6 is UNKNOWN
c result of core 5 is UNKNOWN
c result of core 3 is UNKNOWN
c restarts              : 9745 (177 conflicts in avg)
c blocked restarts      : 68 (multiple: 55) 
c last block at restart : 9745
c nb ReduceDB           : 35
c nb removed Clauses    : 1643375
c nb learnts DL2        : 3406
c nb learnts size 2     : 2789
c nb learnts size 1     : 31
c conflicts             : 1730130        (168 /sec)
c decisions             : 41340039       (0.00 % random) (4011 /sec)
c propagations          : 2557051738     (248077 /sec)
c conflict literals     : 933699803      (2.85 % deleted)
c nb reduced Clauses    : 10054
c CPU time              : 10307.5 s

s INDETERMINATE
