57658 55412 56641 52932 53760 56607 52969 51564 66854 54320 58336 52990 57324 57843 55662 57758 53259 48672 52525 48391 52525 53448 54088 48506 53563 54501 51215 52005 58388 55375 52212 57560 51108 57036 52429 58291 57018 54875 49540 57001 56202 52366 56319 65640 63015 55228 54811 59774 54866 54244 58133 64435 61093 59849 54101 57448 60299 58694 57080 57040 53491 54589 59001 57565 57301 55294 49902 63368 46154 57964 51769 62323 53454 51147 52693 54423 56513 56240 58258 53135 48354 49655 55922 52217 56870 58851 52339 51720 47704 53366 58140 56351 57575 53291 54269 56028 53590 52425 61128 57880
51917 52061 52074 53405 55033 54629 52100 52100 51632 53659 53529 57373 56010 52609 57642 59078 52181 53514 56153 58510 55480 51675 49476 54466 57390 51342 54788 53316 57374 54882 57258 50787 49838 53837 55330 51435 54874 52570 56814 54651 52234 54910 53296 48019 54381 56423 51251 58673 54465 53654 54491 57834 53877 52375 51235 55340 51769 52527 51231 55850 51673 47933 54450 50792 56390 51256 56031 53723 51411 58109 55736 56992 55689 57875 48628 55565 54882 59298 53663 53124 51045 54713 55943 50031 51133 48260 53483 55139 53354 52273 58347 49415 51444 56096 53362 55654 53696 54099 53746 54790
43168 42913 47334 45108 46476 51391 46358 49277 49850 48788 47298 45773 49260 49451 42628 46846 51648 43898 43896 43208 48041 51330 47670 48424 49455 42061 48671 44458 45256 43804 48748 43543 47178 45940 44647 43068 45477 45700 42948 42410 50871 45491 45731 48487 43392 40608 48216 50193 47304 44992 46429 44797 44458 46482 45673 44620 42808 46401 47975 43673 45949 45670 42575 45275 43113 43673 42488 46837 46459 47265 43814 46292 43879 43380 45876 46169 45622 46379 46064 46537 44934 45478 47658 49075 45460 46123 45949 45538 41916 45718 43802 43413 44949 51101 50307 43894 42990 45416 46750 47013
38968 41054 44661 38322 37465 44092 39461 39833 43405 44580 42642 40866 40299 40327 42019 41081 40441 36792 40280 44427 41521 41565 35397 43671 38191 42837 38936 38798 41173 41413 38975 42882 39140 42119 39272 45564 41092 42064 45453 40781 45781 43755 39783 44475 39916 41760 40517 42511 39687 37890 42682 40381 40293 40638 39710 40437 40305 39117 44414 42912 42173 38702 42513 39890 42602 42221 41791 38896 44656 38419 42140 37116 38213 38037 40226 38824 39032 40347 40255 42237 41140 38991 46896 41725 43487 38865 43658 38937 40716 42838 42988 43211 39286 43310 41514 44024 40904 43559 42984 39098
34341 38102 36106 37260 37614 40217 38868 35815 40303 34567 39399 36487 39835 36827 35116 38667 38300 39010 34853 37073 37644 35670 40788 36977 39409 36089 39224 36435 37744 41842 36394 40568 38854 37021 38779 36831 35734 37062 38306 35534 39287 39657 39358 38825 39309 39738 40454 36022 40750 33437 37922 36438 38962 37492 40437 34888 36650 41958 37537 36777 40908 37371 37664 38466 40546 37997 36739 37252 37849 39197 37030 35129 35942 34832 34463 38101 40251 37668 35087 39078 37328 43853 38626 38555 37171 40289 36242 38763 40966 37907 35223 38955 36643 37527 38034 39309 37009 39284 39258 34740
35099 36414 36659 36260 35014 37829 34512 38259 36288 37120 37973 34661 37875 34217 34491 36151 36779 38126 35140 37088 37063 36546 36950 34074 31815 38968 36047 37559 33794 36077 34781 38878 32277 33388 35829 34531 34732 32550 34769 38374 33045 33553 33039 34706 35700 36138 34432 35696 36042 35480 31346 35509 34545 36614 36875 36667 33445 34190 34665 33974 35616 33634 34684 38834 35681 34040 33548 37299 36203 33960 33341 35255 33909 34372 36926 34886 36833 33206 34367 36368 36784 35870 33583 33215 35540 37333 35052 32476 37301 33369 37999 34136 36926 37336 34155 35821 30013 33949 34724 37165
34785 31811 31987 32126 33194 31004 34048 31461 33813 30052 33058 32953 34903 34360 39830 32621 35753 33297 33970 30340 31891 32352 34222 33489 33796 31798 32584 29168 34901 31033 35083 33919 35163 33738 31077 36996 35553 34845 32932 32648 30767 33573 33248 30725 32192 30723 32757 33451 33278 33691 31985 31607 34354 31129 33046 31568 33253 31285 35595 32745 33066 31708 32411 33987 32264 35638 34193 31946 30342 32024 33534 31322 33893 35404 31398 36867 31115 30263 31716 33425 33412 30131 32163 36244 33577 33968 34840 36877 35289 37396 31772 34840 33768 34558 34596 30851 33552 31010 30774 35785
31778 30603 31196 29801 31729 30685 32021 29324 30572 31883 32104 28665 33744 28612 29500 35612 31628 29318 29467 30361 32569 33212 31878 29169 29143 31368 27844 28462 30624 30043 31968 31814 28864 30192 30835 33020 33622 30856 30273 27863 34494 31356 30892 33144 30727 31296 31413 30016 29843 30611 31152 33358 29233 31808 34433 29751 32757 33417 27626 31734 34127 29858 30284 29661 33734 30804 32228 32411 30961 30955 29698 32941 30005 30074 32322 31431 31129 32369 30914 31070 31195 31204 30290 29710 31720 30567 30801 33117 30636 30330 32918 29517 34579 31242 32479 31466 33144 31478 29769 32224
29646 31023 29565 29006 31225 29508 30651 28267 28225 28542 27322 31286 31132 29638 29233 29048 30089 32015 30708 29453 29288 29403 33063 28335 31311 29811 28285 29226 27460 29245 30940 31810 26839 32963 32575 29854 30751 32177 28622 29243 28315 30956 33455 29171 29232 30643 29827 29005 30026 29176 30851 31219 27524 29038 30088 28967 27056 29871 29049 30188 29101 29385 29914 28828 27264 33670 28864 28502 30681 28749 29959 28854 31252 27207 30788 33639 29314 32447 29634 29929 30439 33107 30657 31837 29093 30207 29716 29694 27220 29785 27021 27980 29915 31665 29195 29557 32890 29815 28377 30538
27382 27358 30358 28829 30295 29858 25808 30217 28102 29412 28045 27431 28887 28055 29025 32408 27703 30270 28204 28600 27797 23792 27898 26349 30500 28774 28263 25547 28890 28562 26795 27735 29523 28166 27756 29108 27263 31160 29358 30230 28964 26355 25546 27919 26569 27257 26013 27508 28151 26273 28959 27113 29213 27806 28216 29890 26975 29339 28868 27850 26943 24780 27676 29892 29986 27426 28680 27034 28347 29696 31102 30058 30486 27101 25943 27327 27508 29825 27834 25582 28623 28470 27281 27429 25215 28581 26468 25959 31650 28393 26733 27262 27306 30875 28222 31286 27015 27072 28520 26097
20683 19841 19226 20423 20919 20157 19986 19563 20036 18431
11411 11867 12285 12144 10575 11918 11877 11750 12302 11274