247 0 233 238 241 244 178 245 242 153 165 150 47 16 194 172 114 127 22 32 168 26 121 195 167 20 139 0
245 -12 0 238 241 243 244 37 178 88 115 45 180 33 136 225 196 0
244 -43 0 233 238 2 153 173 98 196 170 0
243 -34 0 233 241 178 4 32 172 67 84 57 136 180 52 16 150 115 79 85 77 0
242 -18 12 0 233 98 82 0
241 7 0 233 238 239 234 240 193 12 167 4 199 26 45 33 134 101 183 103 77 169 185 98 158 82 196 173 136 180 153 51 110 172 28 121 22 198 0
240 -41 7 0 233 238 202 28 239 54 109 172 32 2 173 153 170 98 196 33 15 160 0
239 10 7 0 233 238 234 207 14 202 201 29 50 165 153 98 158 196 173 136 180 0
238 -49 0 237 232 233 27 173 170 149 196 207 234 76 98 14 166 51 201 50 29 120 135 172 84 197 134 202 66 16 150 19 77 115 178 180 136 123 74 195 168 160 147 146 141 0
237 -10 -49 0 233 236 83 4 12 202 29 99 222 54 109 172 32 173 170 0
236 -10 34 -49 0 233 234 83 37 173 170 99 208 22 235 172 109 85 112 0
235 6 -7 17 -43 0 233 121 173 170 196 98 144 200 47 168 9 93 107 123 86 80 97 142 115 26 167 12 89 141 151 153 2 0
234 7 34 0 35 193 207 19 14 0
233 1 0 227 230 231 219 232 83 208 11 71 20 121 39 0
232 10 -49 -50 0 27 164 0
231 49 1 0 227 219 213 225 36 230 11 71 40 35 207 19 14 20 121 73 110 109 43 165 15 153 48 82 0
230 26 1 0 227 213 36 219 11 89 229 228 225 82 113 7 168 196 8 170 0
229 18 15 26 46 0 185 113 26 150 153 131 83 27 195 66 164 84 207 197 14 201 76 50 166 0
228 -49 26 34 -50 0 89 99 60 118 164 83 37 170 173 11 7 113 26 131 0
227 -34 1 0 220 223 224 158 226 225 126 103 209 50 96 0
226 -45 -18 26 -34 0 82 158 113 99 196 7 136 157 85 116 58 115 103 180 96 183 173 50 209 0
225 45 2 49 0 147 165 2 21 127 110 16 76 150 8 93 77 115 180 14 201 50 71 202 29 35 149 178 136 0
224 18 1 -34 0 219 223 220 153 165 2 50 209 21 127 110 164 40 207 14 201 0
223 -49 1 -34 0 219 220 99 60 158 118 164 83 4 12 221 222 54 166 15 50 201 62 115 131 26 122 128 187 49 0
222 -28 -10 36 -41 0 20 189 132 194 141 28 6 85 32 86 168 9 198 136 173 43 71 158 50 113 153 201 83 101 131 122 26 128 187 49 178 40 135 147 82 15 0
221 -36 18 26 0 51 153 99 60 118 81 185 113 26 131 83 164 66 219 207 202 14 0
220 -26 1 -34 0 29 204 0
219 50 1 0 218 213 36 160 141 0
218 -34 1 50 0 217 12 216 210 156 211 54 166 50 204 29 0
217 -48 1 -34 50 0 4 216 210 83 27 14 126 207 160 66 141 146 16 135 84 147 197 76 85 195 19 112 167 99 185 158 166 50 204 29 74 0
216 49 1 50 0 210 215 160 126 213 103 212 13 29 50 165 96 153 158 0
215 -28 1 49 50 0 141 210 36 214 103 126 188 71 50 165 153 147 158 196 136 0
214 13 -28 -34 50 0 107 75 29 204 13 202 12 0
213 34 1 -2 0 11 126 135 40 35 193 19 14 0
212 -34 1 48 49 50 0 12 67 210 156 211 160 126 103 91 29 50 165 96 153 158 0
211 -28 -41 -47 50 0 141 194 132 188 20 107 146 75 16 66 28 204 202 0
210 -44 1 50 0 209 160 141 36 116 184 186 18 187 55 106 194 111 20 132 136 12 81 4 28 83 178 153 2 0
209 -2 1 -44 0 120 126 40 201 14 193 35 12 4 167 83 33 103 45 13 26 29 17 180 162 158 96 136 9 184 80 0
2 40 -43 49 0 0
4 -23 -48 -34 0 0
6 -7 15 32 0 0
7 4 6 -21 0 0
8 47 15 43 0 0
9 -20 21 -32 0 0
11 -6 34 1 0 0
12 48 -34 41 0 0
13 -36 13 -48 0 0
14 10 41 -33 0 0
15 -8 -50 39 0 0
16 40 -15 16 0 0
17 -43 23 26 0 0
18 -21 -25 46 0 0
19 42 10 -41 0 0
20 30 -28 -10 0 0
21 -22 40 2 0 0
22 -1 -17 -3 0 0
26 -9 12 46 0 0
27 -49 10 35 0 0
28 -28 36 7 0 0
29 -26 36 -34 0 0
32 43 48 6 0 0
33 -8 49 -2 0 0
35 34 -42 7 0 0
36 34 -15 1 0 0
37 43 -23 34 0 0
39 -17 34 -3 0 0
40 -7 35 1 0 0
43 -39 34 -40 0 0
45 -12 8 23 0 0
47 47 -7 -32 0 0
48 -12 32 8 0 0
49 -9 14 38 0 0
50 -32 44 26 0 0
51 40 -36 18 0 0
52 -23 -40 35 0 0
54 -39 48 28 0 0
55 -18 -46 2 0 0
57 -37 21 16 0 0
58 -29 -25 5 0 0
60 -27 -5 26 0 0
62 -29 -35 1 0 0
66 -40 10 -7 0 0
67 37 48 -34 0 0
71 -26 -30 1 0 0
73 -16 -17 2 0 0
74 47 -39 10 0 0
75 -20 50 26 0 0
76 -39 10 45 0 0
77 -29 39 -42 0 0
79 33 35 42 0 0
80 25 20 9 0 0
81 -36 -5 -46 0 0
82 -45 -18 12 0 0
83 -49 23 -10 0 0
84 -37 16 -35 0 0
85 15 -6 -39 0 0
86 6 -41 20 0 0
88 -29 -7 23 0 0
89 -46 -50 34 0 0
91 -37 -36 28 0 0
93 45 42 -47 0 0
96 32 5 13 0 0
97 -14 33 -42 0 0
98 45 -1 -18 0 0
99 5 -49 26 0 0
101 -8 -39 33 0 0
103 -13 49 -33 0 0
106 47 38 1 0 0
107 20 -28 13 0 0
109 39 16 -10 0 0
110 40 16 -10 0 0
111 10 -47 -24 0 0
112 -6 -26 -15 0 0
113 -12 -4 26 0 0
114 -16 5 9 0 0
115 -12 29 33 0 0
116 25 -15 -34 0 0
118 27 -5 35 0 0
120 -35 -2 -44 0 0
121 17 6 28 0 0
122 19 -23 8 0 0
123 -33 -7 -13 0 0
126 33 -2 1 0 0
127 -16 22 43 0 0
128 -14 -19 -44 0 0
131 -23 12 9 0 0
132 -41 -30 -3 0 0
134 -8 39 41 0 0
135 -35 -2 6 0 0
136 -21 5 -30 0 0
139 -22 42 -30 0 0
141 15 -28 50 0 0
142 -29 14 21 0 0
144 17 6 -25 0 0
146 -16 10 -28 0 0
147 -40 2 45 0 0
149 21 -7 10 0 0
150 40 15 12 0 0
151 -49 -4 -15 0 0
153 -40 18 49 0 0
156 47 44 48 0 0
157 4 39 -18 0 0
158 -5 -18 -34 0 0
160 28 2 50 0 0
162 18 13 41 0 0
164 -35 -50 10 0 0
165 40 32 49 0 0
166 39 -49 32 0 0
167 -46 -48 -42 0 0
168 4 6 -47 0 0
169 -29 -39 -4 0 0
170 21 -43 -5 0 0
172 -16 -6 -1 0 0
173 -43 -1 -21 0 0
178 43 -7 -5 0 0
180 30 43 -33 0 0
183 -39 2 13 0 0
184 -25 21 -44 0 0
185 18 4 46 0 0
186 24 -21 1 0 0
187 -38 -46 -44 0 0
188 -13 30 -28 0 0
189 47 -28 36 0 0
193 42 -10 7 0 0
194 3 -47 -15 0 0
195 -4 -16 10 0 0
196 21 -45 5 0 0
197 37 -45 50 0 0
198 40 -4 3 0 0
199 47 -1 9 0 0
200 -43 25 32 0 0
201 -41 -33 -44 0 0
202 -1 -36 -41 0 0
204 -36 -26 1 0 0
207 33 7 10 0 0
208 -23 3 -26 0 0