55008598 87910781 62484142 85606375 44018409 93865341 82702125 72050043 105443286 85733267 67514203 36766084 53567784 97011764 56629548 52072078 97709960 84205774 100930187 115282745
13979407 14844721 12922003 13674957 12404476 12791469 13925738 11752864 10696796 10673237 11329813 11159811 11532737 12793977 13820004 15837413 11817691 13825408 11813826 12372028
10402547 11138764 12530004 11862994 10952491 10641849 12302189 11530177 13149019 11266657 10173503 12543287 11835194 14995328 10922646 9645772 9442247 10599227 11744126 9646832
8496969 8363756 8072375 7019603 8754761 7429616 8905613 8630771 8725003 8342175 6846278 7846819 9471955 8706890 7835716 7680677 7166679 8304775 8338935 7172058
7865290 6804260 6612177 6906794 6568792 6271827 5928042 6969296 7483804 7321203 7771216 6311507 7548258 5985213 7084220 7172855 6601783 5704233 6223288 5794141
5875513 5102297 6923792 6630419 4501552 5677508 4546555 5403664 6241926 5182072 5744808 5441307 5658050 5167534 6407729 5072951 5492293 6516910 5685325 5218879
4921107 4426225 4618325 4354733 4309695 5091710 5195100 4711353 5062154 4864327 4462823 4642460 4204621 4388026 5090925 4323322 4986447 4851673 5715043 4750584
4627506 4300191 5023605 3971666 4379718 3983102 4714981 4417341 3811231 5090021 4263333 3959086 4333398 4526171 3909994 4464464 3943869 4316216 3830081 3996511
4102935 3714964 4050716 4025664 3988047 4033123 3856793 4651343 3526578 3847770 3469011 3964823 3609834 3919081 3322811 3411440 4307964 4031556 3994074 3752617
3344513 3140393 3280573 4029269 3585251 3842786 3111100 3449340 3153232 3593724 3117560 3552057 3171180 3570935 3501634 3428508 3628943 3117998 3780510 3651604