c
c This is glucose-proof 1.0 based on  2.1 --  (thanks to MiniSAT)
c
c EXPERIMENTAL EASY PARALLEL (ROUND ROBIN) VERSION
c
c WARNING: for repeatability, setting FPU to use double precision
c Parallel version 12 solvers created.
c ========================================[ Problem Statistics ]===========================================
c |                                                                                                       |
c |  Number of variables:          1731                                                                   |
c |  Number of clauses:            9791                                                                   |
c |  Parse time:                   0.06 s                                                                 |
c |                                                                                                       |
c ========================================[ MAGIC CONSTANTS ]==============================================
c | Constants are supposed to work well together :-)                                                      |
c | however, if you find better choices, please let us known...                                           |
c |-------------------------------------------------------------------------------------------------------|
c |                                |                                |                                     |
c | - Restarts:                    | - Reduce Clause DB:            | - Minimize Asserting:               |
c |   * LBD Queue    :     50      |   * First     :   4000         |    * size <  30                     |
c |   * Trail  Queue :   5000      |   * Inc       :    300         |    * lbd  <   6                     |
c |   * K            :   0.80      |   * Special   :   1000         |                                     |
c |   * R            :   1.40      |   * Protected :  (lbd)< 30     |                                     |
c |                                |                                |                                     |
c ==================================[ Search Statistics (every  10000 conflicts) ]=========================
c |                                                                                                       |
c |          RESTARTS           |          ORIGINAL         |              LEARNT              | Progress |
c |       NB   Blocked  Avg Cfc |    Vars  Clauses Literals |   Red   Learnts    LBD2  Removed |          |
c =========================================================================================================
c |       23         0      434 |    1647     9791    32002 |     1     7996       47     2572 |  4.853 % |
c |       35        22      571 |    1647     9791    32002 |     3     6954       65    14479 |  4.855 % |
c |       42        33      714 |    1638     9791    32002 |     3    16916       78    14479 |  5.373 % |
c |       43        56      930 |    1624     9791    32002 |     4    17568       91    24041 |  6.182 % |
c |       44        70     1136 |    1623     9791    32002 |     5    15782      101    36144 |  6.240 % |
c empty clause found by core 5 at conflict 59877
*
c checking the resolution graph...OK
c All useful bySize 583542 clauses, percentiles 0 3 8 11 20 40 66 88 105 143 298 312 (0,1,5,10,25,50,75,90,95,99,100-1,100)
c All useless bySize 145052 clauses, percentiles 0 3 9 13 22 41 65 87 103 141 288 291 (0,1,5,10,25,50,75,90,95,99,100-1,100)
c ProofOnly useful bySize 577175 clauses, percentiles 0 5 8 11 21 40 66 89 105 143 298 312 (0,1,5,10,25,50,75,90,95,99,100-1,100)
c ProofOnly useless bySize 141343 clauses, percentiles 2 7 11 14 24 42 65 87 103 142 288 291 (0,1,5,10,25,50,75,90,95,99,100-1,100)
c All useful byFinalLBD 583542 clauses, percentiles 0 1 2 3 6 9 11 12 14 16 31 31 (0,1,5,10,25,50,75,90,95,99,100-1,100)
c All useless byFinalLBD 145052 clauses, percentiles 0 2 3 5 7 10 12 15 16 21 33 33 (0,1,5,10,25,50,75,90,95,99,100-1,100)
c ProofOnly useful byFinalLBD 577175 clauses, percentiles 0 1 2 4 6 9 11 12 14 16 31 31 (0,1,5,10,25,50,75,90,95,99,100-1,100)
c ProofOnly useless byFinalLBD 141343 clauses, percentiles 1 2 4 5 7 10 12 15 16 21 33 33 (0,1,5,10,25,50,75,90,95,99,100-1,100)
c All useful byInitialLBD 583542 clauses, percentiles 0 3 4 5 7 9 11 13 14 16 33 33 (0,1,5,10,25,50,75,90,95,99,100-1,100)
c All useless byInitialLBD 145052 clauses, percentiles 0 3 5 6 8 10 12 15 17 21 33 34 (0,1,5,10,25,50,75,90,95,99,100-1,100)
c ProofOnly useful byInitialLBD 577175 clauses, percentiles 0 3 5 5 7 9 11 13 14 16 33 33 (0,1,5,10,25,50,75,90,95,99,100-1,100)
c ProofOnly useless byInitialLBD 141343 clauses, percentiles 2 4 5 6 8 10 12 15 17 21 33 34 (0,1,5,10,25,50,75,90,95,99,100-1,100)
c Literals ProofOnly useful 26870180
c Literals ProofOnly useless 6746721
c additional windowsGood 1 1 1 1 2 4 7 11 11 11 35 35 (0,1,5,10,25,50,75,90,95,99,100-1,100)
c additional windowsBad 1 1 1 1 1 1 1 2 2 3 11 12 (0,1,5,10,25,50,75,90,95,99,100-1,100)
c additional 1WindowNoDecision 17300 9183 0.53 97857 48242 0.49 (nbWindowsGood,nbWindowsNoDecisionGood,nbWindowsBad,nbWindowsNoDecisionBad
c additional topclausessize all (10%,5%,1%,top) 111.76 128.04 165.78 312
c additional topclausessize proofonly (10%,5%,1%,top) 111.89 128.16 165.90 312
c additional topclausesinitialLBD all (10%,5%,1%,top) 102.38 118.58 156.45 312
c additional topclausesinitialLBD proofonly (10%,5%,1%,top) 95.67 111.89 149.75 312
c additional topclausesfinalLBD all (10%,5%,1%,top) 90.30 106.65 144.48 312
c additional topclausesfinalLBD proofonly (10%,5%,1%,top) 85.82 102.43 140.21 312
c additional predictionInitialLBD 1 28 577175 1.00 0.00 0.00 718490 141343 0.20 0.24 0.22 0.20 (nbgoodclauses,nbtotalgood,precisionGood,recallGood,FGood,nbbadclause,nbtotalbad,precisionBad,recallBad,FBad,accuracy)
c additional predictionInitialLBD 2 1658 577175 0.93 0.00 0.01 716860 141343 0.20 0.24 0.22 0.20 (nbgoodclauses,nbtotalgood,precisionGood,recallGood,FGood,nbbadclause,nbtotalbad,precisionBad,recallBad,FBad,accuracy)
c additional predictionInitialLBD 3 9764 577175 0.92 0.02 0.03 708754 141343 0.20 0.24 0.22 0.21 (nbgoodclauses,nbtotalgood,precisionGood,recallGood,FGood,nbbadclause,nbtotalbad,precisionBad,recallBad,FBad,accuracy)
c additional predictionInitialLBD 4 31769 577175 0.88 0.05 0.09 686749 141343 0.20 0.24 0.22 0.23 (nbgoodclauses,nbtotalgood,precisionGood,recallGood,FGood,nbbadclause,nbtotalbad,precisionBad,recallBad,FBad,accuracy)
c additional predictionInitialLBD 5 71260 577175 0.87 0.11 0.19 647258 141343 0.20 0.23 0.22 0.27 (nbgoodclauses,nbtotalgood,precisionGood,recallGood,FGood,nbbadclause,nbtotalbad,precisionBad,recallBad,FBad,accuracy)
c additional predictionInitialLBD 6 127794 577175 0.86 0.19 0.31 590724 141343 0.21 0.21 0.21 0.32 (nbgoodclauses,nbtotalgood,precisionGood,recallGood,FGood,nbbadclause,nbtotalbad,precisionBad,recallBad,FBad,accuracy)
c additional predictionInitialLBD 7 201621 577175 0.85 0.30 0.44 516897 141343 0.21 0.19 0.20 0.39 (nbgoodclauses,nbtotalgood,precisionGood,recallGood,FGood,nbbadclause,nbtotalbad,precisionBad,recallBad,FBad,accuracy)
c additional predictionInitialLBD 8 289740 577175 0.84 0.42 0.56 428778 141343 0.22 0.17 0.19 0.47 (nbgoodclauses,nbtotalgood,precisionGood,recallGood,FGood,nbbadclause,nbtotalbad,precisionBad,recallBad,FBad,accuracy)
c additional predictionInitialLBD 10 478642 577175 0.83 0.69 0.76 239876 141343 0.26 0.11 0.15 0.64 (nbgoodclauses,nbtotalgood,precisionGood,recallGood,FGood,nbbadclause,nbtotalbad,precisionBad,recallBad,FBad,accuracy)
c additional predictionInitialLBD 14 682015 577175 0.82 0.97 0.88 36503 141343 0.45 0.03 0.05 0.80 (nbgoodclauses,nbtotalgood,precisionGood,recallGood,FGood,nbbadclause,nbtotalbad,precisionBad,recallBad,FBad,accuracy)
c additional predictionInitialLBD 18 713221 577175 0.81 1.00 0.89 5297 141343 0.66 0.01 0.01 0.81 (nbgoodclauses,nbtotalgood,precisionGood,recallGood,FGood,nbbadclause,nbtotalbad,precisionBad,recallBad,FBad,accuracy)
c additional predictionInitialLBD 22 717286 577175 0.80 1.00 0.89 1232 141343 0.75 0.00 0.00 0.80 (nbgoodclauses,nbtotalgood,precisionGood,recallGood,FGood,nbbadclause,nbtotalbad,precisionBad,recallBad,FBad,accuracy)
c additional predictionInitialLBD 30 718489 577175 0.80 1.00 0.89 29 141343 0.83 0.00 0.00 0.80 (nbgoodclauses,nbtotalgood,precisionGood,recallGood,FGood,nbbadclause,nbtotalbad,precisionBad,recallBad,FBad,accuracy)
c additional predictionInitialLBD 40 718518 577175 0.80 1.00 0.89 0 141343 -nan 0.00 -nan 0.80 (nbgoodclauses,nbtotalgood,precisionGood,recallGood,FGood,nbbadclause,nbtotalbad,precisionBad,recallBad,FBad,accuracy)
c additional predictionFinallLBD 1 8229 577175 0.94 0.01 0.03 710289 141343 0.20 1.00 0.33 0.21 (nbgoodclauses,nbtotalgood,precisionGood,recallGood,FGood,nbbadclause,nbtotalbad,precisionBad,recallBad,FBad,accuracy)
c additional predictionFinallLBD 2 31705 577175 0.91 0.05 0.10 686813 141343 0.20 0.98 0.33 0.23 (nbgoodclauses,nbtotalgood,precisionGood,recallGood,FGood,nbbadclause,nbtotalbad,precisionBad,recallBad,FBad,accuracy)
c additional predictionFinallLBD 3 61142 577175 0.90 0.10 0.17 657376 141343 0.21 0.96 0.34 0.27 (nbgoodclauses,nbtotalgood,precisionGood,recallGood,FGood,nbbadclause,nbtotalbad,precisionBad,recallBad,FBad,accuracy)
c additional predictionFinallLBD 4 93917 577175 0.89 0.15 0.25 624601 141343 0.21 0.93 0.34 0.30 (nbgoodclauses,nbtotalgood,precisionGood,recallGood,FGood,nbbadclause,nbtotalbad,precisionBad,recallBad,FBad,accuracy)
c additional predictionFinallLBD 5 131862 577175 0.88 0.20 0.33 586656 141343 0.21 0.89 0.34 0.34 (nbgoodclauses,nbtotalgood,precisionGood,recallGood,FGood,nbbadclause,nbtotalbad,precisionBad,recallBad,FBad,accuracy)
c additional predictionFinallLBD 6 180995 577175 0.87 0.27 0.41 537523 141343 0.22 0.83 0.35 0.38 (nbgoodclauses,nbtotalgood,precisionGood,recallGood,FGood,nbbadclause,nbtotalbad,precisionBad,recallBad,FBad,accuracy)
c additional predictionFinallLBD 7 247931 577175 0.85 0.37 0.51 470587 141343 0.22 0.74 0.34 0.44 (nbgoodclauses,nbtotalgood,precisionGood,recallGood,FGood,nbbadclause,nbtotalbad,precisionBad,recallBad,FBad,accuracy)
c additional predictionFinallLBD 8 329397 577175 0.85 0.48 0.61 389121 141343 0.23 0.64 0.34 0.51 (nbgoodclauses,nbtotalgood,precisionGood,recallGood,FGood,nbbadclause,nbtotalbad,precisionBad,recallBad,FBad,accuracy)
c additional predictionFinallLBD 10 503498 577175 0.83 0.73 0.78 215020 141343 0.27 0.41 0.33 0.67 (nbgoodclauses,nbtotalgood,precisionGood,recallGood,FGood,nbbadclause,nbtotalbad,precisionBad,recallBad,FBad,accuracy)
c additional predictionFinallLBD 14 687302 577175 0.82 0.97 0.89 31216 141343 0.48 0.11 0.18 0.80 (nbgoodclauses,nbtotalgood,precisionGood,recallGood,FGood,nbbadclause,nbtotalbad,precisionBad,recallBad,FBad,accuracy)
c additional predictionFinallLBD 18 714063 577175 0.81 1.00 0.89 4455 141343 0.71 0.02 0.04 0.81 (nbgoodclauses,nbtotalgood,precisionGood,recallGood,FGood,nbbadclause,nbtotalbad,precisionBad,recallBad,FBad,accuracy)
c additional predictionFinallLBD 22 717503 577175 0.80 1.00 0.89 1015 141343 0.79 0.01 0.01 0.80 (nbgoodclauses,nbtotalgood,precisionGood,recallGood,FGood,nbbadclause,nbtotalbad,precisionBad,recallBad,FBad,accuracy)
c additional predictionFinallLBD 30 718498 577175 0.80 1.00 0.89 20 141343 0.90 0.00 0.00 0.80 (nbgoodclauses,nbtotalgood,precisionGood,recallGood,FGood,nbbadclause,nbtotalbad,precisionBad,recallBad,FBad,accuracy)
c additional predictionFinallLBD 40 718518 577175 0.80 1.00 0.89 0 141343 -nan 0.00 -nan 0.80 (nbgoodclauses,nbtotalgood,precisionGood,recallGood,FGood,nbbadclause,nbtotalbad,precisionBad,recallBad,FBad,accuracy)
c additional predictionSize 1 28 577175 1.00 0.00 0.00 718490 141343 0.20 0.24 0.22 0.20 (nbgoodclauses,nbtotalgood,precisionGood,recallGood,FGood,nbbadclause,nbtotalbad,precisionBad,recallBad,FBad,accuracy)
c additional predictionSize 2 273 577175 0.93 0.00 0.00 718245 141343 0.20 0.24 0.22 0.20 (nbgoodclauses,nbtotalgood,precisionGood,recallGood,FGood,nbbadclause,nbtotalbad,precisionBad,recallBad,FBad,accuracy)
c additional predictionSize 3 875 577175 0.96 0.00 0.00 717643 141343 0.20 0.24 0.22 0.20 (nbgoodclauses,nbtotalgood,precisionGood,recallGood,FGood,nbbadclause,nbtotalbad,precisionBad,recallBad,FBad,accuracy)
c additional predictionSize 4 2664 577175 0.95 0.00 0.01 715854 141343 0.20 0.24 0.22 0.20 (nbgoodclauses,nbtotalgood,precisionGood,recallGood,FGood,nbbadclause,nbtotalbad,precisionBad,recallBad,FBad,accuracy)
c additional predictionSize 5 7351 577175 0.93 0.01 0.02 711167 141343 0.20 0.24 0.22 0.21 (nbgoodclauses,nbtotalgood,precisionGood,recallGood,FGood,nbbadclause,nbtotalbad,precisionBad,recallBad,FBad,accuracy)
c additional predictionSize 6 14714 577175 0.92 0.02 0.05 703804 141343 0.20 0.24 0.22 0.21 (nbgoodclauses,nbtotalgood,precisionGood,recallGood,FGood,nbbadclause,nbtotalbad,precisionBad,recallBad,FBad,accuracy)
c additional predictionSize 7 24046 577175 0.91 0.04 0.07 694472 141343 0.20 0.24 0.22 0.22 (nbgoodclauses,nbtotalgood,precisionGood,recallGood,FGood,nbbadclause,nbtotalbad,precisionBad,recallBad,FBad,accuracy)
c additional predictionSize 8 33923 577175 0.90 0.05 0.10 684595 141343 0.20 0.24 0.22 0.23 (nbgoodclauses,nbtotalgood,precisionGood,recallGood,FGood,nbbadclause,nbtotalbad,precisionBad,recallBad,FBad,accuracy)
c additional predictionSize 10 55163 577175 0.88 0.08 0.15 663355 141343 0.20 0.23 0.22 0.26 (nbgoodclauses,nbtotalgood,precisionGood,recallGood,FGood,nbbadclause,nbtotalbad,precisionBad,recallBad,FBad,accuracy)
c additional predictionSize 14 101673 577175 0.86 0.15 0.26 616845 141343 0.21 0.22 0.21 0.30 (nbgoodclauses,nbtotalgood,precisionGood,recallGood,FGood,nbbadclause,nbtotalbad,precisionBad,recallBad,FBad,accuracy)
c additional predictionSize 18 148897 577175 0.84 0.22 0.35 569621 141343 0.21 0.20 0.21 0.34 (nbgoodclauses,nbtotalgood,precisionGood,recallGood,FGood,nbbadclause,nbtotalbad,precisionBad,recallBad,FBad,accuracy)
c additional predictionSize 22 193854 577175 0.83 0.28 0.42 524664 141343 0.21 0.19 0.20 0.38 (nbgoodclauses,nbtotalgood,precisionGood,recallGood,FGood,nbbadclause,nbtotalbad,precisionBad,recallBad,FBad,accuracy)
c additional predictionSize 30 272863 577175 0.82 0.39 0.53 445655 141343 0.21 0.16 0.18 0.44 (nbgoodclauses,nbtotalgood,precisionGood,recallGood,FGood,nbbadclause,nbtotalbad,precisionBad,recallBad,FBad,accuracy)
c additional predictionSize 40 356409 577175 0.81 0.50 0.62 362109 141343 0.20 0.13 0.16 0.50 (nbgoodclauses,nbtotalgood,precisionGood,recallGood,FGood,nbbadclause,nbtotalbad,precisionBad,recallBad,FBad,accuracy)
c additional predictionAge 1 10740 577175 0.87 0.02 0.03 707778 141343 0.20 0.24 0.22 0.21 (nbgoodclauses,nbtotalgood,precisionGood,recallGood,FGood,nbbadclause,nbtotalbad,precisionBad,recallBad,FBad,accuracy)
c additional predictionAge 10 10772 577175 0.87 0.02 0.03 707746 141343 0.20 0.24 0.22 0.21 (nbgoodclauses,nbtotalgood,precisionGood,recallGood,FGood,nbbadclause,nbtotalbad,precisionBad,recallBad,FBad,accuracy)
c additional predictionAge 25 14234 577175 0.83 0.02 0.04 704284 141343 0.20 0.24 0.22 0.21 (nbgoodclauses,nbtotalgood,precisionGood,recallGood,FGood,nbbadclause,nbtotalbad,precisionBad,recallBad,FBad,accuracy)
c additional predictionAge 50 15751 577175 0.82 0.02 0.04 702767 141343 0.20 0.24 0.22 0.21 (nbgoodclauses,nbtotalgood,precisionGood,recallGood,FGood,nbbadclause,nbtotalbad,precisionBad,recallBad,FBad,accuracy)
c additional predictionAge 100 17188 577175 0.81 0.02 0.05 701330 141343 0.20 0.24 0.22 0.21 (nbgoodclauses,nbtotalgood,precisionGood,recallGood,FGood,nbbadclause,nbtotalbad,precisionBad,recallBad,FBad,accuracy)
c additional predictionAge 250 19338 577175 0.80 0.03 0.05 699180 141343 0.20 0.24 0.22 0.21 (nbgoodclauses,nbtotalgood,precisionGood,recallGood,FGood,nbbadclause,nbtotalbad,precisionBad,recallBad,FBad,accuracy)
c additional predictionAge 500 21245 577175 0.80 0.03 0.06 697273 141343 0.20 0.24 0.21 0.21 (nbgoodclauses,nbtotalgood,precisionGood,recallGood,FGood,nbbadclause,nbtotalbad,precisionBad,recallBad,FBad,accuracy)
c additional predictionAge 1000 23526 577175 0.79 0.03 0.06 694992 141343 0.20 0.24 0.21 0.22 (nbgoodclauses,nbtotalgood,precisionGood,recallGood,FGood,nbbadclause,nbtotalbad,precisionBad,recallBad,FBad,accuracy)
c additional predictionAge 2500 27702 577175 0.78 0.04 0.07 690816 141343 0.20 0.23 0.21 0.22 (nbgoodclauses,nbtotalgood,precisionGood,recallGood,FGood,nbbadclause,nbtotalbad,precisionBad,recallBad,FBad,accuracy)
c additional predictionAge 5000 32566 577175 0.77 0.04 0.08 685952 141343 0.19 0.23 0.21 0.22 (nbgoodclauses,nbtotalgood,precisionGood,recallGood,FGood,nbbadclause,nbtotalbad,precisionBad,recallBad,FBad,accuracy)
c additional predictionAge 10000 40326 577175 0.75 0.05 0.10 678192 141343 0.19 0.23 0.21 0.23 (nbgoodclauses,nbtotalgood,precisionGood,recallGood,FGood,nbbadclause,nbtotalbad,precisionBad,recallBad,FBad,accuracy)
c additional predictionAge 25000 60345 577175 0.75 0.08 0.14 658173 141343 0.19 0.22 0.20 0.24 (nbgoodclauses,nbtotalgood,precisionGood,recallGood,FGood,nbbadclause,nbtotalbad,precisionBad,recallBad,FBad,accuracy)
c additional predictionAge 50000 90275 577175 0.73 0.11 0.20 628243 141343 0.19 0.20 0.19 0.25 (nbgoodclauses,nbtotalgood,precisionGood,recallGood,FGood,nbbadclause,nbtotalbad,precisionBad,recallBad,FBad,accuracy)
c additional predictionAge 100000 144475 577175 0.75 0.19 0.30 574043 141343 0.18 0.18 0.18 0.30 (nbgoodclauses,nbtotalgood,precisionGood,recallGood,FGood,nbbadclause,nbtotalbad,precisionBad,recallBad,FBad,accuracy)
c additional predictionTicks 1 10925 577175 0.87 0.02 0.03 707593 141343 0.20 0.24 0.22 0.21 (nbgoodclauses,nbtotalgood,precisionGood,recallGood,FGood,nbbadclause,nbtotalbad,precisionBad,recallBad,FBad,accuracy)
c additional predictionTicks 10 11986 577175 0.87 0.02 0.04 706532 141343 0.20 0.24 0.22 0.21 (nbgoodclauses,nbtotalgood,precisionGood,recallGood,FGood,nbbadclause,nbtotalbad,precisionBad,recallBad,FBad,accuracy)
c additional predictionTicks 25 36641 577175 0.82 0.05 0.10 681877 141343 0.20 0.23 0.21 0.23 (nbgoodclauses,nbtotalgood,precisionGood,recallGood,FGood,nbbadclause,nbtotalbad,precisionBad,recallBad,FBad,accuracy)
c additional predictionTicks 50 53607 577175 0.81 0.08 0.14 664911 141343 0.20 0.23 0.21 0.24 (nbgoodclauses,nbtotalgood,precisionGood,recallGood,FGood,nbbadclause,nbtotalbad,precisionBad,recallBad,FBad,accuracy)
c additional predictionTicks 100 79378 577175 0.81 0.11 0.20 639140 141343 0.20 0.22 0.21 0.26 (nbgoodclauses,nbtotalgood,precisionGood,recallGood,FGood,nbbadclause,nbtotalbad,precisionBad,recallBad,FBad,accuracy)
c additional predictionTicks 250 126995 577175 0.80 0.18 0.29 591523 141343 0.20 0.20 0.20 0.30 (nbgoodclauses,nbtotalgood,precisionGood,recallGood,FGood,nbbadclause,nbtotalbad,precisionBad,recallBad,FBad,accuracy)
c additional predictionTicks 500 175428 577175 0.80 0.24 0.37 543090 141343 0.20 0.18 0.19 0.34 (nbgoodclauses,nbtotalgood,precisionGood,recallGood,FGood,nbbadclause,nbtotalbad,precisionBad,recallBad,FBad,accuracy)
c additional predictionTicks 1000 232605 577175 0.80 0.32 0.46 485913 141343 0.20 0.17 0.18 0.39 (nbgoodclauses,nbtotalgood,precisionGood,recallGood,FGood,nbbadclause,nbtotalbad,precisionBad,recallBad,FBad,accuracy)
c additional predictionTicks 2500 319798 577175 0.80 0.45 0.57 398720 141343 0.20 0.14 0.16 0.47 (nbgoodclauses,nbtotalgood,precisionGood,recallGood,FGood,nbbadclause,nbtotalbad,precisionBad,recallBad,FBad,accuracy)
c additional predictionTicks 5000 390682 577175 0.80 0.54 0.65 327836 141343 0.20 0.11 0.14 0.53 (nbgoodclauses,nbtotalgood,precisionGood,recallGood,FGood,nbbadclause,nbtotalbad,precisionBad,recallBad,FBad,accuracy)
c additional predictionTicks 10000 460893 577175 0.81 0.64 0.72 257625 141343 0.20 0.09 0.12 0.59 (nbgoodclauses,nbtotalgood,precisionGood,recallGood,FGood,nbbadclause,nbtotalbad,precisionBad,recallBad,FBad,accuracy)
c additional predictionTicks 25000 547572 577175 0.81 0.77 0.79 170946 141343 0.21 0.06 0.10 0.67 (nbgoodclauses,nbtotalgood,precisionGood,recallGood,FGood,nbbadclause,nbtotalbad,precisionBad,recallBad,FBad,accuracy)
c additional predictionTicks 50000 602895 577175 0.81 0.84 0.82 115623 141343 0.22 0.04 0.07 0.71 (nbgoodclauses,nbtotalgood,precisionGood,recallGood,FGood,nbbadclause,nbtotalbad,precisionBad,recallBad,FBad,accuracy)
c additional predictionTicks 100000 653639 577175 0.81 0.91 0.86 64879 141343 0.22 0.03 0.05 0.75 (nbgoodclauses,nbtotalgood,precisionGood,recallGood,FGood,nbbadclause,nbtotalbad,precisionBad,recallBad,FBad,accuracy)
c additional lifetimeGood 1 12 72 3168 47498 173561 359167 526675 598867 683523 718759 718771 (0,1,5,10,25,50,75,90,95,99,100-1,100)
c additional lifetimeBad 1 12 48 1872 38643 186259 408777 593033 652100 705347 718762 718769 (0,1,5,10,25,50,75,90,95,99,100-1,100)
c additional lifetimeBadBad 1 12 12 12 84 20640 186826 376458 494802 630544 716021 716285 (0,1,5,10,25,50,75,90,95,99,100-1,100)
c additional compositionBad 1 3 6 9 20 46 105 203 273 416 880 936 (0,1,5,10,25,50,75,90,95,99,100-1,100)
c additional compositionBadWithGood 0 0 1 1 3 8 17 33 46 77 165 195 (0,1,5,10,25,50,75,90,95,99,100-1,100)
c additional compositionBadWithBad 0 0 0 0 0 2 4 9 13 22 46 50 (0,1,5,10,25,50,75,90,95,99,100-1,100)
c additional compositionBadWithInitial 0 1 3 6 14 34 82 165 226 349 760 770 (0,1,5,10,25,50,75,90,95,99,100-1,100)
c additional compositionGood 1 2 5 7 16 42 107 214 286 429 1004 1028 (0,1,5,10,25,50,75,90,95,99,100-1,100)
c additional compositionGoodWithGood 0 0 1 2 4 11 23 41 55 87 186 214 (0,1,5,10,25,50,75,90,95,99,100-1,100)
c additional compositionGoodWithInitial 0 1 3 5 11 31 82 173 236 355 866 871 (0,1,5,10,25,50,75,90,95,99,100-1,100)
c additional propagationGood total 22275692 percentiles 0 1 1 1 1 1 3 20 66 485 61468 83505 (0,1,5,10,25,50,75,90,95,99,100-1,100)
c additional propagationBad total 875425 percentiles 1 1 1 1 1 1 2 5 13 109 6736 10064 (0,1,5,10,25,50,75,90,95,99,100-1,100)
c additional resolutionGood total 9706215 percentiles 0 1 1 1 1 1 3 12 35 218 25251 42156 (0,1,5,10,25,50,75,90,95,99,100-1,100)
c additional resolutionBad total 463855 percentiles 0 0 0 0 1 1 1 3 8 52 1197 1236 (0,1,5,10,25,50,75,90,95,99,100-1,100)
Computing K-Core for 728594 clauses...
c building structure for KCore computation.
c the graph has 57496587 edges, maxdegree=1028
c we start the KCore with the value 20
c Non directed graph built
K=20,139500 nodes removed so far
K=21,150362 nodes removed so far
K=22,161254 nodes removed so far
K=23,171859 nodes removed so far
K=24,182332 nodes removed so far
K=25,192364 nodes removed so far
K=26,202300 nodes removed so far
K=27,211948 nodes removed so far
K=28,221443 nodes removed so far
K=29,230691 nodes removed so far
K=30,239721 nodes removed so far
K=31,248536 nodes removed so far
K=32,257015 nodes removed so far
K=33,265178 nodes removed so far
K=34,273107 nodes removed so far
K=35,280977 nodes removed so far
K=36,288502 nodes removed so far
K=37,295835 nodes removed so far
K=38,302851 nodes removed so far
K=39,309642 nodes removed so far
K=40,316397 nodes removed so far
K=41,322934 nodes removed so far
K=42,329298 nodes removed so far
K=43,335508 nodes removed so far
K=44,341351 nodes removed so far
K=45,347352 nodes removed so far
K=46,352932 nodes removed so far
K=47,358440 nodes removed so far
K=48,363711 nodes removed so far
K=49,368989 nodes removed so far
K=50,374149 nodes removed so far
K=51,379194 nodes removed so far
K=52,383987 nodes removed so far
K=53,388640 nodes removed so far
K=54,393320 nodes removed so far
K=55,397937 nodes removed so far
K=56,402306 nodes removed so far
K=57,406676 nodes removed so far
K=58,410744 nodes removed so far
K=59,414978 nodes removed so far
K=60,419039 nodes removed so far
K=61,423002 nodes removed so far
K=62,K=63,430718 nodes removed so far
K=64,K=65,K=66,441546 nodes removed so far
K=67,K=68,K=69,452022 nodes removed so far
K=70,K=71,K=72,461950 nodes removed so far
K=73,K=74,K=75,471008 nodes removed so far
K=76,K=77,K=78,K=79,482512 nodes removed so far
K=80,K=81,K=82,490776 nodes removed so far
K=83,K=84,K=85,K=86,501078 nodes removed so far
K=87,K=88,K=89,K=90,510417 nodes removed so far
K=91,K=92,K=93,K=94,K=95,521437 nodes removed so far
K=96,K=97,K=98,K=99,K=100,531695 nodes removed so far
K=101,K=102,K=103,K=104,K=105,540993 nodes removed so far
K=106,K=107,K=108,K=109,K=110,K=111,551633 nodes removed so far
K=112,K=113,K=114,K=115,K=116,K=117,561424 nodes removed so far
K=118,K=119,K=120,K=121,K=122,K=123,570503 nodes removed so far
K=124,K=125,K=126,K=127,K=128,K=129,K=130,580197 nodes removed so far
K=131,K=132,K=133,K=134,K=135,K=136,K=137,K=138,590580 nodes removed so far
K=139,K=140,K=141,K=142,K=143,K=144,K=145,K=146,600191 nodes removed so far
K=147,K=148,K=149,K=150,K=151,K=152,K=153,K=154,K=155,610029 nodes removed so far
K=156,K=157,K=158,K=159,K=160,K=161,K=162,K=163,K=164,K=165,K=166,620922 nodes removed so far
K=167,K=168,K=169,K=170,K=171,K=172,K=173,K=174,K=175,K=176,K=177,630805 nodes removed so far
K=178,K=179,K=180,K=181,K=182,K=183,K=184,K=185,K=186,K=187,K=188,K=189,640702 nodes removed so far
K=190,K=191,K=192,K=193,K=194,K=195,K=196,K=197,K=198,K=199,K=200,K=201,K=202,650575 nodes removed so far
K=203,K=204,K=205,K=206,K=207,K=208,K=209,K=210,K=211,K=212,K=213,K=214,K=215,K=216,K=217,660637 nodes removed so far
K=218,K=219,K=220,K=221,K=222,K=223,K=224,K=225,K=226,K=227,K=228,K=229,K=230,K=231,K=232,K=233,670330 nodes removed so far
K=234,K=235,K=236,K=237,K=238,K=239,K=240,K=241,K=242,K=243,K=244,K=245,K=246,K=247,K=248,K=249,K=250,K=251,K=252,680313 nodes removed so far
K=253,K=254,K=255,K=256,K=257,K=258,K=259,K=260,K=261,K=262,K=263,K=264,K=265,K=266,K=267,K=268,K=269,K=270,K=271,K=272,K=273,K=274,690284 nodes removed so far
K=275,K=276,K=277,K=278,K=279,K=280,K=281,K=282,K=283,K=284,K=285,K=286,K=287,K=288,K=289,K=290,K=291,K=292,K=293,K=294,K=295,K=296,K=297,K=298,K=299,K=300,K=301,700301 nodes removed so far
K=302,K=303,K=304,K=305,K=306,K=307,K=308,K=309,K=310,K=311,K=312,K=313,K=314,K=315,K=316,K=317,K=318,K=319,K=320,K=321,K=322,K=323,K=324,K=325,K=326,K=327,K=328,K=329,K=330,K=331,K=332,710211 nodes removed so far
K=333,K=334,K=335,K=336,K=337,K=338,K=339,K=340,K=341,725346 nodes removed so far
KCore = 341
Building structure for PR...
Computing PR...
Pageranking 710702 nodes done in 14 iteration. cumulError=3.92153e-11
clause level 5 (Kante=3, Kdesc=256756, core=6):-883 
clause level 35 (Kante=280, Kdesc=234586, core=6):-885 
clause level 71 (Kante=1028, Kdesc=140991, core=4):-384 
clause level 181 (Kante=12, Kdesc=94705, core=11):-738 
clause level 1 (Kante=3, Kdesc=81382, core=0):885 -1338 
clause level 38 (Kante=3, Kdesc=66682, core=3):293 
clause level 37 (Kante=8, Kdesc=35972, core=10):88 
clause level 3 (Kante=501, Kdesc=2, core=7):-883 -879 -663 
clause level 332 (Kante=460, Kdesc=18400, core=2):162 
clause level 36 (Kante=11, Kdesc=31078, core=10):195 
clause level 312 (Kante=57, Kdesc=16019, core=9):790 
clause level 1 (Kante=4, Kdesc=11096, core=7):162 -271 256 
clause level 2 (Kante=505, Kdesc=37507, core=1):-837 
clause level 1 (Kante=4, Kdesc=12273, core=6):438 441 514 
clause level 1 (Kante=3, Kdesc=37134, core=1):-1344 1338 
clause level 37 (Kante=11, Kdesc=44754, core=10):302 -393 
clause level 36 (Kante=4, Kdesc=44228, core=11):-1473 
clause level 290 (Kante=9, Kdesc=27108, core=0):-774 
clause level 2 (Kante=8, Kdesc=21091, core=5):694 638 738 642 
clause level 1 (Kante=5, Kdesc=12428, core=3):714 225 -323 -231 
clause level 4 (Kante=9, Kdesc=31772, core=8):-831 
clause level 1 (Kante=4, Kdesc=21997, core=3):694 -703 738 
clause level 1 (Kante=4, Kdesc=9994, core=4):514 582 517 
clause level 219 (Kante=891, Kdesc=7847, core=9):-606 -18 
clause level 1 (Kante=4, Kdesc=8086, core=3):262 265 354 
clause level 1 (Kante=3, Kdesc=9455, core=4):714 133 -241 -130 
clause level 1 (Kante=12, Kdesc=28104, core=8):819 -813 
clause level 1 (Kante=3, Kdesc=28861, core=9):875 -1268 
clause level 1 (Kante=3, Kdesc=33569, core=8):879 -1691 
clause level 1 (Kante=4, Kdesc=8278, core=7):262 -363 348 
clause level 4 (Kante=3, Kdesc=9198, core=2):582 514 504 694 642 
clause level 1 (Kante=4, Kdesc=8916, core=7):354 357 438 
clause level 1 (Kante=6, Kdesc=13543, core=7):514 509 -583 
clause level 1 (Kante=3, Kdesc=16368, core=10):664 228 -225 -327 
clause level 1 (Kante=4, Kdesc=10744, core=9):438 517 -518 
clause level 1 (Kante=4, Kdesc=13061, core=5):582 585 642 
clause level 36 (Kante=5, Kdesc=17452, core=8):-1469 -1295 
clause level 1 (Kante=4, Kdesc=8717, core=0):514 -523 582 
clause level 37 (Kante=11, Kdesc=19942, core=1):204 -303 
clause level 1 (Kante=4, Kdesc=6335, core=3):642 694 -651 
clause level 1 (Kante=4, Kdesc=25675, core=0):738 -747 774 
clause level 1 (Kante=3, Kdesc=14633, core=2):262 318 -372 -323 
clause level 1 (Kante=5, Kdesc=8214, core=5):161 441 514 
clause level 1 (Kante=4, Kdesc=9042, core=5):438 -447 514 
clause level 1 (Kante=6, Kdesc=23603, core=7):-1574 
clause level 37 (Kante=11, Kdesc=27820, core=3):392 -475 
clause level 6 (Kante=5, Kdesc=16644, core=10):-917 -1671 
clause level 5 (Kante=2, Kdesc=10260, core=7):262 342 -364 
clause level 5 (Kante=5, Kdesc=16637, core=4):-1466 -1506 
clause level 1 (Kante=6, Kdesc=6103, core=1):582 578 642 -646 
clause level 36 (Kante=5, Kdesc=17007, core=10):-1465 -1291 
clause level 2 (Kante=3, Kdesc=12226, core=10):694 690 774 738 
clause level 37 (Kante=14, Kdesc=16584, core=10):-1665 -1505 
clause level 1 (Kante=4, Kdesc=7833, core=0):162 265 -266 
clause level 1 (Kante=4, Kdesc=6675, core=4):354 -363 438 
clause level 1 (Kante=21, Kdesc=23386, core=5):663 885 883 
clause level 1 (Kante=5, Kdesc=8897, core=4):161 -591 642 
clause level 36 (Kante=4, Kdesc=19928, core=10):-1460 -875 
clause level 2 (Kante=3, Kdesc=14326, core=2):582 -639 572 642 -646 
clause level 7 (Kante=7, Kdesc=12266, core=2):-332 -415 354 326 
clause level 1 (Kante=3, Kdesc=21148, core=1):-1685 1337 
clause level 1 (Kante=6, Kdesc=5672, core=10):354 350 438 -442 
clause level 2 (Kante=3, Kdesc=13293, core=10):694 -704 732 738 
clause level 1 (Kante=14, Kdesc=5506, core=6):-422 -336 790 756 332 
clause level 4 (Kante=3, Kdesc=20329, core=7):642 -685 626 694 738 -691 
clause level 1 (Kante=4, Kdesc=6645, core=9):582 636 -651 
clause level 36 (Kante=17, Kdesc=18620, core=7):-1591 
clause level 1 (Kante=6, Kdesc=8236, core=10):514 -524 582 576 
clause level 1 (Kante=5, Kdesc=6239, core=1):161 585 642 
clause level 37 (Kante=12, Kdesc=12108, core=8):789 
clause level 37 (Kante=11, Kdesc=12563, core=5):-1318 -1274 
clause level 36 (Kante=8, Kdesc=3071, core=6):-1460 -1000 
clause level 3 (Kante=3, Kdesc=5032, core=7):514 582 438 434 
clause level 36 (Kante=5, Kdesc=13272, core=8):-1465 -1506 
clause level 1 (Kante=3, Kdesc=17009, core=1):-1355 1348 
clause level 36 (Kante=11, Kdesc=11396, core=4):-1318 -651 
clause level 2 (Kante=3, Kdesc=4666, core=11):438 -448 508 514 
clause level 1 (Kante=3, Kdesc=10987, core=2):714 -372 334 408 
clause level 1 (Kante=5, Kdesc=6258, core=2):161 -447 514 
clause level 1 (Kante=3, Kdesc=8116, core=6):756 -278 248 330 
clause level 3 (Kante=3, Kdesc=5858, core=7):642 632 -691 738 694 
clause level 36 (Kante=6, Kdesc=18455, core=3):-1385 1340 
clause level 36 (Kante=5, Kdesc=12763, core=10):-1469 -1291 
clause level 6 (Kante=4, Kdesc=12917, core=2):642 -594 694 582 688 
clause level 1 (Kante=6, Kdesc=7739, core=10):438 521 -449 
clause level 2 (Kante=3, Kdesc=10421, core=2):642 -652 694 688 
clause level 2 (Kante=5, Kdesc=6573, core=8):-523 -515 588 514 440 
clause level 37 (Kante=14, Kdesc=11440, core=11):-1522 -1279 
clause level 1 (Kante=3, Kdesc=10579, core=2):756 -454 424 490 
clause level 1 (Kante=5, Kdesc=5519, core=11):161 694 645 
clause level 2 (Kante=4, Kdesc=6896, core=1):-363 444 -355 356 264 354 
clause level 1 (Kante=4, Kdesc=11426, core=10):738 741 774 
clause level 2 (Kante=18, Kdesc=11108, core=4):-1466 -1505 
clause level 1 (Kante=4, Kdesc=9937, core=6):694 697 738 
clause level 1 (Kante=3, Kdesc=17006, core=1):-1346 1686 
clause level 3 (Kante=6, Kdesc=5094, core=1):591 -526 514 582 593 
clause level 4 (Kante=10, Kdesc=5280, core=7):-527 593 -44 514 
clause level 1 (Kante=6, Kdesc=10832, core=0):738 734 -778 774 
clause level 1 (Kante=3, Kdesc=11856, core=2):262 306 -376 -285 
clause level 1 (Kante=3, Kdesc=8124, core=6):664 -282 236 318 
clause level 1 (Kante=6, Kdesc=8493, core=10):-636 649 -834 
clause level 8 (Kante=3, Kdesc=6057, core=7):514 578 -579 
clause level 37 (Kante=8, Kdesc=15894, core=5):-1460 -748 
clause level 36 (Kante=4, Kdesc=10358, core=5):-1461 -875 
clause level 36 (Kante=11, Kdesc=7332, core=6):-1466 517 
clause level 36 (Kante=5, Kdesc=9723, core=8):-1469 -1506 
clause level 2 (Kante=5, Kdesc=7546, core=1):643 649 
clause level 1 (Kante=6, Kdesc=11353, core=9):738 -748 768 774 
clause level 2 (Kante=4, Kdesc=5600, core=3):642 582 -592 694 
clause level 1 (Kante=8, Kdesc=11103, core=10):642 -654 694 682 688 
clause level 1 (Kante=3, Kdesc=10317, core=7):606 398 -395 -481 
clause level 1 (Kante=3, Kdesc=15243, core=1):-1254 1344 1345 1686 
clause level 5 (Kante=8, Kdesc=8436, core=5):1534 -1666 
clause level 36 (Kante=5, Kdesc=7401, core=10):-1465 -1505 
clause level 1 (Kante=6, Kdesc=4976, core=7):582 -592 636 642 
clause level 38 (Kante=7, Kdesc=7621, core=2):-1466 504 
clause level 40 (Kante=18, Kdesc=8898, core=0):-1318 632 
clause level 39 (Kante=3, Kdesc=6342, core=6):-900 -1375 
clause level 1 (Kante=12, Kdesc=7244, core=7):514 492 -586 582 -567 -573 -579 
clause level 2 (Kante=3, Kdesc=15234, core=0):738 728 -771 -778 774 
clause level 4 (Kante=3, Kdesc=9202, core=7):-302 299 540 466 -306 
clause level 2 (Kante=3, Kdesc=4377, core=2):514 510 582 -586 
clause level 4 (Kante=3, Kdesc=8999, core=11):514 -528 564 591 582 593 
clause level 37 (Kante=8, Kdesc=8470, core=4):-1319 -1279 
clause level 1 (Kante=4, Kdesc=11205, core=5):774 -783 802 
clause level 3 (Kante=9, Kdesc=4091, core=5):514 582 -448 438 
clause level 3 (Kante=5, Kdesc=17882, core=6):694 -708 721 726 738 732 
clause level 7 (Kante=5, Kdesc=6475, core=2):642 -596 582 694 682 688 
clause level 38 (Kante=7, Kdesc=6725, core=6):-1465 434 
clause level 1 (Kante=3, Kdesc=5423, core=0):873 -1603 
clause level 36 (Kante=7, Kdesc=12051, core=0):802 770 774 
clause level 2 (Kante=3, Kdesc=15030, core=3):738 763 -750 774 768 
clause level 38 (Kante=4, Kdesc=6634, core=5):-1318 -1271 
clause level 1 (Kante=4, Kdesc=3760, core=9):438 -422 410 -499 -493 
clause level 37 (Kante=11, Kdesc=6287, core=6):-1522 -1295 
clause level 6 (Kante=8, Kdesc=4104, core=10):-917 -1253 
clause level 8 (Kante=5, Kdesc=6985, core=6):-917 690 
clause level 36 (Kante=30, Kdesc=5325, core=0):-1319 -1375 
clause level 37 (Kante=17, Kdesc=11485, core=2):-1460 770 
clause level 1 (Kante=3, Kdesc=11127, core=2):-1269 1255 1385 1691 
clause level 1 (Kante=10, Kdesc=12280, core=0):802 1701 823 -1479 -826 
clause level 38 (Kante=3, Kdesc=4963, core=4):-295 
clause level 39 (Kante=18, Kdesc=5735, core=3):-664 578 
clause level 38 (Kante=5, Kdesc=6051, core=8):-900 -1295 
clause level 3 (Kante=3, Kdesc=12073, core=3):694 -706 732 738 726 
clause level 1 (Kante=3, Kdesc=10883, core=7):-1702 1337 1346 1347 
clause level 5 (Kante=3, Kdesc=5462, core=11):514 498 -573 642 694 582 
clause level 8 (Kante=3, Kdesc=12018, core=6):582 -598 618 642 694 682 688 
clause level 36 (Kante=13, Kdesc=2495, core=7):293 879 
clause level 36 (Kante=6, Kdesc=12104, core=6):774 -784 797 802 
clause level 2 (Kante=7, Kdesc=8076, core=10):582 560 642 -646 -627 -633 -639 
clause level 4 (Kante=2, Kdesc=7450, core=6):738 774 694 684 -778 
clause level 36 (Kante=12, Kdesc=10540, core=7):875 775 
clause level 1 (Kante=4, Kdesc=7133, core=10):438 398 -410 -487 -481 
clause level 1 (Kante=3, Kdesc=8468, core=6):606 471 -472 -549 
clause level 39 (Kante=4, Kdesc=6680, core=6):-1522 -1291 
clause level 36 (Kante=6, Kdesc=4963, core=11):-1282 
clause level 1 (Kante=4, Kdesc=3644, core=0):499 490 -494 
clause level 37 (Kante=6, Kdesc=8834, core=1):-1460 -873 
clause level 2 (Kante=8, Kdesc=3069, core=3):-690 -733 694 684 
clause level 3 (Kante=4, Kdesc=3469, core=1):-1580 
clause level 1 (Kante=4, Kdesc=4036, core=6):802 805 823 
clause level 37 (Kante=12, Kdesc=6556, core=6):-900 -1291 
clause level 2 (Kante=4, Kdesc=3980, core=6):-591 648 -583 584 516 161 
clause level 182 (Kante=4, Kdesc=4282, core=7):694 632 642 -742 
clause level 4 (Kante=4, Kdesc=3498, core=7):514 576 438 -524 
clause level 1 (Kante=6, Kdesc=3807, core=9):-508 521 -834 
clause level 5 (Kante=3, Kdesc=4820, core=0):-1649 875 
clause level 1 (Kante=4, Kdesc=4683, core=10):354 314 -326 -411 -405 
clause level 37 (Kante=10, Kdesc=5158, core=8):-1466 -526 
clause level 3 (Kante=3, Kdesc=2264, core=2):-893 -1719 1554 
clause level 5 (Kante=13, Kdesc=5496, core=5):438 -494 714 -485 403 
clause level 3 (Kante=6, Kdesc=7035, core=3):471 -486 606 -545 -556 -555 
clause level 38 (Kante=48, Kdesc=8963, core=6):-1460 -752 
clause level 36 (Kante=11, Kdesc=4227, core=4):-664 -651 
clause level 4 (Kante=3, Kdesc=5889, core=6):-891 -1719 1712 
clause level 36 (Kante=4, Kdesc=4074, core=10):-1318 -873 
clause level 3 (Kante=2, Kdesc=2181, core=7):694 684 -733 774 738 
clause level 3 (Kante=9, Kdesc=3301, core=0):582 577 636 
clause level 37 (Kante=8, Kdesc=7385, core=10):802 -798 761 774 
clause level 6 (Kante=4, Kdesc=4511, core=2):438 415 -497 -424 
clause level 1 (Kante=3, Kdesc=6137, core=10):664 -458 478 412 
clause level 39 (Kante=17, Kdesc=4854, core=1):-1318 690 
clause level 37 (Kante=35, Kdesc=9284, core=11):-1544 875 879 876 1602 
clause level 2 (Kante=4, Kdesc=2244, core=7):-887 1713 -1719 
clause level 36 (Kante=6, Kdesc=5739, core=10):-927 -873 
clause level 1 (Kante=10, Kdesc=7237, core=7):-480 -548 602 664 606 471 
clause level 1 (Kante=4, Kdesc=8716, core=7):514 -532 483 552 -567 
clause level 182 (Kante=4, Kdesc=8494, core=1):642 620 -679 694 -685 -691 
clause level 37 (Kante=9, Kdesc=3219, core=4):-1466 509 
clause level 36 (Kante=17, Kdesc=4713, core=2):798 
clause level 1 (Kante=3, Kdesc=7439, core=2):-1001 1253 1254 1300 
clause level 36 (Kante=14, Kdesc=4886, core=6):-1319 -1291 
clause level 1 (Kante=6, Kdesc=3945, core=6):774 770 802 -806 
clause level 3 (Kante=6, Kdesc=3632, core=11):514 -574 -565 563 491 
clause level 38 (Kante=15, Kdesc=4274, core=1):-664 638 
clause level 2 (Kante=8, Kdesc=3889, core=8):-1466 -1274 
clause level 1 (Kante=3, Kdesc=7833, core=7):-1602 1270 1591 880 
clause level 6 (Kante=11, Kdesc=3834, core=10):-917 -1299 
clause level 38 (Kante=22, Kdesc=7002, core=10):-1460 761 
clause level 1 (Kante=4, Kdesc=3555, core=6):-630 -639 623 
clause level 36 (Kante=20, Kdesc=3241, core=10):-917 774 738 -801 683 
clause level 39 (Kante=11, Kdesc=4218, core=0):-1318 -703 
clause level 36 (Kante=5, Kdesc=4151, core=6):-1665 -1271 
clause level 2 (Kante=6, Kdesc=7561, core=7):-678 642 -626 611 -672 
clause level 1 (Kante=3, Kdesc=5037, core=2):483 -457 -438 -409 
clause level 3 (Kante=9, Kdesc=4405, core=6):-638 560 582 -646 642 -625 -631 
clause level 182 (Kante=9, Kdesc=6656, core=8):694 642 -790 -656 726 802 774 
clause level 3 (Kante=3, Kdesc=4641, core=6):-1258 875 
clause level 1 (Kante=3, Kdesc=5891, core=7):-1210 1118 1124 1603 
clause level 1 (Kante=3, Kdesc=6437, core=2):-1124 1269 1268 1002 
clause level 1 (Kante=8, Kdesc=5664, core=11):669 -790 -730 -729 -684 756 -672 
clause level 38 (Kante=3, Kdesc=2815, core=4):-1466 510 
clause level 7 (Kante=8, Kdesc=4280, core=4):582 514 -528 694 642 688 
clause level 4 (Kante=5, Kdesc=5144, core=0):-1554 1543 1712 1545 
clause level 383 (Kante=405, Kdesc=1919, core=10):354 
clause level 3 (Kante=7, Kdesc=2962, core=0):438 416 -499 -511 -505 -515 514 
clause level 2 (Kante=8, Kdesc=3254, core=8):-1466 -1271 
clause level 182 (Kante=5, Kdesc=3836, core=9):694 -596 582 642 682 
clause level 36 (Kante=4, Kdesc=1736, core=10):-1665 -875 
clause level 1 (Kante=3, Kdesc=2108, core=1):891 -980 
clause level 1 (Kante=4, Kdesc=4490, core=10):438 -458 454 478 484 
clause level 3 (Kante=8, Kdesc=3200, core=5):891 -1104 
clause level 36 (Kante=11, Kdesc=2461, core=4):-1466 585 
clause level 5 (Kante=3, Kdesc=4208, core=0):514 -530 564 591 582 593 558 
clause level 1 (Kante=3, Kdesc=5789, core=5):-1596 1544 874 1211 
clause level 36 (Kante=13, Kdesc=3239, core=0):774 796 -161 777 
clause level 1 (Kante=3, Kdesc=3425, core=1):-1302 1348 1349 1685 
clause level 3 (Kante=4, Kdesc=3806, core=0):438 -454 490 496 502 508 514 
clause level 1 (Kante=4, Kdesc=5121, core=6):-626 -790 -679 675 620 
clause level 3 (Kante=5, Kdesc=3302, core=5):891 -1593 
clause level 2 (Kante=8, Kdesc=5544, core=9):-1024 879 1174 
clause level 182 (Kante=7, Kdesc=3497, core=1):642 -580 582 560 694 -691 -685 
clause level 1 (Kante=10, Kdesc=3459, core=11):372 -410 457 354 -374 
clause level 37 (Kante=17, Kdesc=3438, core=5):-1461 -746 734 738 
clause level 1 (Kante=3, Kdesc=2047, core=2):-960 1359 
clause level 36 (Kante=9, Kdesc=3908, core=6):774 -799 761 802 
clause level 4 (Kante=4, Kdesc=2007, core=5):-1617 873 
clause level 1 (Kante=3, Kdesc=5462, core=1):-1117 1001 1000 1272 
clause level 5 (Kante=8, Kdesc=3993, core=10):887 -1175 
clause level 36 (Kante=6, Kdesc=2145, core=10):-1318 -1000 
clause level 2 (Kante=3, Kdesc=4083, core=1):354 308 -399 -405 -326 -411 
clause level 5 (Kante=4, Kdesc=3710, core=3):694 -656 -790 -625 738 732 726 
clause level 182 (Kante=24, Kdesc=2802, core=9):-664 -594 732 
clause level 37 (Kante=8, Kdesc=3752, core=4):-1466 -891 
clause level 3 (Kante=4, Kdesc=2974, core=2):738 694 684 -692 -778 
clause level 1 (Kante=3, Kdesc=2857, core=2):-1590 1357 
clause level 2 (Kante=6, Kdesc=3321, core=7):-851 875 1614 1147 
clause level 2 (Kante=9, Kdesc=2010, core=8):-1622 873 
clause level 1 (Kante=3, Kdesc=4125, core=1):-1405 1547 
clause level 2 (Kante=4, Kdesc=2028, core=7):891 -1030 
clause level 37 (Kante=15, Kdesc=2659, core=11):-1665 -1274 
clause level 182 (Kante=70, Kdesc=3795, core=1):-917 1549 664 714 -605 -545 -713 
clause level 2 (Kante=2, Kdesc=3373, core=10):438 -481 -487 398 -499 -422 -493 
clause level 37 (Kante=10, Kdesc=1029, core=5):-1318 -1116 879 
clause level 1 (Kante=4, Kdesc=2595, core=6):642 -626 611 -679 -673 
clause level 1 (Kante=3, Kdesc=4774, core=1):-1420 1355 1356 1547 
clause level 1 (Kante=8, Kdesc=3732, core=6):719 -772 -816 -734 -771 790 -722 
clause level 1 (Kante=3, Kdesc=4278, core=11):-1045 1095 1106 1623 
clause level 183 (Kante=6, Kdesc=2607, core=0):774 -704 -690 
clause level 320 (Kante=487, Kdesc=1, core=9):161 -44 -865 -866 
clause level 36 (Kante=13, Kdesc=2646, core=1):802 795 
clause level 1 (Kante=5, Kdesc=1278, core=5):-1146 -1044 869 
clause level 1 (Kante=3, Kdesc=4441, core=1):-1275 1303 1302 1671 
clause level 37 (Kante=16, Kdesc=2667, core=11):669 -684 790 -719 756 -672 
clause level 36 (Kante=11, Kdesc=1732, core=6):-1466 -651 
clause level 6 (Kante=13, Kdesc=3374, core=7):-1719 1712 1085 1543 -1096 
clause level 38 (Kante=21, Kdesc=3010, core=3):-904 -806 802 738 694 684 -650 
clause level 3 (Kante=3, Kdesc=2557, core=11):483 452 438 714 -456 
clause level 36 (Kante=37, Kdesc=2331, core=7):-1318 -654 879 
clause level 4 (Kante=4, Kdesc=2922, core=3):-1719 -887 1554 
clause level 1 (Kante=3, Kdesc=2018, core=9):-1269 1691 1385 1255 
clause level 1 (Kante=3, Kdesc=3342, core=3):-1662 1299 1301 1702 
clause level 2 (Kante=4, Kdesc=2625, core=6):854 -1543 1044 1030 1105 1623 
clause level 1 (Kante=3, Kdesc=2053, core=1):-1474 980 982 1543 
clause level 2 (Kante=9, Kdesc=2115, core=7):-1118 879 1271 1113 1001 1000 1116 
clause level 1 (Kante=3, Kdesc=1707, core=5):-1543 1048 1044 1045 
clause level 1 (Kante=3, Kdesc=2237, core=3):-1001 1300 1253 1254 
clause level 1 (Kante=8, Kdesc=1962, core=9):-1706 1475 1474 983 985 
clause level 1 (Kante=3, Kdesc=3687, core=1):-1688 1271 1662 1273 
clause level 4 (Kante=10, Kdesc=2355, core=1):891 -1152 
clause level 1 (Kante=3, Kdesc=2810, core=1):-1207 1116 1117 1114 
clause level 1 (Kante=3, Kdesc=2832, core=1):-1623 1210 1209 1208 
clause level 3 (Kante=5, Kdesc=1791, core=4):582 642 -689 -639 649 565 
clause level 1 (Kante=3, Kdesc=1936, core=10):-1545 1030 1051 1047 
clause level 2 (Kante=3, Kdesc=2242, core=2):-851 873 1147 1146 
clause level 1 (Kante=3, Kdesc=1961, core=5):-1712 1046 868 1715 
clause level 2 (Kante=9, Kdesc=2789, core=7):-1208 1117 1113 1170 1116 875 1152 
clause level 1 (Kante=3, Kdesc=2739, core=2):-1696 1357 1358 1405 
clause level 1 (Kante=3, Kdesc=2205, core=1):-1050 1110 1112 1593 
clause level 1 (Kante=3, Kdesc=3041, core=3):-1302 1348 1349 1685 
clause level 1 (Kante=3, Kdesc=1382, core=3):-1124 1002 1268 1269 
clause level 36 (Kante=18, Kdesc=1637, core=10):-1318 774 738 -746 683 -801 
clause level 37 (Kante=8, Kdesc=1500, core=10):-1665 -1000 
clause level 2 (Kante=4, Kdesc=2215, core=11):854 -1712 868 1044 1623 1596 
clause level 1 (Kante=3, Kdesc=2066, core=7):-1105 1152 1207 1172 
clause level 1 (Kante=3, Kdesc=2737, core=5):-1047 1104 1111 1105 
clause level 1 (Kante=3, Kdesc=2319, core=2):-1304 1359 1590 1360 
clause level 1 (Kante=3, Kdesc=830, core=1):-1385 1340 1338 1580 
clause level 36 (Kante=24, Kdesc=2123, core=10):-834 -748 738 -769 
clause level 1 (Kante=3, Kdesc=2066, core=11):-1047 1104 1105 1111 
clause level 2 (Kante=5, Kdesc=1911, core=3):802 -775 -783 
clause level 1 (Kante=3, Kdesc=2158, core=5):-1595 1275 1274 1373 
clause level 1 (Kante=3, Kdesc=1892, core=2):-1545 1051 1030 1047 
clause level 37 (Kante=4, Kdesc=1138, core=3):-1602 880 1270 
clause level 2 (Kante=9, Kdesc=1930, core=3):-1106 873 1170 1152 1207 1593 1104 
clause level 182 (Kante=7, Kdesc=832, core=9):-1662 1301 1702 
clause level 1 (Kante=3, Kdesc=2302, core=11):-1110 1221 1170 1171 
clause level 3 (Kante=21, Kdesc=1804, core=9):582 480 514 -567 -621 -627 642 -646 -633 -639 
clause level 6 (Kante=17, Kdesc=1573, core=1):-1719 1712 1545 1543 -1052 1093 1653 
clause level 2 (Kante=9, Kdesc=1727, core=2):-1108 879 1505 1101 1275 1274 1107 
clause level 1 (Kante=5, Kdesc=1863, core=1):-1545 1146 1047 
clause level 1 (Kante=3, Kdesc=1672, core=11):-1171 1108 1113 1688 
clause level 1 (Kante=3, Kdesc=1726, core=11):-1372 1290 1392 1420 
clause level 1 (Kante=3, Kdesc=1557, core=7):-1146 869 -889 
clause level 5 (Kante=4, Kdesc=1575, core=1):852 -1554 1045 1047 1715 
clause level 1 (Kante=3, Kdesc=1582, core=8):-1715 870 1192 1596 
clause level 1 (Kante=3, Kdesc=1673, core=11):-1623 1208 1209 1210 
clause level 287 (Kante=828, Kdesc=6, core=4):756 790 791 896 747 904 
clause level 2 (Kante=7, Kdesc=1312, core=6):774 738 802 734 
clause level 1 (Kante=3, Kdesc=1751, core=11):-1105 1172 1152 1207 
clause level 1 (Kante=3, Kdesc=1168, core=3):-1384 1391 1305 1696 
clause level 309 (Kante=457, Kdesc=7, core=7):790 714 -713 715 909 
clause level 1 (Kante=3, Kdesc=1630, core=7):1688 -1171 1108 1113 
clause level 1 (Kante=3, Kdesc=1284, core=3):-1702 1337 1346 1347 
clause level 400 (Kante=407, Kdesc=4, core=9):-42 262 -353 1365 1310 
clause level 1 (Kante=3, Kdesc=1553, core=11):-1220 1103 1107 1595 
clause level 6 (Kante=4, Kdesc=1467, core=11):-1384 1696 1305 1391 
clause level 1 (Kante=3, Kdesc=1029, core=1):-1269 1255 1385 1691 
clause level 3 (Kante=3, Kdesc=1226, core=0):694 -733 670 678 -719 774 738 
clause level 399 (Kante=464, Kdesc=5, core=9):-438 -18 262 -353 
clause level 49 (Kante=638, Kdesc=227, core=4):-510 578 440 514 -446 -539 -638 -640 834 -639 -699 -581 -798 541 -637 922 -522 1506 588 
clause level 369 (Kante=708, Kdesc=1, core=9):-44 -864 -268 261 -863 
clause level 1 (Kante=3, Kdesc=1135, core=11):-1688 1662 1271 1273 
clause level 1 (Kante=3, Kdesc=1250, core=2):-1372 1290 1392 1420 
clause level 1 (Kante=3, Kdesc=1066, core=2):-1207 1114 1116 1117 
clause level 62 (Kante=449, Kdesc=12, core=4):21 790 354 264 -270 -383 444 -437 385 1332 1692 791 -789 904 1296 
clause level 271 (Kante=739, Kdesc=1, core=2):790 -434 -234 -44 -865 -433 -436 -236 -233 
Found 2769 good successive clauses in order (2431 originals, maxlevel=400)
c KCorePR 728594 341 2769 2431 400
c DistanceTo...Unseen 3355
c DistanceToGoodKCore c   DIST 0: 2769 (+2769) / 2769 (+2769)
c   DIST 1: 712088 (+709319) / 572341 (+569572)
c   DIST 2: 725192 (+13104) / 583515 (+11174)
c   DIST 3: 725236 (+44) / 583541 (+26)
c   DIST 4: 725239 (+3) / 583542 (+1)
c TotalDistance=728594
No graph is dumped
c result of core 5 is UNSAT
c One thread has finished
c Core 5 said it finished
c result of core 2 is UNKNOWN
c result of core 7 is UNKNOWN
c result of core 0 is UNKNOWN
c result of core 11 is UNKNOWN
c result of core 1 is UNKNOWN
c result of core 4 is UNKNOWN
c result of core 3 is UNKNOWN
c result of core 10 is UNKNOWN
c result of core 6 is UNKNOWN
c result of core 8 is UNKNOWN
c result of core 9 is UNKNOWN
c restarts              : 44 (1360 conflicts in avg)
c blocked restarts      : 106 (multiple: 8) 
c last block at restart : 44
c nb ReduceDB           : 5
c nb removed Clauses    : 36144
c nb learnts DL2        : 126
c nb learnts size 2     : 18
c nb learnts size 1     : 1
c conflicts             : 59877          (27 /sec)
c decisions             : 72084          (0.00 % random) (32 /sec)
c propagations          : 12852839       (5708 /sec)
c conflict literals     : 2719868        (7.66 % deleted)
c nb reduced Clauses    : 379
c CPU time              : 2251.56 s

s INDETERMINATE
