c
c This is glucose-proof 1.0 based on  2.1 --  (thanks to MiniSAT)
c
c EXPERIMENTAL EASY PARALLEL (ROUND ROBIN) VERSION
c
c WARNING: for repeatability, setting FPU to use double precision
c Parallel version 16 solvers created.
c ========================================[ Problem Statistics ]===========================================
c |                                                                                                       |
c |  Number of variables:          1122                                                                   |
c |  Number of clauses:            4555                                                                   |
c |  Parse time:                   0.02 s                                                                 |
c |                                                                                                       |
c ========================================[ MAGIC CONSTANTS ]==============================================
c | Constants are supposed to work well together :-)                                                      |
c | however, if you find better choices, please let us known...                                           |
c |-------------------------------------------------------------------------------------------------------|
c |                                |                                |                                     |
c | - Restarts:                    | - Reduce Clause DB:            | - Minimize Asserting:               |
c |   * LBD Queue    :     50      |   * First     :   4000         |    * size <  30                     |
c |   * Trail  Queue :   5000      |   * Inc       :    300         |    * lbd  <   6                     |
c |   * K            :   0.80      |   * Special   :   1000         |                                     |
c |   * R            :   1.40      |   * Protected :  (lbd)< 30     |                                     |
c |                                |                                |                                     |
c ==================================[ Search Statistics (every  10000 conflicts) ]=========================
c |                                                                                                       |
c |          RESTARTS           |          ORIGINAL         |              LEARNT              | Progress |
c |       NB   Blocked  Avg Cfc |    Vars  Clauses Literals |   Red   Learnts    LBD2  Removed |          |
c =========================================================================================================
c |        4         0     2500 |    1020     4555    12887 |     1     7998       18     2246 |  9.091 % |
c |        4       187     5000 |    1013     4555    12887 |     3     6893       21    13593 |  9.715 % |
c empty clause found by core 3 at conflict 21312
*
c checking the resolution graph...OK
c All useful bySize 332718 clauses, percentiles 0 3 8 12 29 107 136 157 169 191 264 268 (0,1,5,10,25,50,75,90,95,99,100-1,100)
c All useless bySize 13360 clauses, percentiles 0 0 3 10 24 109 147 170 182 202 232 234 (0,1,5,10,25,50,75,90,95,99,100-1,100)
c ProofOnly useful bySize 328561 clauses, percentiles 0 6 9 13 31 108 136 157 169 191 264 268 (0,1,5,10,25,50,75,90,95,99,100-1,100)
c ProofOnly useless bySize 12419 clauses, percentiles 2 7 12 16 32 115 149 171 183 202 232 234 (0,1,5,10,25,50,75,90,95,99,100-1,100)
c All useful byFinalLBD 332718 clauses, percentiles 0 2 3 5 7 9 11 12 13 15 21 21 (0,1,5,10,25,50,75,90,95,99,100-1,100)
c All useless byFinalLBD 13360 clauses, percentiles 0 0 2 4 7 9 12 15 16 17 20 20 (0,1,5,10,25,50,75,90,95,99,100-1,100)
c ProofOnly useful byFinalLBD 328561 clauses, percentiles 0 2 3 5 7 9 11 13 13 15 21 21 (0,1,5,10,25,50,75,90,95,99,100-1,100)
c ProofOnly useless byFinalLBD 12419 clauses, percentiles 1 3 5 5 7 10 13 15 16 17 20 20 (0,1,5,10,25,50,75,90,95,99,100-1,100)
c All useful byInitialLBD 332718 clauses, percentiles 0 3 5 6 8 9 11 13 13 15 21 21 (0,1,5,10,25,50,75,90,95,99,100-1,100)
c All useless byInitialLBD 13360 clauses, percentiles 0 0 3 4 7 9 12 15 16 17 20 21 (0,1,5,10,25,50,75,90,95,99,100-1,100)
c ProofOnly useful byInitialLBD 328561 clauses, percentiles 0 4 5 6 8 9 11 13 13 15 21 21 (0,1,5,10,25,50,75,90,95,99,100-1,100)
c ProofOnly useless byInitialLBD 12419 clauses, percentiles 2 3 5 6 8 10 13 15 16 17 20 21 (0,1,5,10,25,50,75,90,95,99,100-1,100)
c Literals ProofOnly useful 30887630
c Literals ProofOnly useless 1254643
c additional windowsGood 1 1 1 2 6 15 15 31 136 780 2021 3228 (0,1,5,10,25,50,75,90,95,99,100-1,100)
c additional windowsBad 1 1 1 1 1 1 1 3 4 7 14 14 (0,1,5,10,25,50,75,90,95,99,100-1,100)
c additional 1WindowNoDecision 616 328 0.53 6745 3471 0.51 (nbWindowsGood,nbWindowsNoDecisionGood,nbWindowsBad,nbWindowsNoDecisionBad
c additional topclausessize all (10%,5%,1%,top) 172.50 182.36 201.17 268
c additional topclausessize proofonly (10%,5%,1%,top) 172.60 182.44 201.24 268
c additional topclausesinitialLBD all (10%,5%,1%,top) 166.03 176.82 196.86 268
c additional topclausesinitialLBD proofonly (10%,5%,1%,top) 160.96 172.60 193.65 268
c additional topclausesfinalLBD all (10%,5%,1%,top) 156.56 169.07 191.06 268
c additional topclausesfinalLBD proofonly (10%,5%,1%,top) 152.66 166.06 188.91 268
c additional predictionInitialLBD 1 43 328561 1.00 0.00 0.00 340937 12419 0.04 0.04 0.04 0.04 (nbgoodclauses,nbtotalgood,precisionGood,recallGood,FGood,nbbadclause,nbtotalbad,precisionBad,recallBad,FBad,accuracy)
c additional predictionInitialLBD 2 499 328561 0.92 0.00 0.00 340481 12419 0.04 0.04 0.04 0.04 (nbgoodclauses,nbtotalgood,precisionGood,recallGood,FGood,nbbadclause,nbtotalbad,precisionBad,recallBad,FBad,accuracy)
c additional predictionInitialLBD 3 3072 328561 0.96 0.01 0.02 337908 12419 0.04 0.04 0.04 0.04 (nbgoodclauses,nbtotalgood,precisionGood,recallGood,FGood,nbbadclause,nbtotalbad,precisionBad,recallBad,FBad,accuracy)
c additional predictionInitialLBD 4 9967 328561 0.96 0.03 0.06 331013 12419 0.04 0.04 0.04 0.06 (nbgoodclauses,nbtotalgood,precisionGood,recallGood,FGood,nbbadclause,nbtotalbad,precisionBad,recallBad,FBad,accuracy)
c additional predictionInitialLBD 5 23425 328561 0.96 0.07 0.13 317555 12419 0.04 0.03 0.04 0.10 (nbgoodclauses,nbtotalgood,precisionGood,recallGood,FGood,nbbadclause,nbtotalbad,precisionBad,recallBad,FBad,accuracy)
c additional predictionInitialLBD 6 44855 328561 0.96 0.13 0.23 296125 12419 0.04 0.03 0.03 0.16 (nbgoodclauses,nbtotalgood,precisionGood,recallGood,FGood,nbbadclause,nbtotalbad,precisionBad,recallBad,FBad,accuracy)
c additional predictionInitialLBD 7 77139 328561 0.96 0.23 0.37 263841 12419 0.04 0.03 0.03 0.24 (nbgoodclauses,nbtotalgood,precisionGood,recallGood,FGood,nbbadclause,nbtotalbad,precisionBad,recallBad,FBad,accuracy)
c additional predictionInitialLBD 8 120548 328561 0.96 0.35 0.52 220432 12419 0.04 0.02 0.03 0.36 (nbgoodclauses,nbtotalgood,precisionGood,recallGood,FGood,nbbadclause,nbtotalbad,precisionBad,recallBad,FBad,accuracy)
c additional predictionInitialLBD 10 225282 328561 0.97 0.66 0.79 115698 12419 0.05 0.02 0.02 0.66 (nbgoodclauses,nbtotalgood,precisionGood,recallGood,FGood,nbbadclause,nbtotalbad,precisionBad,recallBad,FBad,accuracy)
c additional predictionInitialLBD 14 333071 328561 0.97 0.98 0.97 7909 12419 0.19 0.00 0.01 0.95 (nbgoodclauses,nbtotalgood,precisionGood,recallGood,FGood,nbbadclause,nbtotalbad,precisionBad,recallBad,FBad,accuracy)
c additional predictionInitialLBD 18 340891 328561 0.96 1.00 0.98 89 12419 0.40 0.00 0.00 0.96 (nbgoodclauses,nbtotalgood,precisionGood,recallGood,FGood,nbbadclause,nbtotalbad,precisionBad,recallBad,FBad,accuracy)
c additional predictionInitialLBD 22 340980 328561 0.96 1.00 0.98 0 12419 -nan 0.00 -nan 0.96 (nbgoodclauses,nbtotalgood,precisionGood,recallGood,FGood,nbbadclause,nbtotalbad,precisionBad,recallBad,FBad,accuracy)
c additional predictionInitialLBD 30 340980 328561 0.96 1.00 0.98 0 12419 -nan 0.00 -nan 0.96 (nbgoodclauses,nbtotalgood,precisionGood,recallGood,FGood,nbbadclause,nbtotalbad,precisionBad,recallBad,FBad,accuracy)
c additional predictionInitialLBD 40 340980 328561 0.96 1.00 0.98 0 12419 -nan 0.00 -nan 0.96 (nbgoodclauses,nbtotalgood,precisionGood,recallGood,FGood,nbbadclause,nbtotalbad,precisionBad,recallBad,FBad,accuracy)
c additional predictionFinallLBD 1 2834 328561 1.00 0.01 0.02 338146 12419 0.04 1.00 0.07 0.04 (nbgoodclauses,nbtotalgood,precisionGood,recallGood,FGood,nbbadclause,nbtotalbad,precisionBad,recallBad,FBad,accuracy)
c additional predictionFinallLBD 2 10217 328561 0.99 0.03 0.06 330763 12419 0.04 0.99 0.07 0.07 (nbgoodclauses,nbtotalgood,precisionGood,recallGood,FGood,nbbadclause,nbtotalbad,precisionBad,recallBad,FBad,accuracy)
c additional predictionFinallLBD 3 19116 328561 0.99 0.06 0.11 321864 12419 0.04 0.98 0.07 0.09 (nbgoodclauses,nbtotalgood,precisionGood,recallGood,FGood,nbbadclause,nbtotalbad,precisionBad,recallBad,FBad,accuracy)
c additional predictionFinallLBD 4 29610 328561 0.98 0.09 0.16 311370 12419 0.04 0.95 0.07 0.12 (nbgoodclauses,nbtotalgood,precisionGood,recallGood,FGood,nbbadclause,nbtotalbad,precisionBad,recallBad,FBad,accuracy)
c additional predictionFinallLBD 5 43196 328561 0.97 0.13 0.23 297784 12419 0.04 0.90 0.07 0.16 (nbgoodclauses,nbtotalgood,precisionGood,recallGood,FGood,nbbadclause,nbtotalbad,precisionBad,recallBad,FBad,accuracy)
c additional predictionFinallLBD 6 62572 328561 0.97 0.18 0.31 278408 12419 0.04 0.83 0.07 0.21 (nbgoodclauses,nbtotalgood,precisionGood,recallGood,FGood,nbbadclause,nbtotalbad,precisionBad,recallBad,FBad,accuracy)
c additional predictionFinallLBD 7 91647 328561 0.96 0.27 0.42 249333 12419 0.04 0.74 0.07 0.29 (nbgoodclauses,nbtotalgood,precisionGood,recallGood,FGood,nbbadclause,nbtotalbad,precisionBad,recallBad,FBad,accuracy)
c additional predictionFinallLBD 8 131557 328561 0.97 0.39 0.55 209423 12419 0.04 0.63 0.07 0.40 (nbgoodclauses,nbtotalgood,precisionGood,recallGood,FGood,nbbadclause,nbtotalbad,precisionBad,recallBad,FBad,accuracy)
c additional predictionFinallLBD 10 230631 328561 0.97 0.68 0.80 110349 12419 0.05 0.42 0.09 0.67 (nbgoodclauses,nbtotalgood,precisionGood,recallGood,FGood,nbbadclause,nbtotalbad,precisionBad,recallBad,FBad,accuracy)
c additional predictionFinallLBD 14 333704 328561 0.97 0.98 0.97 7276 12419 0.20 0.12 0.15 0.95 (nbgoodclauses,nbtotalgood,precisionGood,recallGood,FGood,nbbadclause,nbtotalbad,precisionBad,recallBad,FBad,accuracy)
c additional predictionFinallLBD 18 340912 328561 0.96 1.00 0.98 68 12419 0.46 0.00 0.00 0.96 (nbgoodclauses,nbtotalgood,precisionGood,recallGood,FGood,nbbadclause,nbtotalbad,precisionBad,recallBad,FBad,accuracy)
c additional predictionFinallLBD 22 340980 328561 0.96 1.00 0.98 0 12419 -nan 0.00 -nan 0.96 (nbgoodclauses,nbtotalgood,precisionGood,recallGood,FGood,nbbadclause,nbtotalbad,precisionBad,recallBad,FBad,accuracy)
c additional predictionFinallLBD 30 340980 328561 0.96 1.00 0.98 0 12419 -nan 0.00 -nan 0.96 (nbgoodclauses,nbtotalgood,precisionGood,recallGood,FGood,nbbadclause,nbtotalbad,precisionBad,recallBad,FBad,accuracy)
c additional predictionFinallLBD 40 340980 328561 0.96 1.00 0.98 0 12419 -nan 0.00 -nan 0.96 (nbgoodclauses,nbtotalgood,precisionGood,recallGood,FGood,nbbadclause,nbtotalbad,precisionBad,recallBad,FBad,accuracy)
c additional predictionSize 1 43 328561 1.00 0.00 0.00 340937 12419 0.04 0.04 0.04 0.04 (nbgoodclauses,nbtotalgood,precisionGood,recallGood,FGood,nbbadclause,nbtotalbad,precisionBad,recallBad,FBad,accuracy)
c additional predictionSize 2 133 328561 0.85 0.00 0.00 340847 12419 0.04 0.04 0.04 0.04 (nbgoodclauses,nbtotalgood,precisionGood,recallGood,FGood,nbbadclause,nbtotalbad,precisionBad,recallBad,FBad,accuracy)
c additional predictionSize 3 410 328561 0.94 0.00 0.00 340570 12419 0.04 0.04 0.04 0.04 (nbgoodclauses,nbtotalgood,precisionGood,recallGood,FGood,nbbadclause,nbtotalbad,precisionBad,recallBad,FBad,accuracy)
c additional predictionSize 4 1394 328561 0.97 0.00 0.01 339586 12419 0.04 0.04 0.04 0.04 (nbgoodclauses,nbtotalgood,precisionGood,recallGood,FGood,nbbadclause,nbtotalbad,precisionBad,recallBad,FBad,accuracy)
c additional predictionSize 5 3149 328561 0.98 0.01 0.02 337831 12419 0.04 0.04 0.04 0.05 (nbgoodclauses,nbtotalgood,precisionGood,recallGood,FGood,nbbadclause,nbtotalbad,precisionBad,recallBad,FBad,accuracy)
c additional predictionSize 6 5958 328561 0.98 0.02 0.03 335022 12419 0.04 0.04 0.04 0.05 (nbgoodclauses,nbtotalgood,precisionGood,recallGood,FGood,nbbadclause,nbtotalbad,precisionBad,recallBad,FBad,accuracy)
c additional predictionSize 7 9491 328561 0.98 0.03 0.06 331489 12419 0.04 0.04 0.04 0.06 (nbgoodclauses,nbtotalgood,precisionGood,recallGood,FGood,nbbadclause,nbtotalbad,precisionBad,recallBad,FBad,accuracy)
c additional predictionSize 8 13340 328561 0.98 0.04 0.08 327640 12419 0.04 0.04 0.04 0.07 (nbgoodclauses,nbtotalgood,precisionGood,recallGood,FGood,nbbadclause,nbtotalbad,precisionBad,recallBad,FBad,accuracy)
c additional predictionSize 10 21423 328561 0.98 0.06 0.12 319557 12419 0.04 0.04 0.04 0.10 (nbgoodclauses,nbtotalgood,precisionGood,recallGood,FGood,nbbadclause,nbtotalbad,precisionBad,recallBad,FBad,accuracy)
c additional predictionSize 14 38128 328561 0.97 0.11 0.20 302852 12419 0.04 0.03 0.04 0.14 (nbgoodclauses,nbtotalgood,precisionGood,recallGood,FGood,nbbadclause,nbtotalbad,precisionBad,recallBad,FBad,accuracy)
c additional predictionSize 18 53705 328561 0.97 0.16 0.27 287275 12419 0.04 0.03 0.04 0.18 (nbgoodclauses,nbtotalgood,precisionGood,recallGood,FGood,nbbadclause,nbtotalbad,precisionBad,recallBad,FBad,accuracy)
c additional predictionSize 22 67079 328561 0.97 0.20 0.33 273901 12419 0.04 0.03 0.03 0.22 (nbgoodclauses,nbtotalgood,precisionGood,recallGood,FGood,nbbadclause,nbtotalbad,precisionBad,recallBad,FBad,accuracy)
c additional predictionSize 30 85075 328561 0.96 0.25 0.40 255905 12419 0.04 0.03 0.03 0.27 (nbgoodclauses,nbtotalgood,precisionGood,recallGood,FGood,nbbadclause,nbtotalbad,precisionBad,recallBad,FBad,accuracy)
c additional predictionSize 40 93929 328561 0.96 0.28 0.43 247051 12419 0.04 0.03 0.03 0.29 (nbgoodclauses,nbtotalgood,precisionGood,recallGood,FGood,nbbadclause,nbtotalbad,precisionBad,recallBad,FBad,accuracy)
c additional predictionAge 1 5148 328561 0.98 0.02 0.03 335832 12419 0.04 0.04 0.04 0.05 (nbgoodclauses,nbtotalgood,precisionGood,recallGood,FGood,nbbadclause,nbtotalbad,precisionBad,recallBad,FBad,accuracy)
c additional predictionAge 10 5176 328561 0.98 0.02 0.03 335804 12419 0.04 0.04 0.04 0.05 (nbgoodclauses,nbtotalgood,precisionGood,recallGood,FGood,nbbadclause,nbtotalbad,precisionBad,recallBad,FBad,accuracy)
c additional predictionAge 25 6004 328561 0.98 0.02 0.04 334976 12419 0.04 0.04 0.04 0.05 (nbgoodclauses,nbtotalgood,precisionGood,recallGood,FGood,nbbadclause,nbtotalbad,precisionBad,recallBad,FBad,accuracy)
c additional predictionAge 50 7096 328561 0.98 0.02 0.04 333884 12419 0.04 0.04 0.04 0.06 (nbgoodclauses,nbtotalgood,precisionGood,recallGood,FGood,nbbadclause,nbtotalbad,precisionBad,recallBad,FBad,accuracy)
c additional predictionAge 100 7513 328561 0.97 0.02 0.04 333467 12419 0.04 0.04 0.04 0.06 (nbgoodclauses,nbtotalgood,precisionGood,recallGood,FGood,nbbadclause,nbtotalbad,precisionBad,recallBad,FBad,accuracy)
c additional predictionAge 250 8107 328561 0.97 0.02 0.05 332873 12419 0.04 0.04 0.04 0.06 (nbgoodclauses,nbtotalgood,precisionGood,recallGood,FGood,nbbadclause,nbtotalbad,precisionBad,recallBad,FBad,accuracy)
c additional predictionAge 500 8689 328561 0.97 0.03 0.05 332291 12419 0.04 0.04 0.04 0.06 (nbgoodclauses,nbtotalgood,precisionGood,recallGood,FGood,nbbadclause,nbtotalbad,precisionBad,recallBad,FBad,accuracy)
c additional predictionAge 1000 9677 328561 0.97 0.03 0.06 331303 12419 0.04 0.04 0.04 0.06 (nbgoodclauses,nbtotalgood,precisionGood,recallGood,FGood,nbbadclause,nbtotalbad,precisionBad,recallBad,FBad,accuracy)
c additional predictionAge 2500 12022 328561 0.97 0.04 0.07 328958 12419 0.04 0.04 0.04 0.07 (nbgoodclauses,nbtotalgood,precisionGood,recallGood,FGood,nbbadclause,nbtotalbad,precisionBad,recallBad,FBad,accuracy)
c additional predictionAge 5000 15307 328561 0.98 0.05 0.09 325673 12419 0.04 0.04 0.04 0.08 (nbgoodclauses,nbtotalgood,precisionGood,recallGood,FGood,nbbadclause,nbtotalbad,precisionBad,recallBad,FBad,accuracy)
c additional predictionAge 10000 21444 328561 0.98 0.06 0.12 319536 12419 0.04 0.04 0.04 0.10 (nbgoodclauses,nbtotalgood,precisionGood,recallGood,FGood,nbbadclause,nbtotalbad,precisionBad,recallBad,FBad,accuracy)
c additional predictionAge 25000 38350 328561 0.97 0.11 0.20 302630 12419 0.04 0.03 0.04 0.14 (nbgoodclauses,nbtotalgood,precisionGood,recallGood,FGood,nbbadclause,nbtotalbad,precisionBad,recallBad,FBad,accuracy)
c additional predictionAge 50000 65866 328561 0.98 0.20 0.33 275114 12419 0.04 0.03 0.04 0.22 (nbgoodclauses,nbtotalgood,precisionGood,recallGood,FGood,nbbadclause,nbtotalbad,precisionBad,recallBad,FBad,accuracy)
c additional predictionAge 100000 119178 328561 0.98 0.35 0.52 221802 12419 0.04 0.03 0.04 0.37 (nbgoodclauses,nbtotalgood,precisionGood,recallGood,FGood,nbbadclause,nbtotalbad,precisionBad,recallBad,FBad,accuracy)
c additional predictionTicks 1 5369 328561 0.98 0.02 0.03 335611 12419 0.04 0.04 0.04 0.05 (nbgoodclauses,nbtotalgood,precisionGood,recallGood,FGood,nbbadclause,nbtotalbad,precisionBad,recallBad,FBad,accuracy)
c additional predictionTicks 10 6630 328561 0.98 0.02 0.04 334350 12419 0.04 0.04 0.04 0.06 (nbgoodclauses,nbtotalgood,precisionGood,recallGood,FGood,nbbadclause,nbtotalbad,precisionBad,recallBad,FBad,accuracy)
c additional predictionTicks 25 14982 328561 0.98 0.04 0.09 325998 12419 0.04 0.04 0.04 0.08 (nbgoodclauses,nbtotalgood,precisionGood,recallGood,FGood,nbbadclause,nbtotalbad,precisionBad,recallBad,FBad,accuracy)
c additional predictionTicks 50 26941 328561 0.97 0.08 0.15 314039 12419 0.04 0.04 0.04 0.11 (nbgoodclauses,nbtotalgood,precisionGood,recallGood,FGood,nbbadclause,nbtotalbad,precisionBad,recallBad,FBad,accuracy)
c additional predictionTicks 100 43873 328561 0.97 0.13 0.23 297107 12419 0.04 0.03 0.04 0.16 (nbgoodclauses,nbtotalgood,precisionGood,recallGood,FGood,nbbadclause,nbtotalbad,precisionBad,recallBad,FBad,accuracy)
c additional predictionTicks 250 78666 328561 0.97 0.23 0.37 262314 12419 0.04 0.03 0.03 0.25 (nbgoodclauses,nbtotalgood,precisionGood,recallGood,FGood,nbbadclause,nbtotalbad,precisionBad,recallBad,FBad,accuracy)
c additional predictionTicks 500 114864 328561 0.97 0.34 0.50 226116 12419 0.04 0.03 0.03 0.35 (nbgoodclauses,nbtotalgood,precisionGood,recallGood,FGood,nbbadclause,nbtotalbad,precisionBad,recallBad,FBad,accuracy)
c additional predictionTicks 1000 154256 328561 0.97 0.45 0.62 186724 12419 0.04 0.02 0.03 0.46 (nbgoodclauses,nbtotalgood,precisionGood,recallGood,FGood,nbbadclause,nbtotalbad,precisionBad,recallBad,FBad,accuracy)
c additional predictionTicks 2500 207740 328561 0.97 0.61 0.75 133240 12419 0.04 0.02 0.03 0.61 (nbgoodclauses,nbtotalgood,precisionGood,recallGood,FGood,nbbadclause,nbtotalbad,precisionBad,recallBad,FBad,accuracy)
c additional predictionTicks 5000 244229 328561 0.97 0.72 0.83 96751 12419 0.05 0.01 0.02 0.71 (nbgoodclauses,nbtotalgood,precisionGood,recallGood,FGood,nbbadclause,nbtotalbad,precisionBad,recallBad,FBad,accuracy)
c additional predictionTicks 10000 275141 328561 0.97 0.81 0.88 65839 12419 0.06 0.01 0.02 0.79 (nbgoodclauses,nbtotalgood,precisionGood,recallGood,FGood,nbbadclause,nbtotalbad,precisionBad,recallBad,FBad,accuracy)
c additional predictionTicks 25000 306103 328561 0.97 0.90 0.93 34877 12419 0.07 0.01 0.01 0.87 (nbgoodclauses,nbtotalgood,precisionGood,recallGood,FGood,nbbadclause,nbtotalbad,precisionBad,recallBad,FBad,accuracy)
c additional predictionTicks 50000 323198 328561 0.97 0.95 0.96 17782 12419 0.08 0.00 0.01 0.92 (nbgoodclauses,nbtotalgood,precisionGood,recallGood,FGood,nbbadclause,nbtotalbad,precisionBad,recallBad,FBad,accuracy)
c additional predictionTicks 100000 334267 328561 0.96 0.98 0.97 6713 12419 0.09 0.00 0.00 0.95 (nbgoodclauses,nbtotalgood,precisionGood,recallGood,FGood,nbbadclause,nbtotalbad,precisionBad,recallBad,FBad,accuracy)
c additional lifetimeGood 1 16 1584 10566 44896 117154 208970 278306 304608 328925 341511 341513 (0,1,5,10,25,50,75,90,95,99,100-1,100)
c additional lifetimeBad 1 16 829 12442 67188 203854 328260 337368 339203 340591 341471 341472 (0,1,5,10,25,50,75,90,95,99,100-1,100)
c additional lifetimeBadBad 1 16 16 16 16 32 128 1536 5536 16432 261807 298750 (0,1,5,10,25,50,75,90,95,99,100-1,100)
c additional compositionBad 1 3 7 11 28 619 826 902 935 981 1042 1057 (0,1,5,10,25,50,75,90,95,99,100-1,100)
c additional compositionBadWithGood 0 0 2 3 6 28 42 53 59 70 85 92 (0,1,5,10,25,50,75,90,95,99,100-1,100)
c additional compositionBadWithBad 0 0 0 0 0 1 2 3 4 6 12 13 (0,1,5,10,25,50,75,90,95,99,100-1,100)
c additional compositionBadWithInitial 0 1 3 6 21 592 782 849 878 920 977 987 (0,1,5,10,25,50,75,90,95,99,100-1,100)
c additional compositionGood 1 3 6 9 27 724 859 924 952 995 1069 1072 (0,1,5,10,25,50,75,90,95,99,100-1,100)
c additional compositionGoodWithGood 0 0 1 2 6 31 45 55 61 71 96 101 (0,1,5,10,25,50,75,90,95,99,100-1,100)
c additional compositionGoodWithInitial 0 1 3 6 21 691 814 871 896 935 1019 1020 (0,1,5,10,25,50,75,90,95,99,100-1,100)
c additional propagationGood total 6379168 percentiles 0 1 1 1 1 1 1 6 24 211 20714 28120 (0,1,5,10,25,50,75,90,95,99,100-1,100)
c additional propagationBad total 16875 percentiles 1 1 1 1 1 1 1 2 3 8 98 151 (0,1,5,10,25,50,75,90,95,99,100-1,100)
c additional resolutionGood total 4482002 percentiles 0 1 1 1 1 1 1 5 18 149 13798 19313 (0,1,5,10,25,50,75,90,95,99,100-1,100)
c additional resolutionBad total 14142 percentiles 0 0 0 0 1 1 1 1 2 6 73 97 (0,1,5,10,25,50,75,90,95,99,100-1,100)
Computing K-Core for 346078 clauses...
c building structure for KCore computation.
c the graph has 164412965 edges, maxdegree=1072
c we start the KCore with the value 20
c Non directed graph built
K=20,47344 nodes removed so far
K=21,50762 nodes removed so far
K=22,53907 nodes removed so far
K=23,56938 nodes removed so far
K=24,59809 nodes removed so far
K=25,62624 nodes removed so far
K=26,K=27,K=28,70036 nodes removed so far
K=29,K=30,K=31,K=32,K=33,80086 nodes removed so far
K=34,K=35,K=36,K=37,K=38,K=39,K=40,90931 nodes removed so far
K=41,K=42,K=43,K=44,K=45,K=46,K=47,K=48,100061 nodes removed so far
K=49,K=50,K=51,K=52,K=53,K=54,K=55,K=56,K=57,K=58,K=59,K=60,110127 nodes removed so far
K=61,K=62,K=63,K=64,K=65,K=66,K=67,K=68,K=69,K=70,K=71,K=72,K=73,K=74,K=75,K=76,K=77,120191 nodes removed so far
K=78,K=79,K=80,K=81,K=82,K=83,K=84,K=85,K=86,K=87,K=88,K=89,K=90,K=91,K=92,K=93,K=94,K=95,K=96,K=97,K=98,K=99,K=100,K=101,K=102,K=103,130252 nodes removed so far
K=104,K=105,K=106,K=107,K=108,K=109,K=110,K=111,K=112,K=113,K=114,K=115,K=116,K=117,K=118,K=119,K=120,K=121,K=122,K=123,K=124,K=125,K=126,K=127,K=128,K=129,K=130,K=131,K=132,K=133,K=134,K=135,K=136,K=137,K=138,K=139,K=140,K=141,K=142,K=143,K=144,140137 nodes removed so far
K=145,K=146,K=147,K=148,K=149,K=150,K=151,K=152,K=153,K=154,K=155,K=156,K=157,K=158,K=159,K=160,K=161,K=162,K=163,K=164,K=165,K=166,K=167,K=168,K=169,K=170,K=171,K=172,K=173,K=174,K=175,K=176,K=177,K=178,K=179,K=180,K=181,K=182,K=183,K=184,K=185,K=186,K=187,K=188,K=189,K=190,K=191,K=192,K=193,K=194,K=195,K=196,K=197,K=198,K=199,K=200,K=201,K=202,K=203,K=204,K=205,K=206,K=207,K=208,K=209,K=210,K=211,K=212,K=213,K=214,K=215,K=216,K=217,K=218,K=219,K=220,K=221,K=222,K=223,K=224,K=225,K=226,K=227,K=228,K=229,K=230,K=231,150010 nodes removed so far
K=232,K=233,K=234,K=235,K=236,K=237,K=238,K=239,K=240,K=241,K=242,K=243,K=244,K=245,K=246,K=247,K=248,K=249,K=250,K=251,K=252,K=253,K=254,K=255,K=256,K=257,K=258,K=259,K=260,K=261,K=262,K=263,K=264,K=265,K=266,K=267,K=268,K=269,K=270,K=271,K=272,K=273,K=274,K=275,K=276,K=277,K=278,K=279,K=280,K=281,K=282,K=283,K=284,K=285,K=286,K=287,K=288,K=289,K=290,K=291,K=292,K=293,K=294,K=295,K=296,K=297,K=298,K=299,K=300,K=301,K=302,K=303,K=304,K=305,K=306,K=307,K=308,K=309,K=310,K=311,K=312,K=313,K=314,K=315,K=316,K=317,K=318,K=319,K=320,K=321,K=322,K=323,K=324,K=325,K=326,K=327,K=328,K=329,K=330,K=331,K=332,K=333,K=334,K=335,K=336,K=337,K=338,K=339,K=340,K=341,K=342,K=343,K=344,K=345,K=346,K=347,K=348,K=349,K=350,K=351,K=352,K=353,K=354,K=355,K=356,K=357,K=358,K=359,K=360,K=361,K=362,K=363,K=364,K=365,K=366,K=367,K=368,K=369,K=370,K=371,K=372,K=373,K=374,K=375,K=376,K=377,K=378,K=379,K=380,K=381,K=382,K=383,K=384,K=385,K=386,K=387,K=388,K=389,K=390,K=391,K=392,K=393,K=394,K=395,K=396,K=397,K=398,K=399,K=400,K=401,K=402,K=403,K=404,K=405,K=406,K=407,K=408,K=409,K=410,K=411,K=412,K=413,K=414,K=415,K=416,K=417,K=418,K=419,K=420,K=421,K=422,K=423,K=424,K=425,K=426,K=427,K=428,K=429,K=430,K=431,K=432,K=433,K=434,K=435,K=436,K=437,K=438,K=439,K=440,K=441,K=442,K=443,K=444,K=445,K=446,K=447,K=448,K=449,K=450,K=451,K=452,K=453,K=454,K=455,K=456,K=457,K=458,K=459,K=460,K=461,K=462,K=463,K=464,K=465,K=466,K=467,K=468,K=469,K=470,K=471,K=472,K=473,K=474,K=475,K=476,K=477,K=478,K=479,K=480,K=481,K=482,K=483,K=484,K=485,K=486,K=487,K=488,K=489,K=490,K=491,K=492,K=493,K=494,K=495,K=496,K=497,K=498,K=499,K=500,K=501,K=502,K=503,K=504,K=505,K=506,K=507,K=508,K=509,K=510,K=511,K=512,K=513,K=514,K=515,K=516,K=517,K=518,K=519,K=520,K=521,K=522,K=523,K=524,K=525,K=526,K=527,K=528,K=529,K=530,K=531,K=532,K=533,K=534,K=535,K=536,K=537,K=538,K=539,K=540,K=541,K=542,K=543,K=544,K=545,K=546,K=547,K=548,K=549,K=550,K=551,K=552,K=553,K=554,K=555,K=556,K=557,K=558,K=559,K=560,K=561,K=562,K=563,K=564,K=565,K=566,K=567,K=568,K=569,K=570,K=571,K=572,K=573,K=574,K=575,K=576,K=577,K=578,K=579,K=580,K=581,K=582,K=583,K=584,K=585,K=586,K=587,K=588,K=589,K=590,K=591,K=592,K=593,K=594,K=595,K=596,K=597,K=598,K=599,K=600,K=601,K=602,K=603,K=604,K=605,K=606,K=607,K=608,K=609,K=610,K=611,K=612,K=613,K=614,K=615,K=616,K=617,K=618,K=619,K=620,K=621,K=622,K=623,K=624,K=625,K=626,K=627,K=628,K=629,K=630,K=631,K=632,K=633,K=634,K=635,K=636,K=637,K=638,K=639,K=640,K=641,K=642,K=643,K=644,K=645,K=646,K=647,K=648,K=649,K=650,K=651,K=652,K=653,K=654,K=655,K=656,K=657,K=658,K=659,K=660,K=661,K=662,K=663,K=664,K=665,K=666,K=667,K=668,K=669,K=670,K=671,K=672,K=673,K=674,K=675,K=676,K=677,K=678,K=679,K=680,K=681,K=682,K=683,K=684,K=685,K=686,K=687,K=688,160040 nodes removed so far
K=689,K=690,K=691,K=692,K=693,K=694,K=695,K=696,K=697,K=698,K=699,K=700,K=701,K=702,K=703,K=704,K=705,K=706,K=707,K=708,K=709,K=710,K=711,K=712,K=713,K=714,K=715,K=716,K=717,K=718,K=719,K=720,K=721,170311 nodes removed so far
K=722,K=723,K=724,K=725,K=726,K=727,K=728,K=729,K=730,K=731,K=732,K=733,K=734,K=735,K=736,K=737,K=738,K=739,K=740,K=741,K=742,180083 nodes removed so far
K=743,K=744,K=745,K=746,K=747,K=748,K=749,K=750,K=751,K=752,K=753,K=754,K=755,K=756,K=757,K=758,K=759,K=760,190310 nodes removed so far
K=761,K=762,K=763,K=764,K=765,K=766,K=767,K=768,K=769,K=770,K=771,K=772,K=773,K=774,K=775,K=776,200278 nodes removed so far
K=777,K=778,K=779,K=780,K=781,K=782,K=783,K=784,K=785,K=786,K=787,K=788,K=789,K=790,K=791,210173 nodes removed so far
K=792,K=793,K=794,K=795,K=796,K=797,K=798,K=799,K=800,K=801,K=802,K=803,K=804,K=805,220067 nodes removed so far
K=806,K=807,K=808,K=809,K=810,K=811,K=812,K=813,K=814,K=815,K=816,K=817,K=818,K=819,230455 nodes removed so far
K=820,K=821,K=822,K=823,K=824,K=825,K=826,K=827,K=828,K=829,K=830,K=831,240028 nodes removed so far
K=832,K=833,K=834,K=835,K=836,K=837,K=838,K=839,K=840,K=841,K=842,K=843,K=844,250719 nodes removed so far
K=845,K=846,K=847,K=848,K=849,K=850,K=851,K=852,K=853,K=854,K=855,260305 nodes removed so far
K=856,K=857,K=858,K=859,K=860,K=861,K=862,K=863,K=864,K=865,K=866,270212 nodes removed so far
K=867,K=868,K=869,K=870,K=871,K=872,K=873,K=874,K=875,K=876,K=877,280345 nodes removed so far
K=878,K=879,K=880,K=881,K=882,K=883,K=884,K=885,K=886,K=887,K=888,290625 nodes removed so far
K=889,K=890,K=891,K=892,K=893,K=894,K=895,K=896,K=897,K=898,300275 nodes removed so far
K=899,K=900,K=901,K=902,K=903,K=904,K=905,K=906,K=907,K=908,K=909,310677 nodes removed so far
K=910,K=911,K=912,K=913,K=914,K=915,K=916,K=917,K=918,K=919,320697 nodes removed so far
K=920,K=921,K=922,K=923,K=924,345154 nodes removed so far
KCore = 924
Building structure for PR...
Computing PR...
Pageranking 343836 nodes done in 14 iteration. cumulError=9.8262e-11
clause level 1 (Kante=7, Kdesc=203054, core=2):-898 
clause level 1 (Kante=3, Kdesc=202211, core=14):-892 
clause level 1 (Kante=4, Kdesc=22831, core=14):-883 
clause level 1 (Kante=13, Kdesc=203601, core=11):-906 
clause level 2 (Kante=7, Kdesc=199093, core=4):-917 
clause level 3 (Kante=16, Kdesc=202622, core=9):-925 
clause level 5 (Kante=13, Kdesc=90613, core=11):-909 
clause level 3 (Kante=3, Kdesc=202202, core=11):-916 
clause level 1 (Kante=5, Kdesc=7909, core=10):-7 -5 
clause level 6 (Kante=10, Kdesc=202994, core=5):-938 
clause level 6 (Kante=12, Kdesc=202976, core=14):-953 
clause level 2 (Kante=5, Kdesc=196595, core=4):-918 
clause level 2 (Kante=4, Kdesc=8300, core=10):-882 887 
clause level 134 (Kante=137, Kdesc=49473, core=3):-1021 
clause level 2 (Kante=8, Kdesc=199085, core=9):-926 
clause level 4 (Kante=11, Kdesc=199080, core=5):-954 
clause level 3 (Kante=10, Kdesc=196590, core=9):-940 
clause level 7 (Kante=22, Kdesc=148870, core=7):-1004 
clause level 3 (Kante=13, Kdesc=196585, core=5):-955 
clause level 3 (Kante=18, Kdesc=196585, core=7):-970 
clause level 7 (Kante=24, Kdesc=196580, core=7):-1006 
clause level 1 (Kante=3, Kdesc=14985, core=2):-923 911 
clause level 1 (Kante=4, Kdesc=15574, core=1):-1002 981 
clause level 7 (Kante=17, Kdesc=147665, core=7):-1005 
clause level 1 (Kante=3, Kdesc=10790, core=8):-914 -933 
clause level 1 (Kante=5, Kdesc=14916, core=11):-951 933 
clause level 1 (Kante=3, Kdesc=7381, core=12):-951 -981 
clause level 1 (Kante=4, Kdesc=10116, core=2):-896 887 
clause level 3 (Kante=8, Kdesc=186866, core=9):-957 
clause level 3 (Kante=18, Kdesc=186866, core=7):-972 
clause level 4 (Kante=22, Kdesc=186866, core=5):-989 
clause level 4 (Kante=17, Kdesc=186866, core=7):-971 
clause level 3 (Kante=11, Kdesc=186865, core=5):-991 
clause level 1 (Kante=5, Kdesc=9606, core=4):-914 902 
clause level 1 (Kante=8, Kdesc=140897, core=11):-928 
clause level 1 (Kante=5, Kdesc=9569, core=1):-923 -948 
clause level 1 (Kante=3, Kdesc=11946, core=7):-966 948 
clause level 1 (Kante=4, Kdesc=13243, core=10):-984 -1020 
clause level 2 (Kante=5, Kdesc=9957, core=4):-891 
clause level 2 (Kante=6, Kdesc=10170, core=0):-887 -64 -81 -902 
clause level 1 (Kante=5, Kdesc=7414, core=12):-950 951 -933 
clause level 1 (Kante=3, Kdesc=8882, core=14):-886 
clause level 1 (Kante=3, Kdesc=103949, core=10):-1033 994 
clause level 1 (Kante=22, Kdesc=93864, core=7):-1031 
clause level 2 (Kante=3, Kdesc=6176, core=13):948 981 -26 -28 
clause level 2 (Kante=6, Kdesc=8642, core=11):-1020 -12 -25 -981 
clause level 1 (Kante=6, Kdesc=58311, core=9):919 957 -961 
clause level 1 (Kante=4, Kdesc=8178, core=2):-1022 -1078 
clause level 1 (Kante=8, Kdesc=69371, core=5):-993 
clause level 1 (Kante=7, Kdesc=8088, core=11):-127 -88 -25 
clause level 1 (Kante=5, Kdesc=8636, core=4):-984 948 950 
clause level 1 (Kante=3, Kdesc=9245, core=13):-64 98 96 -34 
clause level 1 (Kante=3, Kdesc=58055, core=4):-919 
clause level 2 (Kante=6, Kdesc=7615, core=10):1020 1078 -1 -8 
clause level 1 (Kante=4, Kdesc=6541, core=10):-1021 1022 -981 984 
clause level 1 (Kante=4, Kdesc=6761, core=14):-1022 981 983 
clause level 7 (Kante=4, Kdesc=14034, core=9):902 924 932 -887 
clause level 1 (Kante=3, Kdesc=36301, core=2):-899 
clause level 2 (Kante=14, Kdesc=30140, core=2):-968 915 909 
clause level 7 (Kante=6, Kdesc=6812, core=5):910 -887 911 
clause level 52 (Kante=1060, Kdesc=5653, core=5):-1045 923 914 911 924 
clause level 1 (Kante=3, Kdesc=7887, core=5):-28 456 454 -48 
clause level 7 (Kante=10, Kdesc=23026, core=2):910 952 -963 
clause level 1 (Kante=5, Kdesc=6760, core=7):-64 99 -34 -81 
clause level 4 (Kante=4, Kdesc=14790, core=2):-915 896 895 
clause level 1 (Kante=4, Kdesc=7516, core=10):5 -37 7 
clause level 1 (Kante=3, Kdesc=6145, core=3):-26 -28 544 542 
clause level 1 (Kante=5, Kdesc=7820, core=9):-377 305 -28 
clause level 1 (Kante=5, Kdesc=7460, core=4):-56 186 -52 -81 
clause level 1 (Kante=5, Kdesc=4604, core=8):-16 38 -34 
clause level 1 (Kante=6, Kdesc=7977, core=3):-456 -25 -28 544 
clause level 2 (Kante=4, Kdesc=6362, core=0):-1 -12 1083 743 
clause level 1 (Kante=6, Kdesc=5572, core=14):-66 -34 -81 98 
clause level 1 (Kante=5, Kdesc=7264, core=1):-305 -48 241 
clause level 1 (Kante=3, Kdesc=5967, core=7):-34 66 63 -15 
clause level 227 (Kante=1048, Kdesc=1244, core=11):-81 
clause level 3 (Kante=3, Kdesc=7406, core=14):887 4 -910 904 
clause level 170 (Kante=1047, Kdesc=1200, core=11):-52 -81 
clause level 7 (Kante=8, Kdesc=11732, core=6):-968 951 923 
clause level 191 (Kante=1050, Kdesc=1, core=8):-28 -56 22 
clause level 1 (Kante=3, Kdesc=6251, core=1):-1045 1019 
clause level 150 (Kante=1037, Kdesc=593, core=11):-1 -52 -81 
clause level 84 (Kante=1036, Kdesc=10, core=10):-56 -52 604 710 28 504 582 769 273 160 354 821 319 76 642 375 950 454 29 
clause level 157 (Kante=1058, Kdesc=76, core=8):26 -28 -56 22 
clause level 128 (Kante=1040, Kdesc=10, core=12):-26 -56 -81 -136 22 137 138 
clause level 38 (Kante=1042, Kdesc=5, core=2):15 -1 706 600 500 25 817 -26 781 351 335 263 470 148 123 983 638 225 542 24 -543 
clause level 109 (Kante=1044, Kdesc=184, core=4):-62 23 692 789 34 425 411 211 259 517 93 311 286 650 140 91 85 35 288 884 63 803 24 885 
clause level 76 (Kante=1054, Kdesc=127, core=12):-64 41 -81 -56 40 137 138 
clause level 63 (Kante=1058, Kdesc=58, core=7):-64 -56 7 -22 -21 23 
clause level 116 (Kante=1050, Kdesc=1, core=11):-882 801 690 64 490 423 267 753 323 516 383 83 187 96 285 171 63 889 
clause level 101 (Kante=1050, Kdesc=74, core=6):48 -42 -25 -56 41 
clause level 23 (Kante=1054, Kdesc=3, core=5):-99 -36 100 16 -17 -101 885 -3 884 
clause level 33 (Kante=1049, Kdesc=9, core=13):-360 -34 -15 -12 -35 
clause level 127 (Kante=1066, Kdesc=1, core=3):-25 -15 -8 710 28 504 582 821 273 769 160 319 76 -91 642 -1021 1002 454 354 375 1003 58 29 31 1042 1001 950 121 -90 
clause level 126 (Kante=972, Kdesc=1, core=3):81 -52 -15 692 789 -8 -12 817 600 781 500 604 706 25 582 504 28 -51 710 411 425 34 769 273 335 351 211 821 263 160 259 517 470 650 131 354 311 319 -91 286 148 642 638 742 -639 225 76 542 982 454 24 60 375 951 127 1003 -1021 29 1001 743 1042 -239 31 121 58 -36 35 -188 884 952 885 187 98 -184 288 140 -173 
clause level 201 (Kante=1054, Kdesc=9, core=13):26 360 -48 -34 228 
clause level 43 (Kante=1061, Kdesc=9, core=7):-3 -8 1080 -12 -51 1002 984 -1020 1003 1078 -741 
clause level 48 (Kante=1057, Kdesc=5, core=6):51 -52 -56 -48 -183 
clause level 31 (Kante=1058, Kdesc=74, core=7):-91 819 -25 602 678 708 26 -28 502 271 207 108 391 27 125 353 745 985 542 -543 -455 454 984 965 127 
clause level 35 (Kante=1057, Kdesc=78, core=4):-12 1083 582 504 604 769 273 28 354 160 319 642 55 29 31 454 950 54 375 951 952 76 710 
clause level 39 (Kante=1069, Kdesc=20, core=7):8 -12 1080 -51 -1020 1002 984 1078 
clause level 48 (Kante=1029, Kdesc=1, core=8):-64 -25 -3 694 -12 686 15 -34 427 339 213 765 203 554 519 86 521 247 100 -638 882 35 -36 16 
clause level 157 (Kante=1050, Kdesc=42, core=3):-4 58 -26 33 
clause level 93 (Kante=1025, Kdesc=19, core=1):-8 -25 56 797 512 419 611 674 281 403 168 474 55 112 307 550 183 136 903 904 
clause level 148 (Kante=1039, Kdesc=59, core=1):-60 815 694 15 686 805 704 598 498 12 427 339 407 765 349 213 327 558 203 554 131 519 1001 43 195 16 882 122 129 11 247 1002 100 223 638 741 521 35 86 
clause level 34 (Kante=1047, Kdesc=40, core=12):-15 1002 28 582 604 504 769 273 354 160 642 710 966 950 -949 454 375 29 76 319 951 933 948 935 936 1003 937 952 
clause level 172 (Kante=999, Kdesc=34, core=1):8 52 799 793 777 578 -51 417 510 81 421 482 610 514 331 562 395 613 279 283 166 646 80 152 462 170 -310 379 309 239 913 53 243 -240 183 136 96 895 715 896 914 615 
clause level 33 (Kante=1052, Kdesc=112, core=14):-952 -12 817 25 600 706 500 781 335 351 263 470 225 148 123 24 226 638 -639 542 983 
clause level 22 (Kante=1037, Kdesc=72, core=11):-82 -932 -64 -902 890 885 895 911 923 -904 912 -903 
clause level 70 (Kante=1046, Kdesc=3, core=9):25 -51 -28 1079 1044 1022 -1078 1021 
clause level 135 (Kante=1038, Kdesc=23, core=2):-34 -25 811 594 700 1 682 1079 574 345 118 478 219 757 432 315 104 1043 1002 2 7 1022 -1078 20 
clause level 128 (Kante=1037, Kdesc=19, core=13):-51 -81 -34 -360 288 -359 353 -933 914 430 923 
clause level 47 (Kante=1008, Kdesc=37, core=0):-26 91 781 415 582 600 500 504 -48 28 25 706 51 604 335 769 817 570 273 263 277 714 658 160 710 508 821 608 319 199 148 470 351 389 164 638 983 458 354 76 50 -12 123 749 29 24 542 31 950 825 225 -376 303 922 454 239 642 -639 375 -304 
clause level 16 (Kante=1041, Kdesc=26, core=2):-913 923 781 -48 25 817 600 335 351 263 706 470 148 47 62 225 895 -82 78 226 123 29 638 542 27 23 952 915 896 44 45 -30 500 931 60 922 31 50 
clause level 94 (Kante=1030, Kdesc=26, core=8):911 60 -15 696 -8 590 5 -12 341 773 215 662 156 807 466 4 429 68 191 16 53 123 58 87 89 -17 -741 
clause level 121 (Kante=1033, Kdesc=13, core=8):34 1079 809 698 592 3 785 670 343 431 566 217 116 144 1044 1022 39 -981 -1078 4 966 933 936 18 2 951 387 
clause level 140 (Kante=1024, Kdesc=7, core=6):3 -5 -15 56 797 -1 586 813 8 596 702 674 486 419 512 403 347 399 474 221 654 251 120 550 112 307 281 1021 -1082 183 903 611 168 433 9 -13 55 58 7 741 72 -16 136 904 
clause level 96 (Kante=1015, Kdesc=32, core=12):1 52 -56 -81 690 64 777 490 510 417 423 482 610 715 279 267 562 516 166 753 646 83 171 174 285 1002 40 323 716 152 53 981 383 187 379 1003 -185 239 41 913 914 137 96 -97 63 889 183 245 138 188 
clause level 50 (Kante=1055, Kdesc=19, core=8):-15 -3 -34 -12 
clause level 218 (Kante=1037, Kdesc=7, core=2):60 22 702 586 8 596 -48 486 347 654 399 221 120 433 72 251 813 14 9 741 
clause level 234 (Kante=1047, Kdesc=4, core=0):-1 -8 1080 -48 1078 -1042 
clause level 94 (Kante=1026, Kdesc=17, core=0):-8 698 3 592 809 785 670 343 566 217 -174 116 431 387 221 4 144 2 127 -173 7 18 168 39 
clause level 133 (Kante=1013, Kdesc=21, core=15):48 -5 -15 -3 702 813 586 8 708 596 502 678 -28 819 602 26 486 271 347 399 207 353 391 654 433 120 251 221 108 72 745 454 9 125 542 27 741 -455 965 7 -4 -16 882 6 435 -19 
clause level 238 (Kante=1042, Kdesc=4, core=5):5 -34 -51 951 933 
clause level 29 (Kante=1024, Kdesc=8, core=15):1078 1002 -15 -1 -8 -12 -28 -48 51 608 508 570 277 658 825 714 199 749 164 458 -56 984 303 -304 -1083 922 239 983 -375 981 923 50 6 742 924 882 7 1023 1003 1022 
clause level 55 (Kante=1001, Kdesc=11, core=8):-26 -56 -34 -5 686 -3 694 15 586 596 702 -12 8 813 339 486 399 427 347 765 203 213 251 654 554 247 120 433 86 -4 -36 16 221 519 -933 914 923 -887 -888 -43 100 72 101 -37 45 741 882 35 9 14 22 99 -742 39 142 19 7 
clause level 69 (Kante=1006, Kdesc=33, core=8):-185 228 -15 696 698 -8 5 -12 590 592 3 785 341 343 431 773 670 215 429 662 116 217 566 156 807 58 60 53 -19 6 4 742 123 87 -13 9 2 743 466 387 923 89 911 914 1045 -17 191 68 144 16 18 37 39 885 
clause level 125 (Kante=1029, Kdesc=8, core=7):-25 56 512 419 674 611 281 403 474 550 168 55 -21 23 7 -22 112 136 183 903 20 307 904 24 58 
clause level 28 (Kante=1049, Kdesc=16, core=14):8 86 817 600 25 500 781 706 335 263 351 470 123 148 60 225 983 -31 24 54 55 -12 -639 542 952 53 226 58 27 -29 638 10 11 
clause level 140 (Kante=1027, Kdesc=6, core=8):-12 1079 -81 -34 785 3 592 809 698 670 566 343 431 217 387 116 933 -1078 951 966 -981 936 1044 1022 952 937 2 144 39 7 4 18 
clause level 131 (Kante=1031, Kdesc=17, core=8):81 1079 -34 809 3 698 592 785 670 343 217 431 566 116 1044 1022 387 -1078 -981 4 39 2 966 951 144 952 936 933 
clause level 92 (Kante=960, Kdesc=9, core=4):-48 -52 803 807 -56 692 -1 696 813 789 -12 702 34 590 5 8 596 708 586 602 678 -28 502 26 411 773 341 486 347 271 211 662 425 215 819 399 259 207 156 654 391 650 466 251 108 72 191 311 -981 952 140 1021 35 63 66 517 429 221 286 353 433 965 68 951 93 884 125 87 4 120 288 98 885 16 91 85 -183 745 -742 27 23 882 542 741 33 -1082 14 21 9 24 127 62 31 -20 13 -455 
clause level 30 (Kante=969, Kdesc=4, core=14):1083 911 -56 52 -81 -64 694 686 805 682 -3 1 -8 594 811 -26 -25 777 700 -51 574 417 15 339 510 482 610 765 427 478 432 345 562 213 279 757 219 519 554 118 166 646 1043 203 379 86 239 -185 58 53 913 1080 936 152 -10 315 -1082 174 60 -241 -542 1078 104 247 -244 243 521 -139 97 22 183 7 16 882 937 98 137 100 885 923 2 715 -184 35 -188 20 890 
clause level 15 (Kante=969, Kdesc=12, core=14):-933 -52 -81 -64 803 789 34 590 682 696 807 5 594 1 811 813 700 586 815 702 -26 498 704 12 596 598 773 574 486 411 407 425 341 517 662 345 347 478 429 349 399 8 654 558 211 433 219 215 757 221 327 650 466 311 223 259 118 156 120 122 87 31 11 432 286 1043 1021 1001 315 251 195 104 191 140 -96 9 1083 638 85 46 4 43 41 39 16 -73 70 68 63 35 14 37 2 72 884 885 47 18 742 
clause level 16 (Kante=1009, Kdesc=10, core=8):175 -81 -34 -15 -3 590 594 5 696 700 -8 -12 682 811 -48 341 574 773 662 478 757 429 439 345 1 315 466 191 219 215 118 156 432 87 -11 441 1043 428 516 515 43 -44 1083 23 104 -41 68 -887 -35 -888 14 742 7 -19 
clause level 83 (Kante=999, Kdesc=6, core=7):34 1079 -56 -81 801 64 -5 -28 490 -51 423 267 516 323 753 285 383 171 187 91 93 1044 1022 -60 7 96 83 -1078 -22 49 -21 20 40 31 41 -42 23 889 890 63 95 137 84 
clause level 43 (Kante=996, Kdesc=4, core=13):-56 -81 -64 803 807 692 789 -15 5 696 500 -12 817 781 706 25 600 411 773 425 34 429 335 341 662 -360 351 211 215 470 263 259 156 466 650 311 85 148 24 517 191 68 4 -65 16 884 983 140 35 430 -17 123 288 225 226 63 -36 286 87 -359 -639 542 353 885 89 638 -96 
clause level 158 (Kante=1047, Kdesc=1, core=3):-58 -3 -26 33 
clause level 158 (Kante=1059, Kdesc=1, core=3):64 807 -3 590 5 -26 773 341 429 662 215 -6 156 58 191 4 466 87 33 16 68 
clause level 161 (Kante=1044, Kdesc=1, core=3):28 -64 590 -3 696 5 -26 341 773 429 662 215 466 156 191 58 33 87 -6 68 4 16 
clause level 161 (Kante=1028, Kdesc=1, core=3):52 -64 696 -3 5 590 -25 -26 -28 341 773 662 215 429 156 -6 191 68 544 -542 33 87 89 4 466 16 58 -545 455 
clause level 156 (Kante=1022, Kdesc=1, core=3):174 -52 -64 696 -3 590 5 -25 -26 -28 341 429 773 215 662 156 -6 -542 191 33 544 87 68 4 -545 58 16 466 455 89 
clause level 15 (Kante=1001, Kdesc=13, core=2):-64 -12 807 696 698 590 592 5 3 500 785 809 817 781 25 -48 600 706 773 670 341 343 335 263 662 429 431 566 351 470 215 217 466 387 148 191 225 123 895 116 87 60 31 -30 952 913 922 156 47 62 -639 29 226 638 542 78 49 50 89 144 914 923 6 -43 915 896 2 68 9 4 931 27 23 44 39 885 882 18 16 924 -82 
clause level 26 (Kante=1021, Kdesc=1, core=15):1078 948 -15 -1 -8 598 815 498 12 704 -28 -48 407 327 349 558 195 223 91 122 43 985 11 1082 -34 -742 -544 951 1001 984 -981 638 -543 -35 542 741 -375 -1020 546 -547 376 14 983 966 
clause level 39 (Kante=1021, Kdesc=6, core=14):51 -5 803 789 692 -28 425 411 34 211 259 517 650 311 140 35 85 63 171 884 -127 885 174 9 286 -125 7 58 87 60 31 -13 169 -454 89 -126 
clause level 134 (Kante=992, Kdesc=11, core=4):-28 -5 803 -52 692 34 789 813 702 815 704 596 586 598 8 498 12 411 425 486 347 407 211 399 327 259 558 654 360 517 120 349 650 93 195 221 228 251 286 43 311 72 223 1001 1021 433 122 63 140 7 91 85 35 884 288 885 9 742 1002 11 638 743 741 
clause level 160 (Kante=1012, Kdesc=38, core=13):64 807 696 590 702 5 813 815 704 586 596 598 498 8 486 429 407 12 341 349 327 221 773 215 399 120 156 662 1001 72 654 4 433 16 223 122 435 1002 43 87 11 9 466 558 251 195 191 68 89 347 741 638 742 1003 
clause level 9 (Kante=943, Kdesc=1, core=13):-902 913 -1081 797 799 793 -34 809 -5 -1 -12 56 592 698 -25 785 26 602 502 708 819 -28 419 512 678 421 674 578 81 670 611 343 431 514 403 331 271 281 3 566 353 217 474 395 283 207 -223 168 174 116 172 170 391 123 80 112 -89 108 613 387 31 144 550 307 462 243 39 -11 18 137 96 183 124 -887 904 53 1080 129 33 4 7 241 -88 55 136 138 176 30 29 747 640 1044 1022 -543 -455 -1002 -1085 985 967 -949 952 914 933 895 
clause level 137 (Kante=1011, Kdesc=7, core=0):-25 809 813 698 8 3 702 -12 596 592 785 586 343 670 486 347 217 566 -174 116 399 654 72 251 9 4 433 431 127 -173 120 435 2 387 144 7 168 39 221 227 18 741 
clause level 131 (Kante=1015, Kdesc=7, core=7):12 56 694 15 -8 686 706 781 600 500 25 419 674 817 339 335 403 213 765 263 512 427 203 474 611 351 470 281 112 519 148 168 247 225 554 100 123 550 86 307 -21 7 23 55 136 183 1022 35 16 -22 882 -1042 903 1021 20 58 542 32 638 
clause level 32 (Kante=1012, Kdesc=16, core=7):-25 -1083 -64 692 803 34 789 813 702 586 596 8 411 425 486 517 347 399 286 288 211 654 650 221 259 120 311 93 53 85 24 33 -14 433 91 27 251 72 140 63 -22 -6 951 -21 7 -13 2 884 -56 952 20 9 -65 35 885 4 741 
clause level 143 (Kante=1004, Kdesc=6, core=8):51 -12 -15 813 702 596 8 -56 678 819 708 26 -28 602 502 486 271 347 399 207 -228 654 391 120 108 251 72 433 125 454 -981 745 542 -742 741 172 435 22 27 951 353 4 282 9 127 952 -455 965 -220 -227 
clause level 23 (Kante=971, Kdesc=5, core=12):748 -8 803 -81 -15 690 692 -3 64 -1 34 -52 789 706 817 781 25 600 500 582 28 504 423 425 490 516 411 351 821 335 273 267 710 769 211 263 160 323 517 259 319 470 354 83 285 171 148 76 123 24 311 650 85 101 225 286 1003 383 -887 884 66 952 35 187 307 753 893 98 140 96 138 933 375 -949 -23 -2 29 935 642 1082 1002 -32 638 454 950 948 542 172 889 102 -36 966 951 
clause level 188 (Kante=988, Kdesc=2, core=12):26 -34 52 -64 -56 807 696 590 5 704 598 498 815 12 415 417 510 508 51 777 608 714 773 407 341 570 429 482 279 277 610 662 658 215 327 562 164 156 199 223 122 195 558 166 466 152 43 191 50 11 53 16 4 379 749 458 303 239 241 718 913 922 68 349 87 22 715 377 65 1001 183 825 89 646 638 741 
clause level 127 (Kante=1000, Kdesc=10, core=10):25 360 -81 -64 56 -15 586 596 8 598 12 498 -28 704 813 419 815 674 486 407 403 399 327 512 474 347 654 558 349 281 195 611 221 1001 433 1002 307 1021 60 55 11 14 741 122 112 797 183 251 43 72 22 550 120 97 223 742 -138 58 435 903 638 9 1003 168 -137 
clause level 29 (Kante=989, Kdesc=5, core=3):-23 -28 -56 690 -5 694 686 -8 15 64 26 602 708 805 678 502 -51 516 490 423 339 427 765 271 267 213 819 323 207 391 753 203 383 554 -60 108 519 -1021 7 16 933 889 35 96 882 171 285 100 -17 63 172 353 86 84 247 187 893 83 890 745 454 -455 951 31 125 27 33 127 1042 1001 542 936 32 
clause level 241 (Kante=1026, Kdesc=2, core=0):-8 1080 -48 1078 
clause level 45 (Kante=1072, Kdesc=11, core=14):-34 142 -64 -5 -3 882 7 -4 -81 -96 98 
clause level 143 (Kante=988, Kdesc=6, core=4):-15 885 -81 -64 817 600 25 781 500 706 -48 -51 335 263 351 225 226 148 123 1080 470 638 24 1043 1044 1078 1020 -932 -933 542 902 -887 983 923 904 -96 914 -303 -910 
clause level 16 (Kante=981, Kdesc=3, core=2):-34 1002 -52 805 -64 807 694 -1 696 -8 686 15 590 -12 5 706 -26 781 600 25 500 -48 -51 427 817 339 341 773 335 765 662 213 215 263 351 470 203 156 148 429 1022 554 466 -56 100 247 983 191 -242 924 882 4 914 885 911 519 68 225 981 86 24 33 17 87 123 127 91 45 -1084 743 -307 -639 -543 35 66 542 184 -303 16 -933 
Found 3937 good successive clauses in order (3777 originals, maxlevel=241)
c KCorePR 346078 924 3937 3777 241
c DistanceTo...Unseen 924
c DistanceToGoodKCore c   DIST 0: 3937 (+3937) / 3937 (+3937)
c   DIST 1: 343089 (+339152) / 330766 (+326829)
c   DIST 2: 345152 (+2063) / 332718 (+1952)
c   DIST 3: 345154 (+2) / 332718 (+0)
c TotalDistance=346078
No graph is dumped
c result of core 3 is UNSAT
c One thread has finished
c Core 3 said it finished
c result of core 0 is UNKNOWN
c result of core 2 is UNKNOWN
c result of core 1 is UNKNOWN
c result of core 5 is UNKNOWN
c result of core 6 is UNKNOWN
c result of core 8 is UNKNOWN
c result of core 9 is UNKNOWN
c result of core 10 is UNKNOWN
c result of core 11 is UNKNOWN
c result of core 12 is UNKNOWN
c result of core 13 is UNKNOWN
c result of core 14 is UNKNOWN
c result of core 15 is UNKNOWN
c result of core 4 is UNKNOWN
c result of core 7 is UNKNOWN
c restarts              : 4 (5328 conflicts in avg)
c blocked restarts      : 212 (multiple: 1) 
c last block at restart : 4
c nb ReduceDB           : 3
c nb removed Clauses    : 13593
c nb learnts DL2        : 26
c nb learnts size 2     : 4
c nb learnts size 1     : 1
c conflicts             : 21312          (1 /sec)
c decisions             : 22986          (0.00 % random) (1 /sec)
c propagations          : 8489450        (509 /sec)
c conflict literals     : 2018698        (10.57 % deleted)
c nb reduced Clauses    : 166
c CPU time              : 16691.6 s

s INDETERMINATE
