c
c This is glucose-proof 1.0 based on  2.1 --  (thanks to MiniSAT)
c
c EXPERIMENTAL EASY PARALLEL (ROUND ROBIN) VERSION
c
c WARNING: for repeatability, setting FPU to use double precision
c Parallel version 14 solvers created.
c ========================================[ Problem Statistics ]===========================================
c |                                                                                                       |
c |  Number of variables:          4656                                                                   |
c |  Number of clauses:           22684                                                                   |
c |  Parse time:                   0.11 s                                                                 |
c |                                                                                                       |
c ========================================[ MAGIC CONSTANTS ]==============================================
c | Constants are supposed to work well together :-)                                                      |
c | however, if you find better choices, please let us known...                                           |
c |-------------------------------------------------------------------------------------------------------|
c |                                |                                |                                     |
c | - Restarts:                    | - Reduce Clause DB:            | - Minimize Asserting:               |
c |   * LBD Queue    :     50      |   * First     :   4000         |    * size <  30                     |
c |   * Trail  Queue :   5000      |   * Inc       :    300         |    * lbd  <   6                     |
c |   * K            :   0.80      |   * Special   :   1000         |                                     |
c |   * R            :   1.40      |   * Protected :  (lbd)< 30     |                                     |
c |                                |                                |                                     |
c ==================================[ Search Statistics (every  10000 conflicts) ]=========================
c |                                                                                                       |
c |          RESTARTS           |          ORIGINAL         |              LEARNT              | Progress |
c |       NB   Blocked  Avg Cfc |    Vars  Clauses Literals |   Red   Learnts    LBD2  Removed |          |
c =========================================================================================================
c Contradiction found while importing a unary clause clauses.
c empty clause found by core 0 at conflict 7211
*
c checking the resolution graph...OK
c All useful bySize 50136 clauses, percentiles 0 2 2 3 4 9 28 53 71 112 317 318 (0,1,5,10,25,50,75,90,95,99,100-1,100)
c All useless bySize 73821 clauses, percentiles 0 2 3 3 8 24 47 73 91 135 403 441 (0,1,5,10,25,50,75,90,95,99,100-1,100)
c ProofOnly useful bySize 40353 clauses, percentiles 0 2 3 4 6 15 34 59 77 118 317 318 (0,1,5,10,25,50,75,90,95,99,100-1,100)
c ProofOnly useless bySize 60588 clauses, percentiles 2 4 6 8 16 31 53 79 96 141 403 441 (0,1,5,10,25,50,75,90,95,99,100-1,100)
c All useful byFinalLBD 50136 clauses, percentiles 0 1 1 1 2 4 7 10 13 20 33 34 (0,1,5,10,25,50,75,90,95,99,100-1,100)
c All useless byFinalLBD 73821 clauses, percentiles 0 1 2 3 4 7 12 19 23 30 48 48 (0,1,5,10,25,50,75,90,95,99,100-1,100)
c ProofOnly useful byFinalLBD 40353 clauses, percentiles 0 1 1 1 2 4 8 11 13 21 33 34 (0,1,5,10,25,50,75,90,95,99,100-1,100)
c ProofOnly useless byFinalLBD 60588 clauses, percentiles 1 2 3 4 6 9 13 20 24 31 48 48 (0,1,5,10,25,50,75,90,95,99,100-1,100)
c All useful byInitialLBD 50136 clauses, percentiles 0 2 2 2 3 5 8 11 15 22 34 34 (0,1,5,10,25,50,75,90,95,99,100-1,100)
c All useless byInitialLBD 73821 clauses, percentiles 0 2 3 3 5 8 13 20 24 30 48 49 (0,1,5,10,25,50,75,90,95,99,100-1,100)
c ProofOnly useful byInitialLBD 40353 clauses, percentiles 0 2 2 3 3 5 9 12 15 23 34 34 (0,1,5,10,25,50,75,90,95,99,100-1,100)
c ProofOnly useless byInitialLBD 60588 clauses, percentiles 2 3 4 4 6 9 14 20 25 31 48 49 (0,1,5,10,25,50,75,90,95,99,100-1,100)
c Literals ProofOnly useful 985471
c Literals ProofOnly useless 2354420
c additional windowsGood 1 1 1 1 1 1 2 3 4 6 13 13 (0,1,5,10,25,50,75,90,95,99,100-1,100)
c additional windowsBad 1 1 1 1 1 2 3 5 7 10 26 31 (0,1,5,10,25,50,75,90,95,99,100-1,100)
c additional 1WindowNoDecision 14206 7478 0.53 9624 4240 0.44 (nbWindowsGood,nbWindowsNoDecisionGood,nbWindowsBad,nbWindowsNoDecisionBad
c additional topclausessize all (10%,5%,1%,top) 79.37 97.80 140.93 318
c additional topclausessize proofonly (10%,5%,1%,top) 82.09 100.53 143.95 318
c additional topclausesinitialLBD all (10%,5%,1%,top) 70.38 88.78 131.23 318
c additional topclausesinitialLBD proofonly (10%,5%,1%,top) 63.70 82.09 124.33 318
c additional topclausesfinalLBD all (10%,5%,1%,top) 57.20 75.60 117.93 318
c additional topclausesfinalLBD proofonly (10%,5%,1%,top) 52.95 71.32 113.79 318
c additional predictionInitialLBD 1 28 40353 1.00 0.00 0.00 100913 60588 0.60 1.50 0.86 0.60 (nbgoodclauses,nbtotalgood,precisionGood,recallGood,FGood,nbbadclause,nbtotalbad,precisionBad,recallBad,FBad,accuracy)
c additional predictionInitialLBD 2 3869 40353 0.87 0.08 0.15 97072 60588 0.62 1.49 0.87 0.63 (nbgoodclauses,nbtotalgood,precisionGood,recallGood,FGood,nbbadclause,nbtotalbad,precisionBad,recallBad,FBad,accuracy)
c additional predictionInitialLBD 3 12643 40353 0.83 0.26 0.40 88298 60588 0.66 1.45 0.91 0.68 (nbgoodclauses,nbtotalgood,precisionGood,recallGood,FGood,nbbadclause,nbtotalbad,precisionBad,recallBad,FBad,accuracy)
c additional predictionInitialLBD 4 22740 40353 0.70 0.40 0.51 78201 60588 0.69 1.33 0.91 0.69 (nbgoodclauses,nbtotalgood,precisionGood,recallGood,FGood,nbbadclause,nbtotalbad,precisionBad,recallBad,FBad,accuracy)
c additional predictionInitialLBD 5 32155 40353 0.63 0.51 0.56 68786 60588 0.71 1.21 0.90 0.69 (nbgoodclauses,nbtotalgood,precisionGood,recallGood,FGood,nbbadclause,nbtotalbad,precisionBad,recallBad,FBad,accuracy)
c additional predictionInitialLBD 6 40950 40353 0.59 0.60 0.59 59991 60588 0.73 1.08 0.87 0.67 (nbgoodclauses,nbtotalgood,precisionGood,recallGood,FGood,nbbadclause,nbtotalbad,precisionBad,recallBad,FBad,accuracy)
c additional predictionInitialLBD 7 49331 40353 0.55 0.68 0.61 51610 60588 0.75 0.96 0.84 0.65 (nbgoodclauses,nbtotalgood,precisionGood,recallGood,FGood,nbbadclause,nbtotalbad,precisionBad,recallBad,FBad,accuracy)
c additional predictionInitialLBD 8 56946 40353 0.53 0.75 0.62 43995 60588 0.77 0.84 0.80 0.63 (nbgoodclauses,nbtotalgood,precisionGood,recallGood,FGood,nbbadclause,nbtotalbad,precisionBad,recallBad,FBad,accuracy)
c additional predictionInitialLBD 10 69856 40353 0.49 0.85 0.62 31085 60588 0.81 0.62 0.70 0.59 (nbgoodclauses,nbtotalgood,precisionGood,recallGood,FGood,nbbadclause,nbtotalbad,precisionBad,recallBad,FBad,accuracy)
c additional predictionInitialLBD 14 85139 40353 0.45 0.94 0.61 15802 60588 0.85 0.33 0.48 0.51 (nbgoodclauses,nbtotalgood,precisionGood,recallGood,FGood,nbbadclause,nbtotalbad,precisionBad,recallBad,FBad,accuracy)
c additional predictionInitialLBD 18 92083 40353 0.43 0.97 0.59 8858 60588 0.88 0.19 0.32 0.47 (nbgoodclauses,nbtotalgood,precisionGood,recallGood,FGood,nbbadclause,nbtotalbad,precisionBad,recallBad,FBad,accuracy)
c additional predictionInitialLBD 22 96088 40353 0.42 0.99 0.58 4853 60588 0.91 0.11 0.20 0.44 (nbgoodclauses,nbtotalgood,precisionGood,recallGood,FGood,nbbadclause,nbtotalbad,precisionBad,recallBad,FBad,accuracy)
c additional predictionInitialLBD 30 100189 40353 0.40 1.00 0.57 752 60588 0.96 0.02 0.04 0.41 (nbgoodclauses,nbtotalgood,precisionGood,recallGood,FGood,nbbadclause,nbtotalbad,precisionBad,recallBad,FBad,accuracy)
c additional predictionInitialLBD 40 100907 40353 0.40 1.00 0.57 34 60588 1.00 0.00 0.00 0.40 (nbgoodclauses,nbtotalgood,precisionGood,recallGood,FGood,nbbadclause,nbtotalbad,precisionBad,recallBad,FBad,accuracy)
c additional predictionFinallLBD 1 6573 40353 0.91 0.15 0.26 94368 60588 0.64 0.99 0.77 0.65 (nbgoodclauses,nbtotalgood,precisionGood,recallGood,FGood,nbbadclause,nbtotalbad,precisionBad,recallBad,FBad,accuracy)
c additional predictionFinallLBD 2 15524 40353 0.83 0.32 0.46 85417 60588 0.68 0.96 0.79 0.70 (nbgoodclauses,nbtotalgood,precisionGood,recallGood,FGood,nbbadclause,nbtotalbad,precisionBad,recallBad,FBad,accuracy)
c additional predictionFinallLBD 3 22271 40353 0.76 0.42 0.54 78670 60588 0.70 0.91 0.79 0.72 (nbgoodclauses,nbtotalgood,precisionGood,recallGood,FGood,nbbadclause,nbtotalbad,precisionBad,recallBad,FBad,accuracy)
c additional predictionFinallLBD 4 31026 40353 0.68 0.52 0.59 69915 60588 0.72 0.84 0.78 0.71 (nbgoodclauses,nbtotalgood,precisionGood,recallGood,FGood,nbbadclause,nbtotalbad,precisionBad,recallBad,FBad,accuracy)
c additional predictionFinallLBD 5 39289 40353 0.62 0.61 0.62 61652 60588 0.74 0.76 0.75 0.70 (nbgoodclauses,nbtotalgood,precisionGood,recallGood,FGood,nbbadclause,nbtotalbad,precisionBad,recallBad,FBad,accuracy)
c additional predictionFinallLBD 6 47235 40353 0.58 0.68 0.63 53706 60588 0.76 0.67 0.72 0.68 (nbgoodclauses,nbtotalgood,precisionGood,recallGood,FGood,nbbadclause,nbtotalbad,precisionBad,recallBad,FBad,accuracy)
c additional predictionFinallLBD 7 54809 40353 0.55 0.75 0.63 46132 60588 0.78 0.59 0.67 0.65 (nbgoodclauses,nbtotalgood,precisionGood,recallGood,FGood,nbbadclause,nbtotalbad,precisionBad,recallBad,FBad,accuracy)
c additional predictionFinallLBD 8 61749 40353 0.53 0.80 0.64 39192 60588 0.80 0.52 0.63 0.63 (nbgoodclauses,nbtotalgood,precisionGood,recallGood,FGood,nbbadclause,nbtotalbad,precisionBad,recallBad,FBad,accuracy)
c additional predictionFinallLBD 10 73523 40353 0.49 0.89 0.63 27418 60588 0.84 0.38 0.52 0.58 (nbgoodclauses,nbtotalgood,precisionGood,recallGood,FGood,nbbadclause,nbtotalbad,precisionBad,recallBad,FBad,accuracy)
c additional predictionFinallLBD 14 87123 40353 0.45 0.96 0.61 13818 60588 0.89 0.20 0.33 0.51 (nbgoodclauses,nbtotalgood,precisionGood,recallGood,FGood,nbbadclause,nbtotalbad,precisionBad,recallBad,FBad,accuracy)
c additional predictionFinallLBD 18 93111 40353 0.43 0.98 0.59 7830 60588 0.91 0.12 0.21 0.46 (nbgoodclauses,nbtotalgood,precisionGood,recallGood,FGood,nbbadclause,nbtotalbad,precisionBad,recallBad,FBad,accuracy)
c additional predictionFinallLBD 22 96593 40353 0.41 0.99 0.58 4348 60588 0.93 0.07 0.12 0.44 (nbgoodclauses,nbtotalgood,precisionGood,recallGood,FGood,nbbadclause,nbtotalbad,precisionBad,recallBad,FBad,accuracy)
c additional predictionFinallLBD 30 100282 40353 0.40 1.00 0.57 659 60588 0.97 0.01 0.02 0.41 (nbgoodclauses,nbtotalgood,precisionGood,recallGood,FGood,nbbadclause,nbtotalbad,precisionBad,recallBad,FBad,accuracy)
c additional predictionFinallLBD 40 100913 40353 0.40 1.00 0.57 28 60588 1.00 0.00 0.00 0.40 (nbgoodclauses,nbtotalgood,precisionGood,recallGood,FGood,nbbadclause,nbtotalbad,precisionBad,recallBad,FBad,accuracy)
c additional predictionSize 1 28 40353 1.00 0.00 0.00 100913 60588 0.60 1.50 0.86 0.60 (nbgoodclauses,nbtotalgood,precisionGood,recallGood,FGood,nbbadclause,nbtotalbad,precisionBad,recallBad,FBad,accuracy)
c additional predictionSize 2 785 40353 0.93 0.02 0.04 100156 60588 0.60 1.50 0.86 0.61 (nbgoodclauses,nbtotalgood,precisionGood,recallGood,FGood,nbbadclause,nbtotalbad,precisionBad,recallBad,FBad,accuracy)
c additional predictionSize 3 3811 40353 0.95 0.09 0.16 97130 60588 0.62 1.50 0.88 0.63 (nbgoodclauses,nbtotalgood,precisionGood,recallGood,FGood,nbbadclause,nbtotalbad,precisionBad,recallBad,FBad,accuracy)
c additional predictionSize 4 7936 40353 0.88 0.17 0.29 93005 60588 0.64 1.48 0.89 0.66 (nbgoodclauses,nbtotalgood,precisionGood,recallGood,FGood,nbbadclause,nbtotalbad,precisionBad,recallBad,FBad,accuracy)
c additional predictionSize 5 11816 40353 0.83 0.24 0.38 89125 60588 0.66 1.45 0.90 0.68 (nbgoodclauses,nbtotalgood,precisionGood,recallGood,FGood,nbbadclause,nbtotalbad,precisionBad,recallBad,FBad,accuracy)
c additional predictionSize 6 15359 40353 0.78 0.30 0.43 85582 60588 0.67 1.42 0.91 0.69 (nbgoodclauses,nbtotalgood,precisionGood,recallGood,FGood,nbbadclause,nbtotalbad,precisionBad,recallBad,FBad,accuracy)
c additional predictionSize 7 18441 40353 0.74 0.34 0.47 82500 60588 0.68 1.38 0.91 0.69 (nbgoodclauses,nbtotalgood,precisionGood,recallGood,FGood,nbbadclause,nbtotalbad,precisionBad,recallBad,FBad,accuracy)
c additional predictionSize 8 21162 40353 0.71 0.37 0.49 79779 60588 0.68 1.35 0.91 0.69 (nbgoodclauses,nbtotalgood,precisionGood,recallGood,FGood,nbbadclause,nbtotalbad,precisionBad,recallBad,FBad,accuracy)
c additional predictionSize 10 26028 40353 0.65 0.42 0.51 74913 60588 0.69 1.28 0.89 0.68 (nbgoodclauses,nbtotalgood,precisionGood,recallGood,FGood,nbbadclause,nbtotalbad,precisionBad,recallBad,FBad,accuracy)
c additional predictionSize 14 33396 40353 0.59 0.49 0.54 67545 60588 0.70 1.16 0.87 0.66 (nbgoodclauses,nbtotalgood,precisionGood,recallGood,FGood,nbbadclause,nbtotalbad,precisionBad,recallBad,FBad,accuracy)
c additional predictionSize 18 39771 40353 0.56 0.55 0.55 61170 60588 0.70 1.07 0.85 0.65 (nbgoodclauses,nbtotalgood,precisionGood,recallGood,FGood,nbbadclause,nbtotalbad,precisionBad,recallBad,FBad,accuracy)
c additional predictionSize 22 46535 40353 0.53 0.61 0.57 54406 60588 0.71 0.96 0.82 0.63 (nbgoodclauses,nbtotalgood,precisionGood,recallGood,FGood,nbbadclause,nbtotalbad,precisionBad,recallBad,FBad,accuracy)
c additional predictionSize 30 58279 40353 0.49 0.71 0.58 42662 60588 0.73 0.77 0.75 0.59 (nbgoodclauses,nbtotalgood,precisionGood,recallGood,FGood,nbbadclause,nbtotalbad,precisionBad,recallBad,FBad,accuracy)
c additional predictionSize 40 70101 40353 0.46 0.80 0.59 30840 60588 0.74 0.57 0.64 0.55 (nbgoodclauses,nbtotalgood,precisionGood,recallGood,FGood,nbbadclause,nbtotalbad,precisionBad,recallBad,FBad,accuracy)
c additional predictionAge 1 3226 40353 0.71 0.06 0.11 97715 60588 0.61 1.48 0.86 0.61 (nbgoodclauses,nbtotalgood,precisionGood,recallGood,FGood,nbbadclause,nbtotalbad,precisionBad,recallBad,FBad,accuracy)
c additional predictionAge 10 3246 40353 0.71 0.06 0.11 97695 60588 0.61 1.48 0.86 0.61 (nbgoodclauses,nbtotalgood,precisionGood,recallGood,FGood,nbbadclause,nbtotalbad,precisionBad,recallBad,FBad,accuracy)
c additional predictionAge 25 3493 40353 0.68 0.06 0.11 97448 60588 0.61 1.47 0.86 0.61 (nbgoodclauses,nbtotalgood,precisionGood,recallGood,FGood,nbbadclause,nbtotalbad,precisionBad,recallBad,FBad,accuracy)
c additional predictionAge 50 3993 40353 0.64 0.06 0.12 96948 60588 0.61 1.47 0.86 0.61 (nbgoodclauses,nbtotalgood,precisionGood,recallGood,FGood,nbbadclause,nbtotalbad,precisionBad,recallBad,FBad,accuracy)
c additional predictionAge 100 4328 40353 0.62 0.07 0.12 96613 60588 0.61 1.46 0.86 0.61 (nbgoodclauses,nbtotalgood,precisionGood,recallGood,FGood,nbbadclause,nbtotalbad,precisionBad,recallBad,FBad,accuracy)
c additional predictionAge 250 4827 40353 0.60 0.07 0.13 96114 60588 0.61 1.45 0.86 0.61 (nbgoodclauses,nbtotalgood,precisionGood,recallGood,FGood,nbbadclause,nbtotalbad,precisionBad,recallBad,FBad,accuracy)
c additional predictionAge 500 5365 40353 0.58 0.08 0.14 95576 60588 0.61 1.45 0.86 0.61 (nbgoodclauses,nbtotalgood,precisionGood,recallGood,FGood,nbbadclause,nbtotalbad,precisionBad,recallBad,FBad,accuracy)
c additional predictionAge 1000 6072 40353 0.56 0.08 0.15 94869 60588 0.61 1.44 0.86 0.61 (nbgoodclauses,nbtotalgood,precisionGood,recallGood,FGood,nbbadclause,nbtotalbad,precisionBad,recallBad,FBad,accuracy)
c additional predictionAge 2500 7898 40353 0.53 0.10 0.17 93043 60588 0.61 1.41 0.85 0.61 (nbgoodclauses,nbtotalgood,precisionGood,recallGood,FGood,nbbadclause,nbtotalbad,precisionBad,recallBad,FBad,accuracy)
c additional predictionAge 5000 10647 40353 0.49 0.13 0.20 90294 60588 0.61 1.37 0.84 0.60 (nbgoodclauses,nbtotalgood,precisionGood,recallGood,FGood,nbbadclause,nbtotalbad,precisionBad,recallBad,FBad,accuracy)
c additional predictionAge 10000 16180 40353 0.45 0.18 0.26 84761 60588 0.61 1.28 0.83 0.58 (nbgoodclauses,nbtotalgood,precisionGood,recallGood,FGood,nbbadclause,nbtotalbad,precisionBad,recallBad,FBad,accuracy)
c additional predictionAge 25000 31842 40353 0.39 0.30 0.34 69099 60588 0.59 1.02 0.75 0.53 (nbgoodclauses,nbtotalgood,precisionGood,recallGood,FGood,nbbadclause,nbtotalbad,precisionBad,recallBad,FBad,accuracy)
c additional predictionAge 50000 57088 40353 0.37 0.52 0.43 43853 60588 0.56 0.61 0.58 0.45 (nbgoodclauses,nbtotalgood,precisionGood,recallGood,FGood,nbbadclause,nbtotalbad,precisionBad,recallBad,FBad,accuracy)
c additional predictionAge 100000 100492 40353 0.40 1.00 0.57 449 60588 0.63 0.01 0.01 0.40 (nbgoodclauses,nbtotalgood,precisionGood,recallGood,FGood,nbbadclause,nbtotalbad,precisionBad,recallBad,FBad,accuracy)
c additional predictionTicks 1 3284 40353 0.71 0.06 0.11 97657 60588 0.61 1.48 0.86 0.61 (nbgoodclauses,nbtotalgood,precisionGood,recallGood,FGood,nbbadclause,nbtotalbad,precisionBad,recallBad,FBad,accuracy)
c additional predictionTicks 10 3704 40353 0.70 0.06 0.12 97237 60588 0.61 1.47 0.86 0.61 (nbgoodclauses,nbtotalgood,precisionGood,recallGood,FGood,nbbadclause,nbtotalbad,precisionBad,recallBad,FBad,accuracy)
c additional predictionTicks 25 6771 40353 0.61 0.10 0.18 94170 60588 0.62 1.44 0.86 0.62 (nbgoodclauses,nbtotalgood,precisionGood,recallGood,FGood,nbbadclause,nbtotalbad,precisionBad,recallBad,FBad,accuracy)
c additional predictionTicks 50 10853 40353 0.56 0.15 0.24 90088 60588 0.62 1.38 0.86 0.61 (nbgoodclauses,nbtotalgood,precisionGood,recallGood,FGood,nbbadclause,nbtotalbad,precisionBad,recallBad,FBad,accuracy)
c additional predictionTicks 100 16712 40353 0.52 0.22 0.31 84229 60588 0.62 1.30 0.84 0.61 (nbgoodclauses,nbtotalgood,precisionGood,recallGood,FGood,nbbadclause,nbtotalbad,precisionBad,recallBad,FBad,accuracy)
c additional predictionTicks 250 27867 40353 0.49 0.34 0.40 73074 60588 0.63 1.15 0.82 0.59 (nbgoodclauses,nbtotalgood,precisionGood,recallGood,FGood,nbbadclause,nbtotalbad,precisionBad,recallBad,FBad,accuracy)
c additional predictionTicks 500 40135 40353 0.46 0.46 0.46 60806 60588 0.64 0.97 0.77 0.57 (nbgoodclauses,nbtotalgood,precisionGood,recallGood,FGood,nbbadclause,nbtotalbad,precisionBad,recallBad,FBad,accuracy)
c additional predictionTicks 1000 53357 40353 0.44 0.58 0.50 47584 60588 0.65 0.76 0.70 0.54 (nbgoodclauses,nbtotalgood,precisionGood,recallGood,FGood,nbbadclause,nbtotalbad,precisionBad,recallBad,FBad,accuracy)
c additional predictionTicks 2500 69807 40353 0.42 0.73 0.54 31134 60588 0.65 0.50 0.57 0.49 (nbgoodclauses,nbtotalgood,precisionGood,recallGood,FGood,nbbadclause,nbtotalbad,precisionBad,recallBad,FBad,accuracy)
c additional predictionTicks 5000 79950 40353 0.41 0.82 0.55 20991 60588 0.65 0.34 0.45 0.46 (nbgoodclauses,nbtotalgood,precisionGood,recallGood,FGood,nbbadclause,nbtotalbad,precisionBad,recallBad,FBad,accuracy)
c additional predictionTicks 10000 88294 40353 0.41 0.89 0.56 12647 60588 0.65 0.20 0.31 0.44 (nbgoodclauses,nbtotalgood,precisionGood,recallGood,FGood,nbbadclause,nbtotalbad,precisionBad,recallBad,FBad,accuracy)
c additional predictionTicks 25000 96789 40353 0.40 0.96 0.57 4152 60588 0.64 0.07 0.12 0.41 (nbgoodclauses,nbtotalgood,precisionGood,recallGood,FGood,nbbadclause,nbtotalbad,precisionBad,recallBad,FBad,accuracy)
c additional predictionTicks 50000 100228 40353 0.40 0.99 0.57 713 60588 0.65 0.01 0.02 0.40 (nbgoodclauses,nbtotalgood,precisionGood,recallGood,FGood,nbbadclause,nbtotalbad,precisionBad,recallBad,FBad,accuracy)
c additional predictionTicks 100000 100941 40353 0.40 1.00 0.57 0 60588 -nan 0.00 -nan 0.40 (nbgoodclauses,nbtotalgood,precisionGood,recallGood,FGood,nbbadclause,nbtotalbad,precisionBad,recallBad,FBad,accuracy)
c additional lifetimeGood 1 14 112 1119 8258 27637 54566 73982 83823 95552 101041 101059 (0,1,5,10,25,50,75,90,95,99,100-1,100)
c additional lifetimeBad 1 14 70 726 6649 21722 45644 69860 80770 93673 101133 101152 (0,1,5,10,25,50,75,90,95,99,100-1,100)
c additional lifetimeBadBad 3 14 14 14 28 98 1050 12388 27324 59553 97874 98042 (0,1,5,10,25,50,75,90,95,99,100-1,100)
c additional compositionBad 1 2 4 6 12 25 49 86 116 191 527 534 (0,1,5,10,25,50,75,90,95,99,100-1,100)
c additional compositionBadWithGood 0 0 1 2 5 10 21 39 53 92 198 210 (0,1,5,10,25,50,75,90,95,99,100-1,100)
c additional compositionBadWithBad 0 0 0 0 0 1 2 4 5 8 18 27 (0,1,5,10,25,50,75,90,95,99,100-1,100)
c additional compositionBadWithInitial 0 0 0 1 4 12 25 47 65 114 380 406 (0,1,5,10,25,50,75,90,95,99,100-1,100)
c additional compositionGood 1 2 3 3 5 13 34 70 100 174 474 521 (0,1,5,10,25,50,75,90,95,99,100-1,100)
c additional compositionGoodWithGood 0 0 0 1 3 7 18 36 52 94 234 234 (0,1,5,10,25,50,75,90,95,99,100-1,100)
c additional compositionGoodWithInitial 0 0 0 0 2 6 16 34 51 100 298 302 (0,1,5,10,25,50,75,90,95,99,100-1,100)
c additional propagationGood total 4300262 percentiles 0 1 1 1 1 4 24 185 553 2047 10747 12386 (0,1,5,10,25,50,75,90,95,99,100-1,100)
c additional propagationBad total 191284 percentiles 1 1 1 1 1 1 2 6 10 27 2414 2823 (0,1,5,10,25,50,75,90,95,99,100-1,100)
c additional resolutionGood total 1392476 percentiles 0 1 1 1 1 2 11 58 160 646 3587 3668 (0,1,5,10,25,50,75,90,95,99,100-1,100)
c additional resolutionBad total 97003 percentiles 0 0 0 0 1 1 2 3 5 11 60 67 (0,1,5,10,25,50,75,90,95,99,100-1,100)
Computing K-Core for 123957 clauses...
c building structure for KCore computation.
c the graph has 3388046 edges, maxdegree=534
c we start the KCore with the value 20
c Non directed graph built
K=20,47015 nodes removed so far
K=21,49354 nodes removed so far
K=22,51700 nodes removed so far
K=23,53855 nodes removed so far
K=24,56062 nodes removed so far
K=25,K=26,K=27,61799 nodes removed so far
K=28,K=29,K=30,K=31,K=32,K=33,71551 nodes removed so far
K=34,K=35,K=36,K=37,K=38,K=39,K=40,80434 nodes removed so far
K=41,K=42,K=43,K=44,K=45,K=46,K=47,K=48,K=49,K=50,K=51,90484 nodes removed so far
K=52,K=53,K=54,K=55,K=56,K=57,K=58,K=59,K=60,K=61,K=62,K=63,K=64,K=65,K=66,100137 nodes removed so far
K=67,K=68,K=69,K=70,K=71,K=72,K=73,K=74,K=75,K=76,K=77,K=78,K=79,K=80,112421 nodes removed so far
K=81,KCore = 81
Building structure for PR...
Computing PR...
Pageranking 104323 nodes done in 24 iteration. cumulError=6.96687e-11
clause level 87 (Kante=162, Kdesc=14538, core=2):-3155 
clause level 19 (Kante=49, Kdesc=6384, core=10):3015 
clause level 29 (Kante=70, Kdesc=6510, core=10):2767 
clause level 3 (Kante=42, Kdesc=2321, core=5):3033 
clause level 3 (Kante=43, Kdesc=1253, core=11):-1410 -3885 
clause level 1 (Kante=71, Kdesc=370, core=10):-1281 3076 
clause level 4 (Kante=7, Kdesc=1112, core=3):-1410 3099 
clause level 2 (Kante=2, Kdesc=668, core=0):-1281 3085 
clause level 2 (Kante=14, Kdesc=764, core=10):-1281 -3117 
clause level 2 (Kante=166, Kdesc=11, core=6):-1684 1898 2223 -2392 
clause level 2 (Kante=10, Kdesc=546, core=3):-1281 -3692 
clause level 3 (Kante=35, Kdesc=487, core=5):-1410 3091 
clause level 4 (Kante=3, Kdesc=817, core=5):3032 -3811 
clause level 1 (Kante=2, Kdesc=251, core=6):3051 -3492 -3052 
clause level 3 (Kante=111, Kdesc=5, core=1):-1953 3132 3155 3128 
clause level 4 (Kante=12, Kdesc=694, core=11):-1410 3547 
clause level 2 (Kante=9, Kdesc=526, core=3):-1281 3547 
clause level 4 (Kante=74, Kdesc=583, core=12):-1663 3641 
clause level 1 (Kante=2, Kdesc=417, core=4):3042 -3117 -3034 
clause level 295 (Kante=167, Kdesc=653, core=2):-1410 
clause level 4 (Kante=10, Kdesc=511, core=11):-1410 3122 
clause level 1 (Kante=2, Kdesc=443, core=3):3065 -3692 -3066 
clause level 108 (Kante=204, Kdesc=110, core=10):880 -1371 1369 
clause level 1 (Kante=2, Kdesc=301, core=6):3063 -3770 -3064 
clause level 1 (Kante=36, Kdesc=415, core=13):-1663 -3119 
clause level 1 (Kante=2, Kdesc=454, core=1):3088 -3085 3607 
clause level 139 (Kante=352, Kdesc=7, core=0):-3513 3294 1630 1410 -3297 
clause level 20 (Kante=3, Kdesc=450, core=11):3063 -3054 -3770 
clause level 2 (Kante=13, Kdesc=309, core=4):-1281 -3492 
clause level 18 (Kante=130, Kdesc=2, core=10):2422 3015 3146 2767 
clause level 181 (Kante=205, Kdesc=3, core=2):-1410 1603 1604 1621 1617 1630 2930 
clause level 2 (Kante=57, Kdesc=235, core=10):-1410 3080 3607 -3034 
clause level 207 (Kante=195, Kdesc=4, core=0):3883 3295 -3362 2739 
clause level 153 (Kante=169, Kdesc=4, core=12):-2985 3703 -3322 -3167 
clause level 99 (Kante=270, Kdesc=42, core=0):-1281 -3593 2985 2986 -1898 -1684 -2422 3002 -3400 3004 1897 1895 2421 2998 2678 2955 2933 
clause level 21 (Kante=111, Kdesc=6, core=2):-1410 1684 3121 3151 3152 3153 3155 3132 1899 -1603 
clause level 70 (Kante=192, Kdesc=1, core=12):-845 -1616 -3424 978 -1024 1191 1178 -3513 1005 810 1194 1179 -1240 1203 979 1621 -1586 
clause level 88 (Kante=93, Kdesc=12, core=7):-1410 3130 3126 3132 3146 3156 2131 -1603 
clause level 94 (Kante=206, Kdesc=5, core=10):4028 -3164 1603 -1606 1604 -1616 -3570 -3513 -1371 1369 1630 1619 1621 1623 1631 -1004 1179 -664 -982 880 -867 -829 -832 -1083 1617 
clause level 13 (Kante=116, Kdesc=1, core=10):1684 867 3130 3132 3146 3155 3015 1401 1898 2422 2246 2767 1004 -1357 
Found 191 good successive clauses in order (151 originals, maxlevel=295)
c KCorePR 123957 81 191 151 295
c DistanceTo...Unseen 15275
c DistanceToGoodKCore c   DIST 0: 191 (+191) / 191 (+191)
c   DIST 1: 48848 (+48657) / 17395 (+17204)
c   DIST 2: 94786 (+45938) / 44487 (+27092)
c   DIST 3: 102368 (+7582) / 47803 (+3316)
c   DIST 4: 105199 (+2831) / 48918 (+1115)
c   DIST 5: 106675 (+1476) / 49464 (+546)
c   DIST 6: 107476 (+801) / 49802 (+338)
c   DIST 7: 107950 (+474) / 49982 (+180)
c   DIST 8: 108224 (+274) / 50059 (+77)
c   DIST 9: 108381 (+157) / 50094 (+35)
c   DIST 10: 108498 (+117) / 50115 (+21)
c   DIST 11: 108587 (+89) / 50127 (+12)
c   DIST 12: 108651 (+64) / 50133 (+6)
c   DIST 13: 108666 (+15) / 50136 (+3)
c   DIST 14: 108672 (+6) / 50136 (+0)
c   DIST 15: 108679 (+7) / 50136 (+0)
c   DIST 16: 108682 (+3) / 50136 (+0)
c TotalDistance=123957
No graph is dumped
c =========================================================================================================
c result of core 0 is UNSAT
c One thread has finished
c Core 0 said it finished
c result of core 1 is UNKNOWN
c result of core 2 is UNKNOWN
c result of core 4 is UNKNOWN
c result of core 5 is UNKNOWN
c result of core 13 is UNKNOWN
c result of core 12 is UNKNOWN
c result of core 10 is UNKNOWN
c result of core 3 is UNKNOWN
c result of core 9 is UNKNOWN
c result of core 11 is UNKNOWN
c result of core 8 is UNKNOWN
c result of core 7 is UNKNOWN
c result of core 6 is UNKNOWN
c restarts              : 45 (160 conflicts in avg)
c blocked restarts      : 0 (multiple: 0) 
c last block at restart : 0
c nb ReduceDB           : 1
c nb removed Clauses    : 4825
c nb learnts DL2        : 272
c nb learnts size 2     : 57
c nb learnts size 1     : 1
c conflicts             : 7211           (159 /sec)
c decisions             : 13073          (0.00 % random) (288 /sec)
c propagations          : 2832788        (62437 /sec)
c conflict literals     : 222810         (4.00 % deleted)
c nb reduced Clauses    : 158
c CPU time              : 45.3701 s

s INDETERMINATE
