c
c This is glucose-proof 1.0 based on  2.1 --  (thanks to MiniSAT)
c
c EXPERIMENTAL EASY PARALLEL (ROUND ROBIN) VERSION
c
c WARNING: for repeatability, setting FPU to use double precision
c Parallel version 4 solvers created.
c ========================================[ Problem Statistics ]===========================================
c |                                                                                                       |
c |  Number of variables:          5283                                                                   |
c |  Number of clauses:           63775                                                                   |
c |  Parse time:                   0.08 s                                                                 |
c |                                                                                                       |
c ========================================[ MAGIC CONSTANTS ]==============================================
c | Constants are supposed to work well together :-)                                                      |
c | however, if you find better choices, please let us known...                                           |
c |-------------------------------------------------------------------------------------------------------|
c |                                |                                |                                     |
c | - Restarts:                    | - Reduce Clause DB:            | - Minimize Asserting:               |
c |   * LBD Queue    :     50      |   * First     :   4000         |    * size <  30                     |
c |   * Trail  Queue :   5000      |   * Inc       :    300         |    * lbd  <   6                     |
c |   * K            :   0.80      |   * Special   :   1000         |                                     |
c |   * R            :   1.40      |   * Protected :  (lbd)< 30     |                                     |
c |                                |                                |                                     |
c ==================================[ Search Statistics (every  10000 conflicts) ]=========================
c |                                                                                                       |
c |          RESTARTS           |          ORIGINAL         |              LEARNT              | Progress |
c |       NB   Blocked  Avg Cfc |    Vars  Clauses Literals |   Red   Learnts    LBD2  Removed |          |
c =========================================================================================================
c |       53         0      188 |    5283    63775   311573 |     1     8005      127     2364 |  0.000 % |
c |       95        55      210 |    5283    63775   311573 |     3     6961      195    14230 |  0.000 % |
c |      150       118      200 |    5271    63775   311573 |     3    16905      260    14230 |  0.227 % |
c |      191       165      209 |    5258    63775   311573 |     4    17523      321    23871 |  0.473 % |
c |      250       213      200 |    5258    63775   311573 |     5    15765      361    36047 |  0.473 % |
c |      265       266      226 |    5246    63775   311573 |     5    25763      416    36047 |  0.700 % |
c |      271       326      258 |    5233    63775   311573 |     6    21385      546    50882 |  0.946 % |
c |      309       403      258 |    5233    63775   311573 |     6    31385      625    50882 |  0.946 % |
c |      331       475      271 |    5214    63775   311573 |     7    24385      741    68527 |  1.306 % |
c |      362       541      276 |    5168    63775   311573 |     7    34356      810    68527 |  2.177 % |
c |      376       622      292 |    5166    63775   311573 |     8    24307      866    88217 |  2.215 % |
c |      402       680      298 |    5165    63775   311573 |     8    34278      900    88217 |  2.234 % |
c |      437       733      297 |    5135    63775   311573 |     9    22024      939   110311 |  2.801 % |
c |      461       805      303 |    5075    63775   311573 |     9    31043      990   110311 |  3.937 % |
c |      488       842      307 |    5019    63775   311573 |     9    41039     1029   110311 |  4.997 % |
c |      526       887      304 |    5016    63775   311573 |    10    26430     1071   134313 |  5.054 % |
c empty clause found by core 1 at conflict 168051
*
c checking the resolution graph...OK
c All useful bySize 224313 clauses, percentiles 0 2 2 3 13 31 84 179 278 467 847 848 (0,1,5,10,25,50,75,90,95,99,100-1,100)
c All useless bySize 511800 clauses, percentiles 0 4 6 13 30 66 137 253 340 511 999 1005 (0,1,5,10,25,50,75,90,95,99,100-1,100)
c ProofOnly useful bySize 198571 clauses, percentiles 0 3 4 9 17 39 94 196 294 479 847 848 (0,1,5,10,25,50,75,90,95,99,100-1,100)
c ProofOnly useless bySize 473631 clauses, percentiles 1 8 16 20 37 74 146 263 349 518 999 1005 (0,1,5,10,25,50,75,90,95,99,100-1,100)
c All useful byFinalLBD 224313 clauses, percentiles 0 1 1 2 3 6 11 15 18 22 57 60 (0,1,5,10,25,50,75,90,95,99,100-1,100)
c All useless byFinalLBD 511800 clauses, percentiles 0 2 4 6 8 13 19 26 31 44 118 121 (0,1,5,10,25,50,75,90,95,99,100-1,100)
c ProofOnly useful byFinalLBD 198571 clauses, percentiles 0 1 1 2 4 7 11 15 18 23 57 60 (0,1,5,10,25,50,75,90,95,99,100-1,100)
c ProofOnly useless byFinalLBD 473631 clauses, percentiles 1 2 5 6 9 14 20 26 31 45 118 121 (0,1,5,10,25,50,75,90,95,99,100-1,100)
c All useful byInitialLBD 224313 clauses, percentiles 0 2 2 3 5 9 12 16 19 24 60 60 (0,1,5,10,25,50,75,90,95,99,100-1,100)
c All useless byInitialLBD 511800 clauses, percentiles 0 3 5 6 9 14 20 26 31 45 118 121 (0,1,5,10,25,50,75,90,95,99,100-1,100)
c ProofOnly useful byInitialLBD 198571 clauses, percentiles 0 2 3 4 6 9 13 17 19 24 60 60 (0,1,5,10,25,50,75,90,95,99,100-1,100)
c ProofOnly useless byInitialLBD 473631 clauses, percentiles 1 4 6 8 10 15 20 27 32 45 118 121 (0,1,5,10,25,50,75,90,95,99,100-1,100)
c Literals ProofOnly useful 15273498
c Literals ProofOnly useless 53149476
c additional windowsGood 1 1 1 1 1 1 2 2 3 3 34 34 (0,1,5,10,25,50,75,90,95,99,100-1,100)
c additional windowsBad 1 1 1 1 1 3 3 6 10 23 136 142 (0,1,5,10,25,50,75,90,95,99,100-1,100)
c additional 1WindowNoDecision 98494 50851 0.52 37840 17613 0.47 (nbWindowsGood,nbWindowsNoDecisionGood,nbWindowsBad,nbWindowsNoDecisionBad
c additional topclausessize all (10%,5%,1%,top) 306.65 390.44 545.89 848
c additional topclausessize proofonly (10%,5%,1%,top) 314.16 397.03 550.57 848
c additional topclausesinitialLBD all (10%,5%,1%,top) 259.97 347.52 515.60 848
c additional topclausesinitialLBD proofonly (10%,5%,1%,top) 227.22 314.16 491.57 848
c additional topclausesfinalLBD all (10%,5%,1%,top) 200.00 284.13 468.86 848
c additional topclausesfinalLBD proofonly (10%,5%,1%,top) 181.25 262.49 451.68 848
c additional predictionInitialLBD 1 47 198571 0.98 0.00 0.00 672155 473631 0.70 2.39 1.09 0.70 (nbgoodclauses,nbtotalgood,precisionGood,recallGood,FGood,nbbadclause,nbtotalbad,precisionBad,recallBad,FBad,accuracy)
c additional predictionInitialLBD 2 3799 198571 0.88 0.02 0.03 668403 473631 0.71 2.38 1.09 0.71 (nbgoodclauses,nbtotalgood,precisionGood,recallGood,FGood,nbbadclause,nbtotalbad,precisionBad,recallBad,FBad,accuracy)
c additional predictionInitialLBD 3 16359 198571 0.85 0.07 0.13 655843 473631 0.72 2.37 1.10 0.72 (nbgoodclauses,nbtotalgood,precisionGood,recallGood,FGood,nbbadclause,nbtotalbad,precisionBad,recallBad,FBad,accuracy)
c additional predictionInitialLBD 4 29955 198571 0.77 0.12 0.20 642247 473631 0.73 2.35 1.11 0.73 (nbgoodclauses,nbtotalgood,precisionGood,recallGood,FGood,nbbadclause,nbtotalbad,precisionBad,recallBad,FBad,accuracy)
c additional predictionInitialLBD 5 50913 198571 0.71 0.18 0.29 621289 473631 0.74 2.31 1.12 0.74 (nbgoodclauses,nbtotalgood,precisionGood,recallGood,FGood,nbbadclause,nbtotalbad,precisionBad,recallBad,FBad,accuracy)
c additional predictionInitialLBD 6 78690 198571 0.65 0.26 0.37 593512 473631 0.75 2.25 1.13 0.74 (nbgoodclauses,nbtotalgood,precisionGood,recallGood,FGood,nbbadclause,nbtotalbad,precisionBad,recallBad,FBad,accuracy)
c additional predictionInitialLBD 7 113730 198571 0.60 0.34 0.44 558472 473631 0.77 2.16 1.13 0.74 (nbgoodclauses,nbtotalgood,precisionGood,recallGood,FGood,nbbadclause,nbtotalbad,precisionBad,recallBad,FBad,accuracy)
c additional predictionInitialLBD 8 152987 198571 0.56 0.43 0.49 519215 473631 0.78 2.05 1.13 0.73 (nbgoodclauses,nbtotalgood,precisionGood,recallGood,FGood,nbbadclause,nbtotalbad,precisionBad,recallBad,FBad,accuracy)
c additional predictionInitialLBD 10 236674 198571 0.50 0.59 0.54 435528 473631 0.82 1.79 1.12 0.70 (nbgoodclauses,nbtotalgood,precisionGood,recallGood,FGood,nbbadclause,nbtotalbad,precisionBad,recallBad,FBad,accuracy)
c additional predictionInitialLBD 14 393903 198571 0.42 0.83 0.55 278299 473631 0.88 1.23 1.02 0.61 (nbgoodclauses,nbtotalgood,precisionGood,recallGood,FGood,nbbadclause,nbtotalbad,precisionBad,recallBad,FBad,accuracy)
c additional predictionInitialLBD 18 510637 198571 0.37 0.94 0.53 161565 473631 0.93 0.75 0.83 0.50 (nbgoodclauses,nbtotalgood,precisionGood,recallGood,FGood,nbbadclause,nbtotalbad,precisionBad,recallBad,FBad,accuracy)
c additional predictionInitialLBD 22 583418 198571 0.33 0.98 0.50 88784 473631 0.96 0.43 0.59 0.42 (nbgoodclauses,nbtotalgood,precisionGood,recallGood,FGood,nbbadclause,nbtotalbad,precisionBad,recallBad,FBad,accuracy)
c additional predictionInitialLBD 30 643777 198571 0.31 1.00 0.47 28425 473631 0.99 0.14 0.25 0.34 (nbgoodclauses,nbtotalgood,precisionGood,recallGood,FGood,nbbadclause,nbtotalbad,precisionBad,recallBad,FBad,accuracy)
c additional predictionInitialLBD 40 663997 198571 0.30 1.00 0.46 8205 473631 0.99 0.04 0.08 0.31 (nbgoodclauses,nbtotalgood,precisionGood,recallGood,FGood,nbbadclause,nbtotalbad,precisionBad,recallBad,FBad,accuracy)
c additional predictionFinallLBD 1 13180 198571 0.91 0.06 0.11 659022 473631 0.72 1.00 0.83 0.72 (nbgoodclauses,nbtotalgood,precisionGood,recallGood,FGood,nbbadclause,nbtotalbad,precisionBad,recallBad,FBad,accuracy)
c additional predictionFinallLBD 2 31899 198571 0.85 0.14 0.24 640303 473631 0.73 0.99 0.84 0.74 (nbgoodclauses,nbtotalgood,precisionGood,recallGood,FGood,nbbadclause,nbtotalbad,precisionBad,recallBad,FBad,accuracy)
c additional predictionFinallLBD 3 54462 198571 0.80 0.22 0.34 617740 473631 0.75 0.98 0.85 0.75 (nbgoodclauses,nbtotalgood,precisionGood,recallGood,FGood,nbbadclause,nbtotalbad,precisionBad,recallBad,FBad,accuracy)
c additional predictionFinallLBD 4 79459 198571 0.75 0.30 0.43 592743 473631 0.77 0.96 0.85 0.76 (nbgoodclauses,nbtotalgood,precisionGood,recallGood,FGood,nbbadclause,nbtotalbad,precisionBad,recallBad,FBad,accuracy)
c additional predictionFinallLBD 5 107992 198571 0.70 0.38 0.49 564210 473631 0.78 0.93 0.85 0.77 (nbgoodclauses,nbtotalgood,precisionGood,recallGood,FGood,nbbadclause,nbtotalbad,precisionBad,recallBad,FBad,accuracy)
c additional predictionFinallLBD 6 140189 198571 0.65 0.46 0.54 532013 473631 0.80 0.90 0.84 0.77 (nbgoodclauses,nbtotalgood,precisionGood,recallGood,FGood,nbbadclause,nbtotalbad,precisionBad,recallBad,FBad,accuracy)
c additional predictionFinallLBD 7 175850 198571 0.60 0.53 0.56 496352 473631 0.81 0.85 0.83 0.76 (nbgoodclauses,nbtotalgood,precisionGood,recallGood,FGood,nbbadclause,nbtotalbad,precisionBad,recallBad,FBad,accuracy)
c additional predictionFinallLBD 8 213129 198571 0.56 0.60 0.58 459073 473631 0.83 0.80 0.81 0.74 (nbgoodclauses,nbtotalgood,precisionGood,recallGood,FGood,nbbadclause,nbtotalbad,precisionBad,recallBad,FBad,accuracy)
c additional predictionFinallLBD 10 287719 198571 0.50 0.72 0.59 384483 473631 0.85 0.69 0.77 0.70 (nbgoodclauses,nbtotalgood,precisionGood,recallGood,FGood,nbbadclause,nbtotalbad,precisionBad,recallBad,FBad,accuracy)
c additional predictionFinallLBD 14 424735 198571 0.41 0.88 0.56 247467 473631 0.90 0.47 0.62 0.59 (nbgoodclauses,nbtotalgood,precisionGood,recallGood,FGood,nbbadclause,nbtotalbad,precisionBad,recallBad,FBad,accuracy)
c additional predictionFinallLBD 18 527431 198571 0.36 0.96 0.53 144771 473631 0.95 0.29 0.44 0.49 (nbgoodclauses,nbtotalgood,precisionGood,recallGood,FGood,nbbadclause,nbtotalbad,precisionBad,recallBad,FBad,accuracy)
c additional predictionFinallLBD 22 591467 198571 0.33 0.99 0.50 80735 473631 0.97 0.17 0.28 0.41 (nbgoodclauses,nbtotalgood,precisionGood,recallGood,FGood,nbbadclause,nbtotalbad,precisionBad,recallBad,FBad,accuracy)
c additional predictionFinallLBD 30 645786 198571 0.31 1.00 0.47 26416 473631 0.99 0.06 0.10 0.33 (nbgoodclauses,nbtotalgood,precisionGood,recallGood,FGood,nbbadclause,nbtotalbad,precisionBad,recallBad,FBad,accuracy)
c additional predictionFinallLBD 40 664561 198571 0.30 1.00 0.46 7641 473631 1.00 0.02 0.03 0.31 (nbgoodclauses,nbtotalgood,precisionGood,recallGood,FGood,nbbadclause,nbtotalbad,precisionBad,recallBad,FBad,accuracy)
c additional predictionSize 1 47 198571 0.98 0.00 0.00 672155 473631 0.70 2.39 1.09 0.70 (nbgoodclauses,nbtotalgood,precisionGood,recallGood,FGood,nbbadclause,nbtotalbad,precisionBad,recallBad,FBad,accuracy)
c additional predictionSize 2 1466 198571 0.95 0.01 0.01 670736 473631 0.71 2.38 1.09 0.71 (nbgoodclauses,nbtotalgood,precisionGood,recallGood,FGood,nbbadclause,nbtotalbad,precisionBad,recallBad,FBad,accuracy)
c additional predictionSize 3 9865 198571 0.90 0.04 0.09 662337 473631 0.71 2.38 1.10 0.72 (nbgoodclauses,nbtotalgood,precisionGood,recallGood,FGood,nbbadclause,nbtotalbad,precisionBad,recallBad,FBad,accuracy)
c additional predictionSize 4 12415 198571 0.86 0.05 0.10 659787 473631 0.72 2.38 1.10 0.72 (nbgoodclauses,nbtotalgood,precisionGood,recallGood,FGood,nbbadclause,nbtotalbad,precisionBad,recallBad,FBad,accuracy)
c additional predictionSize 5 14820 198571 0.84 0.06 0.12 657382 473631 0.72 2.37 1.10 0.72 (nbgoodclauses,nbtotalgood,precisionGood,recallGood,FGood,nbbadclause,nbtotalbad,precisionBad,recallBad,FBad,accuracy)
c additional predictionSize 6 17230 198571 0.82 0.07 0.13 654972 473631 0.72 2.37 1.10 0.72 (nbgoodclauses,nbtotalgood,precisionGood,recallGood,FGood,nbbadclause,nbtotalbad,precisionBad,recallBad,FBad,accuracy)
c additional predictionSize 7 19902 198571 0.80 0.08 0.15 652300 473631 0.72 2.37 1.10 0.72 (nbgoodclauses,nbtotalgood,precisionGood,recallGood,FGood,nbbadclause,nbtotalbad,precisionBad,recallBad,FBad,accuracy)
c additional predictionSize 8 23153 198571 0.78 0.09 0.16 649049 473631 0.72 2.36 1.11 0.72 (nbgoodclauses,nbtotalgood,precisionGood,recallGood,FGood,nbbadclause,nbtotalbad,precisionBad,recallBad,FBad,accuracy)
c additional predictionSize 10 31145 198571 0.74 0.12 0.20 641057 473631 0.73 2.34 1.11 0.73 (nbgoodclauses,nbtotalgood,precisionGood,recallGood,FGood,nbbadclause,nbtotalbad,precisionBad,recallBad,FBad,accuracy)
c additional predictionSize 14 55256 198571 0.66 0.18 0.29 616946 473631 0.74 2.29 1.12 0.73 (nbgoodclauses,nbtotalgood,precisionGood,recallGood,FGood,nbbadclause,nbtotalbad,precisionBad,recallBad,FBad,accuracy)
c additional predictionSize 18 95366 198571 0.58 0.28 0.37 576836 473631 0.75 2.18 1.12 0.73 (nbgoodclauses,nbtotalgood,precisionGood,recallGood,FGood,nbbadclause,nbtotalbad,precisionBad,recallBad,FBad,accuracy)
c additional predictionSize 22 123833 198571 0.54 0.33 0.41 548369 473631 0.76 2.10 1.11 0.72 (nbgoodclauses,nbtotalgood,precisionGood,recallGood,FGood,nbbadclause,nbtotalbad,precisionBad,recallBad,FBad,accuracy)
c additional predictionSize 30 175441 198571 0.48 0.43 0.45 496761 473631 0.77 1.93 1.10 0.70 (nbgoodclauses,nbtotalgood,precisionGood,recallGood,FGood,nbbadclause,nbtotalbad,precisionBad,recallBad,FBad,accuracy)
c additional predictionSize 40 235197 198571 0.43 0.51 0.47 437005 473631 0.78 1.71 1.07 0.66 (nbgoodclauses,nbtotalgood,precisionGood,recallGood,FGood,nbbadclause,nbtotalbad,precisionBad,recallBad,FBad,accuracy)
c additional predictionAge 1 24173 198571 0.51 0.06 0.11 648029 473631 0.71 2.33 1.09 0.71 (nbgoodclauses,nbtotalgood,precisionGood,recallGood,FGood,nbbadclause,nbtotalbad,precisionBad,recallBad,FBad,accuracy)
c additional predictionAge 10 30953 198571 0.45 0.07 0.12 641249 473631 0.71 2.30 1.09 0.70 (nbgoodclauses,nbtotalgood,precisionGood,recallGood,FGood,nbbadclause,nbtotalbad,precisionBad,recallBad,FBad,accuracy)
c additional predictionAge 25 37835 198571 0.41 0.08 0.13 634367 473631 0.71 2.27 1.08 0.69 (nbgoodclauses,nbtotalgood,precisionGood,recallGood,FGood,nbbadclause,nbtotalbad,precisionBad,recallBad,FBad,accuracy)
c additional predictionAge 50 42074 198571 0.39 0.08 0.14 630128 473631 0.71 2.26 1.08 0.69 (nbgoodclauses,nbtotalgood,precisionGood,recallGood,FGood,nbbadclause,nbtotalbad,precisionBad,recallBad,FBad,accuracy)
c additional predictionAge 100 46744 198571 0.38 0.09 0.14 625458 473631 0.71 2.24 1.08 0.69 (nbgoodclauses,nbtotalgood,precisionGood,recallGood,FGood,nbbadclause,nbtotalbad,precisionBad,recallBad,FBad,accuracy)
c additional predictionAge 250 52505 198571 0.37 0.10 0.15 619697 473631 0.71 2.22 1.08 0.68 (nbgoodclauses,nbtotalgood,precisionGood,recallGood,FGood,nbbadclause,nbtotalbad,precisionBad,recallBad,FBad,accuracy)
c additional predictionAge 500 56905 198571 0.36 0.10 0.16 615297 473631 0.71 2.20 1.08 0.68 (nbgoodclauses,nbtotalgood,precisionGood,recallGood,FGood,nbbadclause,nbtotalbad,precisionBad,recallBad,FBad,accuracy)
c additional predictionAge 1000 61490 198571 0.36 0.11 0.17 610712 473631 0.71 2.19 1.07 0.68 (nbgoodclauses,nbtotalgood,precisionGood,recallGood,FGood,nbbadclause,nbtotalbad,precisionBad,recallBad,FBad,accuracy)
c additional predictionAge 2500 68389 198571 0.36 0.13 0.19 603813 473631 0.71 2.17 1.07 0.68 (nbgoodclauses,nbtotalgood,precisionGood,recallGood,FGood,nbbadclause,nbtotalbad,precisionBad,recallBad,FBad,accuracy)
c additional predictionAge 5000 74903 198571 0.36 0.14 0.20 597299 473631 0.71 2.14 1.07 0.67 (nbgoodclauses,nbtotalgood,precisionGood,recallGood,FGood,nbbadclause,nbtotalbad,precisionBad,recallBad,FBad,accuracy)
c additional predictionAge 10000 84561 198571 0.36 0.15 0.22 587641 473631 0.71 2.11 1.07 0.67 (nbgoodclauses,nbtotalgood,precisionGood,recallGood,FGood,nbbadclause,nbtotalbad,precisionBad,recallBad,FBad,accuracy)
c additional predictionAge 25000 110754 198571 0.35 0.20 0.25 561448 473631 0.72 2.02 1.06 0.66 (nbgoodclauses,nbtotalgood,precisionGood,recallGood,FGood,nbbadclause,nbtotalbad,precisionBad,recallBad,FBad,accuracy)
c additional predictionAge 50000 152320 198571 0.35 0.27 0.30 519882 473631 0.72 1.88 1.04 0.63 (nbgoodclauses,nbtotalgood,precisionGood,recallGood,FGood,nbbadclause,nbtotalbad,precisionBad,recallBad,FBad,accuracy)
c additional predictionAge 100000 231852 198571 0.34 0.39 0.36 440350 473631 0.73 1.61 1.00 0.59 (nbgoodclauses,nbtotalgood,precisionGood,recallGood,FGood,nbbadclause,nbtotalbad,precisionBad,recallBad,FBad,accuracy)
c additional predictionTicks 1 24756 198571 0.51 0.06 0.11 647446 473631 0.71 2.32 1.09 0.71 (nbgoodclauses,nbtotalgood,precisionGood,recallGood,FGood,nbbadclause,nbtotalbad,precisionBad,recallBad,FBad,accuracy)
c additional predictionTicks 10 65216 198571 0.39 0.13 0.19 606986 473631 0.72 2.19 1.08 0.68 (nbgoodclauses,nbtotalgood,precisionGood,recallGood,FGood,nbbadclause,nbtotalbad,precisionBad,recallBad,FBad,accuracy)
c additional predictionTicks 25 99116 198571 0.36 0.18 0.24 573086 473631 0.72 2.07 1.06 0.66 (nbgoodclauses,nbtotalgood,precisionGood,recallGood,FGood,nbbadclause,nbtotalbad,precisionBad,recallBad,FBad,accuracy)
c additional predictionTicks 50 125583 198571 0.35 0.22 0.27 546619 473631 0.72 1.98 1.05 0.65 (nbgoodclauses,nbtotalgood,precisionGood,recallGood,FGood,nbbadclause,nbtotalbad,precisionBad,recallBad,FBad,accuracy)
c additional predictionTicks 100 157595 198571 0.35 0.28 0.31 514607 473631 0.72 1.87 1.04 0.63 (nbgoodclauses,nbtotalgood,precisionGood,recallGood,FGood,nbbadclause,nbtotalbad,precisionBad,recallBad,FBad,accuracy)
c additional predictionTicks 250 200451 198571 0.34 0.35 0.35 471751 473631 0.73 1.72 1.02 0.61 (nbgoodclauses,nbtotalgood,precisionGood,recallGood,FGood,nbbadclause,nbtotalbad,precisionBad,recallBad,FBad,accuracy)
c additional predictionTicks 500 236171 198571 0.34 0.41 0.37 436031 473631 0.73 1.60 1.00 0.59 (nbgoodclauses,nbtotalgood,precisionGood,recallGood,FGood,nbbadclause,nbtotalbad,precisionBad,recallBad,FBad,accuracy)
c additional predictionTicks 1000 274189 198571 0.34 0.47 0.40 398013 473631 0.74 1.48 0.98 0.58 (nbgoodclauses,nbtotalgood,precisionGood,recallGood,FGood,nbbadclause,nbtotalbad,precisionBad,recallBad,FBad,accuracy)
c additional predictionTicks 2500 328600 198571 0.34 0.56 0.43 343602 473631 0.75 1.29 0.95 0.55 (nbgoodclauses,nbtotalgood,precisionGood,recallGood,FGood,nbbadclause,nbtotalbad,precisionBad,recallBad,FBad,accuracy)
c additional predictionTicks 5000 376411 198571 0.34 0.64 0.44 295791 473631 0.76 1.13 0.90 0.52 (nbgoodclauses,nbtotalgood,precisionGood,recallGood,FGood,nbbadclause,nbtotalbad,precisionBad,recallBad,FBad,accuracy)
c additional predictionTicks 10000 433887 198571 0.33 0.72 0.45 238315 473631 0.76 0.92 0.83 0.48 (nbgoodclauses,nbtotalgood,precisionGood,recallGood,FGood,nbbadclause,nbtotalbad,precisionBad,recallBad,FBad,accuracy)
c additional predictionTicks 25000 531867 198571 0.31 0.84 0.46 140335 473631 0.78 0.55 0.64 0.41 (nbgoodclauses,nbtotalgood,precisionGood,recallGood,FGood,nbbadclause,nbtotalbad,precisionBad,recallBad,FBad,accuracy)
c additional predictionTicks 50000 605190 198571 0.30 0.93 0.46 67012 473631 0.78 0.26 0.39 0.35 (nbgoodclauses,nbtotalgood,precisionGood,recallGood,FGood,nbbadclause,nbtotalbad,precisionBad,recallBad,FBad,accuracy)
c additional predictionTicks 100000 653249 198571 0.30 0.98 0.46 18953 473631 0.79 0.08 0.14 0.31 (nbgoodclauses,nbtotalgood,precisionGood,recallGood,FGood,nbbadclause,nbtotalbad,precisionBad,recallBad,FBad,accuracy)
c additional lifetimeGood 1 4 16 284 21500 94580 207395 342645 436815 567842 672048 672168 (0,1,5,10,25,50,75,90,95,99,100-1,100)
c additional lifetimeBad 1 4 12 88 20388 92784 210558 363988 455017 580826 671870 671874 (0,1,5,10,25,50,75,90,95,99,100-1,100)
c additional lifetimeBadBad 4 4 4 4 12 252 37163 122032 180654 333114 657411 657415 (0,1,5,10,25,50,75,90,95,99,100-1,100)
c additional compositionBad 1 2 4 6 11 25 53 98 137 245 927 1098 (0,1,5,10,25,50,75,90,95,99,100-1,100)
c additional compositionBadWithGood 0 0 0 1 2 6 13 24 34 59 244 246 (0,1,5,10,25,50,75,90,95,99,100-1,100)
c additional compositionBadWithBad 0 0 0 0 1 1 3 6 8 16 82 87 (0,1,5,10,25,50,75,90,95,99,100-1,100)
c additional compositionBadWithInitial 0 1 2 3 7 17 38 71 101 185 714 909 (0,1,5,10,25,50,75,90,95,99,100-1,100)
c additional compositionGood 1 2 3 3 6 15 41 88 133 260 922 1228 (0,1,5,10,25,50,75,90,95,99,100-1,100)
c additional compositionGoodWithGood 0 0 0 1 2 5 13 26 39 71 245 266 (0,1,5,10,25,50,75,90,95,99,100-1,100)
c additional compositionGoodWithInitial 0 0 1 2 4 10 28 62 96 195 707 1009 (0,1,5,10,25,50,75,90,95,99,100-1,100)
c additional propagationGood total 14920534 percentiles 0 1 1 1 1 4 28 129 308 1263 17523 18430 (0,1,5,10,25,50,75,90,95,99,100-1,100)
c additional propagationBad total 2498847 percentiles 1 1 1 1 1 1 3 7 15 67 4419 5338 (0,1,5,10,25,50,75,90,95,99,100-1,100)
c additional resolutionGood total 4736639 percentiles 0 1 1 1 1 3 13 49 103 345 6659 7801 (0,1,5,10,25,50,75,90,95,99,100-1,100)
c additional resolutionBad total 1115452 percentiles 0 0 0 0 1 1 2 4 7 25 664 709 (0,1,5,10,25,50,75,90,95,99,100-1,100)
Computing K-Core for 736113 clauses...
c building structure for KCore computation.
c the graph has 26817865 edges, maxdegree=1228
c we start the KCore with the value 20
c Non directed graph built
K=20,262307 nodes removed so far
K=21,276763 nodes removed so far
K=22,290688 nodes removed so far
K=23,304018 nodes removed so far
K=24,316786 nodes removed so far
K=25,328780 nodes removed so far
K=26,340367 nodes removed so far
K=27,351419 nodes removed so far
K=28,361983 nodes removed so far
K=29,372221 nodes removed so far
K=30,382056 nodes removed so far
K=31,391639 nodes removed so far
K=32,400561 nodes removed so far
K=33,409256 nodes removed so far
K=34,417531 nodes removed so far
K=35,425490 nodes removed so far
K=36,433078 nodes removed so far
K=37,440482 nodes removed so far
K=38,447668 nodes removed so far
K=39,454648 nodes removed so far
K=40,461344 nodes removed so far
K=41,467839 nodes removed so far
K=42,474055 nodes removed so far
K=43,480188 nodes removed so far
K=44,486026 nodes removed so far
K=45,491622 nodes removed so far
K=46,497059 nodes removed so far
K=47,502524 nodes removed so far
K=48,507595 nodes removed so far
K=49,512667 nodes removed so far
K=50,517635 nodes removed so far
K=51,522389 nodes removed so far
K=52,526785 nodes removed so far
K=53,531193 nodes removed so far
K=54,535477 nodes removed so far
K=55,539765 nodes removed so far
K=56,543730 nodes removed so far
K=57,547552 nodes removed so far
K=58,551362 nodes removed so far
K=59,555109 nodes removed so far
K=60,558726 nodes removed so far
K=61,562406 nodes removed so far
K=62,565980 nodes removed so far
K=63,569258 nodes removed so far
K=64,572717 nodes removed so far
K=65,575960 nodes removed so far
K=66,579270 nodes removed so far
K=67,582485 nodes removed so far
K=68,585457 nodes removed so far
K=69,588429 nodes removed so far
K=70,591336 nodes removed so far
K=71,594069 nodes removed so far
K=72,596892 nodes removed so far
K=73,599490 nodes removed so far
K=74,602044 nodes removed so far
K=75,604650 nodes removed so far
K=76,607165 nodes removed so far
K=77,609546 nodes removed so far
K=78,611807 nodes removed so far
K=79,614102 nodes removed so far
K=80,616389 nodes removed so far
K=81,K=82,620788 nodes removed so far
K=83,K=84,K=85,K=86,K=87,630950 nodes removed so far
K=88,K=89,K=90,K=91,K=92,640075 nodes removed so far
K=93,K=94,K=95,K=96,K=97,K=98,K=99,650933 nodes removed so far
K=100,K=101,K=102,K=103,K=104,K=105,K=106,K=107,660935 nodes removed so far
K=108,K=109,K=110,K=111,K=112,K=113,K=114,K=115,K=116,670151 nodes removed so far
K=117,K=118,K=119,K=120,K=121,K=122,K=123,K=124,K=125,K=126,K=127,K=128,680275 nodes removed so far
K=129,K=130,K=131,K=132,K=133,K=134,K=135,K=136,K=137,690289 nodes removed so far
K=138,K=139,K=140,K=141,K=142,K=143,K=144,K=145,K=146,K=147,K=148,K=149,K=150,K=151,K=152,K=153,K=154,K=155,K=156,704023 nodes removed so far
KCore = 156
Building structure for PR...
Computing PR...
Pageranking 631475 nodes done in 18 iteration. cumulError=2.65752e-11
clause level 178 (Kante=121, Kdesc=97116, core=2):-39 
clause level 329 (Kante=163, Kdesc=109532, core=3):-671 
clause level 106 (Kante=146, Kdesc=74646, core=1):-1 
clause level 373 (Kante=6, Kdesc=96007, core=0):613 
clause level 570 (Kante=3, Kdesc=64211, core=3):609 
clause level 567 (Kante=555, Kdesc=49947, core=3):210 
clause level 473 (Kante=221, Kdesc=59213, core=3):-639 
clause level 308 (Kante=16, Kdesc=20013, core=3):72 -70 
clause level 424 (Kante=233, Kdesc=44386, core=2):-633 
clause level 318 (Kante=11, Kdesc=15982, core=3):70 -617 
clause level 376 (Kante=16, Kdesc=45312, core=2):-37 -210 
clause level 374 (Kante=19, Kdesc=45350, core=3):-808 
clause level 354 (Kante=22, Kdesc=33199, core=2):-170 
clause level 617 (Kante=119, Kdesc=36904, core=1):-584 
clause level 32 (Kante=128, Kdesc=19325, core=1):208 -207 
clause level 3 (Kante=3, Kdesc=11351, core=0):617 586 594 
clause level 181 (Kante=2, Kdesc=18907, core=0):83 -84 
clause level 664 (Kante=105, Kdesc=23321, core=1):-622 
clause level 608 (Kante=388, Kdesc=24147, core=3):209 
clause level 1 (Kante=7, Kdesc=8444, core=2):580 594 586 610 614 
clause level 386 (Kante=128, Kdesc=29723, core=3):-759 1282 1285 1277 639 1272 1280 1279 1281 1278 1273 1274 1275 1276 1283 
clause level 281 (Kante=6, Kdesc=10042, core=3):43 -41 
clause level 4 (Kante=6, Kdesc=8096, core=2):-2157 618 
clause level 4 (Kante=3, Kdesc=25680, core=3):-4440 -210 
clause level 4 (Kante=3, Kdesc=25766, core=2):-4598 -210 
clause level 2 (Kante=3, Kdesc=26100, core=2):-4589 -210 
clause level 6 (Kante=5, Kdesc=6458, core=2):-2158 618 
clause level 129 (Kante=2, Kdesc=10129, core=3):-151 150 
clause level 374 (Kante=223, Kdesc=11153, core=3):-2353 
clause level 251 (Kante=3, Kdesc=23840, core=3):-4580 
clause level 435 (Kante=169, Kdesc=23109, core=3):-250 -210 808 4440 4598 193 1278 2312 4580 4589 
clause level 309 (Kante=2, Kdesc=10176, core=3):-70 71 
clause level 375 (Kante=7, Kdesc=15149, core=3):207 -72 
clause level 243 (Kante=4, Kdesc=8510, core=3):-83 -617 
clause level 429 (Kante=4, Kdesc=20427, core=3):-41 4580 1278 -210 193 37 4589 1118 
clause level 107 (Kante=32, Kdesc=8344, core=1):-68 69 779 
clause level 319 (Kante=5, Kdesc=2186, core=2):579 -43 
clause level 28 (Kante=8, Kdesc=4751, core=1):79 -1119 
clause level 55 (Kante=3, Kdesc=8071, core=2):-207 209 
clause level 2 (Kante=3, Kdesc=13716, core=0):-4436 -210 
clause level 571 (Kante=34, Kdesc=11927, core=3):-854 
clause level 1 (Kante=2, Kdesc=4113, core=2):-144 143 -210 
clause level 1 (Kante=3, Kdesc=12020, core=3):-4434 -210 
clause level 2 (Kante=2, Kdesc=3610, core=0):-147 144 -210 
clause level 375 (Kante=5, Kdesc=2293, core=0):-617 -739 854 853 
clause level 1 (Kante=2, Kdesc=3398, core=2):-213 -210 212 
clause level 249 (Kante=3, Kdesc=3834, core=3):147 -150 1528 
clause level 799 (Kante=155, Kdesc=7029, core=0):600 
clause level 3 (Kante=3, Kdesc=3627, core=3):-2 3 1062 
clause level 250 (Kante=4, Kdesc=5015, core=2):-152 150 
clause level 4 (Kante=3, Kdesc=5166, core=3):674 580 584 592 
clause level 2 (Kante=2, Kdesc=2799, core=0):-145 144 -210 
clause level 3 (Kante=30, Kdesc=4827, core=3):185 1676 -186 
clause level 1 (Kante=3, Kdesc=12031, core=3):-1187 -210 
clause level 3 (Kante=3, Kdesc=11606, core=1):-4438 -210 
clause level 2 (Kante=5, Kdesc=3968, core=3):617 583 594 
clause level 250 (Kante=4, Kdesc=3092, core=2):-148 147 
clause level 2 (Kante=3, Kdesc=10811, core=3):-4587 -210 
clause level 488 (Kante=165, Kdesc=10124, core=3):-727 -210 37 41 807 884 778 914 867 869 5255 4580 5254 250 4598 882 2347 1187 193 4438 4434 928 1732 4436 4440 853 4587 2168 4589 2078 
clause level 251 (Kante=4, Kdesc=3271, core=2):147 -149 
clause level 1 (Kante=3, Kdesc=2601, core=0):-146 144 -210 
clause level 5 (Kante=3, Kdesc=3342, core=1):-185 184 1676 1675 
clause level 179 (Kante=5, Kdesc=4169, core=0):-37 778 -579 
clause level 10 (Kante=4, Kdesc=2939, core=0):-791 83 1060 -613 
clause level 217 (Kante=4, Kdesc=2956, core=1):214 -217 
clause level 2 (Kante=24, Kdesc=2628, core=2):-253 1735 1733 1736 -687 1734 250 
clause level 3 (Kante=3, Kdesc=2622, core=1):70 1078 -69 1077 
clause level 570 (Kante=2, Kdesc=5145, core=3):618 -605 
clause level 1 (Kante=5, Kdesc=2096, core=1):617 594 590 
clause level 1 (Kante=3, Kdesc=3994, core=0):-2312 -210 
clause level 1 (Kante=32, Kdesc=1697, core=1):-4454 205 1827 
clause level 4 (Kante=3, Kdesc=1909, core=1):181 1672 -184 1673 1675 1674 1676 
clause level 6 (Kante=2, Kdesc=2825, core=1):-101 100 -629 1211 
clause level 280 (Kante=329, Kdesc=7, core=1):-41 885 43 854 780 809 870 
clause level 3 (Kante=2, Kdesc=2654, core=0):-147 145 -210 
clause level 1 (Kante=3, Kdesc=4649, core=2):-1306 -72 
clause level 3 (Kante=2, Kdesc=2266, core=2):-253 251 -687 1736 1733 1734 1735 
clause level 3 (Kante=2, Kdesc=2712, core=1):-147 -210 146 
clause level 1 (Kante=3, Kdesc=2790, core=1):-1202 -73 -209 
clause level 4 (Kante=3, Kdesc=3211, core=0):-783 -143 610 614 -211 
clause level 7 (Kante=7, Kdesc=2927, core=0):-185 184 1060 1061 -613 
clause level 1 (Kante=3, Kdesc=4021, core=2):-1305 -71 
clause level 108 (Kante=3, Kdesc=1902, core=3):-126 812 808 -583 810 39 809 807 811 127 
clause level 251 (Kante=6, Kdesc=2910, core=1):-856 617 1528 580 614 
clause level 375 (Kante=11, Kdesc=2837, core=3):-809 -143 
clause level 1 (Kante=3, Kdesc=2958, core=3):-4575 -210 
clause level 1 (Kante=3, Kdesc=2210, core=0):-1203 -74 -210 
clause level 377 (Kante=6, Kdesc=2862, core=2):579 622 743 
clause level 1 (Kante=3, Kdesc=3600, core=3):-1724 -71 -207 
clause level 570 (Kante=2, Kdesc=2942, core=2):-579 -617 
clause level 2 (Kante=27, Kdesc=1396, core=3):167 1661 1660 -168 
clause level 5 (Kante=2, Kdesc=1876, core=3):-252 1736 1734 1733 -687 250 1735 
clause level 374 (Kante=4, Kdesc=1471, core=3):72 -71 -609 
clause level 1 (Kante=3, Kdesc=2716, core=1):-1200 -71 -207 
clause level 5 (Kante=3, Kdesc=1977, core=3):-828 617 -211 
clause level 1 (Kante=3, Kdesc=2928, core=2):-1304 -70 
clause level 6 (Kante=4, Kdesc=1721, core=1):321 -695 -322 1796 
clause level 1 (Kante=3, Kdesc=1950, core=3):-1201 -72 -208 
clause level 1 (Kante=7, Kdesc=2840, core=3):-855 -209 580 614 
clause level 7 (Kante=2, Kdesc=1210, core=2):-135 -609 84 134 
clause level 5 (Kante=2, Kdesc=1499, core=3):-99 150 98 -629 1211 151 
clause level 1 (Kante=7, Kdesc=2007, core=2):713 727 610 671 580 589 633 
clause level 2 (Kante=4, Kdesc=1828, core=3):-1726 618 -209 
clause level 5 (Kante=3, Kdesc=1982, core=1):-4447 -210 
clause level 3 (Kante=27, Kdesc=781, core=3):-254 -687 1736 1735 251 252 
clause level 381 (Kante=5, Kdesc=1811, core=0):635 590 
clause level 6 (Kante=2, Kdesc=1659, core=2):-254 253 -617 1121 
clause level 843 (Kante=482, Kdesc=1347, core=3):679 
clause level 1 (Kante=3, Kdesc=1570, core=3):-1727 -210 -74 
clause level 6 (Kante=2, Kdesc=2041, core=3):253 -254 1736 -687 
clause level 9 (Kante=2, Kdesc=1243, core=3):258 -256 1122 68 1123 -619 
clause level 1 (Kante=3, Kdesc=2183, core=0):-1589 -208 -72 
clause level 1 (Kante=3, Kdesc=1616, core=2):-1725 -208 -72 
clause level 4 (Kante=30, Kdesc=1516, core=0):-4539 1076 1075 
clause level 282 (Kante=5, Kdesc=1938, core=3):-242 778 -70 823 -208 
clause level 1 (Kante=3, Kdesc=1196, core=0):-2356 -72 -208 -140 
clause level 179 (Kante=5, Kdesc=1453, core=3):-4400 -583 808 807 
clause level 1 (Kante=3, Kdesc=1372, core=2):-1307 -73 
clause level 1 (Kante=5, Kdesc=983, core=0):739 659 628 
clause level 1 (Kante=3, Kdesc=1830, core=1):-1725 -208 -72 
clause level 1 (Kante=3, Kdesc=1437, core=1):-1309 -211 -143 
clause level 1 (Kante=3, Kdesc=1368, core=3):-2355 -71 -207 -139 
clause level 1 (Kante=3, Kdesc=1677, core=3):-1261 -72 
clause level 568 (Kante=4, Kdesc=1511, core=2):-1427 
clause level 9 (Kante=2, Kdesc=930, core=3):-321 1794 1796 1795 -695 320 
clause level 1 (Kante=3, Kdesc=1430, core=0):-2339 -72 
clause level 1 (Kante=3, Kdesc=1256, core=2):-1200 -207 -71 
clause level 4 (Kante=3, Kdesc=1419, core=3):671 589 633 580 713 727 
clause level 180 (Kante=5, Kdesc=1088, core=3):-210 213 888 887 884 885 882 886 889 -593 
clause level 108 (Kante=6, Kdesc=1042, core=3):214 890 885 887 882 883 886 884 888 -593 -210 889 -212 
clause level 181 (Kante=3, Kdesc=1031, core=3):-273 617 639 759 70 605 -613 -609 1004 1109 778 1110 780 1111 275 1139 1003 
clause level 181 (Kante=7, Kdesc=1013, core=3):-4663 69 -619 1123 68 
clause level 1 (Kante=3, Kdesc=1762, core=0):-1981 -72 
clause level 1 (Kante=3, Kdesc=1464, core=0):-2338 -70 
clause level 8 (Kante=3, Kdesc=1150, core=3):-101 99 150 1211 -629 151 
clause level 6 (Kante=2, Kdesc=1343, core=3):1242 -85 1243 1245 89 -635 1246 1244 
clause level 3 (Kante=5, Kdesc=1374, core=3):600 622 680 759 584 610 
clause level 7 (Kante=3, Kdesc=778, core=3):-288 -621 1149 1151 1150 84 284 
clause level 1 (Kante=3, Kdesc=1491, core=2):-1980 -71 
clause level 6 (Kante=3, Kdesc=875, core=3):69 240 1117 -617 1112 1109 1120 1121 1113 1116 253 1118 1110 1119 1111 1115 1114 
clause level 7 (Kante=2, Kdesc=1032, core=3):-251 1733 1735 1736 -687 250 1734 
clause level 1 (Kante=3, Kdesc=1411, core=3):-1979 -70 
clause level 374 (Kante=41, Kdesc=1273, core=3):70 1115 639 621 759 
clause level 296 (Kante=195, Kdesc=926, core=3):-605 617 856 1004 70 1064 -579 974 -609 -613 671 1116 1114 1079 1115 1536 614 1117 1541 1531 1113 1111 1112 1110 1109 1535 1107 1534 1121 1120 1119 1118 1537 1538 1108 580 1169 1123 1139 1532 1033 
clause level 4 (Kante=3, Kdesc=628, core=3):-4336 -70 
clause level 7 (Kante=4, Kdesc=1060, core=3):-2094 1989 -713 29 1946 1676 1675 
clause level 1 (Kante=3, Kdesc=1263, core=3):-1426 -72 
clause level 179 (Kante=5, Kdesc=793, core=3):-4402 809 808 -583 807 
clause level 1 (Kante=5, Kdesc=1053, core=2):611 748 644 636 605 625 
clause level 6 (Kante=4, Kdesc=819, core=3):-4343 1242 1243 -635 
clause level 7 (Kante=3, Kdesc=830, core=3):-255 256 68 -619 
clause level 6 (Kante=3, Kdesc=767, core=3):-272 -743 2187 273 2188 
clause level 6 (Kante=5, Kdesc=1185, core=1):-2005 1765 184 1676 
clause level 7 (Kante=5, Kdesc=579, core=0):-1196 100 -629 
clause level 181 (Kante=3, Kdesc=799, core=3):-4661 69 -619 
clause level 1 (Kante=3, Kdesc=1255, core=2):-1440 -72 -208 
clause level 1 (Kante=3, Kdesc=918, core=0):-1425 -71 
clause level 8 (Kante=16, Kdesc=744, core=3):-2352 -619 -621 2353 1137 
clause level 4 (Kante=2, Kdesc=833, core=1):86 -1302 -635 
clause level 1 (Kante=3, Kdesc=940, core=3):-1424 -70 
clause level 1 (Kante=3, Kdesc=1042, core=0):-1185 -72 
clause level 9 (Kante=3, Kdesc=797, core=2):69 1002 -4518 
clause level 1 (Kante=3, Kdesc=776, core=0):-1183 -70 
clause level 1 (Kante=3, Kdesc=803, core=0):-1184 -71 
clause level 1 (Kante=3, Kdesc=735, core=0):-1996 -73 -209 -141 
clause level 3 (Kante=6, Kdesc=667, core=3):-1257 86 -635 1243 
clause level 8 (Kante=2, Kdesc=879, core=3):98 150 -629 -100 1211 151 
clause level 6 (Kante=8, Kdesc=708, core=3):-204 1109 83 1736 1120 1115 1118 1111 1113 1110 1117 1114 1112 -617 1116 1119 2158 2159 2157 -209 
clause level 357 (Kante=2, Kdesc=873, core=3):-183 1672 1676 1675 1673 1674 181 
clause level 1 (Kante=3, Kdesc=583, core=0):-1995 -140 -208 -72 
clause level 1 (Kante=3, Kdesc=728, core=0):-1590 -73 -209 
clause level 1 (Kante=3, Kdesc=798, core=2):-1439 -71 -207 
clause level 11 (Kante=2, Kdesc=442, core=3):-96 -629 1208 150 1211 95 148 151 1210 1209 -210 
clause level 436 (Kante=110, Kdesc=463, core=3):579 1119 -119 808 2312 759 
clause level 506 (Kante=381, Kdesc=144, core=3):-816 -214 -146 -79 4427 -147 2167 1252 4580 921 4429 1312 1313 2345 2346 1431 1432 1192 1191 4444 1596 4435 4590 4441 4442 1266 1116 2077 2076 981 861 198 197 5261 4327 4561 4586 
clause level 367 (Kante=282, Kdesc=242, core=2):-2025 -713 673 1550 714 1542 1547 1546 1545 1554 1553 1551 1552 1555 1548 1549 1556 1544 1543 
clause level 533 (Kante=327, Kdesc=3, core=3):4605 4633 4573 2204 2202 1398 1397 1432 1430 1431 1396 1395 1393 1394 1392 43 205 4454 4397 4575 4456 4518 4486 2217 2144 2143 2142 204 2205 2206 2208 2203 2207 989 988 4431 4492 4308 4523 4402 4331 4462 1141 1140 1296 1155 1156 210 1245 1242 1244 1243 1247 1246 2146 208 2145 961 72 2346 2345 2347 2218 4400 4490 4429 4460 4521 206 4693 4427 4519 4488 4458 1558 1557 -79 891 882 886 -214 888 885 890 884 887 892 962 933 930 47 901 796 795 4572 900 4574 2241 49 963 798 945 949 948 1110 780 2220 2221 2222 2188 2187 1191 904 903 -145 828 829 810 51 816 -147 782 784 783 -80 282 2158 2162 2161 2160 2157 1697 1696 1694 1692 1693 2159 814 813 1948 1950 1949 1952 207 2219 4582 4433 4494 4525 4464 1095 1094 976 1559 1560 96 97 4337 1313 2039 209 2043 1831 1832 1829 2173 2189 2175 2174 2177 2178 2176 1561 1562 2192 2191 2077 2193 1080 1082 1081 1830 2190 858 1208 1252 854 860 861 831 827 2167 1005 1006 1266 934 931 1125 1695 855 1253 71 812 2040 2172 4496 1019 1020 1828 2038 1312 857 197 198 4590 4444 2076 4586 4435 5261 4443 4560 4576 4328 905 815 785 41 947 951 965 797 800 55 937 4315 846 944 4304 794 45 53 902 799 950 946 964 -1027 196 1951 1035 4584 4581 1050 1049 1222 1190 1192 1209 4309 1034 4561 859 830 4577 4310 4316 4440 1065 826 4442 
clause level 566 (Kante=298, Kdesc=1, core=3):-282 2222 2221 4433 4494 4525 4464 206 4693 4519 4488 4458 989 988 4331 4523 4492 4402 4462 4431 1155 1156 1296 4572 1110 2188 1243 205 4454 4397 4486 4456 4518 4575 1242 2218 4423 1125 780 2159 210 2162 2157 2160 2158 2161 1095 1094 -147 4429 4490 4460 4521 4400 47 902 1190 1191 1192 1430 1432 1431 796 45 795 1558 -146 2167 249 1245 1244 1247 1246 -79 813 812 72 810 815 -214 1561 1562 1049 1559 1050 831 1141 1697 1695 1694 1696 1693 1140 4444 55 920 1950 1952 207 1065 71 1949 2039 784 1948 1006 1005 1692 4496 1312 2076 2043 785 2345 892 965 857 860 814 1266 976 854 858 884 2193 887 891 885 882 886 890 888 1081 1080 2191 2190 2189 2192 208 209 1082 4590 4315 4440 1595 2177 2175 800 1394 1396 1397 1395 1398 2174 2176 2178 5261 1829 1830 1828 1831 1832 1034 1035 4435 4584 2144 2145 2146 2204 2207 2205 2206 2143 4443 905 4441 846 2173 1020 2142 197 198 1019 1560 876 816 830 859 861 829 49 51 783 43 53 827 828 826 -145 2203 799 1393 950 951 949 903 2208 1252 4577 96 904 4581 1221 797 947 4576 4328 4579 845 844 841 843 933 931 935 937 934 936 1596 962 872 870 875 874 873 964 963 1313 4558 4561 798 945 948 961 918 919 921 917 2077 842 932 871 196 2242 41 782 2040 2038 1208 1267 944 794 4304 840 930 869 900 4574 2220 2219 1170 1951 960 781 204 2187 2217 4427 1392 2202 1557 855 4559 4308 2331 2037 2172 4573 1827 946 4337 2346 1297 916 915 4560 975 
clause level 1 (Kante=3, Kdesc=360, core=3):-1364 -70 -206 -138 
clause level 179 (Kante=16, Kdesc=364, core=3):-35 45 47 43 41 37 874 876 878 879 877 875 873 881 880 1691 1690 1689 591 
clause level 200 (Kante=469, Kdesc=56, core=3):-810 51 -76 808 2074 813 858 791 889 829 935 798 918 874 4314 5258 1076 1061 904 963 2343 2314 1189 2239 1136 1121 84 1091 195 844 1001 986 1181 
clause level 465 (Kante=284, Kdesc=7, core=3):119 2002 -719 2320 2311 2313 2315 1148 2312 2316 2317 2314 2318 2321 2319 720 2310 2307 2308 759 284 2199 1763 939 1462 2309 1612 
Found 1931 good successive clauses in order (1749 originals, maxlevel=843)
c KCorePR 736113 156 1931 1749 843
c DistanceTo...Unseen 37041
c DistanceToGoodKCore c   DIST 0: 1931 (+1931) / 1931 (+1931)
c   DIST 1: 540955 (+539024) / 140891 (+138960)
c   DIST 2: 684382 (+143427) / 219792 (+78901)
c   DIST 3: 695083 (+10701) / 223370 (+3578)
c   DIST 4: 697549 (+2466) / 224020 (+650)
c   DIST 5: 698307 (+758) / 224172 (+152)
c   DIST 6: 698640 (+333) / 224235 (+63)
c   DIST 7: 698824 (+184) / 224274 (+39)
c   DIST 8: 698943 (+119) / 224298 (+24)
c   DIST 9: 698999 (+56) / 224307 (+9)
c   DIST 10: 699035 (+36) / 224311 (+4)
c   DIST 11: 699050 (+15) / 224312 (+1)
c   DIST 12: 699063 (+13) / 224313 (+1)
c   DIST 13: 699067 (+4) / 224313 (+0)
c   DIST 14: 699070 (+3) / 224313 (+0)
c   DIST 15: 699072 (+2) / 224313 (+0)
c TotalDistance=736113
No graph is dumped
c result of core 1 is UNSAT
c One thread has finished
c Core 1 said it finished
c result of core 3 is UNKNOWN
c result of core 2 is UNKNOWN
c result of core 0 is UNKNOWN
c restarts              : 546 (307 conflicts in avg)
c blocked restarts      : 926 (multiple: 225) 
c last block at restart : 546
c nb ReduceDB           : 10
c nb removed Clauses    : 134313
c nb learnts DL2        : 1131
c nb learnts size 2     : 454
c nb learnts size 1     : 14
c conflicts             : 168051         (358 /sec)
c decisions             : 329757         (0.00 % random) (703 /sec)
c propagations          : 32322910       (68918 /sec)
c conflict literals     : 15842155       (6.00 % deleted)
c nb reduced Clauses    : 1317
c CPU time              : 469.003 s

s INDETERMINATE
