c
c This is glucose-proof 1.0 based on  2.1 --  (thanks to MiniSAT)
c
c EXPERIMENTAL EASY PARALLEL (ROUND ROBIN) VERSION
c
c WARNING: for repeatability, setting FPU to use double precision
c Parallel version 16 solvers created.
c ========================================[ Problem Statistics ]===========================================
c |                                                                                                       |
c |  Number of variables:          5283                                                                   |
c |  Number of clauses:           63775                                                                   |
c |  Parse time:                   0.28 s                                                                 |
c |                                                                                                       |
c ========================================[ MAGIC CONSTANTS ]==============================================
c | Constants are supposed to work well together :-)                                                      |
c | however, if you find better choices, please let us known...                                           |
c |-------------------------------------------------------------------------------------------------------|
c |                                |                                |                                     |
c | - Restarts:                    | - Reduce Clause DB:            | - Minimize Asserting:               |
c |   * LBD Queue    :     50      |   * First     :   4000         |    * size <  30                     |
c |   * Trail  Queue :   5000      |   * Inc       :    300         |    * lbd  <   6                     |
c |   * K            :   0.80      |   * Special   :   1000         |                                     |
c |   * R            :   1.40      |   * Protected :  (lbd)< 30     |                                     |
c |                                |                                |                                     |
c ==================================[ Search Statistics (every  10000 conflicts) ]=========================
c |                                                                                                       |
c |          RESTARTS           |          ORIGINAL         |              LEARNT              | Progress |
c |       NB   Blocked  Avg Cfc |    Vars  Clauses Literals |   Red   Learnts    LBD2  Removed |          |
c =========================================================================================================
c |       58         0      172 |    5256    63775   311573 |     1     8001      142     3556 |  0.511 % |
c |      107        70      186 |    5255    63775   311573 |     3     6956      211    19243 |  0.530 % |
c |      129       144      232 |    5253    63775   311573 |     3    16951      241    19243 |  0.568 % |
c |      179       205      223 |    5145    63775   311573 |     4    16574      289    31085 |  2.612 % |
c |      225       277      222 |    5094    63775   311573 |     5    15290      326    44802 |  3.578 % |
c |      282       333      212 |    5012    63775   311573 |     5    25286      364    44802 |  5.130 % |
c |      326       363      214 |    4981    63775   311573 |     6    20900      396    61246 |  5.716 % |
c |      376       398      212 |    4971    63775   311573 |     6    30832      427    61246 |  5.906 % |
c empty clause found by core 5 at conflict 87656
*
c checking the resolution graph...OK
c All useful bySize 235758 clauses, percentiles 0 2 2 3 11 24 65 140 222 408 782 802 (0,1,5,10,25,50,75,90,95,99,100-1,100)
c All useless bySize 1231600 clauses, percentiles 0 4 9 15 29 61 124 226 304 465 931 934 (0,1,5,10,25,50,75,90,95,99,100-1,100)
c ProofOnly useful bySize 210923 clauses, percentiles 0 2 3 7 15 29 74 151 236 420 782 802 (0,1,5,10,25,50,75,90,95,99,100-1,100)
c ProofOnly useless bySize 1191563 clauses, percentiles 1 6 14 17 31 63 127 230 307 469 931 934 (0,1,5,10,25,50,75,90,95,99,100-1,100)
c All useful byFinalLBD 235758 clauses, percentiles 0 1 1 2 3 5 10 14 17 21 40 44 (0,1,5,10,25,50,75,90,95,99,100-1,100)
c All useless byFinalLBD 1231600 clauses, percentiles 0 2 4 5 8 13 18 24 29 42 163 164 (0,1,5,10,25,50,75,90,95,99,100-1,100)
c ProofOnly useful byFinalLBD 210923 clauses, percentiles 0 1 1 2 3 6 10 14 17 22 40 44 (0,1,5,10,25,50,75,90,95,99,100-1,100)
c ProofOnly useless byFinalLBD 1191563 clauses, percentiles 1 2 4 5 8 13 18 25 29 42 163 164 (0,1,5,10,25,50,75,90,95,99,100-1,100)
c All useful byInitialLBD 235758 clauses, percentiles 0 2 2 3 5 8 12 16 18 23 44 49 (0,1,5,10,25,50,75,90,95,99,100-1,100)
c All useless byInitialLBD 1231600 clauses, percentiles 0 3 5 6 9 14 19 25 30 42 164 167 (0,1,5,10,25,50,75,90,95,99,100-1,100)
c ProofOnly useful byInitialLBD 210923 clauses, percentiles 0 2 3 4 6 9 12 16 18 23 44 49 (0,1,5,10,25,50,75,90,95,99,100-1,100)
c ProofOnly useless byInitialLBD 1191563 clauses, percentiles 1 4 6 7 10 14 19 25 30 43 164 167 (0,1,5,10,25,50,75,90,95,99,100-1,100)
c Literals ProofOnly useful 12887305
c Literals ProofOnly useless 116611018
c additional windowsGood 1 1 1 1 1 1 1 2 2 3 7 8 (0,1,5,10,25,50,75,90,95,99,100-1,100)
c additional windowsBad 1 1 1 1 2 4 9 15 15 31 420 479 (0,1,5,10,25,50,75,90,95,99,100-1,100)
c additional 1WindowNoDecision 157113 79723 0.51 25671 11144 0.43 (nbWindowsGood,nbWindowsNoDecisionGood,nbWindowsBad,nbWindowsNoDecisionBad
c additional topclausessize all (10%,5%,1%,top) 254.16 333.72 491.59 802
c additional topclausessize proofonly (10%,5%,1%,top) 260.38 339.72 496.08 802
c additional topclausesinitialLBD all (10%,5%,1%,top) 213.24 291.59 459.42 802
c additional topclausesinitialLBD proofonly (10%,5%,1%,top) 185.57 260.38 434.22 802
c additional topclausesfinalLBD all (10%,5%,1%,top) 162.87 233.84 411.36 802
c additional topclausesfinalLBD proofonly (10%,5%,1%,top) 146.98 215.20 394.16 802
c additional predictionInitialLBD 1 77 210923 0.84 0.00 0.00 1402409 1191563 0.85 5.65 1.48 0.85 (nbgoodclauses,nbtotalgood,precisionGood,recallGood,FGood,nbbadclause,nbtotalbad,precisionBad,recallBad,FBad,accuracy)
c additional predictionInitialLBD 2 7041 210923 0.72 0.02 0.05 1395445 1191563 0.85 5.64 1.48 0.85 (nbgoodclauses,nbtotalgood,precisionGood,recallGood,FGood,nbbadclause,nbtotalbad,precisionBad,recallBad,FBad,accuracy)
c additional predictionInitialLBD 3 30502 210923 0.67 0.10 0.17 1371984 1191563 0.86 5.60 1.49 0.86 (nbgoodclauses,nbtotalgood,precisionGood,recallGood,FGood,nbbadclause,nbtotalbad,precisionBad,recallBad,FBad,accuracy)
c additional predictionInitialLBD 4 59413 210923 0.53 0.15 0.23 1343073 1191563 0.87 5.52 1.50 0.85 (nbgoodclauses,nbtotalgood,precisionGood,recallGood,FGood,nbbadclause,nbtotalbad,precisionBad,recallBad,FBad,accuracy)
c additional predictionInitialLBD 5 103775 210923 0.45 0.22 0.30 1298711 1191563 0.87 5.38 1.50 0.84 (nbgoodclauses,nbtotalgood,precisionGood,recallGood,FGood,nbbadclause,nbtotalbad,precisionBad,recallBad,FBad,accuracy)
c additional predictionInitialLBD 6 162768 210923 0.40 0.31 0.35 1239718 1191563 0.88 5.19 1.51 0.83 (nbgoodclauses,nbtotalgood,precisionGood,recallGood,FGood,nbbadclause,nbtotalbad,precisionBad,recallBad,FBad,accuracy)
c additional predictionInitialLBD 7 235893 210923 0.36 0.40 0.38 1166593 1191563 0.89 4.94 1.51 0.80 (nbgoodclauses,nbtotalgood,precisionGood,recallGood,FGood,nbbadclause,nbtotalbad,precisionBad,recallBad,FBad,accuracy)
c additional predictionInitialLBD 8 318094 210923 0.33 0.49 0.39 1084392 1191563 0.90 4.64 1.51 0.77 (nbgoodclauses,nbtotalgood,precisionGood,recallGood,FGood,nbbadclause,nbtotalbad,precisionBad,recallBad,FBad,accuracy)
c additional predictionInitialLBD 10 492858 210923 0.28 0.65 0.39 909628 1191563 0.92 3.97 1.49 0.69 (nbgoodclauses,nbtotalgood,precisionGood,recallGood,FGood,nbbadclause,nbtotalbad,precisionBad,recallBad,FBad,accuracy)
c additional predictionInitialLBD 14 820295 210923 0.22 0.86 0.35 582191 1191563 0.95 2.62 1.39 0.52 (nbgoodclauses,nbtotalgood,precisionGood,recallGood,FGood,nbbadclause,nbtotalbad,precisionBad,recallBad,FBad,accuracy)
c additional predictionInitialLBD 18 1066401 210923 0.19 0.96 0.32 336085 1191563 0.97 1.55 1.19 0.38 (nbgoodclauses,nbtotalgood,precisionGood,recallGood,FGood,nbbadclause,nbtotalbad,precisionBad,recallBad,FBad,accuracy)
c additional predictionInitialLBD 22 1219129 210923 0.17 0.99 0.29 183357 1191563 0.98 0.86 0.92 0.28 (nbgoodclauses,nbtotalgood,precisionGood,recallGood,FGood,nbbadclause,nbtotalbad,precisionBad,recallBad,FBad,accuracy)
c additional predictionInitialLBD 30 1347471 210923 0.16 1.00 0.27 55015 1191563 1.00 0.26 0.41 0.19 (nbgoodclauses,nbtotalgood,precisionGood,recallGood,FGood,nbbadclause,nbtotalbad,precisionBad,recallBad,FBad,accuracy)
c additional predictionInitialLBD 40 1387368 210923 0.15 1.00 0.26 15118 1191563 1.00 0.07 0.13 0.16 (nbgoodclauses,nbtotalgood,precisionGood,recallGood,FGood,nbbadclause,nbtotalbad,precisionBad,recallBad,FBad,accuracy)
c additional predictionFinallLBD 1 23565 210923 0.73 0.08 0.15 1378921 1191563 0.86 0.99 0.92 0.86 (nbgoodclauses,nbtotalgood,precisionGood,recallGood,FGood,nbbadclause,nbtotalbad,precisionBad,recallBad,FBad,accuracy)
c additional predictionFinallLBD 2 60782 210923 0.61 0.17 0.27 1341704 1191563 0.87 0.98 0.92 0.86 (nbgoodclauses,nbtotalgood,precisionGood,recallGood,FGood,nbbadclause,nbtotalbad,precisionBad,recallBad,FBad,accuracy)
c additional predictionFinallLBD 3 110136 210923 0.53 0.28 0.36 1292350 1191563 0.88 0.96 0.92 0.85 (nbgoodclauses,nbtotalgood,precisionGood,recallGood,FGood,nbbadclause,nbtotalbad,precisionBad,recallBad,FBad,accuracy)
c additional predictionFinallLBD 4 167036 210923 0.47 0.37 0.42 1235450 1191563 0.89 0.93 0.91 0.84 (nbgoodclauses,nbtotalgood,precisionGood,recallGood,FGood,nbbadclause,nbtotalbad,precisionBad,recallBad,FBad,accuracy)
c additional predictionFinallLBD 5 225661 210923 0.43 0.46 0.44 1176825 1191563 0.90 0.89 0.90 0.83 (nbgoodclauses,nbtotalgood,precisionGood,recallGood,FGood,nbbadclause,nbtotalbad,precisionBad,recallBad,FBad,accuracy)
c additional predictionFinallLBD 6 289005 210923 0.39 0.53 0.45 1113481 1191563 0.91 0.85 0.88 0.80 (nbgoodclauses,nbtotalgood,precisionGood,recallGood,FGood,nbbadclause,nbtotalbad,precisionBad,recallBad,FBad,accuracy)
c additional predictionFinallLBD 7 360817 210923 0.35 0.60 0.44 1041669 1191563 0.92 0.80 0.86 0.77 (nbgoodclauses,nbtotalgood,precisionGood,recallGood,FGood,nbbadclause,nbtotalbad,precisionBad,recallBad,FBad,accuracy)
c additional predictionFinallLBD 8 438174 210923 0.32 0.66 0.43 964312 1191563 0.93 0.75 0.83 0.74 (nbgoodclauses,nbtotalgood,precisionGood,recallGood,FGood,nbbadclause,nbtotalbad,precisionBad,recallBad,FBad,accuracy)
c additional predictionFinallLBD 10 594372 210923 0.27 0.77 0.40 808114 1191563 0.94 0.64 0.76 0.66 (nbgoodclauses,nbtotalgood,precisionGood,recallGood,FGood,nbbadclause,nbtotalbad,precisionBad,recallBad,FBad,accuracy)
c additional predictionFinallLBD 14 881888 210923 0.22 0.91 0.35 520598 1191563 0.96 0.42 0.59 0.49 (nbgoodclauses,nbtotalgood,precisionGood,recallGood,FGood,nbbadclause,nbtotalbad,precisionBad,recallBad,FBad,accuracy)
c additional predictionFinallLBD 18 1099561 210923 0.19 0.97 0.31 302925 1191563 0.98 0.25 0.40 0.36 (nbgoodclauses,nbtotalgood,precisionGood,recallGood,FGood,nbbadclause,nbtotalbad,precisionBad,recallBad,FBad,accuracy)
c additional predictionFinallLBD 22 1235987 210923 0.17 0.99 0.29 166499 1191563 0.99 0.14 0.24 0.27 (nbgoodclauses,nbtotalgood,precisionGood,recallGood,FGood,nbbadclause,nbtotalbad,precisionBad,recallBad,FBad,accuracy)
c additional predictionFinallLBD 30 1351531 210923 0.16 1.00 0.27 50955 1191563 1.00 0.04 0.08 0.19 (nbgoodclauses,nbtotalgood,precisionGood,recallGood,FGood,nbbadclause,nbtotalbad,precisionBad,recallBad,FBad,accuracy)
c additional predictionFinallLBD 40 1388318 210923 0.15 1.00 0.26 14168 1191563 1.00 0.01 0.02 0.16 (nbgoodclauses,nbtotalgood,precisionGood,recallGood,FGood,nbbadclause,nbtotalbad,precisionBad,recallBad,FBad,accuracy)
c additional predictionSize 1 77 210923 0.84 0.00 0.00 1402409 1191563 0.85 5.65 1.48 0.85 (nbgoodclauses,nbtotalgood,precisionGood,recallGood,FGood,nbbadclause,nbtotalbad,precisionBad,recallBad,FBad,accuracy)
c additional predictionSize 2 2595 210923 0.83 0.01 0.02 1399891 1191563 0.85 5.65 1.48 0.85 (nbgoodclauses,nbtotalgood,precisionGood,recallGood,FGood,nbbadclause,nbtotalbad,precisionBad,recallBad,FBad,accuracy)
c additional predictionSize 3 16850 210923 0.78 0.06 0.12 1385636 1191563 0.86 5.63 1.49 0.86 (nbgoodclauses,nbtotalgood,precisionGood,recallGood,FGood,nbbadclause,nbtotalbad,precisionBad,recallBad,FBad,accuracy)
c additional predictionSize 4 22720 210923 0.69 0.07 0.13 1379766 1191563 0.86 5.62 1.49 0.86 (nbgoodclauses,nbtotalgood,precisionGood,recallGood,FGood,nbbadclause,nbtotalbad,precisionBad,recallBad,FBad,accuracy)
c additional predictionSize 5 28074 210923 0.64 0.09 0.15 1374412 1191563 0.86 5.60 1.49 0.86 (nbgoodclauses,nbtotalgood,precisionGood,recallGood,FGood,nbbadclause,nbtotalbad,precisionBad,recallBad,FBad,accuracy)
c additional predictionSize 6 33375 210923 0.61 0.10 0.17 1369111 1191563 0.86 5.59 1.49 0.85 (nbgoodclauses,nbtotalgood,precisionGood,recallGood,FGood,nbbadclause,nbtotalbad,precisionBad,recallBad,FBad,accuracy)
c additional predictionSize 7 39187 210923 0.59 0.11 0.18 1363299 1191563 0.86 5.57 1.49 0.85 (nbgoodclauses,nbtotalgood,precisionGood,recallGood,FGood,nbbadclause,nbtotalbad,precisionBad,recallBad,FBad,accuracy)
c additional predictionSize 8 46278 210923 0.56 0.12 0.20 1356208 1191563 0.86 5.55 1.49 0.85 (nbgoodclauses,nbtotalgood,precisionGood,recallGood,FGood,nbbadclause,nbtotalbad,precisionBad,recallBad,FBad,accuracy)
c additional predictionSize 10 64466 210923 0.51 0.15 0.24 1338020 1191563 0.87 5.50 1.50 0.85 (nbgoodclauses,nbtotalgood,precisionGood,recallGood,FGood,nbbadclause,nbtotalbad,precisionBad,recallBad,FBad,accuracy)
c additional predictionSize 14 121724 210923 0.42 0.24 0.31 1280762 1191563 0.88 5.32 1.50 0.84 (nbgoodclauses,nbtotalgood,precisionGood,recallGood,FGood,nbbadclause,nbtotalbad,precisionBad,recallBad,FBad,accuracy)
c additional predictionSize 18 220086 210923 0.35 0.36 0.35 1182400 1191563 0.89 4.97 1.50 0.80 (nbgoodclauses,nbtotalgood,precisionGood,recallGood,FGood,nbbadclause,nbtotalbad,precisionBad,recallBad,FBad,accuracy)
c additional predictionSize 22 285725 210923 0.31 0.42 0.36 1116761 1191563 0.89 4.72 1.50 0.77 (nbgoodclauses,nbtotalgood,precisionGood,recallGood,FGood,nbbadclause,nbtotalbad,precisionBad,recallBad,FBad,accuracy)
c additional predictionSize 30 400547 210923 0.27 0.52 0.36 1001939 1191563 0.90 4.27 1.49 0.72 (nbgoodclauses,nbtotalgood,precisionGood,recallGood,FGood,nbbadclause,nbtotalbad,precisionBad,recallBad,FBad,accuracy)
c additional predictionSize 40 532699 210923 0.24 0.60 0.34 869787 1191563 0.90 3.73 1.45 0.65 (nbgoodclauses,nbtotalgood,precisionGood,recallGood,FGood,nbbadclause,nbtotalbad,precisionBad,recallBad,FBad,accuracy)
c additional predictionAge 1 45769 210923 0.33 0.07 0.12 1356717 1191563 0.86 5.50 1.48 0.84 (nbgoodclauses,nbtotalgood,precisionGood,recallGood,FGood,nbbadclause,nbtotalbad,precisionBad,recallBad,FBad,accuracy)
c additional predictionAge 10 45774 210923 0.33 0.07 0.12 1356712 1191563 0.86 5.50 1.48 0.84 (nbgoodclauses,nbtotalgood,precisionGood,recallGood,FGood,nbbadclause,nbtotalbad,precisionBad,recallBad,FBad,accuracy)
c additional predictionAge 25 48992 210923 0.32 0.07 0.12 1353494 1191563 0.86 5.49 1.48 0.84 (nbgoodclauses,nbtotalgood,precisionGood,recallGood,FGood,nbbadclause,nbtotalbad,precisionBad,recallBad,FBad,accuracy)
c additional predictionAge 50 63645 210923 0.27 0.08 0.13 1338841 1191563 0.86 5.43 1.48 0.83 (nbgoodclauses,nbtotalgood,precisionGood,recallGood,FGood,nbbadclause,nbtotalbad,precisionBad,recallBad,FBad,accuracy)
c additional predictionAge 100 71663 210923 0.25 0.09 0.13 1330823 1191563 0.86 5.40 1.48 0.82 (nbgoodclauses,nbtotalgood,precisionGood,recallGood,FGood,nbbadclause,nbtotalbad,precisionBad,recallBad,FBad,accuracy)
c additional predictionAge 250 82519 210923 0.24 0.09 0.14 1319967 1191563 0.86 5.35 1.47 0.82 (nbgoodclauses,nbtotalgood,precisionGood,recallGood,FGood,nbbadclause,nbtotalbad,precisionBad,recallBad,FBad,accuracy)
c additional predictionAge 500 91246 210923 0.23 0.10 0.14 1311240 1191563 0.86 5.32 1.47 0.81 (nbgoodclauses,nbtotalgood,precisionGood,recallGood,FGood,nbbadclause,nbtotalbad,precisionBad,recallBad,FBad,accuracy)
c additional predictionAge 1000 99354 210923 0.23 0.11 0.15 1303132 1191563 0.86 5.29 1.47 0.81 (nbgoodclauses,nbtotalgood,precisionGood,recallGood,FGood,nbbadclause,nbtotalbad,precisionBad,recallBad,FBad,accuracy)
c additional predictionAge 2500 110247 210923 0.22 0.12 0.15 1292239 1191563 0.86 5.24 1.47 0.81 (nbgoodclauses,nbtotalgood,precisionGood,recallGood,FGood,nbbadclause,nbtotalbad,precisionBad,recallBad,FBad,accuracy)
c additional predictionAge 5000 118993 210923 0.22 0.13 0.16 1283493 1191563 0.86 5.21 1.47 0.80 (nbgoodclauses,nbtotalgood,precisionGood,recallGood,FGood,nbbadclause,nbtotalbad,precisionBad,recallBad,FBad,accuracy)
c additional predictionAge 10000 129644 210923 0.23 0.14 0.17 1272842 1191563 0.86 5.17 1.47 0.80 (nbgoodclauses,nbtotalgood,precisionGood,recallGood,FGood,nbbadclause,nbtotalbad,precisionBad,recallBad,FBad,accuracy)
c additional predictionAge 25000 152277 210923 0.23 0.16 0.19 1250209 1191563 0.86 5.09 1.47 0.79 (nbgoodclauses,nbtotalgood,precisionGood,recallGood,FGood,nbbadclause,nbtotalbad,precisionBad,recallBad,FBad,accuracy)
c additional predictionAge 50000 186623 210923 0.22 0.20 0.21 1215863 1191563 0.86 4.96 1.47 0.78 (nbgoodclauses,nbtotalgood,precisionGood,recallGood,FGood,nbbadclause,nbtotalbad,precisionBad,recallBad,FBad,accuracy)
c additional predictionAge 100000 250086 210923 0.22 0.26 0.24 1152400 1191563 0.86 4.72 1.46 0.75 (nbgoodclauses,nbtotalgood,precisionGood,recallGood,FGood,nbbadclause,nbtotalbad,precisionBad,recallBad,FBad,accuracy)
c additional predictionTicks 1 47391 210923 0.32 0.07 0.12 1355095 1191563 0.86 5.50 1.48 0.84 (nbgoodclauses,nbtotalgood,precisionGood,recallGood,FGood,nbbadclause,nbtotalbad,precisionBad,recallBad,FBad,accuracy)
c additional predictionTicks 10 51598 210923 0.31 0.08 0.12 1350888 1191563 0.86 5.48 1.48 0.84 (nbgoodclauses,nbtotalgood,precisionGood,recallGood,FGood,nbbadclause,nbtotalbad,precisionBad,recallBad,FBad,accuracy)
c additional predictionTicks 25 98002 210923 0.26 0.12 0.16 1304484 1191563 0.86 5.30 1.48 0.82 (nbgoodclauses,nbtotalgood,precisionGood,recallGood,FGood,nbbadclause,nbtotalbad,precisionBad,recallBad,FBad,accuracy)
c additional predictionTicks 50 159153 210923 0.22 0.17 0.19 1243333 1191563 0.86 5.06 1.47 0.79 (nbgoodclauses,nbtotalgood,precisionGood,recallGood,FGood,nbbadclause,nbtotalbad,precisionBad,recallBad,FBad,accuracy)
c additional predictionTicks 100 208284 210923 0.21 0.21 0.21 1194202 1191563 0.86 4.87 1.46 0.76 (nbgoodclauses,nbtotalgood,precisionGood,recallGood,FGood,nbbadclause,nbtotalbad,precisionBad,recallBad,FBad,accuracy)
c additional predictionTicks 250 290566 210923 0.20 0.27 0.23 1111920 1191563 0.86 4.54 1.45 0.72 (nbgoodclauses,nbtotalgood,precisionGood,recallGood,FGood,nbbadclause,nbtotalbad,precisionBad,recallBad,FBad,accuracy)
c additional predictionTicks 500 367520 210923 0.19 0.34 0.24 1034966 1191563 0.86 4.24 1.44 0.69 (nbgoodclauses,nbtotalgood,precisionGood,recallGood,FGood,nbbadclause,nbtotalbad,precisionBad,recallBad,FBad,accuracy)
c additional predictionTicks 1000 449234 210923 0.19 0.40 0.26 953252 1191563 0.87 3.92 1.42 0.65 (nbgoodclauses,nbtotalgood,precisionGood,recallGood,FGood,nbbadclause,nbtotalbad,precisionBad,recallBad,FBad,accuracy)
c additional predictionTicks 2500 571044 210923 0.18 0.50 0.27 831442 1191563 0.87 3.44 1.39 0.59 (nbgoodclauses,nbtotalgood,precisionGood,recallGood,FGood,nbbadclause,nbtotalbad,precisionBad,recallBad,FBad,accuracy)
c additional predictionTicks 5000 670916 210923 0.18 0.57 0.27 731570 1191563 0.88 3.04 1.36 0.54 (nbgoodclauses,nbtotalgood,precisionGood,recallGood,FGood,nbbadclause,nbtotalbad,precisionBad,recallBad,FBad,accuracy)
c additional predictionTicks 10000 773314 210923 0.18 0.65 0.28 629172 1191563 0.88 2.63 1.32 0.49 (nbgoodclauses,nbtotalgood,precisionGood,recallGood,FGood,nbbadclause,nbtotalbad,precisionBad,recallBad,FBad,accuracy)
c additional predictionTicks 25000 916947 210923 0.17 0.75 0.28 485539 1191563 0.89 2.05 1.24 0.42 (nbgoodclauses,nbtotalgood,precisionGood,recallGood,FGood,nbbadclause,nbtotalbad,precisionBad,recallBad,FBad,accuracy)
c additional predictionTicks 50000 1044567 210923 0.17 0.82 0.28 357919 1191563 0.90 1.52 1.13 0.35 (nbgoodclauses,nbtotalgood,precisionGood,recallGood,FGood,nbbadclause,nbtotalbad,precisionBad,recallBad,FBad,accuracy)
c additional predictionTicks 100000 1187418 210923 0.16 0.90 0.27 215068 1191563 0.90 0.92 0.91 0.27 (nbgoodclauses,nbtotalgood,precisionGood,recallGood,FGood,nbbadclause,nbtotalbad,precisionBad,recallBad,FBad,accuracy)
c additional lifetimeGood 1 16 64 848 51520 213189 451025 787136 997843 1239852 1403324 1403461 (0,1,5,10,25,50,75,90,95,99,100-1,100)
c additional lifetimeBad 1 16 48 528 61167 249952 534772 847785 1049399 1285172 1403481 1403539 (0,1,5,10,25,50,75,90,95,99,100-1,100)
c additional lifetimeBadBad 1 16 16 16 144 24608 230627 505789 696116 1038539 1398564 1399508 (0,1,5,10,25,50,75,90,95,99,100-1,100)
c additional compositionBad 1 2 4 5 11 23 50 93 131 237 981 1044 (0,1,5,10,25,50,75,90,95,99,100-1,100)
c additional compositionBadWithGood 0 0 0 0 2 5 12 22 31 53 212 218 (0,1,5,10,25,50,75,90,95,99,100-1,100)
c additional compositionBadWithBad 0 0 0 0 1 2 4 8 12 24 136 140 (0,1,5,10,25,50,75,90,95,99,100-1,100)
c additional compositionBadWithInitial 0 1 2 3 6 15 34 65 93 175 813 821 (0,1,5,10,25,50,75,90,95,99,100-1,100)
c additional compositionGood 1 2 2 3 5 13 31 71 110 229 874 878 (0,1,5,10,25,50,75,90,95,99,100-1,100)
c additional compositionGoodWithGood 0 0 0 1 2 4 11 23 33 61 208 211 (0,1,5,10,25,50,75,90,95,99,100-1,100)
c additional compositionGoodWithInitial 0 0 1 2 3 8 21 48 78 174 685 696 (0,1,5,10,25,50,75,90,95,99,100-1,100)
c additional propagationGood total 29653143 percentiles 0 1 1 1 1 6 41 185 519 2684 32992 34258 (0,1,5,10,25,50,75,90,95,99,100-1,100)
c additional propagationBad total 10495104 percentiles 1 1 1 1 1 2 3 11 27 123 12965 13660 (0,1,5,10,25,50,75,90,95,99,100-1,100)
c additional resolutionGood total 8273246 percentiles 0 1 1 1 1 4 19 69 162 636 11812 12950 (0,1,5,10,25,50,75,90,95,99,100-1,100)
c additional resolutionBad total 4052905 percentiles 0 0 0 0 1 1 2 6 12 43 1600 2202 (0,1,5,10,25,50,75,90,95,99,100-1,100)
Computing K-Core for 1467358 clauses...
c building structure for KCore computation.
c the graph has 53490242 edges, maxdegree=1044
c we start the KCore with the value 20
c Non directed graph built
K=20,544156 nodes removed so far
K=21,575014 nodes removed so far
K=22,605152 nodes removed so far
K=23,634240 nodes removed so far
K=24,661421 nodes removed so far
K=25,688023 nodes removed so far
K=26,712994 nodes removed so far
K=27,737267 nodes removed so far
K=28,760604 nodes removed so far
K=29,782816 nodes removed so far
K=30,804149 nodes removed so far
K=31,824621 nodes removed so far
K=32,844422 nodes removed so far
K=33,863020 nodes removed so far
K=34,880968 nodes removed so far
K=35,898178 nodes removed so far
K=36,914673 nodes removed so far
K=37,930352 nodes removed so far
K=38,945550 nodes removed so far
K=39,960277 nodes removed so far
K=40,974193 nodes removed so far
K=41,987743 nodes removed so far
K=42,1000480 nodes removed so far
K=43,1012725 nodes removed so far
K=44,1024697 nodes removed so far
K=45,1036229 nodes removed so far
K=46,1047275 nodes removed so far
K=47,1058012 nodes removed so far
K=48,1068431 nodes removed so far
K=49,1078105 nodes removed so far
K=50,1087907 nodes removed so far
K=51,1097280 nodes removed so far
K=52,1106130 nodes removed so far
K=53,1114847 nodes removed so far
K=54,1123249 nodes removed so far
K=55,1131360 nodes removed so far
K=56,1139245 nodes removed so far
K=57,1146879 nodes removed so far
K=58,1154098 nodes removed so far
K=59,1161190 nodes removed so far
K=60,1168107 nodes removed so far
K=61,1174905 nodes removed so far
K=62,1181589 nodes removed so far
K=63,1188206 nodes removed so far
K=64,1194428 nodes removed so far
K=65,1200264 nodes removed so far
K=66,1206121 nodes removed so far
K=67,1211710 nodes removed so far
K=68,1217224 nodes removed so far
K=69,1222536 nodes removed so far
K=70,1227968 nodes removed so far
K=71,1233205 nodes removed so far
K=72,1238272 nodes removed so far
K=73,1242935 nodes removed so far
K=74,1247696 nodes removed so far
K=75,1252430 nodes removed so far
K=76,1256996 nodes removed so far
K=77,1261386 nodes removed so far
K=78,1265456 nodes removed so far
K=79,1269564 nodes removed so far
K=80,1273450 nodes removed so far
K=81,1277392 nodes removed so far
K=82,1281265 nodes removed so far
K=83,1284872 nodes removed so far
K=84,1288552 nodes removed so far
K=85,1292066 nodes removed so far
K=86,1295561 nodes removed so far
K=87,1298978 nodes removed so far
K=88,1302359 nodes removed so far
K=89,1305590 nodes removed so far
K=90,1308671 nodes removed so far
K=91,1311750 nodes removed so far
K=92,1314866 nodes removed so far
K=93,1317740 nodes removed so far
K=94,1320550 nodes removed so far
K=95,1323452 nodes removed so far
K=96,1326313 nodes removed so far
K=97,1328915 nodes removed so far
K=98,1331512 nodes removed so far
K=99,1334128 nodes removed so far
K=100,1336575 nodes removed so far
K=101,1339095 nodes removed so far
K=102,1341360 nodes removed so far
K=103,1343614 nodes removed so far
K=104,1345793 nodes removed so far
K=105,1347962 nodes removed so far
K=106,1350103 nodes removed so far
K=107,1352274 nodes removed so far
K=108,1354515 nodes removed so far
K=109,1356604 nodes removed so far
K=110,1358765 nodes removed so far
K=111,1360733 nodes removed so far
K=112,1362688 nodes removed so far
K=113,1364573 nodes removed so far
K=114,1366467 nodes removed so far
K=115,1368094 nodes removed so far
K=116,1369878 nodes removed so far
K=117,1371568 nodes removed so far
K=118,1373273 nodes removed so far
K=119,1374934 nodes removed so far
K=120,1376622 nodes removed so far
K=121,1378169 nodes removed so far
K=122,1379570 nodes removed so far
K=123,1381036 nodes removed so far
K=124,1382542 nodes removed so far
K=125,1384032 nodes removed so far
K=126,1385538 nodes removed so far
K=127,1386873 nodes removed so far
K=128,1388268 nodes removed so far
K=129,1389682 nodes removed so far
K=130,1390875 nodes removed so far
K=131,1392141 nodes removed so far
K=132,1393232 nodes removed so far
K=133,1394217 nodes removed so far
K=134,1395310 nodes removed so far
K=135,1396409 nodes removed so far
K=136,1397411 nodes removed so far
K=137,1398377 nodes removed so far
K=138,1399339 nodes removed so far
K=139,1400370 nodes removed so far
K=140,1401297 nodes removed so far
K=141,1402197 nodes removed so far
K=142,1403239 nodes removed so far
K=143,1404050 nodes removed so far
K=144,1404953 nodes removed so far
K=145,1405827 nodes removed so far
K=146,1406713 nodes removed so far
K=147,1407629 nodes removed so far
K=148,1408542 nodes removed so far
K=149,1409431 nodes removed so far
K=150,1410335 nodes removed so far
K=151,1411143 nodes removed so far
K=152,1412143 nodes removed so far
K=153,1413011 nodes removed so far
K=154,1413936 nodes removed so far
K=155,1414779 nodes removed so far
K=156,1415537 nodes removed so far
K=157,1416143 nodes removed so far
K=158,1416992 nodes removed so far
K=159,1417791 nodes removed so far
K=160,1418535 nodes removed so far
K=161,K=162,1420375 nodes removed so far
K=163,K=164,K=165,K=166,K=167,K=168,K=169,1430384 nodes removed so far
K=170,KCore = 170
Building structure for PR...
Computing PR...
Pageranking 1277593 nodes done in 19 iteration. cumulError=2.93505e-11
clause level 187 (Kante=183, Kdesc=436418, core=2):-605 
clause level 197 (Kante=41, Kdesc=183596, core=4):-39 
clause level 1 (Kante=5, Kdesc=265524, core=10):605 672 
clause level 204 (Kante=4, Kdesc=172433, core=4):-1 
clause level 486 (Kante=197, Kdesc=110861, core=11):210 
clause level 165 (Kante=277, Kdesc=93147, core=2):-250 
clause level 202 (Kante=7, Kdesc=117191, core=4):-37 777 
clause level 343 (Kante=132, Kdesc=125826, core=2):-759 
clause level 411 (Kante=54, Kdesc=95672, core=12):-639 
clause level 327 (Kante=99, Kdesc=79623, core=2):-254 
clause level 397 (Kante=324, Kdesc=85764, core=10):-633 
clause level 189 (Kante=3, Kdesc=60689, core=4):-808 
clause level 96 (Kante=32, Kdesc=36651, core=9):593 -617 
clause level 200 (Kante=3, Kdesc=62375, core=3):-882 
clause level 487 (Kante=4, Kdesc=63208, core=14):-1112 
clause level 201 (Kante=5, Kdesc=39262, core=2):-778 
clause level 363 (Kante=3, Kdesc=50213, core=1):-41 1112 -210 
clause level 4 (Kante=4, Kdesc=14906, core=14):205 -204 
clause level 97 (Kante=5, Kdesc=36793, core=3):-807 39 883 
clause level 129 (Kante=3, Kdesc=9821, core=3):210 -207 
clause level 98 (Kante=3, Kdesc=33791, core=7):-852 882 39 883 
clause level 4 (Kante=3, Kdesc=18010, core=9):617 594 586 
clause level 128 (Kante=3, Kdesc=12920, core=2):-205 207 
clause level 198 (Kante=7, Kdesc=24301, core=9):-807 
clause level 254 (Kante=7, Kdesc=30840, core=3):-853 
clause level 190 (Kante=3, Kdesc=29720, core=3):-884 
clause level 27 (Kante=10, Kdesc=25504, core=3):-151 150 
clause level 325 (Kante=2, Kdesc=29172, core=10):-739 -617 
clause level 276 (Kante=547, Kdesc=31384, core=9):-854 
clause level 2 (Kante=5, Kdesc=8548, core=6):-1242 1558 205 
clause level 128 (Kante=3, Kdesc=14974, core=2):-206 207 
clause level 256 (Kante=19, Kdesc=28293, core=2):-1947 
clause level 128 (Kante=3, Kdesc=12761, core=1):-204 207 
clause level 18 (Kante=4, Kdesc=19247, core=2):70 -69 
clause level 362 (Kante=11, Kdesc=9516, core=3):209 -72 -210 1112 
clause level 1 (Kante=2, Kdesc=13787, core=14):-210 209 -207 
clause level 20 (Kante=4, Kdesc=15013, core=1):-152 151 
clause level 130 (Kante=2, Kdesc=21511, core=12):-207 208 
clause level 128 (Kante=8, Kdesc=19583, core=14):-5256 
clause level 9 (Kante=3, Kdesc=20390, core=8):-2158 618 
clause level 7 (Kante=3, Kdesc=8040, core=9):137 -205 
clause level 488 (Kante=5, Kdesc=18727, core=8):-41 
clause level 129 (Kante=3, Kdesc=10645, core=10):-150 147 
clause level 493 (Kante=158, Kdesc=15903, core=14):-2357 
clause level 2 (Kante=7, Kdesc=12839, core=13):605 594 586 580 
clause level 129 (Kante=2, Kdesc=7675, core=14):-205 206 
clause level 5 (Kante=6, Kdesc=15464, core=14):-2157 618 
clause level 441 (Kante=3, Kdesc=15986, core=1):728 688 
clause level 425 (Kante=5, Kdesc=17140, core=3):70 -617 
clause level 128 (Kante=3, Kdesc=9768, core=1):-149 147 
Found 437 good successive clauses in order (387 originals, maxlevel=493)
c KCorePR 1467358 170 437 387 493
c DistanceTo...Unseen 44417
c DistanceToGoodKCore c   DIST 0: 437 (+437) / 437 (+437)
c   DIST 1: 1019683 (+1019246) / 115043 (+114606)
c   DIST 2: 1384397 (+364714) / 229997 (+114954)
c   DIST 3: 1413413 (+29016) / 234908 (+4911)
c   DIST 4: 1419666 (+6253) / 235578 (+670)
c   DIST 5: 1421672 (+2006) / 235724 (+146)
c   DIST 6: 1422414 (+742) / 235745 (+21)
c   DIST 7: 1422709 (+295) / 235754 (+9)
c   DIST 8: 1422835 (+126) / 235758 (+4)
c   DIST 9: 1422878 (+43) / 235758 (+0)
c   DIST 10: 1422910 (+32) / 235758 (+0)
c   DIST 11: 1422925 (+15) / 235758 (+0)
c   DIST 12: 1422932 (+7) / 235758 (+0)
c   DIST 13: 1422936 (+4) / 235758 (+0)
c   DIST 14: 1422939 (+3) / 235758 (+0)
c   DIST 15: 1422939 (+0) / 235758 (+0)
c   DIST 16: 1422941 (+2) / 235758 (+0)
c TotalDistance=1467358
No graph is dumped
c result of core 5 is UNSAT
c One thread has finished
c Core 5 said it finished
c result of core 0 is UNKNOWN
c result of core 7 is UNKNOWN
c result of core 15 is UNKNOWN
c result of core 8 is UNKNOWN
c result of core 10 is UNKNOWN
c result of core 9 is UNKNOWN
c result of core 11 is UNKNOWN
c result of core 12 is UNKNOWN
c result of core 13 is UNKNOWN
c result of core 2 is UNKNOWN
c result of core 14 is UNKNOWN
c result of core 6 is UNKNOWN
c result of core 3 is UNKNOWN
c result of core 4 is UNKNOWN
c result of core 1 is UNKNOWN
c restarts              : 410 (213 conflicts in avg)
c blocked restarts      : 432 (multiple: 126) 
c last block at restart : 410
c nb ReduceDB           : 7
c nb removed Clauses    : 79957
c nb learnts DL2        : 444
c nb learnts size 2     : 220
c nb learnts size 1     : 5
c conflicts             : 87656          (39 /sec)
c decisions             : 177906         (0.00 % random) (78 /sec)
c propagations          : 17282474       (7618 /sec)
c conflict literals     : 9154402        (6.73 % deleted)
c nb reduced Clauses    : 624
c CPU time              : 2268.65 s

s INDETERMINATE
