c
c This is glucose-proof 1.0 based on  2.1 --  (thanks to MiniSAT)
c
c EXPERIMENTAL EASY PARALLEL (ROUND ROBIN) VERSION
c
c WARNING: for repeatability, setting FPU to use double precision
c Parallel version 2 solvers created.
c ========================================[ Problem Statistics ]===========================================
c |                                                                                                       |
c |  Number of variables:          4043                                                                   |
c |  Number of clauses:           39904                                                                   |
c |  Parse time:                   0.04 s                                                                 |
c |                                                                                                       |
c ========================================[ MAGIC CONSTANTS ]==============================================
c | Constants are supposed to work well together :-)                                                      |
c | however, if you find better choices, please let us known...                                           |
c |-------------------------------------------------------------------------------------------------------|
c |                                |                                |                                     |
c | - Restarts:                    | - Reduce Clause DB:            | - Minimize Asserting:               |
c |   * LBD Queue    :     50      |   * First     :   4000         |    * size <  30                     |
c |   * Trail  Queue :   5000      |   * Inc       :    300         |    * lbd  <   6                     |
c |   * K            :   0.80      |   * Special   :   1000         |                                     |
c |   * R            :   1.40      |   * Protected :  (lbd)< 30     |                                     |
c |                                |                                |                                     |
c ==================================[ Search Statistics (every  10000 conflicts) ]=========================
c |                                                                                                       |
c |          RESTARTS           |          ORIGINAL         |              LEARNT              | Progress |
c |       NB   Blocked  Avg Cfc |    Vars  Clauses Literals |   Red   Learnts    LBD2  Removed |          |
c =========================================================================================================
c |       47         0      212 |    4040    39904   190332 |     1     8002      281     2111 |  0.074 % |
c |       78        35      256 |    4040    39904   190332 |     3     6956      433    13372 |  0.074 % |
c |      111        78      270 |    4040    39904   190332 |     3    16956      558    13372 |  0.074 % |
c |      144        98      277 |    4039    39904   190332 |     4    17678      629    22721 |  0.099 % |
c |      174       135      287 |    4039    39904   190332 |     5    15840      682    34659 |  0.099 % |
c |      199       185      301 |    4039    39904   190332 |     5    25840      731    34659 |  0.099 % |
c |      218       219      321 |    4037    39904   190332 |     6    21365      791    49103 |  0.149 % |
c |      233       237      343 |    4036    39904   190332 |     6    31183      829    49103 |  0.173 % |
c |      259       264      347 |    4036    39904   190332 |     7    24297      848    66029 |  0.174 % |
c |      285       296      350 |    4036    39904   190332 |     7    34297      896    66029 |  0.173 % |
c |      287       330      383 |    4036    39904   190332 |     8    24752      923    85643 |  0.173 % |
c |      338       344      355 |    4034    39904   190332 |     8    34732      952    85643 |  0.223 % |
c |      379       357      343 |    4034    39904   190332 |     9    22555      977   107854 |  0.223 % |
c |      402       372      348 |    4034    39904   190332 |     9    32555      996   107854 |  0.223 % |
c |      435       377      344 |    4033    39904   190332 |     9    42252     1013   107854 |  0.247 % |
c |      488       389      327 |    4033    39904   190332 |    10    27636     1030   132523 |  0.248 % |
c |      522       412      325 |    4033    39904   190332 |    10    37636     1042   132523 |  0.247 % |
c |      554       430      324 |    4032    39904   190332 |    10    47431     1070   132523 |  0.272 % |
c |      606       440      313 |    4032    39904   190332 |    11    30214     1088   159789 |  0.272 % |
c |      657       452      304 |    4031    39904   190332 |    11    40214     1100   159789 |  0.297 % |
c |      692       470      303 |    4014    39904   190332 |    11    49545     1107   159789 |  0.717 % |
c |      762       480      288 |    4014    39904   190332 |    12    29976     1135   189396 |  0.718 % |
c |      791       500      290 |    4014    39904   190332 |    12    39976     1151   189396 |  0.717 % |
c |      831       509      288 |    4014    39904   190332 |    12    49976     1167   189396 |  0.717 % |
c |      862       519      290 |    4014    39904   190332 |    12    59976     1190   189396 |  0.717 % |
c |      912       543      285 |    4013    39904   190332 |    13    37588     1197   221813 |  0.742 % |
c |      932       554      289 |    4000    39904   190332 |    13    47587     1219   221813 |  1.064 % |
c |      958       558      292 |    3988    39904   190332 |    13    52275     1239   221813 |  1.361 % |
c |      993       589      292 |    3963    39904   190332 |    13    62272     1268   221813 |  1.979 % |
c |     1015       608      295 |    3962    39904   190332 |    14    39846     1284   254277 |  2.004 % |
c empty clause found by core 1 at conflict 303361
*
c checking the resolution graph...OK
c All useful bySize 336238 clauses, percentiles 0 2 7 13 27 69 150 227 266 327 462 464 (0,1,5,10,25,50,75,90,95,99,100-1,100)
c All useless bySize 310416 clauses, percentiles 0 2 4 9 33 72 137 206 244 312 462 464 (0,1,5,10,25,50,75,90,95,99,100-1,100)
c ProofOnly useful bySize 328918 clauses, percentiles 0 3 10 15 29 71 152 228 267 328 462 464 (0,1,5,10,25,50,75,90,95,99,100-1,100)
c ProofOnly useless bySize 277804 clauses, percentiles 2 12 20 26 44 83 147 212 250 316 462 464 (0,1,5,10,25,50,75,90,95,99,100-1,100)
c All useful byFinalLBD 336238 clauses, percentiles 0 1 2 3 6 10 14 17 19 25 55 56 (0,1,5,10,25,50,75,90,95,99,100-1,100)
c All useless byFinalLBD 310416 clauses, percentiles 0 2 4 6 10 14 19 25 29 39 79 79 (0,1,5,10,25,50,75,90,95,99,100-1,100)
c ProofOnly useful byFinalLBD 328918 clauses, percentiles 0 1 2 3 6 10 14 17 19 25 55 56 (0,1,5,10,25,50,75,90,95,99,100-1,100)
c ProofOnly useless byFinalLBD 277804 clauses, percentiles 1 5 7 8 11 15 20 26 30 40 79 79 (0,1,5,10,25,50,75,90,95,99,100-1,100)
c All useful byInitialLBD 336238 clauses, percentiles 0 2 4 5 8 11 15 18 20 27 56 58 (0,1,5,10,25,50,75,90,95,99,100-1,100)
c All useless byInitialLBD 310416 clauses, percentiles 0 2 4 6 10 15 20 25 30 40 79 79 (0,1,5,10,25,50,75,90,95,99,100-1,100)
c ProofOnly useful byInitialLBD 328918 clauses, percentiles 0 3 5 6 8 11 15 18 21 27 56 58 (0,1,5,10,25,50,75,90,95,99,100-1,100)
c ProofOnly useless byInitialLBD 277804 clauses, percentiles 2 6 8 9 12 16 20 26 30 40 79 79 (0,1,5,10,25,50,75,90,95,99,100-1,100)
c Literals ProofOnly useful 32463437
c Literals ProofOnly useless 28630637
c additional windowsGood 1 1 1 1 1 1 1 3 7 34 203 208 (0,1,5,10,25,50,75,90,95,99,100-1,100)
c additional windowsBad 1 1 1 1 1 1 1 4 8 17 88 95 (0,1,5,10,25,50,75,90,95,99,100-1,100)
c additional 1WindowNoDecision 105944 60923 0.58 106706 56937 0.53 (nbWindowsGood,nbWindowsNoDecisionGood,nbWindowsBad,nbWindowsNoDecisionBad
c additional topclausessize all (10%,5%,1%,top) 274.36 303.66 352.50 464
c additional topclausessize proofonly (10%,5%,1%,top) 274.88 304.07 352.78 464
c additional topclausesinitialLBD all (10%,5%,1%,top) 253.79 287.71 342.06 464
c additional topclausesinitialLBD proofonly (10%,5%,1%,top) 236.82 274.88 334.12 464
c additional topclausesfinalLBD all (10%,5%,1%,top) 221.66 263.71 327.44 464
c additional topclausesfinalLBD proofonly (10%,5%,1%,top) 208.26 253.99 321.79 464
c additional predictionInitialLBD 1 28 328918 1.00 0.00 0.00 606694 277804 0.46 0.84 0.59 0.46 (nbgoodclauses,nbtotalgood,precisionGood,recallGood,FGood,nbbadclause,nbtotalbad,precisionBad,recallBad,FBad,accuracy)
c additional predictionInitialLBD 2 2533 328918 0.99 0.01 0.02 604189 277804 0.46 0.84 0.60 0.46 (nbgoodclauses,nbtotalgood,precisionGood,recallGood,FGood,nbbadclause,nbtotalbad,precisionBad,recallBad,FBad,accuracy)
c additional predictionInitialLBD 3 7708 328918 0.98 0.02 0.04 599014 277804 0.46 0.84 0.60 0.47 (nbgoodclauses,nbtotalgood,precisionGood,recallGood,FGood,nbbadclause,nbtotalbad,precisionBad,recallBad,FBad,accuracy)
c additional predictionInitialLBD 4 15588 328918 0.96 0.05 0.09 591134 277804 0.47 0.84 0.60 0.48 (nbgoodclauses,nbtotalgood,precisionGood,recallGood,FGood,nbbadclause,nbtotalbad,precisionBad,recallBad,FBad,accuracy)
c additional predictionInitialLBD 5 29408 328918 0.92 0.08 0.15 577314 277804 0.48 0.84 0.61 0.50 (nbgoodclauses,nbtotalgood,precisionGood,recallGood,FGood,nbbadclause,nbtotalbad,precisionBad,recallBad,FBad,accuracy)
c additional predictionInitialLBD 6 49868 328918 0.87 0.13 0.23 556854 277804 0.49 0.83 0.61 0.52 (nbgoodclauses,nbtotalgood,precisionGood,recallGood,FGood,nbbadclause,nbtotalbad,precisionBad,recallBad,FBad,accuracy)
c additional predictionInitialLBD 7 77152 328918 0.83 0.19 0.32 529570 277804 0.50 0.80 0.62 0.54 (nbgoodclauses,nbtotalgood,precisionGood,recallGood,FGood,nbbadclause,nbtotalbad,precisionBad,recallBad,FBad,accuracy)
c additional predictionInitialLBD 8 110762 328918 0.79 0.27 0.40 495960 277804 0.51 0.78 0.62 0.57 (nbgoodclauses,nbtotalgood,precisionGood,recallGood,FGood,nbbadclause,nbtotalbad,precisionBad,recallBad,FBad,accuracy)
c additional predictionInitialLBD 10 190924 328918 0.74 0.43 0.54 415798 277804 0.55 0.69 0.61 0.61 (nbgoodclauses,nbtotalgood,precisionGood,recallGood,FGood,nbbadclause,nbtotalbad,precisionBad,recallBad,FBad,accuracy)
c additional predictionInitialLBD 14 358654 328918 0.67 0.73 0.70 248068 277804 0.64 0.48 0.55 0.66 (nbgoodclauses,nbtotalgood,precisionGood,recallGood,FGood,nbbadclause,nbtotalbad,precisionBad,recallBad,FBad,accuracy)
c additional predictionInitialLBD 18 482439 328918 0.62 0.91 0.74 124283 277804 0.76 0.29 0.41 0.65 (nbgoodclauses,nbtotalgood,precisionGood,recallGood,FGood,nbbadclause,nbtotalbad,precisionBad,recallBad,FBad,accuracy)
c additional predictionInitialLBD 22 547647 328918 0.58 0.97 0.73 59075 277804 0.85 0.15 0.26 0.61 (nbgoodclauses,nbtotalgood,precisionGood,recallGood,FGood,nbbadclause,nbtotalbad,precisionBad,recallBad,FBad,accuracy)
c additional predictionInitialLBD 30 591778 328918 0.55 1.00 0.71 14944 277804 0.90 0.04 0.08 0.56 (nbgoodclauses,nbtotalgood,precisionGood,recallGood,FGood,nbbadclause,nbtotalbad,precisionBad,recallBad,FBad,accuracy)
c additional predictionInitialLBD 40 603884 328918 0.54 1.00 0.70 2838 277804 0.94 0.01 0.02 0.55 (nbgoodclauses,nbtotalgood,precisionGood,recallGood,FGood,nbbadclause,nbtotalbad,precisionBad,recallBad,FBad,accuracy)
c additional predictionFinallLBD 1 7424 328918 1.00 0.02 0.04 599298 277804 0.46 1.00 0.63 0.47 (nbgoodclauses,nbtotalgood,precisionGood,recallGood,FGood,nbbadclause,nbtotalbad,precisionBad,recallBad,FBad,accuracy)
c additional predictionFinallLBD 2 22144 328918 0.99 0.07 0.13 584578 277804 0.47 1.00 0.64 0.49 (nbgoodclauses,nbtotalgood,precisionGood,recallGood,FGood,nbbadclause,nbtotalbad,precisionBad,recallBad,FBad,accuracy)
c additional predictionFinallLBD 3 37189 328918 0.99 0.11 0.20 569533 277804 0.49 1.00 0.65 0.52 (nbgoodclauses,nbtotalgood,precisionGood,recallGood,FGood,nbbadclause,nbtotalbad,precisionBad,recallBad,FBad,accuracy)
c additional predictionFinallLBD 4 53050 328918 0.98 0.16 0.27 553672 277804 0.50 1.00 0.67 0.54 (nbgoodclauses,nbtotalgood,precisionGood,recallGood,FGood,nbbadclause,nbtotalbad,precisionBad,recallBad,FBad,accuracy)
c additional predictionFinallLBD 5 73344 328918 0.95 0.21 0.35 533378 277804 0.51 0.99 0.68 0.57 (nbgoodclauses,nbtotalgood,precisionGood,recallGood,FGood,nbbadclause,nbtotalbad,precisionBad,recallBad,FBad,accuracy)
c additional predictionFinallLBD 6 99497 328918 0.90 0.27 0.42 507225 277804 0.53 0.96 0.68 0.59 (nbgoodclauses,nbtotalgood,precisionGood,recallGood,FGood,nbbadclause,nbtotalbad,precisionBad,recallBad,FBad,accuracy)
c additional predictionFinallLBD 7 129870 328918 0.85 0.34 0.48 476852 277804 0.54 0.93 0.69 0.61 (nbgoodclauses,nbtotalgood,precisionGood,recallGood,FGood,nbbadclause,nbtotalbad,precisionBad,recallBad,FBad,accuracy)
c additional predictionFinallLBD 8 163861 328918 0.81 0.41 0.54 442861 277804 0.56 0.89 0.69 0.63 (nbgoodclauses,nbtotalgood,precisionGood,recallGood,FGood,nbbadclause,nbtotalbad,precisionBad,recallBad,FBad,accuracy)
c additional predictionFinallLBD 10 238945 328918 0.75 0.55 0.63 367777 277804 0.59 0.79 0.68 0.66 (nbgoodclauses,nbtotalgood,precisionGood,recallGood,FGood,nbbadclause,nbtotalbad,precisionBad,recallBad,FBad,accuracy)
c additional predictionFinallLBD 14 388966 328918 0.67 0.79 0.73 217756 277804 0.69 0.54 0.60 0.68 (nbgoodclauses,nbtotalgood,precisionGood,recallGood,FGood,nbbadclause,nbtotalbad,precisionBad,recallBad,FBad,accuracy)
c additional predictionFinallLBD 18 497212 328918 0.62 0.93 0.74 109510 277804 0.80 0.31 0.45 0.65 (nbgoodclauses,nbtotalgood,precisionGood,recallGood,FGood,nbbadclause,nbtotalbad,precisionBad,recallBad,FBad,accuracy)
c additional predictionFinallLBD 22 554165 328918 0.58 0.98 0.73 52557 277804 0.89 0.17 0.28 0.61 (nbgoodclauses,nbtotalgood,precisionGood,recallGood,FGood,nbbadclause,nbtotalbad,precisionBad,recallBad,FBad,accuracy)
c additional predictionFinallLBD 30 593233 328918 0.55 1.00 0.71 13489 277804 0.92 0.04 0.09 0.56 (nbgoodclauses,nbtotalgood,precisionGood,recallGood,FGood,nbbadclause,nbtotalbad,precisionBad,recallBad,FBad,accuracy)
c additional predictionFinallLBD 40 604167 328918 0.54 1.00 0.70 2555 277804 0.96 0.01 0.02 0.55 (nbgoodclauses,nbtotalgood,precisionGood,recallGood,FGood,nbbadclause,nbtotalbad,precisionBad,recallBad,FBad,accuracy)
c additional predictionSize 1 28 328918 1.00 0.00 0.00 606694 277804 0.46 0.84 0.59 0.46 (nbgoodclauses,nbtotalgood,precisionGood,recallGood,FGood,nbbadclause,nbtotalbad,precisionBad,recallBad,FBad,accuracy)
c additional predictionSize 2 1654 328918 0.99 0.00 0.01 605068 277804 0.46 0.84 0.59 0.46 (nbgoodclauses,nbtotalgood,precisionGood,recallGood,FGood,nbbadclause,nbtotalbad,precisionBad,recallBad,FBad,accuracy)
c additional predictionSize 3 4452 328918 0.99 0.01 0.03 602270 277804 0.46 0.84 0.60 0.47 (nbgoodclauses,nbtotalgood,precisionGood,recallGood,FGood,nbbadclause,nbtotalbad,precisionBad,recallBad,FBad,accuracy)
c additional predictionSize 4 5518 328918 0.98 0.02 0.03 601204 277804 0.46 0.84 0.60 0.47 (nbgoodclauses,nbtotalgood,precisionGood,recallGood,FGood,nbbadclause,nbtotalbad,precisionBad,recallBad,FBad,accuracy)
c additional predictionSize 5 6682 328918 0.98 0.02 0.04 600040 277804 0.46 0.84 0.60 0.47 (nbgoodclauses,nbtotalgood,precisionGood,recallGood,FGood,nbbadclause,nbtotalbad,precisionBad,recallBad,FBad,accuracy)
c additional predictionSize 6 8395 328918 0.97 0.02 0.05 598327 277804 0.46 0.84 0.60 0.47 (nbgoodclauses,nbtotalgood,precisionGood,recallGood,FGood,nbbadclause,nbtotalbad,precisionBad,recallBad,FBad,accuracy)
c additional predictionSize 7 10422 328918 0.95 0.03 0.06 596300 277804 0.47 0.84 0.60 0.47 (nbgoodclauses,nbtotalgood,precisionGood,recallGood,FGood,nbbadclause,nbtotalbad,precisionBad,recallBad,FBad,accuracy)
c additional predictionSize 8 12805 328918 0.94 0.04 0.07 593917 277804 0.47 0.84 0.60 0.48 (nbgoodclauses,nbtotalgood,precisionGood,recallGood,FGood,nbbadclause,nbtotalbad,precisionBad,recallBad,FBad,accuracy)
c additional predictionSize 10 19128 328918 0.91 0.05 0.10 587594 277804 0.47 0.84 0.60 0.48 (nbgoodclauses,nbtotalgood,precisionGood,recallGood,FGood,nbbadclause,nbtotalbad,precisionBad,recallBad,FBad,accuracy)
c additional predictionSize 14 36712 328918 0.85 0.10 0.17 570010 277804 0.48 0.83 0.61 0.50 (nbgoodclauses,nbtotalgood,precisionGood,recallGood,FGood,nbbadclause,nbtotalbad,precisionBad,recallBad,FBad,accuracy)
c additional predictionSize 18 58619 328918 0.79 0.14 0.24 548103 277804 0.48 0.81 0.61 0.51 (nbgoodclauses,nbtotalgood,precisionGood,recallGood,FGood,nbbadclause,nbtotalbad,precisionBad,recallBad,FBad,accuracy)
c additional predictionSize 22 79474 328918 0.76 0.18 0.30 527248 277804 0.49 0.79 0.60 0.53 (nbgoodclauses,nbtotalgood,precisionGood,recallGood,FGood,nbbadclause,nbtotalbad,precisionBad,recallBad,FBad,accuracy)
c additional predictionSize 30 125099 328918 0.69 0.26 0.38 481623 277804 0.50 0.73 0.59 0.54 (nbgoodclauses,nbtotalgood,precisionGood,recallGood,FGood,nbbadclause,nbtotalbad,precisionBad,recallBad,FBad,accuracy)
c additional predictionSize 40 172111 328918 0.64 0.34 0.44 434611 277804 0.50 0.66 0.57 0.54 (nbgoodclauses,nbtotalgood,precisionGood,recallGood,FGood,nbbadclause,nbtotalbad,precisionBad,recallBad,FBad,accuracy)
c additional predictionAge 1 7446 328918 0.77 0.02 0.03 599276 277804 0.46 0.84 0.59 0.46 (nbgoodclauses,nbtotalgood,precisionGood,recallGood,FGood,nbbadclause,nbtotalbad,precisionBad,recallBad,FBad,accuracy)
c additional predictionAge 10 13280 328918 0.58 0.02 0.05 593442 277804 0.46 0.83 0.59 0.46 (nbgoodclauses,nbtotalgood,precisionGood,recallGood,FGood,nbbadclause,nbtotalbad,precisionBad,recallBad,FBad,accuracy)
c additional predictionAge 25 15461 328918 0.55 0.03 0.05 591261 277804 0.46 0.82 0.59 0.46 (nbgoodclauses,nbtotalgood,precisionGood,recallGood,FGood,nbbadclause,nbtotalbad,precisionBad,recallBad,FBad,accuracy)
c additional predictionAge 50 17244 328918 0.53 0.03 0.05 589478 277804 0.46 0.82 0.59 0.46 (nbgoodclauses,nbtotalgood,precisionGood,recallGood,FGood,nbbadclause,nbtotalbad,precisionBad,recallBad,FBad,accuracy)
c additional predictionAge 100 18950 328918 0.52 0.03 0.06 587772 277804 0.46 0.82 0.59 0.46 (nbgoodclauses,nbtotalgood,precisionGood,recallGood,FGood,nbbadclause,nbtotalbad,precisionBad,recallBad,FBad,accuracy)
c additional predictionAge 250 21163 328918 0.51 0.03 0.06 585559 277804 0.46 0.81 0.58 0.46 (nbgoodclauses,nbtotalgood,precisionGood,recallGood,FGood,nbbadclause,nbtotalbad,precisionBad,recallBad,FBad,accuracy)
c additional predictionAge 500 22749 328918 0.50 0.03 0.06 583973 277804 0.46 0.81 0.58 0.46 (nbgoodclauses,nbtotalgood,precisionGood,recallGood,FGood,nbbadclause,nbtotalbad,precisionBad,recallBad,FBad,accuracy)
c additional predictionAge 1000 24489 328918 0.50 0.04 0.07 582233 277804 0.46 0.81 0.58 0.46 (nbgoodclauses,nbtotalgood,precisionGood,recallGood,FGood,nbbadclause,nbtotalbad,precisionBad,recallBad,FBad,accuracy)
c additional predictionAge 2500 27531 328918 0.48 0.04 0.07 579191 277804 0.46 0.80 0.58 0.46 (nbgoodclauses,nbtotalgood,precisionGood,recallGood,FGood,nbbadclause,nbtotalbad,precisionBad,recallBad,FBad,accuracy)
c additional predictionAge 5000 31159 328918 0.47 0.04 0.08 575563 277804 0.45 0.79 0.58 0.45 (nbgoodclauses,nbtotalgood,precisionGood,recallGood,FGood,nbbadclause,nbtotalbad,precisionBad,recallBad,FBad,accuracy)
c additional predictionAge 10000 37748 328918 0.44 0.05 0.09 568974 277804 0.45 0.78 0.57 0.45 (nbgoodclauses,nbtotalgood,precisionGood,recallGood,FGood,nbbadclause,nbtotalbad,precisionBad,recallBad,FBad,accuracy)
c additional predictionAge 25000 56114 328918 0.40 0.07 0.12 550608 277804 0.44 0.74 0.55 0.44 (nbgoodclauses,nbtotalgood,precisionGood,recallGood,FGood,nbbadclause,nbtotalbad,precisionBad,recallBad,FBad,accuracy)
c additional predictionAge 50000 84484 328918 0.36 0.09 0.15 522238 277804 0.43 0.68 0.53 0.42 (nbgoodclauses,nbtotalgood,precisionGood,recallGood,FGood,nbbadclause,nbtotalbad,precisionBad,recallBad,FBad,accuracy)
c additional predictionAge 100000 139547 328918 0.36 0.15 0.21 467175 277804 0.40 0.57 0.47 0.39 (nbgoodclauses,nbtotalgood,precisionGood,recallGood,FGood,nbbadclause,nbtotalbad,precisionBad,recallBad,FBad,accuracy)
c additional predictionTicks 1 7494 328918 0.77 0.02 0.03 599228 277804 0.46 0.84 0.59 0.46 (nbgoodclauses,nbtotalgood,precisionGood,recallGood,FGood,nbbadclause,nbtotalbad,precisionBad,recallBad,FBad,accuracy)
c additional predictionTicks 10 41174 328918 0.58 0.07 0.13 565548 277804 0.46 0.79 0.58 0.47 (nbgoodclauses,nbtotalgood,precisionGood,recallGood,FGood,nbbadclause,nbtotalbad,precisionBad,recallBad,FBad,accuracy)
c additional predictionTicks 25 59160 328918 0.56 0.10 0.17 547562 277804 0.46 0.77 0.57 0.47 (nbgoodclauses,nbtotalgood,precisionGood,recallGood,FGood,nbbadclause,nbtotalbad,precisionBad,recallBad,FBad,accuracy)
c additional predictionTicks 50 78235 328918 0.56 0.13 0.21 528487 277804 0.46 0.74 0.57 0.47 (nbgoodclauses,nbtotalgood,precisionGood,recallGood,FGood,nbbadclause,nbtotalbad,precisionBad,recallBad,FBad,accuracy)
c additional predictionTicks 100 99198 328918 0.55 0.17 0.26 507524 277804 0.46 0.71 0.56 0.48 (nbgoodclauses,nbtotalgood,precisionGood,recallGood,FGood,nbbadclause,nbtotalbad,precisionBad,recallBad,FBad,accuracy)
c additional predictionTicks 250 130813 328918 0.56 0.22 0.32 475909 277804 0.46 0.67 0.55 0.48 (nbgoodclauses,nbtotalgood,precisionGood,recallGood,FGood,nbbadclause,nbtotalbad,precisionBad,recallBad,FBad,accuracy)
c additional predictionTicks 500 157920 328918 0.56 0.27 0.36 448802 277804 0.46 0.63 0.54 0.49 (nbgoodclauses,nbtotalgood,precisionGood,recallGood,FGood,nbbadclause,nbtotalbad,precisionBad,recallBad,FBad,accuracy)
c additional predictionTicks 1000 189800 328918 0.56 0.33 0.41 416922 277804 0.47 0.59 0.52 0.50 (nbgoodclauses,nbtotalgood,precisionGood,recallGood,FGood,nbbadclause,nbtotalbad,precisionBad,recallBad,FBad,accuracy)
c additional predictionTicks 2500 242896 328918 0.56 0.41 0.48 363826 277804 0.47 0.52 0.49 0.51 (nbgoodclauses,nbtotalgood,precisionGood,recallGood,FGood,nbbadclause,nbtotalbad,precisionBad,recallBad,FBad,accuracy)
c additional predictionTicks 5000 297320 328918 0.56 0.50 0.53 309402 277804 0.47 0.44 0.46 0.51 (nbgoodclauses,nbtotalgood,precisionGood,recallGood,FGood,nbbadclause,nbtotalbad,precisionBad,recallBad,FBad,accuracy)
c additional predictionTicks 10000 370036 328918 0.55 0.62 0.58 236686 277804 0.47 0.34 0.39 0.52 (nbgoodclauses,nbtotalgood,precisionGood,recallGood,FGood,nbbadclause,nbtotalbad,precisionBad,recallBad,FBad,accuracy)
c additional predictionTicks 25000 485679 328918 0.54 0.80 0.64 121043 277804 0.45 0.16 0.24 0.52 (nbgoodclauses,nbtotalgood,precisionGood,recallGood,FGood,nbbadclause,nbtotalbad,precisionBad,recallBad,FBad,accuracy)
c additional predictionTicks 50000 558152 328918 0.54 0.91 0.68 48570 277804 0.42 0.06 0.11 0.53 (nbgoodclauses,nbtotalgood,precisionGood,recallGood,FGood,nbbadclause,nbtotalbad,precisionBad,recallBad,FBad,accuracy)
c additional predictionTicks 100000 595412 328918 0.54 0.98 0.70 11310 277804 0.40 0.01 0.03 0.54 (nbgoodclauses,nbtotalgood,precisionGood,recallGood,FGood,nbbadclause,nbtotalbad,precisionBad,recallBad,FBad,accuracy)
c additional lifetimeGood 1 2 14 1592 54385 178121 345769 465569 515832 571941 606497 606612 (0,1,5,10,25,50,75,90,95,99,100-1,100)
c additional lifetimeBad 1 2 6 98 24834 104299 239366 363805 436870 535524 606658 606678 (0,1,5,10,25,50,75,90,95,99,100-1,100)
c additional lifetimeBadBad 2 2 2 2 2 8 48 762 14302 64017 522825 534453 (0,1,5,10,25,50,75,90,95,99,100-1,100)
c additional compositionBad 1 3 5 6 12 24 47 81 109 183 476 512 (0,1,5,10,25,50,75,90,95,99,100-1,100)
c additional compositionBadWithGood 0 0 1 2 4 8 17 29 39 68 195 206 (0,1,5,10,25,50,75,90,95,99,100-1,100)
c additional compositionBadWithBad 0 0 0 0 0 1 2 3 4 7 18 23 (0,1,5,10,25,50,75,90,95,99,100-1,100)
c additional compositionBadWithInitial 0 0 2 3 6 14 29 51 70 118 365 408 (0,1,5,10,25,50,75,90,95,99,100-1,100)
c additional compositionGood 1 2 3 4 8 21 49 92 127 216 552 584 (0,1,5,10,25,50,75,90,95,99,100-1,100)
c additional compositionGoodWithGood 0 0 1 2 4 9 20 37 52 89 235 236 (0,1,5,10,25,50,75,90,95,99,100-1,100)
c additional compositionGoodWithInitial 0 0 1 2 4 11 29 56 77 132 414 418 (0,1,5,10,25,50,75,90,95,99,100-1,100)
c additional propagationGood total 20007495 percentiles 0 1 1 1 1 2 8 64 189 1205 28860 28962 (0,1,5,10,25,50,75,90,95,99,100-1,100)
c additional propagationBad total 581878 percentiles 1 1 1 1 1 1 2 4 6 14 174 406 (0,1,5,10,25,50,75,90,95,99,100-1,100)
c additional resolutionGood total 7232920 percentiles 0 1 1 1 1 1 5 29 78 418 8474 9775 (0,1,5,10,25,50,75,90,95,99,100-1,100)
c additional resolutionBad total 362187 percentiles 0 0 0 0 1 1 1 2 4 7 66 70 (0,1,5,10,25,50,75,90,95,99,100-1,100)
Computing K-Core for 646654 clauses...
c building structure for KCore computation.
c the graph has 22403007 edges, maxdegree=584
c we start the KCore with the value 20
c Non directed graph built
K=20,223195 nodes removed so far
K=21,236172 nodes removed so far
K=22,248583 nodes removed so far
K=23,260680 nodes removed so far
K=24,272138 nodes removed so far
K=25,283071 nodes removed so far
K=26,293709 nodes removed so far
K=27,304223 nodes removed so far
K=28,314282 nodes removed so far
K=29,324051 nodes removed so far
K=30,333290 nodes removed so far
K=31,341953 nodes removed so far
K=32,350393 nodes removed so far
K=33,358740 nodes removed so far
K=34,366711 nodes removed so far
K=35,374486 nodes removed so far
K=36,381938 nodes removed so far
K=37,389029 nodes removed so far
K=38,395850 nodes removed so far
K=39,402553 nodes removed so far
K=40,408972 nodes removed so far
K=41,415290 nodes removed so far
K=42,421172 nodes removed so far
K=43,426942 nodes removed so far
K=44,432687 nodes removed so far
K=45,438160 nodes removed so far
K=46,443469 nodes removed so far
K=47,448684 nodes removed so far
K=48,453679 nodes removed so far
K=49,458636 nodes removed so far
K=50,463219 nodes removed so far
K=51,467847 nodes removed so far
K=52,472207 nodes removed so far
K=53,476400 nodes removed so far
K=54,480567 nodes removed so far
K=55,484467 nodes removed so far
K=56,488363 nodes removed so far
K=57,492130 nodes removed so far
K=58,495769 nodes removed so far
K=59,499452 nodes removed so far
K=60,502837 nodes removed so far
K=61,506139 nodes removed so far
K=62,509263 nodes removed so far
K=63,512333 nodes removed so far
K=64,515328 nodes removed so far
K=65,518317 nodes removed so far
K=66,521108 nodes removed so far
K=67,523968 nodes removed so far
K=68,526588 nodes removed so far
K=69,529182 nodes removed so far
K=70,531639 nodes removed so far
K=71,534158 nodes removed so far
K=72,536514 nodes removed so far
K=73,K=74,540982 nodes removed so far
K=75,K=76,K=77,K=78,K=79,551389 nodes removed so far
K=80,K=81,K=82,K=83,K=84,560377 nodes removed so far
K=85,K=86,K=87,K=88,K=89,K=90,K=91,570962 nodes removed so far
K=92,K=93,K=94,K=95,K=96,K=97,K=98,K=99,580530 nodes removed so far
K=100,K=101,K=102,K=103,K=104,K=105,K=106,K=107,K=108,K=109,590538 nodes removed so far
K=110,K=111,K=112,K=113,K=114,K=115,K=116,K=117,K=118,K=119,K=120,K=121,K=122,K=123,600512 nodes removed so far
K=124,K=125,K=126,K=127,K=128,K=129,K=130,K=131,K=132,K=133,K=134,K=135,K=136,K=137,K=138,K=139,615925 nodes removed so far
KCore = 139
Building structure for PR...
Computing PR...
Pageranking 569211 nodes done in 19 iteration. cumulError=4.3523e-11
clause level 276 (Kante=3, Kdesc=142883, core=1):479 
clause level 80 (Kante=3, Kdesc=74262, core=1):-715 
clause level 26 (Kante=4, Kdesc=70265, core=1):-713 
clause level 269 (Kante=4, Kdesc=75065, core=1):-714 
clause level 452 (Kante=219, Kdesc=62745, core=0):-716 
clause level 1046 (Kante=377, Kdesc=60225, core=0):-39 
clause level 202 (Kante=3, Kdesc=36876, core=0):-1707 
clause level 198 (Kante=20, Kdesc=17477, core=0):-27 25 
clause level 1290 (Kante=163, Kdesc=30972, core=0):-33 
clause level 1 (Kante=13, Kdesc=36425, core=0):510 454 480 
clause level 79 (Kante=527, Kdesc=1, core=0):-715 661 
clause level 26 (Kante=2, Kdesc=25938, core=1):61 -60 
clause level 3 (Kante=10, Kdesc=13865, core=1):-673 
clause level 1145 (Kante=221, Kdesc=28165, core=0):-79 
clause level 214 (Kante=322, Kdesc=1677, core=1):-714 480 
clause level 4 (Kante=5, Kdesc=9825, core=1):-712 
clause level 114 (Kante=129, Kdesc=12030, core=0):-1230 
clause level 3 (Kante=3, Kdesc=17271, core=1):486 460 560 
clause level 10 (Kante=3, Kdesc=15535, core=1):76 -1245 
clause level 2 (Kante=18, Kdesc=10548, core=0):-738 
clause level 4 (Kante=3, Kdesc=5139, core=0):-1 2 
clause level 277 (Kante=5, Kdesc=18245, core=1):-674 39 648 33 
clause level 27 (Kante=6, Kdesc=15668, core=0):-687 -479 
clause level 32 (Kante=10, Kdesc=12896, core=1):-1024 1025 
clause level 6 (Kante=3, Kdesc=9934, core=0):-1049 73 1035 
clause level 478 (Kante=194, Kdesc=10780, core=0):-1360 
clause level 5 (Kante=2, Kdesc=7975, core=1):106 -1154 
clause level 2 (Kante=3, Kdesc=6871, core=1):-107 108 62 1024 1025 
clause level 11 (Kante=4, Kdesc=11689, core=1):73 -74 -479 
clause level 5 (Kante=4, Kdesc=7655, core=1):-686 
clause level 10 (Kante=3, Kdesc=16224, core=0):543 460 480 
clause level 8 (Kante=2, Kdesc=7987, core=1):118 -119 1036 
clause level 3 (Kante=3, Kdesc=11530, core=0):480 452 486 488 
clause level 1 (Kante=2, Kdesc=4400, core=1):-70 -66 68 
clause level 1 (Kante=2, Kdesc=4755, core=1):-66 -62 64 
clause level 11 (Kante=4, Kdesc=9269, core=0):73 -74 -479 
clause level 3 (Kante=2, Kdesc=5986, core=1):3 -2 829 -479 
clause level 1 (Kante=2, Kdesc=3541, core=1):-66 -60 62 
clause level 7 (Kante=5, Kdesc=6418, core=0):460 589 575 541 486 
clause level 3 (Kante=3, Kdesc=6827, core=1):-1037 61 
clause level 1392 (Kante=128, Kdesc=10319, core=0):-537 
clause level 3 (Kante=3, Kdesc=5086, core=0):-7 9 -479 830 831 829 
clause level 1 (Kante=5, Kdesc=8733, core=0):506 485 480 
clause level 6 (Kante=3, Kdesc=7429, core=0):528 486 460 
clause level 8 (Kante=5, Kdesc=5670, core=0):108 62 1025 -106 1024 
clause level 5 (Kante=2, Kdesc=8664, core=1):-1 647 
clause level 5 (Kante=4, Kdesc=4869, core=1):114 -115 1033 1035 1032 1034 1036 
clause level 300 (Kante=3, Kdesc=7058, core=1):-1221 
clause level 1 (Kante=3, Kdesc=6105, core=0):-1708 -69 
clause level 1 (Kante=5, Kdesc=5404, core=0):461 453 459 
clause level 9 (Kante=5, Kdesc=7098, core=0):-1166 118 
clause level 1 (Kante=4, Kdesc=2821, core=1):-72 70 -66 
clause level 6 (Kante=3, Kdesc=9108, core=1):528 460 486 
clause level 4 (Kante=5, Kdesc=5121, core=0):-998 61 1154 
clause level 1 (Kante=3, Kdesc=5766, core=1):-1252 -68 
clause level 1291 (Kante=6, Kdesc=7423, core=1):-790 
clause level 1423 (Kante=314, Kdesc=6538, core=1):-1702 
clause level 4 (Kante=6, Kdesc=5017, core=0):-1362 106 
clause level 1 (Kante=3, Kdesc=5269, core=0):-1704 -65 
clause level 3 (Kante=3, Kdesc=5413, core=1):454 480 452 506 
clause level 4 (Kante=10, Kdesc=4894, core=0):-116 115 1036 1035 1034 1033 
clause level 5 (Kante=4, Kdesc=6086, core=0):-699 868 
clause level 1318 (Kante=202, Kdesc=5866, core=0):-1915 
clause level 8 (Kante=2, Kdesc=4436, core=0):109 -108 1026 62 1024 1025 
clause level 1 (Kante=3, Kdesc=4318, core=1):-1702 -63 
clause level 2 (Kante=7, Kdesc=3027, core=0):-105 1025 1024 106 
clause level 1 (Kante=4, Kdesc=2416, core=0):-68 -62 66 
clause level 1 (Kante=3, Kdesc=4826, core=0):-1703 -64 
clause level 1 (Kante=4, Kdesc=2445, core=0):-69 -62 66 
clause level 1 (Kante=3, Kdesc=5328, core=0):-1706 -67 
clause level 296 (Kante=96, Kdesc=4156, core=0):-1221 1226 
clause level 11 (Kante=11, Kdesc=6198, core=1):-854 27 -479 
clause level 1 (Kante=5, Kdesc=5637, core=1):510 485 480 
clause level 466 (Kante=2, Kdesc=6531, core=1):-73 72 
clause level 9 (Kante=4, Kdesc=6598, core=1):-1374 118 
clause level 2 (Kante=3, Kdesc=2849, core=1):-9 63 -479 830 831 11 829 
clause level 1 (Kante=3, Kdesc=4487, core=0):-1019 -21 
clause level 4 (Kante=5, Kdesc=5756, core=0):-1388 1025 106 
clause level 4 (Kante=5, Kdesc=4373, core=0):-881 3 -479 
clause level 1 (Kante=3, Kdesc=5163, core=0):-1563 -68 
clause level 1 (Kante=3, Kdesc=5109, core=1):-1253 -69 
clause level 349 (Kante=2, Kdesc=6012, core=0):-461 -477 483 
clause level 3 (Kante=4, Kdesc=3378, core=1):-109 110 1025 1024 62 1027 1026 
clause level 5 (Kante=2, Kdesc=3115, core=1):-118 -485 879 880 117 
clause level 1 (Kante=3, Kdesc=5242, core=1):-1732 -68 
clause level 1 (Kante=3, Kdesc=4293, core=0):-1712 -57 
clause level 6 (Kante=3, Kdesc=3301, core=1):-77 79 675 674 -455 33 
clause level 9 (Kante=3, Kdesc=4590, core=0):-29 840 -479 841 27 
clause level 3 (Kante=11, Kdesc=3292, core=1):-1003 66 64 
clause level 3 (Kante=3, Kdesc=5527, core=1):452 482 480 486 
clause level 2 (Kante=2, Kdesc=3099, core=1):-70 69 -66 
clause level 3 (Kante=2, Kdesc=4850, core=1):114 -118 1034 1035 1036 1033 1032 
clause level 8 (Kante=6, Kdesc=6167, core=0):-1400 118 1035 
clause level 5 (Kante=21, Kdesc=3806, core=1):-123 715 -461 713 714 124 
clause level 275 (Kante=3, Kdesc=6963, core=0):479 4015 4014 
clause level 1 (Kante=3, Kdesc=4660, core=0):-1564 -69 
clause level 2 (Kante=3, Kdesc=3837, core=1):453 461 451 
clause level 1 (Kante=3, Kdesc=4007, core=0):-1161 -68 
clause level 2 (Kante=3, Kdesc=4351, core=1):461 459 451 
clause level 4 (Kante=3, Kdesc=5101, core=0):482 452 486 480 
clause level 4 (Kante=4, Kdesc=5212, core=1):-1063 61 
clause level 7 (Kante=2, Kdesc=4249, core=1):-29 27 840 841 -479 
clause level 4 (Kante=18, Kdesc=2550, core=1):81 677 674 676 -455 675 33 -80 
clause level 5 (Kante=2, Kdesc=3154, core=0):116 1034 -117 1035 1036 
clause level 5 (Kante=6, Kdesc=3459, core=0):-1047 70 72 
clause level 1 (Kante=3, Kdesc=3942, core=0):-1251 -67 
clause level 1 (Kante=3, Kdesc=4239, core=0):-1538 -68 
clause level 19 (Kante=3, Kdesc=4037, core=0):-999 62 -479 
clause level 1 (Kante=3, Kdesc=3192, core=0):-1021 -25 
clause level 1 (Kante=3, Kdesc=3993, core=0):-1017 -17 
clause level 5 (Kante=2, Kdesc=4758, core=0):-103 1270 117 102 1269 -543 
clause level 1 (Kante=3, Kdesc=3584, core=0):-1250 -65 
clause level 1 (Kante=3, Kdesc=3736, core=1):-1705 -66 
clause level 2 (Kante=5, Kdesc=3763, core=1):-842 -479 830 3 
clause level 4 (Kante=5, Kdesc=5647, core=0):-907 3 -479 830 
clause level 81 (Kante=5, Kdesc=5476, core=1):-461 -120 714 124 
clause level 1 (Kante=4, Kdesc=2140, core=0):-67 66 -62 
clause level 1 (Kante=3, Kdesc=4161, core=0):-1704 -110 
clause level 1 (Kante=3, Kdesc=3362, core=0):-1018 -19 
clause level 1 (Kante=3, Kdesc=3589, core=0):-1706 -112 
clause level 1 (Kante=3, Kdesc=4635, core=0):-1733 -69 
clause level 1 (Kante=3, Kdesc=3962, core=0):-914 -68 
clause level 1 (Kante=3, Kdesc=3937, core=0):-1730 -65 
clause level 5 (Kante=3, Kdesc=3128, core=1):-25 23 839 840 72 -479 841 
clause level 1 (Kante=3, Kdesc=2155, core=0):-1155 -62 
clause level 1 (Kante=5, Kdesc=3567, core=1):455 459 453 
clause level 2 (Kante=3, Kdesc=3493, core=0):451 461 453 
clause level 7 (Kante=3, Kdesc=3868, core=0):459 455 451 
clause level 1 (Kante=3, Kdesc=4291, core=0):-1357 -69 
clause level 1 (Kante=3, Kdesc=3780, core=0):-1369 -68 
clause level 275 (Kante=3, Kdesc=5373, core=1):479 4015 4014 
clause level 1 (Kante=3, Kdesc=3357, core=1):-719 -68 
clause level 9 (Kante=3, Kdesc=2802, core=1):70 -71 -479 841 27 839 840 
clause level 1 (Kante=3, Kdesc=3850, core=0):-1562 -67 
clause level 7 (Kante=6, Kdesc=4348, core=0):-674 830 -479 829 
clause level 3 (Kante=2, Kdesc=3610, core=1):106 -105 1024 
clause level 1 (Kante=3, Kdesc=4109, core=0):-915 -69 
clause level 1 (Kante=3, Kdesc=3934, core=1):-1256 -57 
clause level 1 (Kante=3, Kdesc=3087, core=0):-721 -70 
clause level 1 (Kante=3, Kdesc=3015, core=0):-684 -72 
clause level 5 (Kante=14, Kdesc=2276, core=1):113 1033 -116 1036 1034 1032 1031 1035 
clause level 1 (Kante=3, Kdesc=3493, core=0):-1370 -69 
clause level 1 (Kante=3, Kdesc=1975, core=1):-70 65 -62 
clause level 3 (Kante=4, Kdesc=2236, core=0):-104 101 1022 -507 1023 74 
clause level 1 (Kante=3, Kdesc=3435, core=0):-1162 -69 
clause level 1 (Kante=3, Kdesc=3351, core=0):-1710 -71 
clause level 6 (Kante=2, Kdesc=3396, core=0):-123 124 715 713 714 -461 
clause level 1 (Kante=3, Kdesc=3259, core=0):-1253 -114 
clause level 1 (Kante=3, Kdesc=2440, core=1):-717 -66 
clause level 7 (Kante=3, Kdesc=2609, core=1):113 1031 -114 1033 1034 1035 1032 1036 
clause level 1 (Kante=3, Kdesc=3911, core=0):-1330 -68 
clause level 1 (Kante=3, Kdesc=3352, core=0):-1254 -70 
clause level 1 (Kante=3, Kdesc=3074, core=1):-722 -72 
clause level 1 (Kante=3, Kdesc=3056, core=1):-680 -68 
clause level 1 (Kante=3, Kdesc=3114, core=0):-1249 -64 
clause level 4 (Kante=9, Kdesc=3822, core=0):100 -101 1269 -543 1270 1268 117 
clause level 1 (Kante=3, Kdesc=3002, core=1):-1014 -9 
clause level 4 (Kante=5, Kdesc=2626, core=0):-25 840 -479 841 839 23 72 
clause level 1 (Kante=3, Kdesc=3849, core=0):-1394 -68 
clause level 1 (Kante=3, Kdesc=3059, core=1):-1019 -49 
clause level 1 (Kante=3, Kdesc=3393, core=0):-1728 -63 
clause level 1 (Kante=3, Kdesc=2734, core=0):-1020 -23 
clause level 272 (Kante=3, Kdesc=3976, core=0):72 -71 70 
clause level 17 (Kante=3, Kdesc=4059, core=1):106 -105 -485 
clause level 1 (Kante=3, Kdesc=3147, core=1):-1709 -70 
clause level 1 (Kante=3, Kdesc=2966, core=0):-1704 -13 
clause level 1 (Kante=3, Kdesc=3682, core=0):-1356 -67 
clause level 1 (Kante=3, Kdesc=3310, core=1):-1731 -66 
clause level 1 (Kante=3, Kdesc=2456, core=0):-1367 -66 
clause level 1 (Kante=3, Kdesc=2923, core=1):-1163 -70 
clause level 16 (Kante=3, Kdesc=4181, core=0):-868 106 1025 1154 1155 
clause level 1 (Kante=3, Kdesc=2958, core=0):-1251 -112 
clause level 1 (Kante=3, Kdesc=2426, core=0):-681 -69 
clause level 1 (Kante=3, Kdesc=3072, core=0):-1564 -114 
clause level 1 (Kante=3, Kdesc=2721, core=0):-1706 -45 
clause level 1 (Kante=3, Kdesc=3365, core=1):-1539 -69 
clause level 1 (Kante=3, Kdesc=3421, core=0):-913 -67 
clause level 29 (Kante=2, Kdesc=2914, core=1):9 -3 830 62 -479 829 1024 1025 831 
clause level 5 (Kante=3, Kdesc=2404, core=0):-3 9 -479 829 841 830 831 
clause level 1 (Kante=3, Kdesc=2804, core=1):-1708 -114 
clause level 4 (Kante=2, Kdesc=2419, core=0):-87 86 -505 73 1010 1009 
clause level 1 (Kante=3, Kdesc=2523, core=0):-1157 -64 
clause level 1 (Kante=3, Kdesc=3292, core=0):-850 -69 
clause level 1 (Kante=3, Kdesc=3088, core=1):-1561 -66 
clause level 1 (Kante=3, Kdesc=3117, core=1):-1250 -110 
clause level 1 (Kante=3, Kdesc=2678, core=0):-682 -70 
clause level 1 (Kante=3, Kdesc=3262, core=1):-1352 -63 
clause level 1 (Kante=3, Kdesc=3381, core=1):-1729 -64 
clause level 1 (Kante=5, Kdesc=2525, core=0):455 459 453 
clause level 1 (Kante=3, Kdesc=1902, core=1):-1704 -41 
clause level 1 (Kante=3, Kdesc=2780, core=0):-1251 -45 
clause level 1 (Kante=3, Kdesc=3536, core=0):-1395 -69 
clause level 842 (Kante=12, Kdesc=2943, core=0):247 485 
clause level 1 (Kante=3, Kdesc=3206, core=1):-1226 -68 
clause level 1 (Kante=3, Kdesc=3421, core=0):-1354 -65 
clause level 1 (Kante=3, Kdesc=2635, core=1):-1248 -63 
clause level 6 (Kante=2, Kdesc=2056, core=0):81 -80 -455 33 675 674 676 677 
clause level 1 (Kante=3, Kdesc=2078, core=0):-1250 -41 
clause level 1 (Kante=3, Kdesc=2574, core=0):-1252 -47 
clause level 1 (Kante=3, Kdesc=3096, core=0):-911 -64 
clause level 1 (Kante=3, Kdesc=2867, core=1):-1706 -17 
clause level 1 (Kante=3, Kdesc=2391, core=1):-1255 -72 
clause level 1 (Kante=3, Kdesc=3131, core=0):-1730 -110 
clause level 1 (Kante=3, Kdesc=2557, core=1):-1159 -66 
clause level 1 (Kante=3, Kdesc=2951, core=0):-1355 -66 
clause level 10 (Kante=5, Kdesc=2658, core=1):-118 -479 841 1035 116 1034 
clause level 5 (Kante=11, Kdesc=2409, core=0):-77 78 -455 33 674 
clause level 27 (Kante=6, Kdesc=3182, core=1):-7 830 9 -479 831 
clause level 6 (Kante=3, Kdesc=2851, core=1):-37 715 -461 714 39 713 
clause level 1 (Kante=3, Kdesc=2873, core=0):-1158 -65 
clause level 2 (Kante=3, Kdesc=2870, core=0):-90 91 -543 1258 1259 106 
clause level 6 (Kante=3, Kdesc=2402, core=0):-31 840 -479 841 27 
clause level 1 (Kante=3, Kdesc=2644, core=0):-1562 -112 
clause level 1 (Kante=3, Kdesc=2657, core=1):-1568 -57 
clause level 1 (Kante=3, Kdesc=2829, core=1):-1017 -45 
clause level 1 (Kante=3, Kdesc=2798, core=1):-1537 -67 
clause level 1 (Kante=3, Kdesc=3131, core=0):-1353 -64 
clause level 1 (Kante=3, Kdesc=2447, core=1):-1247 -62 
clause level 1 (Kante=3, Kdesc=3120, core=0):-912 -66 
clause level 1 (Kante=3, Kdesc=2515, core=0):-1559 -62 
clause level 2 (Kante=5, Kdesc=3253, core=1):454 458 505 480 
clause level 1 (Kante=3, Kdesc=2999, core=0):-1393 -67 
clause level 1 (Kante=3, Kdesc=2563, core=0):-1705 -15 
clause level 1 (Kante=3, Kdesc=3231, core=1):-1331 -69 
clause level 27 (Kante=3, Kdesc=2009, core=1):-122 123 -461 714 
clause level 1 (Kante=3, Kdesc=2727, core=0):-1562 -45 
clause level 6 (Kante=3, Kdesc=2755, core=0):-37 -461 39 713 714 715 
clause level 1 (Kante=3, Kdesc=2468, core=0):-1708 -21 
clause level 1 (Kante=3, Kdesc=2972, core=1):-1351 -62 
clause level 1 (Kante=3, Kdesc=2594, core=0):-1368 -67 
clause level 1 (Kante=3, Kdesc=2693, core=1):-1727 -62 
clause level 1 (Kante=3, Kdesc=2611, core=0):-1358 -70 
clause level 2 (Kante=5, Kdesc=2671, core=0):454 505 480 458 
clause level 1 (Kante=3, Kdesc=3451, core=0):-745 -68 
clause level 1 (Kante=3, Kdesc=2513, core=1):-1371 -70 
clause level 5 (Kante=18, Kdesc=2476, core=1):126 -461 713 716 714 124 715 -125 
clause level 8 (Kante=3, Kdesc=1502, core=1):-1 -461 33 713 
clause level 7 (Kante=22, Kdesc=1860, core=0):39 -461 713 715 714 -35 
clause level 9 (Kante=4, Kdesc=2877, core=1):-1247 -455 78 33 
clause level 1 (Kante=3, Kdesc=2271, core=1):-678 -66 
clause level 1 (Kante=3, Kdesc=2512, core=0):-1160 -67 
clause level 1335 (Kante=3, Kdesc=3348, core=0):-72 70 
clause level 200 (Kante=254, Kdesc=604, core=1):-1707 1706 
clause level 1 (Kante=3, Kdesc=2823, core=1):-1329 -67 
clause level 1 (Kante=3, Kdesc=2696, core=1):-1535 -110 
clause level 6 (Kante=4, Kdesc=2721, core=1):-1163 114 1035 1033 1036 1034 
clause level 1 (Kante=3, Kdesc=2341, core=1):-1156 -63 
clause level 1 (Kante=3, Kdesc=2408, core=0):-1251 -17 
clause level 1 (Kante=3, Kdesc=2693, core=0):-1734 -70 
clause level 5 (Kante=3, Kdesc=2129, core=1):-119 1032 1031 1033 1034 1035 1036 114 
clause level 1 (Kante=3, Kdesc=2700, core=0):-1391 -65 
clause level 1 (Kante=3, Kdesc=2947, core=1):-1737 -57 
clause level 7 (Kante=5, Kdesc=2377, core=0):-1036 880 -479 27 72 840 
clause level 1 (Kante=3, Kdesc=2214, core=0):-848 -66 
clause level 1 (Kante=3, Kdesc=2784, core=0):-1390 -64 
clause level 1 (Kante=3, Kdesc=2078, core=0):-1005 -45 
clause level 5 (Kante=5, Kdesc=1728, core=0):-113 1030 1035 1032 1033 1034 1031 1036 112 
clause level 1 (Kante=3, Kdesc=2398, core=1):-1562 -17 
clause level 1 (Kante=3, Kdesc=2678, core=0):-1535 -65 
clause level 1 (Kante=3, Kdesc=2463, core=0):-1536 -66 
clause level 7 (Kante=2, Kdesc=2335, core=0):21 -23 -479 839 838 841 840 72 
clause level 4 (Kante=5, Kdesc=1856, core=0):-78 76 -455 674 675 79 
clause level 1 (Kante=3, Kdesc=2645, core=0):-1396 -70 
clause level 4 (Kante=5, Kdesc=3516, core=0):-959 1115 3 -479 
clause level 269 (Kante=3, Kdesc=2020, core=1):-720 -70 
clause level 2 (Kante=5, Kdesc=2492, core=0):505 455 480 507 
clause level 1 (Kante=3, Kdesc=2425, core=1):-1564 -21 
clause level 8 (Kante=4, Kdesc=2827, core=1):-919 27 -479 841 
clause level 1 (Kante=3, Kdesc=2771, core=1):-1068 -110 
clause level 1 (Kante=3, Kdesc=2442, core=0):-1227 -69 
clause level 1 (Kante=3, Kdesc=2571, core=1):-863 -69 
clause level 19 (Kante=3, Kdesc=2765, core=1):-1064 62 -479 
clause level 1 (Kante=3, Kdesc=2484, core=1):-916 -70 
clause level 1 (Kante=3, Kdesc=2798, core=1):-913 -112 
clause level 1 (Kante=3, Kdesc=2276, core=1):-1225 -67 
clause level 1 (Kante=3, Kdesc=2203, core=0):-1250 -13 
clause level 1 (Kante=3, Kdesc=2439, core=0):-1565 -70 
clause level 1 (Kante=3, Kdesc=2016, core=1):-718 -112 
clause level 9 (Kante=5, Kdesc=2104, core=0):-1257 88 -505 
clause level 1 (Kante=3, Kdesc=2229, core=1):-1357 -21 
clause level 5 (Kante=5, Kdesc=2230, core=0):-1349 1012 -507 91 
clause level 1 (Kante=3, Kdesc=1855, core=0):-1363 -62 
clause level 1 (Kante=3, Kdesc=2212, core=0):-1539 -114 
clause level 277 (Kante=6, Kdesc=3250, core=1):-892 27 1048 
clause level 1 (Kante=3, Kdesc=2387, core=1):-915 -114 
clause level 1 (Kante=3, Kdesc=2142, core=0):-1710 -25 
clause level 1 (Kante=3, Kdesc=2435, core=0):-1733 -114 
clause level 1 (Kante=3, Kdesc=2203, core=1):-1364 -63 
clause level 1 (Kante=3, Kdesc=2189, core=0):-852 -71 
clause level 5 (Kante=3, Kdesc=3113, core=0):91 -90 -507 1011 
clause level 1 (Kante=3, Kdesc=2199, core=1):-1366 -65 
clause level 1 (Kante=3, Kdesc=2068, core=0):-887 -112 
clause level 3 (Kante=5, Kdesc=2013, core=1):-1363 1025 108 106 
clause level 1 (Kante=3, Kdesc=2727, core=0):-1392 -66 
clause level 1 (Kante=3, Kdesc=2237, core=1):-910 -63 
clause level 8 (Kante=4, Kdesc=2726, core=0):-1466 -543 1025 106 
clause level 7 (Kante=3, Kdesc=2825, core=1):-1335 -543 103 
clause level 1 (Kante=3, Kdesc=2745, core=0):-1326 -64 
clause level 1 (Kante=3, Kdesc=2410, core=1):-861 -67 
clause level 1 (Kante=3, Kdesc=2022, core=0):-1223 -64 
clause level 277 (Kante=4, Kdesc=2150, core=0):-1038 62 
clause level 1 (Kante=3, Kdesc=2283, core=0):-885 -65 
clause level 1 (Kante=3, Kdesc=2117, core=0):-1537 -112 
clause level 8 (Kante=5, Kdesc=2147, core=1):-711 118 117 672 
clause level 277 (Kante=8, Kdesc=3280, core=1):-893 486 33 
clause level 9 (Kante=2, Kdesc=2326, core=1):116 1035 -117 1034 1036 
clause level 1 (Kante=3, Kdesc=1622, core=0):-1372 -72 
clause level 1 (Kante=3, Kdesc=2129, core=0):-1365 -64 
clause level 1 (Kante=3, Kdesc=2164, core=1):-1566 -25 
clause level 1 (Kante=3, Kdesc=2270, core=1):-909 -62 
clause level 4 (Kante=6, Kdesc=1907, core=0):99 -100 1021 1020 1022 1023 -507 74 
clause level 5 (Kante=4, Kdesc=2662, core=0):-790 959 
clause level 1 (Kante=3, Kdesc=2269, core=1):-1354 -13 
clause level 8 (Kante=2, Kdesc=2348, core=1):-121 -461 122 713 714 
clause level 1 (Kante=3, Kdesc=2248, core=1):-1730 -13 
clause level 1 (Kante=3, Kdesc=2471, core=1):-862 -68 
clause level 1 (Kante=3, Kdesc=2450, core=0):-1733 -21 
clause level 1 (Kante=3, Kdesc=1986, core=0):-1711 -72 
clause level 1 (Kante=3, Kdesc=2255, core=1):-849 -67 
clause level 1 (Kante=3, Kdesc=2278, core=0):-1560 -63 
clause level 1 (Kante=3, Kdesc=2244, core=0):-1231 -57 
clause level 1 (Kante=3, Kdesc=1831, core=1):-1222 -63 
clause level 1 (Kante=3, Kdesc=2119, core=1):-1224 -110 
clause level 1 (Kante=3, Kdesc=2070, core=0):-1225 -112 
clause level 9 (Kante=3, Kdesc=1951, core=0):-1023 72 -479 841 
clause level 10 (Kante=10, Kdesc=1530, core=1):-683 -72 -479 
clause level 1 (Kante=3, Kdesc=2309, core=0):-1359 -71 
clause level 5 (Kante=4, Kdesc=2279, core=0):-816 985 
clause level 1 (Kante=3, Kdesc=2124, core=1):-1542 -57 
clause level 2 (Kante=2, Kdesc=1688, core=0):-70 -63 66 
clause level 1 (Kante=3, Kdesc=2033, core=0):-1561 -43 
clause level 1 (Kante=3, Kdesc=2004, core=1):-1533 -63 
clause level 1 (Kante=3, Kdesc=2062, core=0):-1534 -64 
clause level 1 (Kante=3, Kdesc=2317, core=0):-1327 -65 
clause level 1 (Kante=3, Kdesc=1928, core=1):-1224 -65 
clause level 8 (Kante=2, Kdesc=2396, core=1):79 675 -455 674 33 -78 
clause level 10 (Kante=6, Kdesc=2257, core=1):-1166 116 1034 1035 
clause level 1 (Kante=3, Kdesc=1994, core=1):-1356 -17 
clause level 1 (Kante=3, Kdesc=1893, core=0):-847 -65 
clause level 1 (Kante=3, Kdesc=1916, core=1):-845 -63 
clause level 11 (Kante=6, Kdesc=1849, core=0):81 -455 676 675 674 677 -78 33 
clause level 1 (Kante=3, Kdesc=2083, core=1):-851 -70 
clause level 1 (Kante=3, Kdesc=2364, core=0):-1328 -66 
clause level 1 (Kante=3, Kdesc=2035, core=0):-882 -62 
clause level 1 (Kante=3, Kdesc=2267, core=0):-744 -67 
clause level 1 (Kante=3, Kdesc=2069, core=0):-1359 -25 
clause level 1 (Kante=3, Kdesc=2089, core=0):-1540 -71 
clause level 1 (Kante=3, Kdesc=1924, core=1):-1539 -21 
clause level 1 (Kante=3, Kdesc=1969, core=0):-743 -66 
clause level 1 (Kante=3, Kdesc=2127, core=1):-1072 -114 
clause level 1 (Kante=3, Kdesc=2236, core=1):-1361 -57 
clause level 1 (Kante=3, Kdesc=2040, core=0):-1389 -63 
clause level 1 (Kante=3, Kdesc=2060, core=1):-1356 -45 
clause level 1 (Kante=3, Kdesc=2129, core=1):-1070 -112 
clause level 8 (Kante=6, Kdesc=2360, core=0):-739 -479 829 830 
clause level 5 (Kante=3, Kdesc=1856, core=1):-92 93 -507 1013 1011 1012 
clause level 1 (Kante=3, Kdesc=1651, core=0):-1354 -41 
clause level 1 (Kante=3, Kdesc=1912, core=1):-747 -70 
clause level 4 (Kante=5, Kdesc=1902, core=0):-855 3 -479 
clause level 3 (Kante=4, Kdesc=1519, core=0):93 -92 -507 1013 1011 1012 
clause level 10 (Kante=3, Kdesc=1852, core=1):451 33 -31 
clause level 1 (Kante=3, Kdesc=1703, core=0):-1160 -45 
clause level 1 (Kante=3, Kdesc=1823, core=0):-844 -62 
clause level 1 (Kante=3, Kdesc=1911, core=0):-1735 -71 
clause level 1 (Kante=3, Kdesc=1717, core=1):-1535 -13 
clause level 1 (Kante=3, Kdesc=1728, core=1):-1567 -72 
clause level 1 (Kante=3, Kdesc=1654, core=0):-1532 -62 
clause level 81 (Kante=4, Kdesc=1866, core=0):123 -122 714 -461 
clause level 270 (Kante=6, Kdesc=2010, core=0):-125 716 -461 127 718 39 717 
clause level 1 (Kante=3, Kdesc=1789, core=0):-690 -66 
clause level 1 (Kante=3, Kdesc=1791, core=1):-884 -64 
clause level 1 (Kante=3, Kdesc=1524, core=1):-1537 -45 
clause level 1 (Kante=3, Kdesc=1765, core=1):-860 -66 
clause level 1 (Kante=3, Kdesc=1776, core=1):-856 -61 
clause level 3 (Kante=6, Kdesc=1837, core=0):-740 830 -479 829 831 
clause level 1 (Kante=3, Kdesc=1824, core=1):-1229 -71 
clause level 1 (Kante=3, Kdesc=1790, core=1):-746 -69 
clause level 1 (Kante=3, Kdesc=1941, core=0):-917 -71 
clause level 1 (Kante=3, Kdesc=1838, core=0):-1324 -62 
clause level 1 (Kante=3, Kdesc=1733, core=1):-1537 -17 
clause level 1 (Kante=3, Kdesc=1828, core=1):-691 -67 
clause level 3 (Kante=2, Kdesc=1767, core=0):-93 1260 94 106 1259 1258 -543 
clause level 1 (Kante=3, Kdesc=1319, core=0):-1730 -41 
clause level 1 (Kante=3, Kdesc=1677, core=0):-1228 -70 
clause level 1 (Kante=3, Kdesc=1549, core=0):-846 -64 
clause level 1 (Kante=3, Kdesc=1843, core=1):-887 -67 
clause level 1 (Kante=3, Kdesc=1800, core=0):-1329 -112 
clause level 1 (Kante=3, Kdesc=1965, core=0):-1327 -110 
clause level 1 (Kante=3, Kdesc=1713, core=1):-1072 -21 
clause level 1 (Kante=3, Kdesc=1692, core=1):-864 -70 
clause level 1 (Kante=3, Kdesc=1764, core=0):-1735 -25 
clause level 1 (Kante=3, Kdesc=1759, core=1):-1350 -61 
clause level 1 (Kante=3, Kdesc=1629, core=0):-1540 -25 
clause level 3 (Kante=3, Kdesc=1435, core=1):-1155 1024 108 1025 
clause level 1 (Kante=3, Kdesc=1782, core=0):-1397 -71 
clause level 7 (Kante=6, Kdesc=1791, core=1):-683 51 -451 655 
clause level 1 (Kante=3, Kdesc=1692, core=0):-1736 -72 
clause level 1 (Kante=3, Kdesc=1574, core=1):-1398 -72 
clause level 10 (Kante=6, Kdesc=1781, core=1):-1066 62 64 
clause level 1 (Kante=3, Kdesc=1487, core=0):-694 -70 
clause level 28 (Kante=6, Kdesc=2010, core=0):-816 509 33 
clause level 1 (Kante=3, Kdesc=1476, core=1):-858 -63 
clause level 1 (Kante=3, Kdesc=1648, core=0):-1355 -43 
clause level 4 (Kante=11, Kdesc=1383, core=0):-1164 118 116 1033 1009 
clause level 199 (Kante=3, Kdesc=1664, core=0):-1021 70 841 -479 840 
clause level 8 (Kante=2, Kdesc=1508, core=0):-121 716 -461 713 123 714 715 
clause level 1 (Kante=3, Kdesc=1183, core=0):-1366 -41 
clause level 3 (Kante=2, Kdesc=1181, core=0):-101 99 -507 1019 1020 1023 74 1022 1018 1021 
clause level 9 (Kante=4, Kdesc=1665, core=1):-1372 1035 116 1033 1036 
clause level 1 (Kante=3, Kdesc=1738, core=1):-1325 -63 
clause level 6 (Kante=4, Kdesc=1490, core=1):-1019 838 -479 68 27 841 839 840 
clause level 1 (Kante=3, Kdesc=1661, core=1):-1566 -71 
clause level 4 (Kante=2, Kdesc=1602, core=0):-104 -507 1022 74 1023 102 
clause level 1 (Kante=3, Kdesc=1716, core=1):-1334 -57 
clause level 277 (Kante=5, Kdesc=1610, core=0):73 -31 27 
clause level 9 (Kante=3, Kdesc=1837, core=0):-3425 1036 
clause level 6 (Kante=4, Kdesc=1838, core=0):-91 92 106 -543 1258 
clause level 1 (Kante=3, Kdesc=1505, core=1):-1731 -43 
clause level 8 (Kante=4, Kdesc=1528, core=1):-1248 79 -455 77 
clause level 1 (Kante=3, Kdesc=1650, core=0):-744 -112 
clause level 1 (Kante=3, Kdesc=1413, core=0):-857 -62 
clause level 7 (Kante=5, Kdesc=1564, core=0):-1269 117 1036 1023 
clause level 1 (Kante=3, Kdesc=1698, core=0):-1393 -17 
clause level 1 (Kante=3, Kdesc=1410, core=1):-1541 -72 
clause level 1 (Kante=3, Kdesc=1451, core=0):-1368 -45 
clause level 1 (Kante=3, Kdesc=1262, core=0):-1225 -45 
clause level 1 (Kante=3, Kdesc=1548, core=1):-749 -72 
clause level 1 (Kante=3, Kdesc=1508, core=0):-1070 -17 
clause level 1 (Kante=3, Kdesc=1434, core=1):-1332 -71 
clause level 6 (Kante=4, Kdesc=1384, core=1):-1560 124 714 713 -461 
clause level 1 (Kante=3, Kdesc=1173, core=0):-872 -126 
clause level 1 (Kante=3, Kdesc=1528, core=0):-1397 -25 
clause level 1 (Kante=3, Kdesc=968, core=0):-1068 -41 
clause level 1 (Kante=3, Kdesc=1479, core=0):-1393 -45 
clause level 1 (Kante=3, Kdesc=1382, core=0):-1391 -13 
clause level 1 (Kante=3, Kdesc=1329, core=0):-913 -45 
clause level 1 (Kante=3, Kdesc=1451, core=1):-1329 -17 
clause level 7 (Kante=5, Kdesc=2000, core=1):-996 25 1152 -479 27 841 
clause level 10 (Kante=5, Kdesc=1618, core=1):-879 878 1036 1035 841 72 840 -479 
clause level 5 (Kante=4, Kdesc=1638, core=0):-1397 1034 115 1035 1036 
clause level 8 (Kante=4, Kdesc=1539, core=1):-103 102 1023 -507 74 1022 
clause level 6 (Kante=4, Kdesc=1127, core=0):-1219 -505 76 
clause level 1 (Kante=3, Kdesc=1181, core=0):-859 -64 
clause level 28 (Kante=4, Kdesc=1692, core=1):-909 9 -479 830 
clause level 1 (Kante=3, Kdesc=1375, core=1):-695 -71 
clause level 1 (Kante=3, Kdesc=920, core=1):-1391 -41 
clause level 1 (Kante=3, Kdesc=977, core=1):-886 -66 
clause level 1 (Kante=3, Kdesc=1326, core=0):-1333 -72 
clause level 7 (Kante=3, Kdesc=1492, core=1):-91 62 -543 94 108 1259 1025 1258 1024 106 
clause level 1 (Kante=3, Kdesc=1195, core=1):-1172 -66 
clause level 1 (Kante=3, Kdesc=1273, core=1):-1159 -43 
clause level 1 (Kante=3, Kdesc=1244, core=1):-918 -72 
clause level 1 (Kante=3, Kdesc=1264, core=0):-1073 -25 
clause level 4 (Kante=2, Kdesc=1370, core=0):-103 101 1023 -507 1021 1022 104 
clause level 1 (Kante=3, Kdesc=1126, core=0):-1913 -126 
clause level 12 (Kante=7, Kdesc=1318, core=1):-1373 1034 -479 116 1048 
clause level 1 (Kante=3, Kdesc=1272, core=0):-1367 -43 
clause level 7 (Kante=35, Kdesc=1439, core=1):-699 33 509 714 715 713 
clause level 1 (Kante=3, Kdesc=1114, core=0):-1070 -45 
clause level 1 (Kante=3, Kdesc=1216, core=1):-890 -70 
clause level 1 (Kante=3, Kdesc=1238, core=0):-1329 -45 
clause level 277 (Kante=5, Kdesc=1467, core=1):-866 27 841 
clause level 1 (Kante=3, Kdesc=1111, core=0):-1536 -43 
clause level 5 (Kante=3, Kdesc=1255, core=1):-92 93 1259 -543 106 1260 1258 
clause level 1 (Kante=3, Kdesc=1256, core=1):-696 -72 
clause level 1 (Kante=3, Kdesc=1068, core=1):-1913 -81 
clause level 1 (Kante=3, Kdesc=1301, core=1):-1332 -25 
clause level 1283 (Kante=226, Kdesc=1083, core=1):-1252 1703 1704 
clause level 6 (Kante=4, Kdesc=1105, core=1):-1533 124 -461 713 714 
clause level 6 (Kante=4, Kdesc=1113, core=0):-1398 1035 116 1036 
clause level 4 (Kante=5, Kdesc=1195, core=0):-961 830 -479 9 1117 829 
clause level 613 (Kante=2, Kdesc=1178, core=1):-25 -3 890 4016 
clause level 3 (Kante=3, Kdesc=1537, core=0):91 -90 1258 -543 106 
clause level 28 (Kante=3, Kdesc=1148, core=1):-3404 61 
clause level 33 (Kante=5, Kdesc=1149, core=1):-1468 1143 108 1025 
clause level 6 (Kante=5, Kdesc=1081, core=1):-885 -461 124 714 713 126 715 
clause level 1 (Kante=3, Kdesc=751, core=0):-739 -62 
clause level 1 (Kante=3, Kdesc=1056, core=0):-1328 -43 
clause level 1 (Kante=3, Kdesc=935, core=1):-865 -72 
clause level 1 (Kante=3, Kdesc=996, core=1):-1392 -43 
clause level 113 (Kante=203, Kdesc=634, core=1):-1729 1147 245 1562 1250 247 1472 1146 1251 991 989 1730 820 822 1356 1354 3639 
clause level 1 (Kante=3, Kdesc=949, core=1):-688 -63 
clause level 437 (Kante=20, Kdesc=947, core=0):-70 -461 717 719 -118 
clause level 8 (Kante=28, Kdesc=710, core=1):-739 1024 -485 1025 
clause level 9 (Kante=5, Kdesc=1104, core=0):-1260 62 1025 109 1024 1014 
clause level 5 (Kante=5, Kdesc=739, core=0):-1399 117 1075 1032 1034 1036 1033 
clause level 265 (Kante=386, Kdesc=27, core=0):479 656 25 995 969 968 865 918 917 891 853 852 877 878 3323 27 
clause level 841 (Kante=286, Kdesc=209, core=0):-743 1914 1251 247 1147 1562 1472 1356 991 822 3642 3640 
clause level 6 (Kante=5, Kdesc=776, core=0):-1324 93 106 1258 -543 
clause level 378 (Kante=201, Kdesc=128, core=0):-62 1255 -541 542 455 675 676 677 678 1253 682 683 680 681 685 679 684 
clause level 1153 (Kante=401, Kdesc=71, core=0):-841 66 999 62 1143 1004 1000 1064 660 1038 1042 3333 1013 831 1039 1065 1069 1117 3330 1103 1016 664 834 1120 
clause level 1229 (Kante=400, Kdesc=23, core=1):-33 1703 1704 1252 
clause level 100 (Kante=256, Kdesc=305, core=1):-1356 526 -525 1152 1478 1256 1568 1737 996 827 1919 1361 253 
clause level 1457 (Kante=169, Kdesc=502, core=0):-45 1049 1041 1043 1037 1042 1038 1046 1045 1039 1040 816 1044 509 1047 1048 
clause level 870 (Kante=499, Kdesc=44, core=0):-718 -485 1002 1015 1365 859 1353 -39 486 1703 1326 1390 1223 1729 1157 3292 1534 846 911 884 1249 3294 3291 717 4018 
clause level 1004 (Kante=285, Kdesc=1, core=0):66 891 854 841 840 1157 884 1365 846 845 853 244 1040 675 677 674 1247 1248 1249 678 676 477 1703 999 892 1002 1001 27 1701 -35 1702 659 657 1729 241 -485 76 25 917 455 1352 1353 865 866 867 243 242 656 857 911 877 -33 1728 3326 1326 -39 1014 1015 1324 1726 -37 486 1727 121 1533 1534 1142 91 682 996 997 995 971 970 969 968 1559 1467 1469 31 919 683 986 1470 856 79 1220 988 1223 684 680 819 816 1222 1390 918 908 78 3323 123 822 821 823 820 658 859 826 825 827 828 1144 818 3294 3430 3354 3632 880 839 1910 1560 77 883 1558 844 1350 29 843 3327 4018 1245 1155 1143 1145 1468 824 3358 3292 3291 1351 
clause level 911 (Kante=265, Kdesc=1, core=0):70 -39 -66 25 839 79 -485 879 878 880 877 1352 1353 241 683 461 122 124 1561 1560 679 1365 1364 674 717 718 721 720 722 244 719 1363 682 893 121 1367 27 892 1557 1729 242 1469 1470 1468 1467 537 477 867 865 866 658 828 1001 78 999 1249 1911 1909 1910 1326 1324 971 968 -33 1002 1159 91 1390 1392 912 919 911 908 31 969 1229 1536 1533 1534 1226 1731 1559 1248 76 455 3358 1143 819 816 988 1157 817 852 853 657 843 656 844 845 848 846 29 884 -3 1015 1014 678 1172 1727 917 1012 1355 918 1726 1351 1350 1558 856 1038 1039 -37 -35 1245 151 996 995 997 676 677 1328 1228 123 882 886 854 -451 724 1156 1155 1703 1701 1702 243 743 659 970 1223 859 3292 3294 3327 4018 4016 3291 77 1222 883 860 690 825 1705 742 857 3326 
clause level 804 (Kante=237, Kdesc=84, core=0):-1711 683 53 669 709 656 800 748 695 3303 
clause level 245 (Kante=335, Kdesc=67, core=0):-84 33 675 676 685 680 683 682 677 679 684 -537 -479 455 538 791 700 817 480 648 678 687 674 681 714 
clause level 923 (Kante=400, Kdesc=105, core=1):-1255 1917 1476 3646 1735 251 1359 542 1566 1150 
clause level 520 (Kante=450, Kdesc=77, core=1):-1563 719 1708 612 124 -611 721 884 1365 1534 3433 3436 
clause level 1333 (Kante=276, Kdesc=47, core=1):-72 1145 64 1027 1015 832 1067 1118 
clause level 1123 (Kante=246, Kdesc=1, core=0):-525 870 -79 832 124 1365 1534 1911 884 3436 3433 94 1015 1261 154 1729 1067 1353 4018 1326 1703 911 3380 859 3358 3359 3486 3489 3383 
clause level 542 (Kante=281, Kdesc=86, core=1):-154 612 33 700 1034 1032 1042 453 66 477 525 1035 1706 -611 791 224 1144 834 1004 664 1016 666 744 661 660 667 157 648 1145 662 1141 1127 1120 1920 1069 1070 1142 819 672 1143 820 822 1147 1146 669 670 668 1149 1152 817 687 663 671 802 816 818 821 823 825 1153 1151 1150 3339 913 665 1393 1148 826 827 828 824 3336 1543 
clause level 470 (Kante=238, Kdesc=214, core=1):-1227 662 39 676 675 678 677 848 1159 1561 -66 793 860 1172 1355 717 1731 690 1367 743 912 1392 1328 689 703 1536 4020 3293 741 1705 
clause level 1122 (Kante=450, Kdesc=87, core=1):-1708 70 1032 1046 1020 1008 838 668 1124 3346 3343 
clause level 831 (Kante=398, Kdesc=8, core=0):485 1251 1472 247 1562 1914 1147 991 743 822 1356 
clause level 568 (Kante=295, Kdesc=41, core=1):-914 718 27 841 33 852 877 891 648 817 791 656 657 679 700 25 839 918 917 919 492 878 854 853 865 969 968 995 
clause level 1268 (Kante=201, Kdesc=2, core=1):-70 66 817 674 791 648 33 1004 1042 1120 1069 664 700 834 1016 3336 3339 3286 
clause level 431 (Kante=302, Kdesc=66, core=1):-86 -585 1021 1047 852 1332 1540 -251 683 1710 586 1229 1397 
clause level 569 (Kante=290, Kdesc=113, core=1):-1002 1441 66 664 660 791 211 1117 1116 1120 1039 834 1042 1004 1013 1016 1065 1069 1000 1143 62 831 1701 1220 960 3333 3581 
clause level 677 (Kante=243, Kdesc=97, core=0):-1702 525 -461 462 1142 1141 1145 1148 1147 1152 1143 1149 1150 1144 1146 1151 1153 
clause level 47 (Kante=306, Kdesc=29, core=0):963 965 11 994 25 537 864 867 859 479 916 911 917 31 890 893 884 834 659 656 655 500 829 988 -499 971 962 964 966 967 970 968 969 23 846 851 852 880 876 877 870 831 830 841 1220 3316 839 840 832 835 838 836 3323 3322 1221 1224 1226 1225 1227 1223 1222 1228 1219 
clause level 1558 (Kante=246, Kdesc=77, core=0):-62 664 66 834 1004 1016 1042 1120 1069 3339 3336 
clause level 82 (Kante=245, Kdesc=1, core=1):-1704 791 212 -35 152 674 -714 840 834 451 27 480 462 62 1013 660 1 837 73 1023 1035 1048 1049 1000 831 1039 25 996 995 994 997 991 990 989 993 242 988 671 -122 1559 9 836 835 875 870 878 873 874 877 872 876 879 880 871 19 844 850 854 852 851 849 848 658 847 853 845 657 846 869 882 883 885 888 893 889 891 886 892 887 884 890 33 648 1117 700 701 699 971 11 23 961 966 964 970 967 969 965 968 962 963 911 912 910 13 913 917 918 31 919 909 915 916 914 
clause level 722 (Kante=304, Kdesc=101, core=1):-1560 1228 675 62 830 1163 1025 1024 831 1000 999 678 -589 477 1012 590 1013 1709 1711 1254 61 -70 717 718 721 1117 720 719 1064 1065 1565 1734 1039 1358 682 660 1371 694 864 1038 688 740 3333 890 1037 747 916 1063 1116 817 739 1142 1396 3345 818 819 828 816 820 825 826 827 824 822 821 4024 851 3404 1143 3331 823 
clause level 747 (Kante=430, Kdesc=76, core=1):-1703 867 831 1064 1065 1000 1039 1013 1038 999 451 649 660 648 1359 647 658 62 880 657 656 557 659 655 652 654 653 651 650 31 1143 1117 1358 3333 1704 971 1355 997 893 1356 1357 1361 1354 1353 1349 1351 1352 1350 
clause level 832 (Kante=506, Kdesc=55, core=1):-720 657 1152 33 1035 1034 739 -451 791 718 671 670 659 1151 841 73 72 1009 840 1074 700 677 817 674 452 1049 838 839 1022 1048 648 1023 1126 1075 3286 3348 
clause level 477 (Kante=216, Kdesc=1, core=0):-65 72 -252 -557 27 1034 -102 1164 1372 865 1074 222 1541 1333 1711 1151 162 87 891 696 878 1398 749 657 1255 684 1022 722 55 1009 1126 801 969 1918 918 995 670 -1360 854 1736 826 3305 3597 3500 4019 558 853 3325 3370 3396 3647 
clause level 537 (Kante=435, Kdesc=22, core=0):-676 1124 456 1220 1219 -455 33 999 76 998 1246 73 1126 791 72 1048 840 1020 1009 71 1021 74 1152 1150 1023 70 1033 1022 1035 1046 1008 1010 1032 1151 1153 1074 1075 1073 841 838 839 1036 1049 1034 1047 1154 842 1 668 700 671 669 672 670 675 674 1245 680 679 687 677 678 647 648 843 1232 3346 817 816 3353 3287 699 
clause level 526 (Kante=380, Kdesc=56, core=0):224 1704 -35 1559 1710 1709 122 1532 882 1039 1363 857 -611 1711 1706 1708 1712 1247 1705 1221 4016 612 
clause level 95 (Kante=230, Kdesc=2, core=1):674 -35 -461 121 -33 480 462 460 1035 4014 -459 1038 
clause level 786 (Kante=249, Kdesc=47, core=0):-27 703 700 -461 39 33 1 674 675 676 660 661 1228 648 462 802 220 3291 647 35 649 688 689 473 740 741 1710 1124 1709 796 797 817 819 816 818 791 800 801 662 37 739 3286 3288 795 798 794 793 1712 3293 790 792 1702 3290 799 699 1703 3287 
clause level 521 (Kante=227, Kdesc=25, core=1):-680 488 481 655 845 -487 -479 838 890 509 1040 1039 1042 848 687 23 849 854 850 851 699 842 876 852 994 916 843 844 864 847 846 1043 1044 1046 1047 1041 1045 1038 1048 1037 1049 
clause level 169 (Kante=239, Kdesc=24, core=0):-117 459 997 485 1467 841 1025 871 106 1154 -527 702 868 31 704 699 707 709 710 706 701 700 711 708 705 880 -451 659 879 39 893 1362 -559 -507 703 874 875 873 872 876 1388 1441 971 878 741 869 877 870 676 793 508 
clause level 714 (Kante=337, Kdesc=48, core=1):-25 721 39 33 718 720 719 657 674 676 -461 62 1039 660 1000 661 999 31 880 1040 451 703 462 1038 791 35 818 739 701 1037 819 817 1911 655 688 689 893 702 557 1703 1704 1249 244 793 792 740 741 654 652 1729 1145 831 1013 1355 648 662 651 1064 1065 1117 1356 1354 650 653 1361 988 1470 37 997 1359 971 658 659 1143 3333 1358 647 841 1357 3290 649 3293 867 656 1350 1353 1351 1349 1352 
clause level 20 (Kante=282, Kdesc=33, core=1):70 -73 1253 1564 -72 1255 453 -513 915 1539 1230 1227 720 722 1007 685 684 681 -114 672 658 57 55 514 696 697 1711 710 3350 3348 3306 4027 669 671 801 749 750 159 1737 1708 1331 1712 
clause level 694 (Kante=235, Kdesc=3, core=1):477 719 462 1020 1163 1008 1371 -585 586 682 851 890 794 473 795 792 791 790 799 -250 1915 -461 721 916 864 694 4024 1228 1709 1396 747 
clause level 1498 (Kante=292, Kdesc=115, core=0):-1729 1730 841 717 
clause level 1181 (Kante=456, Kdesc=78, core=0):-718 1156 1032 33 648 700 701 35 660 -461 675 1 37 3291 818 816 819 817 739 740 3287 3286 462 70 841 838 1008 1046 1021 1020 78 1246 1245 -455 677 791 456 792 840 1000 1001 668 649 1037 998 1124 999 699 661 76 1247 1248 647 1219 717 843 1222 3352 845 844 842 790 1220 688 3358 77 75 1232 3353 3346 3354 3343 3288 
clause level 889 (Kante=369, Kdesc=14, core=0):-39 70 1008 791 1032 1046 648 33 838 1020 668 700 817 3286 1124 3346 3343 
clause level 370 (Kante=338, Kdesc=8, core=0):-485 868 869 878 877 -25 459 1255 1229 1359 1566 1735 1736 -461 1567 716 718 717 720 721 742 719 -27 722 744 746 748 745 747 740 741 739 749 743 683 679 682 674 462 676 678 680 677 675 681 1025 1024 1164 1166 1165 1034 1035 1540 1541 1373 1451 1374 1372 106 1363 1333 1332 1450 117 1073 1155 1033 118 116 704 699 107 3324 1268 1398 1711 1360 695 696 1397 1021 1047 4025 684 694 692 689 693 687 688 690 1399 701 705 700 703 702 1710 1258 1259 1388 1400 1442 1477 1478 1476 1468 1466 1467 1441 709 707 691 3422 1269 4024 1362 706 708 105 711 4023 710 3426 
clause level 554 (Kante=337, Kdesc=20, core=1):485 1397 1392 1033 -527 1160 1159 116 717 1367 1372 481 -66 853 743 1705 912 1731 1561 1476 81 528 1328 1536 1355 1221 842 852 854 678 848 844 675 3337 677 846 851 1172 4020 1268 845 843 709 850 847 1450 3338 690 860 3419 849 877 3422 3361 
clause level 1166 (Kante=364, Kdesc=83, core=0):-81 717 -507 74 -455 665 1049 675 1048 1041 819 33 1008 1010 1007 672 1035 1009 73 1047 1042 1044 35 841 666 700 -461 701 1046 462 818 817 1006 456 867 740 739 671 670 661 660 1 792 791 790 1127 688 1075 971 893 674 668 1038 1037 1039 1040 1045 1154 76 1036 1156 677 1152 509 505 919 31 843 1003 669 648 998 999 664 816 667 1246 1004 1000 1043 1005 453 1248 1247 37 647 649 663 699 1245 659 3327 3286 3348 1001 77 3287 78 75 3358 3291 997 842 844 1153 840 845 1232 3353 3352 
clause level 341 (Kante=311, Kdesc=28, core=0):-459 717 13 -611 -155 3517 80 3317 3544 140 3566 3612 612 963 95 1327 65 663 704 1003 716 -215 718 245 794 1262 833 41 820 461 650 3639 1912 1730 721 724 719 720 722 723 3337 1119 1366 1158 1068 1146 742 1028 1250 847 -1704 110 1354 677 3410 3385 1391 4019 1041 989 1445 1702 1703 871 
clause level 307 (Kante=296, Kdesc=110, core=1):-3 451 -25 1735 716 721 39 53 717 718 719 720 676 677 675 678 996 27 995 714 1540 1710 1229 33 682 683 681 679 669 748 740 745 47 51 41 661 663 662 668 666 709 704 707 1047 702 708 700 49 744 742 741 854 1566 891 893 892 659 658 654 655 656 703 693 688 689 694 692 687 695 1359 1021 747 746 853 31 878 880 840 841 879 819 799 1073 1332 919 918 4025 3303 680 653 657 3326 824 825 820 817 37 1397 971 649 823 865 867 866 652 650 651 797 798 793 794 970 647 648 
clause level 377 (Kante=180, Kdesc=2, core=0):1252 1351 1255 1253 -541 1247 1363 998 1155 455 857 1727 1559 739 1532 882 909 1221 542 844 676 678 675 674 677 679 682 681 680 4016 685 683 1324 684 3332 -62 4015 3331 
clause level 1105 (Kante=309, Kdesc=23, core=1):-66 675 1032 1706 -159 -1708 -611 612 798 -219 1253 70 249 1162 -485 875 129 1020 1019 84 850 1007 114 486 667 668 838 1031 674 49 1149 720 1266 679 681 677 1916 1449 654 889 1008 1370 1046 1124 3346 3343 837 1045 99 1072 1123 1357 21 1331 708 1709 1474 1733 4020 1227 824 693 915 
clause level 911 (Kante=362, Kdesc=36, core=1):-680 678 668 660 670 700 33 661 669 662 671 663 648 791 664 453 665 666 667 672 817 -465 466 679 
clause level 256 (Kante=298, Kdesc=37, core=0):-453 1162 1025 106 1365 714 1249 86 846 1163 674 852 1157 62 1154 105 33 -39 683 648 664 1013 1015 61 660 829 -485 1063 1064 1065 1069 1390 1388 1729 66 1024 999 1016 739 1039 1120 1115 1117 1229 791 790 35 1440 1441 1703 1353 868 60 1258 998 1 884 1038 647 1002 831 830 1362 1000 834 701 700 817 816 1004 818 1042 1037 911 3401 3286 1141 1143 1142 687 1466 1467 1221 1226 1223 1116 3333 4017 3288 3330 
clause level 326 (Kante=297, Kdesc=8, core=0):66 86 1559 -62 -541 1255 1252 1253 1351 1247 1363 998 700 699 1155 455 857 863 1727 33 739 1532 21 882 909 875 1229 915 648 647 1221 542 687 791 790 844 676 1 816 817 993 889 967 678 675 674 852 677 679 850 654 682 681 680 4016 685 683 1324 684 4014 3332 
clause level 994 (Kante=362, Kdesc=27, core=0):-1705 703 744 700 701 702 709 459 699 707 710 705 704 706 708 711 157 1393 1070 913 1706 1704 
clause level 308 (Kante=437, Kdesc=13, core=0):-131 -39 791 1534 -509 124 211 1151 1152 510 1047 -485 73 1009 840 72 1034 1035 1729 1075 1074 1116 1126 1049 1048 671 670 1223 1220 1441 1703 1015 1023 1022 1353 1002 911 1157 1249 846 1701 960 3436 4018 4015 
clause level 177 (Kante=262, Kdesc=6, core=0):893 559 -589 1563 837 590 967 1044 890 892 888 891 850 719 889 -487 1538 488 915 128 1366 875 21 863 503 989 654 1559 1558 1557 988 990 994 991 997 995 816 1369 993 
clause level 1243 (Kante=209, Kdesc=59, core=0):-211 33 1356 1005 -485 -611 893 817 791 648 816 702 3286 818 819 1017 1251 1 1225 852 661 660 -45 849 1329 861 688 35 1706 1160 1701 1368 792 1562 612 913 740 3291 701 699 700 486 1393 649 1070 4021 1537 3297 3298 647 37 3288 3287 
clause level 327 (Kante=185, Kdesc=30, core=0):66 -250 590 461 714 1034 1008 1020 -589 1560 124 717 719 716 718 723 890 884 724 1371 1372 710 1164 1163 682 1365 117 1477 1709 1707 1398 1396 916 694 3436 3433 720 1534 1566 721 722 4022 
clause level 599 (Kante=433, Kdesc=11, core=0):-461 124 721 719 717 720 1534 1540 682 1709 1710 -70 1073 1254 1163 852 -479 1047 1396 747 1735 1734 1228 1229 589 916 917 1397 -53 1365 1565 1559 1562 1564 1561 1563 1567 1558 1560 1557 694 1021 1566 1359 1332 851 864 884 1371 1358 1568 1569 4024 3345 4025 3305 3436 3433 3344 3304 
clause level 868 (Kante=203, Kdesc=2, core=1):-66 -537 709 1397 116 1476 877 538 1033 1450 3422 3419 
clause level 693 (Kante=254, Kdesc=4, core=1):717 51 1915 719 -585 668 -250 586 -461 462 477 1371 1163 1020 1008 851 721 818 682 823 655 890 822 819 820 817 816 916 827 864 828 694 4024 3304 1228 821 1709 824 1396 747 
clause level 491 (Kante=336, Kdesc=12, core=0):-1228 1008 1163 1020 1046 721 1371 1565 890 1254 1225 1358 851 694 4024 1221 916 864 1226 1227 682 747 
clause level 484 (Kante=410, Kdesc=28, core=1):-1042 1560 1731 741 742 -521 743 1126 73 1124 1034 -66 1032 1035 1033 72 1705 1561 124 1559 462 884 881 1039 123 1362 1365 1037 1363 1040 1534 1532 1533 1531 882 121 -461 1355 1151 70 839 840 1152 838 1020 1021 1022 912 1392 522 1023 860 1367 1364 71 1049 1047 1221 690 675 676 4020 677 678 1159 1009 671 1048 717 122 120 848 1172 1328 1536 1046 
clause level 699 (Kante=519, Kdesc=48, core=0):-718 -509 70 1020 1046 559 487 1365 1364 1371 1366 1363 1372 1373 1370 1368 1374 1367 1032 -485 1225 1124 838 883 1008 888 668 885 887 890 884 1362 881 882 510 886 891 893 1369 892 889 
clause level 788 (Kante=320, Kdesc=49, core=0):-1224 851 -220 1008 1371 1046 1163 1020 890 916 694 864 1358 682 1254 1565 3594 747 721 1734 4024 1225 
clause level 587 (Kante=296, Kdesc=35, core=1):-611 117 838 -485 1159 1032 841 690 886 39 717 1049 1046 1047 1009 73 507 675 678 676 677 674 72 1163 33 1035 71 1010 -66 453 877 1268 880 1269 1270 689 878 700 708 703 709 115 118 710 876 1367 875 96 70 1372 116 1373 1008 840 1355 648 665 1153 1150 1152 1151 743 746 741 742 1125 1126 1127 795 793 1705 817 821 486 860 705 1034 1031 114 667 668 666 671 672 670 669 1475 1477 1478 119 1561 848 1266 791 1073 1075 74 1263 1033 660 1374 1370 1371 1166 740 1731 739 1022 1023 1021 1328 1019 1018 1017 1164 1165 1162 1074 4020 3384 3387 1221 1015 1014 1013 1012 744 43 745 3294 1392 1397 664 3293 1396 1399 1400 1398 1395 1474 1124 1227 1011 3297 1020 663 3418 1536 662 912 661 3290 1451 1476 3337 1172 1449 1452 1450 3338 3349 3424 
clause level 1517 (Kante=385, Kdesc=43, core=1):-212 1703 -611 1705 1706 1704 841 508 612 74 1069 66 1042 1016 1010 672 664 671 1120 1534 1036 1049 1127 1124 3339 3336 1153 -507 -485 1252 1709 220 1004 1150 1032 70 838 839 1008 1047 71 1020 1021 1046 668 3343 3346 857 855 862 861 799 867 865 1073 483 
clause level 1351 (Kante=388, Kdesc=79, core=1):-125 477 1152 1151 670 660 668 671 669 792 1708 70 838 72 717 840 35 718 739 1035 1034 73 1009 1074 1049 1022 1048 1126 1075 3348 1450 118 1372 1374 116 1373 1451 1032 877 1033 879 509 117 -461 462 1398 1399 1400 1397 1037 1039 1020 1 1008 1047 1046 1043 71 1045 1038 1044 1040 3287 37 31 1073 997 1021 740 1041 527 711 1124 1156 1155 1154 1162 1163 1166 1268 1165 1159 1160 1164 3343 3346 1269 1158 880 893 878 1477 675 1478 1476 119 649 821 828 820 825 818 822 819 823 816 826 824 971 1125 702 701 699 867 3345 3347 3349 709 839 647 827 1161 688 1023 710 1042 1452 1270 3289 
clause level 463 (Kante=386, Kdesc=19, core=0):-675 650 541 152 794 41 1727 1065 739 742 663 820 909 704 1245 1249 1247 677 1254 1252 1251 1256 1248 
clause level 1214 (Kante=365, Kdesc=48, core=0):-998 841 70 672 671 453 1008 1046 1124 838 1032 666 661 660 663 665 669 664 670 668 667 1020 3343 3346 
clause level 311 (Kante=205, Kdesc=23, core=0):-86 699 -62 700 675 33 1 1155 674 676 1532 455 1351 998 909 882 687 1559 1363 -541 1247 739 682 679 683 21 850 654 967 993 677 1252 680 681 678 685 791 684 817 648 837 1253 1727 875 1255 542 1324 647 863 790 857 889 915 844 1221 4016 816 4015 
clause level 617 (Kante=433, Kdesc=33, core=0):-1704 1029 718 127 1160 1368 679 887 873 835 97 1264 861 1147 691 1329 1121 1225 1537 -157 706 822 1562 1251 1356 1914 3493 849 4020 82 991 
clause level 525 (Kante=305, Kdesc=12, core=0):107 224 1559 1363 1247 -611 1705 -35 1712 1711 1710 1708 1709 1706 857 122 1704 612 802 1920 1452 1543 1127 1221 1532 4016 971 
clause level 374 (Kante=429, Kdesc=16, core=1):-71 -461 1021 72 1022 1034 -25 717 3324 1710 1073 719 716 745 748 744 718 1359 721 720 676 677 681 679 1229 678 680 683 682 688 694 1540 1566 1047 1332 4025 1397 1735 -479 480 462 1009 1151 670 1126 1074 4024 4020 
clause level 919 (Kante=401, Kdesc=37, core=0):-1046 66 461 510 527 481 559 854 1151 487 72 841 840 834 453 1152 1535 1537 1539 1036 1035 1034 893 -543 -451 1075 1069 74 1074 -459 666 -509 1166 1366 1156 1160 1158 1155 1163 1157 1164 1162 1165 852 891 1127 1120 73 1010 1159 1004 1154 1126 1374 1009 1047 1048 1049 843 1042 1016 3425 884 1022 1023 665 1365 1037 1371 886 848 846 849 887 667 844 882 883 845 1363 718 717 721 851 889 720 719 888 892 885 881 853 722 1161 3348 723 660 663 662 671 669 664 668 670 672 890 1367 1362 1364 724 1370 
clause level 1076 (Kante=316, Kdesc=49, core=0):-541 -527 707 701 702 711 709 459 708 1159 710 1157 1009 1254 1256 1165 678 700 1008 1004 706 1003 1005 1002 1006 505 699 999 705 704 1000 1007 1001 846 854 848 79 1010 1250 81 528 88 1231 998 685 1253 1251 1249 1223 1172 
clause level 901 (Kante=268, Kdesc=30, core=1):505 39 62 1000 1036 1398 1397 1013 1039 1035 1372 -27 -25 831 72 1143 1152 1047 1153 1038 1049 73 1022 671 672 1021 670 1034 660 662 1151 1164 1048 841 840 723 74 461 1541 717 793 1023 1333 1127 674 675 679 676 683 680 677 1229 1332 678 682 681 684 1255 999 1064 1065 1126 1117 1567 1566 1565 1009 1075 718 1736 1074 1073 1710 720 719 721 694 747 703 696 724 743 749 739 740 742 748 744 746 745 3349 695 4025 688 1359 3333 3348 741 722 691 689 690 692 693 1711 4024 1735 3326 3324 4020 3293 
clause level 610 (Kante=225, Kdesc=34, core=1):-477 704 705 73 72 71 1008 70 864 39 649 -51 -66 860 1159 453 676 675 678 677 839 841 840 816 818 817 1254 1153 851 33 820 821 819 41 651 667 647 35 1075 743 741 74 1074 742 740 1358 1355 1126 1127 792 1125 1124 793 790 791 794 1731 1152 1151 666 689 688 690 1561 1048 1047 717 890 1367 671 916 912 43 660 672 661 662 664 1046 848 795 1227 886 1020 1536 1392 1023 1022 1021 1328 1705 3338 3337 1172 1221 1709 1396 670 3293 665 663 668 669 1734 1049 1150 739 1073 1010 838 650 674 1009 1 648 3294 3297 3290 3349 1228 1565 4024 3347 3343 3291 37 
clause level 1267 (Kante=285, Kdesc=38, core=0):-507 1035 70 527 -509 1153 1152 33 1032 -459 661 660 -485 700 -451 674 677 486 648 672 670 461 669 841 668 671 453 1049 1047 1046 1048 1021 1020 74 840 838 1023 73 893 891 -611 1075 665 666 1009 739 719 460 481 1712 1710 817 791 612 3286 1124 487 816 1156 1155 1154 718 717 -543 664 1010 998 881 890 1127 1008 884 889 1166 1161 1163 1160 1159 510 3348 843 887 849 852 1704 722 720 721 667 452 1164 1158 1162 1165 888 886 882 883 885 723 724 3346 3343 844 847 845 848 853 854 851 850 842 
clause level 56 (Kante=346, Kdesc=45, core=1):1024 1266 1265 -62 481 1353 1247 1559 1445 115 1448 117 1449 1446 1451 527 1532 73 66 1004 64 69 1009 68 1075 1006 1030 1067 1071 1074 70 -505 1069 456 1223 1221 1120 1123 1122 1124 1121 1118 1126 790 65 832 872 879 875 876 877 874 878 -485 1478 1471 110 119 1475 1474 1476 1473 486 4018 1452 1119 -39 1003 -455 1007 1005 844 33 687 686 1400 1396 1394 1395 1398 1399 1392 1391 1397 1023 1019 1022 1020 1015 871 1450 1477 817 816 1145 1150 1146 1148 1152 1151 1002 71 1073 1125 791 1270 1267 909 506 1008 648 647 699 711 700 1027 713 681 843 35 1147 1017 1018 1028 116 1163 1162 1156 1165 1166 1164 1029 1158 113 1157 1070 72 840 834 833 835 836 882 1154 1374 1366 1155 1160 1159 1068 1016 3410 838 1161 111 118 710 705 707 709 704 3348 3423 739 1021 839 3337 1149 1048 1043 1044 1045 1042 1047 714 1041 1046 3332 4017 845 674 701 708 837 1035 1367 1373 1370 1372 1371 1369 1363 3287 1072 
clause level 1024 (Kante=380, Kdesc=5, core=0):739 998 575 477 459 33 821 505 828 -485 790 791 1466 1006 1004 648 893 3286 817 700 710 703 702 699 701 707 705 704 706 708 711 709 612 816 -611 1003 1473 1478 1475 1476 1474 1477 1009 1001 1007 1010 1008 1000 1469 1470 1468 820 1005 1002 1467 1471 818 822 1472 827 826 819 825 823 824 
clause level 1354 (Kante=239, Kdesc=5, core=0):-62 840 -451 35 701 660 677 841 452 466 818 908 911 914 915 912 913 -465 675 917 790 3288 491 919 918 
clause level 1084 (Kante=330, Kdesc=29, core=1):66 73 525 1142 1141 1143 1150 675 1153 1146 1147 1149 1148 1145 1151 1144 1701 671 1152 1063 1064 739 1025 1024 -241 61 999 72 1042 1037 1049 830 841 840 1038 1009 74 1023 1034 1012 1035 1116 1074 1075 1022 670 672 3404 1126 1036 1127 3331 3349 3348 1016 1010 1048 1220 843 1351 4014 856 
clause level 815 (Kante=383, Kdesc=24, core=0):-1703 1704 -461 1708 33 35 791 790 1127 612 1710 802 -611 674 224 1705 1711 1709 700 1706 1035 1074 701 1 660 1452 699 462 1920 866 865 919 918 477 220 671 648 817 840 672 1152 1153 73 1049 1048 74 739 1010 1023 3286 799 1702 72 1075 3348 454 -453 1335 1022 31 657 854 853 658 1009 880 1228 1151 996 995 997 1034 1036 27 670 891 969 878 3326 29 892 3425 3287 1126 3327 893 659 647 825 824 826 822 821 823 970 
clause level 354 (Kante=287, Kdesc=15, core=1):-55 1332 453 -585 1537 1534 1531 1535 1536 1532 1533 4019 1021 687 -461 586 33 462 683 682 53 662 669 51 721 700 670 663 660 661 665 672 1 664 666 668 667 -251 1047 671 709 695 694 1540 825 817 747 852 748 1710 1229 648 647 656 655 
clause level 902 (Kante=219, Kdesc=8, core=0):453 1705 1045 124 1042 1040 1049 1041 1039 1037 1043 1038 1048 121 1534 1533 220 525 509 612 1069 1702 1046 1704 66 1016 1044 1004 834 -611 1560 1558 -461 3433 462 1362 1365 123 883 884 882 881 1559 122 3428 120 3434 3431 33 1 700 648 817 791 699 1709 790 799 893 -485 647 664 1124 3596 1228 3286 1147 1047 1153 1120 3287 816 3593 1141 1364 1151 1143 3436 1149 1144 1142 1150 1152 1148 1145 1146 3339 1363 
clause level 614 (Kante=337, Kdesc=55, core=1):-116 717 481 462 477 790 791 455 124 487 -461 -527 528 1 33 -453 1534 1533 121 505 1397 845 844 852 842 843 893 881 888 885 1365 883 891 884 892 -507 739 677 674 676 675 846 851 -485 847 850 3287 848 853 849 854 681 684 679 678 685 682 683 680 1559 1557 1560 822 820 1366 700 699 559 882 819 1364 648 817 1363 1372 1362 -451 1010 1374 998 1000 1002 999 1001 827 1558 816 1367 887 890 1368 1371 1370 818 1369 122 120 123 1373 
clause level 1312 (Kante=362, Kdesc=1, core=0):33 -248 888 914 844 909 83 128 1369 705 1155 1161 680 674 874 1363 -62 1394 -218 1727 739 1252 745 1538 719 692 1226 1563 862 1330 4022 1532 98 653 1018 1006 4021 1265 -643 -1915 158 1071 4015 4014 1559 3642 
clause level 623 (Kante=318, Kdesc=32, core=1):-1705 217 108 873 1155 1154 1260 1156 1026 1362 1364 1363 1004 835 1029 834 126 1561 991 1562 886 127 887 679 82 1005 81 1251 1147 1025 1368 700 868 1389 1388 699 702 706 -156 1367 717 718 96 678 1263 1017 -157 612 1469 1467 849 106 822 990 965 97 1329 1441 1443 -611 3439 4021 3442 3362 861 1914 1447 848 3364 1121 796 1355 1221 690 691 1711 1712 1708 1706 1709 1710 1328 860 3404 1536 1356 1537 3361 3437 3384 
clause level 199 (Kante=291, Kdesc=3, core=0):-106 1222 1363 1000 1039 62 1117 -479 7 882 857 844 714 -212 538 -77 242 831 35 107 1559 1036 1034 660 1143 1035 701 869 1442 1013 1155 -1221 
clause level 421 (Kante=237, Kdesc=13, core=1):67 71 17 849 887 72 873 838 1020 73 1047 1048 991 1021 1010 1046 1008 74 1022 1049 1034 1032 1035 1033 1036 70 -68 680 1369 1563 1226 1252 716 670 669 668 718 719 1538 965 1161 652 835 1023 1394 745 1151 1152 1153 1150 1126 1124 1125 1127 677 1074 1075 1073 671 672 1009 1330 1732 914 913 862 861 4022 3346 3347 3343 3319 1221 
clause level 505 (Kante=352, Kdesc=7, core=0):-461 -643 1565 851 682 -220 1911 79 1157 703 721 -124 39 1002 662 1008 1163 793 4024 1046 1444 154 747 1358 1254 1249 1020 1390 94 1734 644 1223 1326 916 1353 741 694 689 676 890 
clause level 115 (Kante=308, Kdesc=3, core=0):1160 77 -107 -106 1116 1115 1703 1701 1702 1390 1392 1015 1012 1011 1705 1324 1328 1025 1024 870 7 872 871 -39 -66 998 -527 999 912 911 908 3 485 1249 1248 1559 81 1536 1558 1246 1729 1155 1726 1223 1222 1156 1159 1157 843 882 714 1220 844 1367 1365 831 829 830 1038 1221 848 846 1154 1247 868 869 909 874 873 648 61 528 743 1561 674 678 
clause level 350 (Kante=258, Kdesc=25, core=1):-157 224 792 35 791 1355 743 739 740 33 741 742 1561 1560 74 1023 848 1036 124 690 687 689 688 41 1035 676 674 675 677 678 -461 -66 1153 1152 883 881 882 884 121 1159 1364 1367 1362 1363 1365 39 651 649 650 648 647 841 840 1048 667 1040 1039 1037 1038 705 699 701 703 702 704 700 43 716 817 717 73 1010 718 665 660 1 672 661 663 662 666 668 462 1708 453 1709 1705 1710 3294 -611 4020 1049 1392 912 3297 1731 122 120 123 612 819 818 820 821 816 669 670 664 671 
clause level 1282 (Kante=239, Kdesc=6, core=1):-70 509 541 864 1255 1045 1039 890 1046 1561 1565 1047 1041 1049 1731 1734 1245 851 747 246 682 1254 1163 -220 1048 1042 1044 1008 1037 1043 1040 1038 1251 1355 1020 4024 1246 1371 1252 1247 1250 1253 1248 721 4022 694 4016 1256 1257 916 1913 1358 990 3641 1471 821 3638 
clause level 1364 (Kante=252, Kdesc=24, core=0):-527 1025 1024 1159 61 3404 999 1116 1012 -451 1245 76 1246 452 887 830 841 60 742 675 677 1037 1142 1063 1064 998 1051 1102 843 829 743 739 740 816 1141 1220 1038 1115 3352 3354 3331 
clause level 320 (Kante=321, Kdesc=14, core=1):-62 612 684 1567 1561 1565 985 1562 1566 1563 1360 589 503 696 124 -461 716 714 717 718 885 882 887 884 886 883 121 722 462 1255 986 1367 1365 1363 1372 1368 1362 1364 1366 992 993 994 991 -72 816 3347 4025 1042 1039 1398 1736 -611 1711 1333 749 918 125 127 123 126 122 120 1037 1043 1040 1041 1038 3431 865 1560 1557 3435 995 1568 996 1558 3432 987 989 990 988 1535 1534 1541 1536 1537 1532 1533 1531 
clause level 672 (Kante=218, Kdesc=17, core=0):-477 1249 1157 486 1365 877 -485 -39 884 853 659 656 657 658 852 996 892 -479 27 29 841 840 839 25 1015 1002 865 31 893 859 866 867 1534 687 971 854 846 891 1326 1353 1729 1223 1703 911 4018 3292 1390 995 970 969 968 919 917 918 3294 997 3291 3327 3326 
clause level 1363 (Kante=358, Kdesc=11, core=0):1035 647 739 998 675 887 743 841 830 -451 452 1 61 76 1245 1246 1038 843 999 1025 677 1159 790 -527 3404 1037 1024 1220 528 1012 1011 740 742 1115 1116 1063 1064 1142 1141 3287 60 1051 1102 3352 3354 3331 
clause level 1103 (Kante=334, Kdesc=25, core=0):-461 1733 -71 -70 742 747 746 744 748 74 1075 851 1734 1709 1396 916 1036 1035 719 460 720 1332 717 718 1540 1735 1397 671 677 678 682 680 674 672 675 681 721 679 1152 1153 1254 1565 1566 1049 683 700 -459 -543 890 73 1127 840 852 1228 1229 85 684 1010 685 1023 1008 1371 864 1163 694 1358 4024 3344 3345 1359 1710 455 917 1048 3348 695 3366 544 3425 4023 4025 
clause level 470 (Kante=294, Kdesc=11, core=0):506 717 -611 612 3337 1354 677 509 589 557 240 1705 1731 1709 -66 1536 1042 1043 1040 220 1159 480 1245 1466 454 126 1038 816 848 985 1039 1037 1328 1908 1124 1351 491 886 1563 1560 1567 1566 1565 1558 917 1045 1044 1047 1228 916 1358 1046 1048 678 675 1049 909 860 4020 912 1392 1557 1559 1367 1561 1562 1564 1569 1568 911 690 908 913 1356 915 914 918 1141 3338 3630 743 
clause level 349 (Kante=413, Kdesc=12, core=0):-453 648 527 1400 1396 1398 1397 462 -479 831 -505 1010 1154 1143 70 66 670 -461 1 672 669 668 671 33 -485 1125 1127 840 62 1124 1042 1120 1126 72 1157 1158 1155 1160 1162 1159 1164 1156 1165 1166 1163 1074 74 1069 1065 1075 1073 879 877 834 71 1020 838 1007 1036 1008 700 699 1038 1046 1006 1021 1016 1049 1048 73 1022 1005 1034 1035 1032 1033 664 1037 506 480 1117 1004 1003 1009 1000 839 660 1013 1039 1023 
clause level 879 (Kante=193, Kdesc=7, core=1):1250 1911 679 678 720 718 719 721 694 722 680 853 -88 -72 684 817 683 648 791 1373 1372 700 33 1541 244 1736 1249 1361 1353 1269 1729 1398 1568 1567 1470 1255 1023 1711 1919 163 1399 1712 749 748 750 918 891 1333 1145 892 1048 133 103 1737 1542 865 3286 4027 3502 3450 3397 3348 697 696 988 3453 3400 866 3347 919 1075 3373 
clause level 132 (Kante=248, Kdesc=10, core=1):-537 211 454 589 690 506 527 53 1268 1328 117 878 1036 -66 840 841 839 671 116 -505 -453 672 669 1033 70 71 1010 73 -86 1159 1031 1032 1161 1330 1332 1536 994 72 710 717 131 1374 -84 876 1475 1476 119 1477 159 1567 1566 1562 1564 1563 1569 1568 1160 1172 848 678 1220 -85 1158 -459 711 1157 1355 1359 101 1917 3343 3417 4024 3366 3346 3369 160 3420 1916 1731 1561 860 1035 1154 114 3497 1540 130 875 889 100 99 1267 1266 1009 877 3443 1358 1357 1331 3391 3394 460 838 1270 3415 4023 709 3447 1539 1474 720 721 890 
clause level 910 (Kante=303, Kdesc=41, core=0):-1539 1151 -509 1037 717 720 719 453 721 668 1163 510 662 667 661 663 487 891 888 882 886 892 893 885 881 670 887 1166 1165 854 481 843 -459 -451 718 722 1047 1164 853 527 -543 1034 72 -485 669 1009 1154 724 850 1537 461 1162 1156 1159 1022 452 1157 1158 1160 1535 1155 890 884 846 1074 845 
clause level 530 (Kante=346, Kdesc=34, core=0):-212 827 -611 505 220 459 702 701 477 709 999 -485 700 704 699 705 703 707 706 708 711 710 1709 790 1228 1008 1001 1124 739 1558 1478 575 1704 1705 1702 1706 612 1009 1246 1703 1701 799 998 1700 843 1006 486 828 241 826 1038 1142 893 1002 1003 986 1726 -106 1064 
clause level 1529 (Kante=358, Kdesc=3, core=1):-66 841 -485 1124 220 799 1534 1709 3593 3596 
clause level 465 (Kante=332, Kdesc=15, core=1):-1368 1561 1560 1558 -589 124 1038 1563 678 677 675 480 743 -66 1731 1476 -479 1355 717 590 884 1365 3433 121 690 848 1159 1328 116 1367 1534 1372 709 4014 1397 1033 1450 877 1268 860 1392 
Found 2024 good successive clauses in order (1428 originals, maxlevel=1558)
c KCorePR 646654 139 2024 1428 1558
c DistanceTo...Unseen 31028
c DistanceToGoodKCore c   DIST 0: 2024 (+2024) / 2024 (+2024)
c   DIST 1: 593112 (+591088) / 320659 (+318635)
c   DIST 2: 615311 (+22199) / 336233 (+15574)
c   DIST 3: 615608 (+297) / 336238 (+5)
c   DIST 4: 615626 (+18) / 336238 (+0)
c TotalDistance=646654
No graph is dumped
c result of core 1 is UNSAT
c One thread has finished
c Core 1 said it finished
c result of core 0 is UNKNOWN
c restarts              : 1017 (298 conflicts in avg)
c blocked restarts      : 623 (multiple: 208) 
c last block at restart : 1017
c nb ReduceDB           : 14
c nb removed Clauses    : 254277
c nb learnts DL2        : 1298
c nb learnts size 2     : 850
c nb learnts size 1     : 12
c conflicts             : 303361         (679 /sec)
c decisions             : 487934         (0.00 % random) (1092 /sec)
c propagations          : 48492983       (108529 /sec)
c conflict literals     : 30490066       (6.08 % deleted)
c nb reduced Clauses    : 1670
c CPU time              : 446.822 s

s INDETERMINATE
