c
c This is glucose-proof 1.0 based on  2.1 --  (thanks to MiniSAT)
c
c EXPERIMENTAL EASY PARALLEL (ROUND ROBIN) VERSION
c
c WARNING: for repeatability, setting FPU to use double precision
c Parallel version 6 solvers created.
c ========================================[ Problem Statistics ]===========================================
c |                                                                                                       |
c |  Number of variables:          9362                                                                   |
c |  Number of clauses:           59769                                                                   |
c |  Parse time:                   0.09 s                                                                 |
c |                                                                                                       |
c ========================================[ MAGIC CONSTANTS ]==============================================
c | Constants are supposed to work well together :-)                                                      |
c | however, if you find better choices, please let us known...                                           |
c |-------------------------------------------------------------------------------------------------------|
c |                                |                                |                                     |
c | - Restarts:                    | - Reduce Clause DB:            | - Minimize Asserting:               |
c |   * LBD Queue    :     50      |   * First     :   4000         |    * size <  30                     |
c |   * Trail  Queue :   5000      |   * Inc       :    300         |    * lbd  <   6                     |
c |   * K            :   0.80      |   * Special   :   1000         |                                     |
c |   * R            :   1.40      |   * Protected :  (lbd)< 30     |                                     |
c |                                |                                |                                     |
c ==================================[ Search Statistics (every  10000 conflicts) ]=========================
c |                                                                                                       |
c |          RESTARTS           |          ORIGINAL         |              LEARNT              | Progress |
c |       NB   Blocked  Avg Cfc |    Vars  Clauses Literals |   Red   Learnts    LBD2  Removed |          |
c =========================================================================================================
c |       84         0      119 |    9063    59769   202070 |     1     7962      423     4143 |  3.194 % |
c |      182        23      109 |    8987    59769   202070 |     3     6983      577    21583 |  4.006 % |
c |      288        34      104 |    8940    59769   202070 |     3    16963      688    21583 |  4.508 % |
c |      394        48      101 |    8917    59769   202070 |     4    17676      769    33857 |  4.753 % |
c |      547        48       91 |    8899    59769   202070 |     5    15855      791    47409 |  4.946 % |
c |      638        58       94 |    8862    59769   202070 |     5    25837      842    47409 |  5.341 % |
c |      776        67       90 |    8837    59769   202070 |     6    21423      867    63519 |  5.608 % |
c |      874        72       91 |    8819    59769   202070 |     6    31416      903    63519 |  5.801 % |
c |      908        73       99 |    8807    59769   202070 |     7    24429      946    81856 |  5.928 % |
c |      980        81      102 |    8799    59769   202070 |     7    34420      984    81856 |  6.014 % |
c |     1100        87      100 |    8790    59769   202070 |     8    24802      995   102773 |  6.110 % |
c |     1161        88      103 |    8781    59769   202070 |     8    34795     1013   102773 |  6.206 % |
c |     1296        88      100 |    8768    59769   202070 |     9    22608     1023   126022 |  6.345 % |
c |     1347        88      103 |    8753    59769   202070 |     9    32592     1038   126022 |  6.505 % |
c |     1444        89      103 |    8749    59769   202070 |     9    42588     1043   126022 |  6.548 % |
c |     1538        93      104 |    8743    59769   202070 |    10    27796     1047   151851 |  6.612 % |
c |     1602       107      106 |    8721    59769   202070 |    10    37787     1058   151851 |  6.847 % |
c |     1655       111      108 |    8712    59769   202070 |    10    47767     1070   151851 |  6.943 % |
c |     1718       111      110 |    8696    59769   202070 |    11    30386     1074   179856 |  7.114 % |
c |     1768       117      113 |    8677    59769   202070 |    11    40386     1074   179856 |  7.317 % |
c |     1820       117      115 |    8672    59769   202070 |    11    50379     1077   179856 |  7.371 % |
c |     1898       118      115 |    8664    59769   202070 |    12    30388     1085   210626 |  7.456 % |
c |     1998       121      115 |    8658    59769   202070 |    12    40380     1092   210626 |  7.520 % |
c |     2031       123      118 |    8655    59769   202070 |    12    50376     1106   210626 |  7.552 % |
c |     2064       123      121 |    8653    59769   202070 |    12    60375     1112   210626 |  7.573 % |
c |     2114       123      122 |    8650    59769   202070 |    13    37787     1114   243768 |  7.605 % |
c |     2170       123      124 |    8643    59769   202070 |    13    47786     1116   243768 |  7.680 % |
c |     2188       127      127 |    8642    59769   202070 |    13    57786     1124   243768 |  7.691 % |
c |     2249       134      128 |    8641    59769   202070 |    13    67785     1128   243768 |  7.702 % |
c |     2269       146      132 |    8640    59769   202070 |    14    42602     1129   279398 |  7.712 % |
c |     2269       164      136 |    8640    59769   202070 |    14    52602     1137   279398 |  7.712 % |
c |     2316       167      138 |    8631    59769   202070 |    14    62600     1139   279398 |  7.809 % |
c |     2320       167      142 |    8631    59769   202070 |    14    72600     1140   279398 |  7.809 % |
c |     2352       167      144 |    8627    59769   202070 |    15    44805     1144   317548 |  7.851 % |
c |     2374       167      147 |    8620    59769   202070 |    15    54796     1150   317548 |  7.926 % |
c |     2431       167      148 |    8620    59769   202070 |    15    64791     1153   317548 |  7.926 % |
c |     2459       167      150 |    8619    59769   202070 |    15    74791     1153   317548 |  7.936 % |
c |     2481       170      153 |    8617    59769   202070 |    16    44419     1159   358227 |  7.958 % |
c |     2486       172      156 |    8607    59769   202070 |    16    54416     1161   358227 |  8.065 % |
c |     2494       173      160 |    8607    59769   202070 |    16    64416     1166   358227 |  8.065 % |
c |     2499       173      164 |    8604    59769   202070 |    16    74409     1168   358227 |  8.097 % |
c |     2499       173      168 |    8603    59769   202070 |    16    84409     1172   358227 |  8.108 % |
c |     2548       175      168 |    8601    59769   202070 |    17    51412     1181   401636 |  8.129 % |
c |     2562       175      171 |    8601    59769   202070 |    17    61411     1195   401636 |  8.129 % |
c |     2562       177      175 |    8601    59769   202070 |    17    71411     1196   401636 |  8.129 % |
c |     2602       177      176 |    8594    59769   202070 |    17    81410     1200   401636 |  8.204 % |
c |     2611       181      180 |    8594    59769   202070 |    18    45811     1201   447542 |  8.203 % |
c |     2611       184      183 |    8593    59769   202070 |    18    55811     1204   447542 |  8.214 % |
c |     2617       191      187 |    8585    59769   202070 |    18    65805     1209   447542 |  8.300 % |
c |     2686       191      186 |    8582    59769   202070 |    18    75805     1209   447542 |  8.332 % |
c |     2731       191      186 |    8581    59769   202070 |    18    85802     1210   447542 |  8.342 % |
c |     2797       191      185 |    8579    59769   202070 |    18    95802     1210   447542 |  8.364 % |
c |     2803       191      189 |    8576    59769   202070 |    19    57608     1213   496228 |  8.396 % |
c |     2808       191      192 |    8576    59769   202070 |    19    67608     1214   496228 |  8.396 % |
c |     2808       191      195 |    8576    59769   202070 |    19    77608     1216   496228 |  8.396 % |
c |     2873       191      194 |    8576    59769   202070 |    19    87603     1218   496228 |  8.396 % |
c |     2934       191      194 |    8576    59769   202070 |    19    97603     1221   496228 |  8.396 % |
c |     2980       191      194 |    8572    59769   202070 |    20    56806     1221   547286 |  8.439 % |
c |     3004       191      196 |    8571    59769   202070 |    20    66800     1222   547286 |  8.449 % |
c |     3006       191      199 |    8571    59769   202070 |    20    76800     1222   547286 |  8.449 % |
c |     3006       191      202 |    8571    59769   202070 |    20    86800     1222   547286 |  8.449 % |
c |     3006       191      206 |    8570    59769   202070 |    20    96800     1222   547286 |  8.460 % |
c |     3007       191      209 |    8569    59769   202070 |    20   106800     1223   547286 |  8.470 % |
c |     3007       191      212 |    8569    59769   202070 |    21    63407     1223   600987 |  8.470 % |
c |     3022       193      215 |    8561    59769   202070 |    21    73405     1232   600987 |  8.556 % |
c |     3041       194      217 |    8560    59769   202070 |    21    83398     1233   600987 |  8.567 % |
c |     3064       203      218 |    8560    59769   202070 |    21    93398     1234   600987 |  8.567 % |
c |     3075       203      221 |    8560    59769   202070 |    21   103398     1235   600987 |  8.567 % |
c |     3091       203      223 |    8557    59769   202070 |    22    57405     1237   657288 |  8.599 % |
c |     3118       203      224 |    8555    59769   202070 |    22    67405     1237   657288 |  8.620 % |
c |     3161       204      224 |    8554    59769   202070 |    22    77404     1239   657288 |  8.631 % |
c |     3175       211      226 |    8548    59769   202070 |    22    87403     1242   657288 |  8.695 % |
c |     3175       216      229 |    8548    59769   202070 |    22    97403     1246   657288 |  8.695 % |
c |     3191       216      231 |    8547    59769   202070 |    22   107402     1248   657288 |  8.705 % |
c |     3222       216      232 |    8546    59769   202070 |    23    58814     1249   716175 |  8.716 % |
c |     3238       219      234 |    8546    59769   202070 |    23    68814     1250   716175 |  8.716 % |
c |     3240       223      237 |    8545    59769   202070 |    23    78814     1251   716175 |  8.727 % |
c |     3243       223      240 |    8545    59769   202070 |    23    88814     1253   716175 |  8.727 % |
c |     3246       224      243 |    8545    59769   202070 |    23    98814     1258   716175 |  8.727 % |
c |     3269       224      244 |    8543    59769   202070 |    23   108811     1259   716175 |  8.749 % |
c |     3270       224      247 |    8541    59769   202070 |    23   118809     1260   716175 |  8.770 % |
c |     3275       230      250 |    8537    59769   202070 |    24    67617     1261   777596 |  8.813 % |
c |     3276       230      253 |    8534    59769   202070 |    24    77616     1266   777596 |  8.844 % |
c |     3295       230      254 |    8533    59769   202070 |    24    87616     1268   777596 |  8.855 % |
c |     3297       230      257 |    8529    59769   202070 |    24    97608     1271   777596 |  8.898 % |
c |     3297       230      260 |    8526    59769   202070 |    24   107608     1271   777596 |  8.930 % |
c |     3320       230      262 |    8522    59769   202070 |    24   117608     1274   777596 |  8.973 % |
c |     3332       230      264 |    8516    59769   202070 |    24   127608     1276   777596 |  9.037 % |
c |     3363       230      264 |    8510    59769   202070 |    25    73796     1276   841736 |  9.101 % |
c |     3422       230      263 |    8510    59769   202070 |    25    83796     1276   841736 |  9.101 % |
c |     3505       230      259 |    8507    59769   202070 |    25    93796     1278   841736 |  9.133 % |
c |     3550       230      259 |    8504    59769   202070 |    25   103791     1279   841736 |  9.165 % |
c |     3584       230      259 |    8503    59769   202070 |    25   113791     1280   841736 |  9.176 % |
c |     3607       230      260 |    8500    59769   202070 |    25   123791     1281   841736 |  9.208 % |
c |     3613       230      262 |    8500    59769   202070 |    26    67402     1282   908392 |  9.208 % |
c |     3673       230      261 |    8500    59769   202070 |    26    77394     1284   908392 |  9.208 % |
c |     3680       235      263 |    8499    59769   202070 |    26    87394     1290   908392 |  9.219 % |
c |     3718       235      263 |    8499    59769   202070 |    26    97393     1290   908392 |  9.219 % |
c |     3741       236      264 |    8498    59769   202070 |    26   107393     1291   908392 |  9.229 % |
c |     3741       239      267 |    8498    59769   202070 |    26   117393     1296   908392 |  9.229 % |
c |     3754       259      269 |    8496    59769   202070 |    26   127392     1302   908392 |  9.251 % |
c |     3802       259      268 |    8496    59769   202070 |    26   137390     1302   908392 |  9.250 % |
c |     3841       259      268 |    8495    59769   202070 |    27    78406     1304   977622 |  9.261 % |
c |     3843       260      270 |    8494    59769   202070 |    27    88406     1306   977622 |  9.272 % |
c |     3861       260      271 |    8494    59769   202070 |    27    98406     1307   977622 |  9.272 % |
c |     3871       261      273 |    8490    59769   202070 |    27   108406     1307   977622 |  9.315 % |
c |     3871       266      276 |    8490    59769   202070 |    27   118406     1310   977622 |  9.315 % |
c |     3872       270      278 |    8490    59769   202070 |    27   128406     1314   977622 |  9.314 % |
c |     3895       270      279 |    8489    59769   202070 |    27   138406     1319   977622 |  9.325 % |
c |     3910       270      281 |    8489    59769   202070 |    28    76804     1322  1049383 |  9.325 % |
c |     3910       270      283 |    8489    59769   202070 |    28    86804     1328  1049383 |  9.325 % |
c |     3931       270      284 |    8488    59769   202070 |    28    96799     1330  1049383 |  9.336 % |
c |     3949       271      286 |    8488    59769   202070 |    28   106799     1330  1049383 |  9.336 % |
c |     3952       279      288 |    8488    59769   202070 |    28   116799     1333  1049383 |  9.336 % |
c |     3979       287      289 |    8488    59769   202070 |    28   126799     1334  1049383 |  9.336 % |
c |     3979       287      291 |    8487    59769   202070 |    28   136799     1334  1049383 |  9.346 % |
c |     3980       288      293 |    8487    59769   202070 |    28   146799     1338  1049383 |  9.346 % |
c |     3984       288      296 |    8485    59769   202070 |    29    82611     1342  1123746 |  9.368 % |
c |     3984       288      298 |    8485    59769   202070 |    29    92611     1342  1123746 |  9.368 % |
c |     3986       288      301 |    8484    59769   202070 |    29   102611     1342  1123746 |  9.378 % |
c |     3997       288      302 |    8484    59769   202070 |    29   112611     1342  1123746 |  9.379 % |
c |     3997       288      305 |    8476    59769   202070 |    29   122610     1343  1123746 |  9.464 % |
c |     4000       290      307 |    8475    59769   202070 |    29   132602     1345  1123746 |  9.475 % |
c |     4000       291      310 |    8475    59769   202070 |    29   142602     1347  1123746 |  9.475 % |
c |     4000       291      312 |    8475    59769   202070 |    29   152602     1348  1123746 |  9.475 % |
c |     4000       291      315 |    8475    59769   202070 |    30    85812     1349  1200724 |  9.475 % |
c |     4000       291      317 |    8474    59769   202070 |    30    95812     1350  1200724 |  9.486 % |
c |     4001       291      319 |    8471    59769   202070 |    30   105810     1351  1200724 |  9.518 % |
c |     4001       294      322 |    8471    59769   202070 |    30   115810     1354  1200724 |  9.518 % |
c |     4002       295      324 |    8466    59769   202070 |    30   125803     1356  1200724 |  9.571 % |
c |     4009       298      326 |    8464    59769   202070 |    30   135803     1359  1200724 |  9.592 % |
c |     4022       298      328 |    8464    59769   202070 |    30   145803     1364  1200724 |  9.592 % |
c |     4022       300      330 |    8464    59769   202070 |    30   155803     1365  1200724 |  9.592 % |
c |     4022       300      333 |    8464    59769   202070 |    31    86417     1368  1280348 |  9.592 % |
c |     4022       309      335 |    8464    59769   202070 |    31    96417     1369  1280348 |  9.592 % |
c |     4039       309      336 |    8464    59769   202070 |    31   106417     1369  1280348 |  9.592 % |
c |     4050       309      338 |    8463    59769   202070 |    31   116414     1369  1280348 |  9.603 % |
c |     4050       310      340 |    8463    59769   202070 |    31   126414     1371  1280348 |  9.603 % |
c |     4056       310      342 |    8463    59769   202070 |    31   136414     1372  1280348 |  9.603 % |
c |     4056       310      345 |    8462    59769   202070 |    31   146414     1372  1280348 |  9.614 % |
c |     4056       310      347 |    8458    59769   202070 |    31   156414     1372  1280348 |  9.656 % |
c |     4059       310      349 |    8448    59769   202070 |    32    84409     1372  1362499 |  9.763 % |
c |     4086       310      349 |    8445    59769   202070 |    32    94408     1375  1362499 |  9.795 % |
c |     4089       310      352 |    8445    59769   202070 |    32   104405     1375  1362499 |  9.795 % |
c |     4090       310      354 |    8445    59769   202070 |    32   114405     1375  1362499 |  9.795 % |
c |     4112       310      355 |    8445    59769   202070 |    32   124405     1376  1362499 |  9.795 % |
c |     4112       310      357 |    8445    59769   202070 |    32   134405     1376  1362499 |  9.795 % |
c |     4121       310      359 |    8445    59769   202070 |    32   144405     1376  1362499 |  9.795 % |
c |     4121       310      361 |    8445    59769   202070 |    32   154405     1376  1362499 |  9.795 % |
c |     4121       310      363 |    8445    59769   202070 |    32   164405     1380  1362499 |  9.795 % |
c |     4126       310      365 |    8444    59769   202070 |    33    89817     1380  1447335 |  9.806 % |
c |     4143       310      366 |    8444    59769   202070 |    33    99817     1380  1447335 |  9.806 % |
c |     4162       310      367 |    8444    59769   202070 |    33   109817     1381  1447335 |  9.806 % |
c |     4179       311      368 |    8439    59769   202070 |    33   119815     1381  1447335 |  9.860 % |
c |     4181       311      370 |    8436    59769   202070 |    33   129814     1382  1447335 |  9.892 % |
c |     4244       311      367 |    8435    59769   202070 |    33   139813     1384  1447335 |  9.902 % |
c |     4319       311      363 |    8435    59769   202070 |    33   149813     1385  1447335 |  9.902 % |
c |     4325       311      365 |    8434    59769   202070 |    33   159812     1388  1447335 |  9.912 % |
c |     4325       311      367 |    8434    59769   202070 |    33   169812     1389  1447335 |  9.912 % |
c |     4325       311      369 |    8434    59769   202070 |    34    92613     1389  1534750 |  9.912 % |
c |     4329       314      371 |    8430    59769   202070 |    34   102605     1390  1534750 |  9.955 % |
c |     4338       316      373 |    8427    59769   202070 |    34   112605     1392  1534750 |  9.988 % |
c |     4342       316      375 |    8427    59769   202070 |    34   122605     1392  1534750 |  9.987 % |
c |     4349       316      377 |    8424    59769   202070 |    34   132603     1392  1534750 | 10.020 % |
c |     4354       318      378 |    8424    59769   202070 |    34   142596     1392  1534750 | 10.020 % |
c |     4365       318      380 |    8424    59769   202070 |    34   152596     1392  1534750 | 10.020 % |
c |     4365       318      382 |    8422    59769   202070 |    34   162596     1392  1534750 | 10.041 % |
c |     4365       318      384 |    8417    59769   202070 |    34   172596     1394  1534750 | 10.094 % |
c |     4365       320      387 |    8416    59769   202070 |    35    92806     1396  1624757 | 10.105 % |
c |     4398       320      386 |    8412    59769   202070 |    35   102805     1398  1624757 | 10.148 % |
c |     4398       320      388 |    8412    59769   202070 |    35   112805     1398  1624757 | 10.148 % |
c |     4398       320      391 |    8412    59769   202070 |    35   122805     1398  1624757 | 10.148 % |
c |     4428       320      390 |    8410    59769   202070 |    35   132792     1399  1624757 | 10.169 % |
c |     4452       320      390 |    8410    59769   202070 |    35   142792     1400  1624757 | 10.169 % |
c |     4452       320      393 |    8409    59769   202070 |    35   152792     1400  1624757 | 10.179 % |
c |     4471       320      393 |    8409    59769   202070 |    35   162792     1402  1624757 | 10.180 % |
c |     4486       320      394 |    8408    59769   202070 |    35   172792     1402  1624757 | 10.190 % |
c |     4493       320      396 |    8408    59769   202070 |    35   182792     1402  1624757 | 10.190 % |
c |     4519       320      396 |    8408    59769   202070 |    36   100403     1403  1717308 | 10.191 % |
c |     4542       320      396 |    8408    59769   202070 |    36   110403     1404  1717308 | 10.191 % |
c |     4546       320      398 |    8407    59769   202070 |    36   120403     1405  1717308 | 10.201 % |
c |     4546       320      400 |    8407    59769   202070 |    36   130403     1408  1717308 | 10.201 % |
c |     4546       320      402 |    8407    59769   202070 |    36   140403     1409  1717308 | 10.201 % |
c |     4546       320      404 |    8407    59769   202070 |    36   150403     1409  1717308 | 10.201 % |
c |     4546       320      406 |    8407    59769   202070 |    36   160403     1410  1717308 | 10.201 % |
c |     4547       320      409 |    8406    59769   202070 |    36   170402     1416  1717308 | 10.212 % |
c |     4581       320      408 |    8403    59769   202070 |    36   180402     1417  1717308 | 10.244 % |
c |     4617       320      407 |    8403    59769   202070 |    37    95411     1418  1812411 | 10.244 % |
c |     4623       322      408 |    8403    59769   202070 |    37   105411     1419  1812411 | 10.244 % |
c |     4636       322      409 |    8392    59769   202070 |    37   115411     1419  1812411 | 10.362 % |
c |     4646       322      411 |    8392    59769   202070 |    37   125411     1419  1812411 | 10.361 % |
c |     4646       322      413 |    8391    59769   202070 |    37   135411     1419  1812411 | 10.372 % |
c |     4647       322      415 |    8391    59769   202070 |    37   145411     1419  1812411 | 10.372 % |
c |     4647       322      417 |    8391    59769   202070 |    37   155411     1420  1812411 | 10.372 % |
c |     4660       322      418 |    8391    59769   202070 |    37   165411     1421  1812411 | 10.372 % |
c |     4667       322      419 |    8391    59769   202070 |    37   175411     1422  1812411 | 10.372 % |
c |     4674       322      421 |    8390    59769   202070 |    37   185411     1422  1812411 | 10.383 % |
c |     4675       322      423 |    8389    59769   202070 |    38    97805     1423  1910162 | 10.394 % |
c |     4677       322      425 |    8388    59769   202070 |    38   107805     1423  1910162 | 10.405 % |
c |     4680       322      427 |    8385    59769   202070 |    38   102256     1425  1910162 | 10.437 % |
c |     4680       322      429 |    8333    59769   202070 |    38   112256     1425  1910162 | 10.991 % |
c |     4681       323      431 |    8333    59769   202070 |    38   122256     1425  1910162 | 10.991 % |
c |     4690       323      432 |    8331    59769   202070 |    38   132256     1426  1910162 | 11.013 % |
c Contradiction found while importing a unary clause clauses.
c Contradiction found while importing a unary clause clauses.
c empty clause found by core 4 at conflict 2034399
*
c checking the resolution graph...