c
c This is glucose-proof 1.0 based on  2.1 --  (thanks to MiniSAT)
c
c EXPERIMENTAL EASY PARALLEL (ROUND ROBIN) VERSION
c
c WARNING: for repeatability, setting FPU to use double precision
c Parallel version 16 solvers created.
c ========================================[ Problem Statistics ]===========================================
c |                                                                                                       |
c |  Number of variables:          9362                                                                   |
c |  Number of clauses:           59769                                                                   |
c |  Parse time:                   0.22 s                                                                 |
c |                                                                                                       |
c ========================================[ MAGIC CONSTANTS ]==============================================
c | Constants are supposed to work well together :-)                                                      |
c | however, if you find better choices, please let us known...                                           |
c |-------------------------------------------------------------------------------------------------------|
c |                                |                                |                                     |
c | - Restarts:                    | - Reduce Clause DB:            | - Minimize Asserting:               |
c |   * LBD Queue    :     50      |   * First     :   4000         |    * size <  30                     |
c |   * Trail  Queue :   5000      |   * Inc       :    300         |    * lbd  <   6                     |
c |   * K            :   0.80      |   * Special   :   1000         |                                     |
c |   * R            :   1.40      |   * Protected :  (lbd)< 30     |                                     |
c |                                |                                |                                     |
c ==================================[ Search Statistics (every  10000 conflicts) ]=========================
c |                                                                                                       |
c |          RESTARTS           |          ORIGINAL         |              LEARNT              | Progress |
c |       NB   Blocked  Avg Cfc |    Vars  Clauses Literals |   Red   Learnts    LBD2  Removed |          |
c =========================================================================================================
c |      104         0       96 |    8958    59769   202070 |     1     7962      243     6699 |  4.316 % |
c |      184        11      108 |    8851    59769   202070 |     3     6963      364    28492 |  5.458 % |
c |      303        16       99 |    8766    59769   202070 |     3    16937      428    28492 |  6.366 % |
c |      395        24      101 |    8706    59769   202070 |     4    17654      467    42521 |  7.007 % |
c |      500        27      100 |    8678    59769   202070 |     5    15837      494    58273 |  7.306 % |
c |      583        30      102 |    8643    59769   202070 |     5    25822      523    58273 |  7.680 % |
c |      665        31      105 |    8612    59769   202070 |     6    21405      528    76008 |  8.011 % |
c |      748        31      106 |    8578    59769   202070 |     6    31400      537    76008 |  8.375 % |
c |      861        32      104 |    8564    59769   202070 |     7    24400      555    96072 |  8.524 % |
c |      962        32      103 |    8553    59769   202070 |     7    34397      568    96072 |  8.641 % |
c |     1007        32      109 |    8540    59769   202070 |     8    24802      579   118037 |  8.780 % |
c |     1107        34      108 |    8521    59769   202070 |     8    34799      593   118037 |  8.984 % |
c |     1211        34      107 |    8510    59769   202070 |     9    22606      599   142712 |  9.101 % |
c |     1246        34      112 |    8502    59769   202070 |     9    32600      604   142712 |  9.186 % |
c |     1339        34      112 |    8494    59769   202070 |     9    42597      609   142712 |  9.272 % |
c |     1417        34      112 |    8485    59769   202070 |    10    27811      621   169474 |  9.368 % |
c |     1473        34      115 |    8483    59769   202070 |    10    37810      623   169474 |  9.389 % |
c |     1544        34      116 |    8475    59769   202070 |    10    47808      625   169474 |  9.475 % |
c |     1614        34      117 |    8469    59769   202070 |    11    30407      630   198433 |  9.539 % |
c |     1634        34      122 |    8465    59769   202070 |    11    40403      632   198433 |  9.581 % |
c |     1638        36      128 |    8463    59769   202070 |    11    50403      633   198433 |  9.603 % |
c |     1657        38      132 |    8458    59769   202070 |    12    30409      634   229992 |  9.656 % |
c |     1672        38      137 |    8453    59769   202070 |    12    40409      636   229992 |  9.709 % |
c |     1691        38      141 |    8453    59769   202070 |    12    50409      637   229992 |  9.709 % |
c |     1703        38      146 |    8447    59769   202070 |    12    60405      652   229992 |  9.774 % |
c |     1727        38      150 |    8442    59769   202070 |    13    37803      657   263943 |  9.827 % |
c |     1728        38      156 |    8439    59769   202070 |    13    47803      659   263943 |  9.860 % |
c |     1730        39      161 |    8435    59769   202070 |    13    57803      659   263943 |  9.902 % |
c |     1731        39      167 |    8431    59769   202070 |    13    67796      660   263943 |  9.944 % |
c |     1745        43      171 |    8426    59769   202070 |    14    42597      668   300479 |  9.998 % |
c |     1790        43      173 |    8423    59769   202070 |    14    52597      669   300479 | 10.030 % |
c |     1824        43      175 |    8420    59769   202070 |    14    62597      669   300479 | 10.062 % |
c |     1880        44      175 |    8417    59769   202070 |    14    72597      669   300479 | 10.094 % |
c |     1916        46      177 |    8413    59769   202070 |    15    44806      670   339678 | 10.137 % |
c |     1917        46      182 |    8413    59769   202070 |    15    54806      671   339678 | 10.137 % |
c |     1918        46      187 |    8406    59769   202070 |    15    64804      681   339678 | 10.212 % |
c |     1925        71      192 |    8403    59769   202070 |    15    74804      688   339678 | 10.244 % |
c |     1926        74      197 |    8402    59769   202070 |    16    44407      689   381153 | 10.254 % |
c |     1926        76      202 |    8396    59769   202070 |    16    54405      692   381153 | 10.319 % |
c |     1929        77      207 |    8390    59769   202070 |    16    64404      701   381153 | 10.382 % |
c |     1951        78      210 |    8389    59769   202070 |    16    74404      704   381153 | 10.393 % |
c |     1956        87      214 |    8381    59769   202070 |    16    84404      706   381153 | 10.479 % |
c |     1956        87      219 |    8379    59769   202070 |    17    51409      709   425035 | 10.500 % |
c |     1962        87      224 |    8377    59769   202070 |    17    61408      714   425035 | 10.521 % |
c |     1962        88      229 |    8371    59769   202070 |    17    71408      717   425035 | 10.585 % |
c |     1971        93      233 |    8366    59769   202070 |    17    81408      717   425035 | 10.639 % |
c |     1993        93      235 |    8363    59769   202070 |    18    45809      718   471622 | 10.671 % |
c |     1993        93      240 |    8362    59769   202070 |    18    55809      722   471622 | 10.682 % |
c |     1995        93      245 |    8361    59769   202070 |    18    65809      722   471622 | 10.692 % |
c |     1996        93      250 |    8361    59769   202070 |    18    75809      725   471622 | 10.692 % |
c |     1996        93      255 |    8359    59769   202070 |    18    85809      735   471622 | 10.714 % |
c |     1997        93      260 |    8357    59769   202070 |    18    95809      737   471622 | 10.735 % |
c |     1997        99      265 |    8356    59769   202070 |    19    57612      738   520767 | 10.746 % |
c |     2015       109      267 |    8355    59769   202070 |    19    67612      742   520767 | 10.757 % |
c |     2034       109      270 |    8355    59769   202070 |    19    77612      742   520767 | 10.756 % |
c |     2041       109      274 |    8354    59769   202070 |    19    87612      742   520767 | 10.767 % |
c |     2042       109      279 |    8354    59769   202070 |    19    97612      742   520767 | 10.767 % |
c |     2043       109      283 |    8350    59769   202070 |    20    56818      742   572435 | 10.810 % |
c |     2043       109      288 |    8350    59769   202070 |    20    66818      745   572435 | 10.810 % |
c |     2080       110      288 |    8348    59769   202070 |    20    76816      745   572435 | 10.831 % |
c |     2124       110      287 |    8348    59769   202070 |    20    86816      746   572435 | 10.831 % |
c |     2175       110      285 |    8348    59769   202070 |    20    96816      746   572435 | 10.831 % |
c |     2204       116      285 |    8346    59769   202070 |    20   106816      746   572435 | 10.853 % |
c |     2213       117      289 |    8341    59769   202070 |    21    63416      747   626713 | 10.906 % |
c |     2221       117      292 |    8340    59769   202070 |    21    73416      747   626713 | 10.917 % |
c |     2242       117      294 |    8339    59769   202070 |    21    83416      750   626713 | 10.927 % |
c |     2266       122      295 |    8337    59769   202070 |    21    93416      750   626713 | 10.949 % |
c |     2273       122      299 |    8336    59769   202070 |    21   103413      751   626713 | 10.959 % |
c |     2306       122      299 |    8335    59769   202070 |    22    57409      753   683527 | 10.970 % |
c |     2361       124      296 |    8334    59769   202070 |    22    67409      755   683527 | 10.981 % |
c |     2395       124      296 |    8334    59769   202070 |    22    77409      756   683527 | 10.981 % |
c |     2437       124      295 |    8334    59769   202070 |    22    87409      757   683527 | 10.981 % |
c |     2437       124      299 |    8334    59769   202070 |    22    97409      764   683527 | 10.981 % |
c |     2437       124      303 |    8334    59769   202070 |    22   107409      764   683527 | 10.981 % |
c |     2438       124      307 |    8334    59769   202070 |    23    58814      764   742735 | 10.981 % |
c |     2446       124      310 |    8331    59769   202070 |    23    68813      764   742735 | 11.013 % |
c |     2514       124      306 |    8330    59769   202070 |    23    78813      764   742735 | 11.024 % |
c |     2514       124      310 |    8330    59769   202070 |    23    88813      767   742735 | 11.024 % |
c |     2515       126      314 |    8329    59769   202070 |    23    98813      769   742735 | 11.034 % |
c |     2515       126      318 |    8329    59769   202070 |    23   108813      770   742735 | 11.034 % |
c |     2524       126      320 |    8329    59769   202070 |    23   118809      771   742735 | 11.034 % |
c |     2528       126      324 |    8326    59769   202070 |    24    67612      771   804518 | 11.066 % |
c |     2565       126      323 |    8323    59769   202070 |    24    77612      774   804518 | 11.099 % |
c |     2572       126      326 |    8322    59769   202070 |    24    87612      774   804518 | 11.109 % |
c |     2583       126      329 |    8314    59769   202070 |    24    97612      779   804518 | 11.195 % |
c |     2583       136      332 |    8314    59769   202070 |    24   107612      781   804518 | 11.195 % |
c |     2583       136      336 |    8314    59769   202070 |    24   117612      781   804518 | 11.195 % |
c |     2608       137      337 |    8312    59769   202070 |    24   127610      781   804518 | 11.216 % |
c |     2624       141      339 |    8312    59769   202070 |    25    73819      782   868914 | 11.216 % |
c |     2624       148      342 |    8309    59769   202070 |    25    83819      786   868914 | 11.248 % |
c |     2624       152      346 |    8309    59769   202070 |    25    93819      786   868914 | 11.248 % |
c |     2645       152      347 |    8308    59769   202070 |    25   103819      787   868914 | 11.258 % |
c |     2645       152      351 |    8308    59769   202070 |    25   113819      791   868914 | 11.259 % |
c |     2645       152      355 |    8304    59769   202070 |    25   123813      791   868914 | 11.301 % |
c |     2667       152      356 |    8303    59769   202070 |    26    67418      791   935886 | 11.312 % |
c |     2711       152      354 |    8303    59769   202070 |    26    77418      792   935886 | 11.312 % |
c |     2745       152      353 |    8303    59769   202070 |    26    87418      792   935886 | 11.312 % |
c |     2794       152      350 |    8302    59769   202070 |    26    97418      794   935886 | 11.323 % |
c |     2813       152      351 |    8302    59769   202070 |    26   107417      794   935886 | 11.322 % |
c |     2817       153      354 |    8302    59769   202070 |    26   117417      796   935886 | 11.323 % |
c |     2821       162      358 |    8296    59769   202070 |    26   127417      798   935886 | 11.387 % |
c |     2834       162      359 |    8296    59769   202070 |    26   137417      798   935886 | 11.387 % |
c |     2851       162      361 |    8295    59769   202070 |    27    78416      798  1005491 | 11.397 % |
c |     2851       162      364 |    8295    59769   202070 |    27    88416      799  1005491 | 11.397 % |
c |     2856       162      367 |    8294    59769   202070 |    27    98415      799  1005491 | 11.408 % |
c |     2885       162      367 |    8294    59769   202070 |    27   108415      799  1005491 | 11.408 % |
c |     2885       162      370 |    8294    59769   202070 |    27   118415      799  1005491 | 11.408 % |
c |     2887       162      374 |    8293    59769   202070 |    27   128415      801  1005491 | 11.419 % |
c |     2889       162      377 |    8292    59769   202070 |    27   138415      802  1005491 | 11.429 % |
c |     2892       162      380 |    8291    59769   202070 |    28    76818      802  1077631 | 11.440 % |
c |     2893       162      383 |    8290    59769   202070 |    28    86818      802  1077631 | 11.451 % |
c |     2906       162      385 |    8289    59769   202070 |    28    96818      803  1077631 | 11.462 % |
c |     2939       162      384 |    8289    59769   202070 |    28   106818      803  1077631 | 11.461 % |
c |     2941       165      387 |    8288    59769   202070 |    28   116818      803  1077631 | 11.472 % |
c |     2946       165      390 |    8288    59769   202070 |    28   126818      803  1077631 | 11.472 % |
c |     2946       165      393 |    8286    59769   202070 |    28   136818      803  1077631 | 11.493 % |
c |     2948       165      396 |    8286    59769   202070 |    28   146815      804  1077631 | 11.493 % |
c |     2950       165      400 |    8284    59769   202070 |    29    82618      804  1152413 | 11.515 % |
c |     2950       166      403 |    8284    59769   202070 |    29    92618      805  1152413 | 11.515 % |
c |     2951       168      406 |    8284    59769   202070 |    29   102618      808  1152413 | 11.515 % |
c |     2951       168      410 |    8283    59769   202070 |    29   112617      808  1152413 | 11.525 % |
c |     2951       169      413 |    8283    59769   202070 |    29   122617      810  1152413 | 11.525 % |
c |     2951       169      416 |    8282    59769   202070 |    29   132611      810  1152413 | 11.537 % |
c |     2962       169      418 |    8282    59769   202070 |    29   142611      811  1152413 | 11.536 % |
c |     2968       169      421 |    8282    59769   202070 |    29   152611      811  1152413 | 11.537 % |
c |     2968       170      424 |    8281    59769   202070 |    30    85811      812  1229655 | 11.547 % |
c |     2968       170      427 |    8281    59769   202070 |    30    95811      813  1229655 | 11.547 % |
c |     2970       170      430 |    8280    59769   202070 |    30   105811      814  1229655 | 11.557 % |
c |     2970       170      434 |    8280    59769   202070 |    30   115811      814  1229655 | 11.557 % |
c |     2970       170      437 |    8280    59769   202070 |    30   125811      815  1229655 | 11.557 % |
c |     2985       171      438 |    8280    59769   202070 |    30   135809      815  1229655 | 11.558 % |
c |     2999       174      440 |    8279    59769   202070 |    30   145809      815  1229655 | 11.568 % |
c |     3017       177      440 |    8277    59769   202070 |    30   155809      815  1229655 | 11.590 % |
c |     3028       181      442 |    8277    59769   202070 |    31    86415      816  1309493 | 11.590 % |
c |     3033       181      445 |    8277    59769   202070 |    31    96415      817  1309493 | 11.589 % |
c |     3034       182      448 |    8277    59769   202070 |    31   106415      817  1309493 | 11.589 % |
c |     3034       185      451 |    8277    59769   202070 |    31   116415      819  1309493 | 11.589 % |
c |     3034       185      454 |    8277    59769   202070 |    31   126415      819  1309493 | 11.589 % |
c |     3043       185      456 |    8275    59769   202070 |    31   136411      819  1309493 | 11.611 % |
c |     3043       186      460 |    8275    59769   202070 |    31   146411      819  1309493 | 11.611 % |
c |     3043       186      463 |    8274    59769   202070 |    31   156411      820  1309493 | 11.622 % |
c |     3068       186      462 |    8273    59769   202070 |    32    84412      821  1392008 | 11.632 % |
c |     3071       186      465 |    8271    59769   202070 |    32    94412      823  1392008 | 11.654 % |
c |     3073       186      468 |    8271    59769   202070 |    32   104412      824  1392008 | 11.654 % |
c |     3090       186      469 |    8270    59769   202070 |    32   114410      827  1392008 | 11.664 % |
c |     3093       189      472 |    8270    59769   202070 |    32   124410      827  1392008 | 11.664 % |
c |     3100       190      474 |    8269    59769   202070 |    32   134410      827  1392008 | 11.675 % |
c |     3101       199      477 |    8254    59769   202070 |    32   144409      828  1392008 | 11.836 % |
c |     3101       204      480 |    8254    59769   202070 |    32   154409      831  1392008 | 11.836 % |
c |     3101       204      483 |    8253    59769   202070 |    32   157194      832  1392008 | 11.846 % |
c |     3101       204      486 |    8247    59769   202070 |    33    86201      833  1473405 | 11.910 % |
c |     3106       204      489 |    8220    59769   202070 |    33    96201      833  1473405 | 12.199 % |
c |     3109       204      492 |    8218    59769   202070 |    33   106201      836  1473405 | 12.220 % |
c |     3109       204      495 |    8218    59769   202070 |    33   116201      836  1473405 | 12.220 % |
c |     3109       210      498 |    7468    59769   202070 |    33   126201      837  1473405 | 20.231 % |
c Contradiction found while importing a unary clause clauses.
c Contradiction found while importing a unary clause clauses.
c empty clause found by core 1 at conflict 1553144
*
c checking the resolution graph...