c
c This is glucose-proof 1.0 based on  2.1 --  (thanks to MiniSAT)
c
c EXPERIMENTAL EASY PARALLEL (ROUND ROBIN) VERSION
c
c WARNING: for repeatability, setting FPU to use double precision
c Parallel version 4 solvers created.
c ========================================[ Problem Statistics ]===========================================
c |                                                                                                       |
c |  Number of variables:          3215                                                                   |
c |  Number of clauses:           20534                                                                   |
c |  Parse time:                   0.03 s                                                                 |
c |                                                                                                       |
c ========================================[ MAGIC CONSTANTS ]==============================================
c | Constants are supposed to work well together :-)                                                      |
c | however, if you find better choices, please let us known...                                           |
c |-------------------------------------------------------------------------------------------------------|
c |                                |                                |                                     |
c | - Restarts:                    | - Reduce Clause DB:            | - Minimize Asserting:               |
c |   * LBD Queue    :     50      |   * First     :   4000         |    * size <  30                     |
c |   * Trail  Queue :   5000      |   * Inc       :    300         |    * lbd  <   6                     |
c |   * K            :   0.80      |   * Special   :   1000         |                                     |
c |   * R            :   1.40      |   * Protected :  (lbd)< 30     |                                     |
c |                                |                                |                                     |
c ==================================[ Search Statistics (every  10000 conflicts) ]=========================
c |                                                                                                       |
c |          RESTARTS           |          ORIGINAL         |              LEARNT              | Progress |
c |       NB   Blocked  Avg Cfc |    Vars  Clauses Literals |   Red   Learnts    LBD2  Removed |          |
c =========================================================================================================
c |       87         0      114 |    3212    20534    69540 |     1     8022      308     2979 |  0.093 % |
c |      158         0      126 |    3210    20534    69540 |     3     6968      447    17860 |  0.156 % |
c |      223        18      134 |    3210    20534    69540 |     3    16968      568    17860 |  0.156 % |
c |      242        57      165 |    3210    20534    69540 |     4    17706      623    29141 |  0.156 % |
c |      301        77      166 |    3210    20534    69540 |     5    15865      709    42684 |  0.156 % |
c |      366        84      163 |    3209    20534    69540 |     5    25856      790    42684 |  0.187 % |
c |      417       111      167 |    3209    20534    69540 |     6    21449      872    58757 |  0.187 % |
c |      472       143      169 |    3209    20534    69540 |     6    31449      949    58757 |  0.188 % |
c |      514       181      175 |    3209    20534    69540 |     7    24426      987    77105 |  0.187 % |
c |      567       193      176 |    3208    20534    69540 |     7    34423     1008    77105 |  0.218 % |
c |      603       215      182 |    3208    20534    69540 |     8    24820     1043    98061 |  0.219 % |
c |      665       223      180 |    3207    20534    69540 |     8    34819     1087    98061 |  0.249 % |
c |      710       272      183 |    3205    20534    69540 |     9    22607     1142   121398 |  0.311 % |
c |      734       323      190 |    3205    20534    69540 |     9    32602     1188   121398 |  0.313 % |
c |      790       324      189 |    3205    20534    69540 |     9    42602     1235   121398 |  0.311 % |
c |      814       324      196 |    3205    20534    69540 |    10    27808     1265   147052 |  0.311 % |
c |      834       377      203 |    3205    20534    69540 |    10    37808     1348   147052 |  0.311 % |
c |      895       408      201 |    3203    20534    69540 |    10    47793     1374   147052 |  0.373 % |
c |      949       409      200 |    3203    20534    69540 |    11    30406     1405   175235 |  0.374 % |
c |      985       440      203 |    3203    20534    69540 |    11    40406     1424   175235 |  0.373 % |
c |     1022       446      205 |    3203    20534    69540 |    11    50406     1438   175235 |  0.373 % |
c |     1071       450      205 |    3203    20534    69540 |    12    30409     1465   206069 |  0.373 % |
c |     1113       461      206 |    3203    20534    69540 |    12    40409     1483   206069 |  0.374 % |
c |     1131       492      212 |    3203    20534    69540 |    12    50409     1507   206069 |  0.375 % |
c |     1153       518      216 |    3203    20534    69540 |    12    60409     1524   206069 |  0.374 % |
c |     1197       563      217 |    3202    20534    69540 |    13    37812     1550   239338 |  0.404 % |
c |     1257       594      214 |    3202    20534    69540 |    13    47812     1567   239338 |  0.404 % |
c |     1294       608      216 |    3202    20534    69540 |    13    57812     1588   239338 |  0.404 % |
c |     1331       658      217 |    3202    20534    69540 |    13    67812     1608   239338 |  0.404 % |
c |     1363       676      220 |    3202    20534    69540 |    14    42619     1628   275125 |  0.404 % |
c |     1400       705      221 |    3202    20534    69540 |    14    52619     1633   275125 |  0.405 % |
c |     1476       705      216 |    3202    20534    69540 |    14    62619     1639   275125 |  0.404 % |
c |     1509       733      218 |    3202    20534    69540 |    14    72619     1649   275125 |  0.406 % |
c |     1516       778      224 |    3202    20534    69540 |    15    44811     1662   313436 |  0.404 % |
c |     1516       837      230 |    3202    20534    69540 |    15    54811     1673   313436 |  0.404 % |
c |     1523       906      236 |    3202    20534    69540 |    15    64811     1676   313436 |  0.406 % |
c |     1531       909      241 |    3202    20534    69540 |    15    74811     1685   313436 |  0.406 % |
c |     1588       924      239 |    3202    20534    69540 |    16    44424     1692   354343 |  0.405 % |
c |     1623       935      240 |    3202    20534    69540 |    16    54424     1707   354343 |  0.406 % |
c |     1664       952      240 |    3202    20534    69540 |    16    64424     1723   354343 |  0.404 % |
c |     1723       952      237 |    3202    20534    69540 |    16    74424     1730   354343 |  0.404 % |
c |     1771       958      237 |    3202    20534    69540 |    16    84424     1739   354343 |  0.406 % |
c |     1805       971      238 |    3202    20534    69540 |    17    51412     1747   397829 |  0.404 % |
c |     1808       998      243 |    3202    20534    69540 |    17    61412     1757   397829 |  0.404 % |
c |     1813      1048      248 |    3202    20534    69540 |    17    71412     1774   397829 |  0.404 % |
c |     1830      1074      251 |    3202    20534    69540 |    17    81412     1779   397829 |  0.406 % |
c |     1848      1117      254 |    3200    20534    69540 |    18    45794     1785   443765 |  0.467 % |
c |     1861      1162      257 |    3200    20534    69540 |    18    55794     1795   443765 |  0.467 % |
c |     1863      1239      263 |    3200    20534    69540 |    18    65794     1800   443765 |  0.467 % |
c |     1879      1273      266 |    3200    20534    69540 |    18    75794     1807   443765 |  0.468 % |
c |     1896      1312      268 |    3197    20534    69540 |    18    85794     1813   443765 |  0.560 % |
c |     1911      1343      272 |    3197    20534    69540 |    18    95750     1825   443765 |  0.560 % |
c |     1927      1345      275 |    3197    20534    69540 |    19    57588     1832   492255 |  0.560 % |
c |     1933      1349      279 |    3197    20534    69540 |    19    67588     1837   492255 |  0.560 % |
c |     1945      1355      282 |    3197    20534    69540 |    19    77588     1843   492255 |  0.561 % |
c |     1958      1400      286 |    3197    20534    69540 |    19    87588     1847   492255 |  0.560 % |
c |     1963      1466      290 |    3197    20534    69540 |    19    97588     1852   492255 |  0.560 % |
c |     1965      1542      295 |    3197    20534    69540 |    20    56801     1860   543382 |  0.561 % |
c |     1967      1602      299 |    3197    20534    69540 |    20    66801     1866   543382 |  0.561 % |
c |     1970      1640      304 |    3195    20534    69540 |    20    76770     1868   543382 |  0.623 % |
c |     1975      1711      308 |    3194    20534    69540 |    20    86769     1869   543382 |  0.653 % |
c |     1976      1767      313 |    3194    20534    69540 |    20    96769     1877   543382 |  0.657 % |
c |     1984      1813      317 |    3194    20534    69540 |    20   106769     1888   543382 |  0.657 % |
c |     1995      1821      320 |    3194    20534    69540 |    21    63383     1893   597018 |  0.653 % |
c |     2022      1833      321 |    3194    20534    69540 |    21    73383     1905   597018 |  0.656 % |
c |     2036      1844      324 |    3194    20534    69540 |    21    83383     1912   597018 |  0.653 % |
c |     2036      1844      329 |    3194    20534    69540 |    21    93383     1925   597018 |  0.653 % |
c |     2036      1853      333 |    3194    20534    69540 |    21   103383     1929   597018 |  0.653 % |
c |     2047      1876      337 |    3194    20534    69540 |    22    57398     1935   653297 |  0.653 % |
c |     2053      1912      340 |    3194    20534    69540 |    22    67398     1941   653297 |  0.656 % |
c |     2064      1937      343 |    3194    20534    69540 |    22    77398     1953   653297 |  0.655 % |
c |     2081      1970      345 |    3194    20534    69540 |    22    87398     1956   653297 |  0.653 % |
c |     2084      1982      350 |    3192    20534    69540 |    22    97110     1963   653297 |  0.716 % |
c |     2096      2006      353 |    3191    20534    69540 |    22   107109     1974   653297 |  0.749 % |
c |     2096      2052      357 |    3191    20534    69540 |    23    58659     1979   712028 |  0.754 % |
c |     2098      2102      362 |    3001    20534    69540 |    23    68658     1993   712028 |  6.660 % |
c |     2099      2141      366 |    2643    20534    69540 |    23    49797     2007   712028 | 17.792 % |
c |     2099      2169      371 |    2641    20534    69540 |    23    59796     2017   712028 | 17.854 % |
c |     2099      2208      376 |    2523    20534    69540 |    23    69795     2041   712028 | 21.525 % |
c empty clause found by core 2 at conflict 794427
*
c checking the resolution graph...OK
c All useful bySize 1051186 clauses, percentiles 0 3 5 8 32 94 274 578 748 1011 1448 1453 (0,1,5,10,25,50,75,90,95,99,100-1,100)
c All useless bySize 2147162 clauses, percentiles 0 7 16 25 51 116 270 511 657 915 1462 1470 (0,1,5,10,25,50,75,90,95,99,100-1,100)
c ProofOnly useful bySize 1030802 clauses, percentiles 0 3 5 10 35 98 281 583 753 1013 1448 1453 (0,1,5,10,25,50,75,90,95,99,100-1,100)
c ProofOnly useless bySize 2146905 clauses, percentiles 2 7 16 25 51 117 270 511 657 915 1462 1470 (0,1,5,10,25,50,75,90,95,99,100-1,100)
c All useful byFinalLBD 1051186 clauses, percentiles 0 1 2 3 6 9 12 14 15 18 36 39 (0,1,5,10,25,50,75,90,95,99,100-1,100)
c All useless byFinalLBD 2147162 clauses, percentiles 0 4 6 7 10 13 16 20 23 29 68 85 (0,1,5,10,25,50,75,90,95,99,100-1,100)
c ProofOnly useful byFinalLBD 1030802 clauses, percentiles 0 1 2 3 6 9 12 14 16 18 36 39 (0,1,5,10,25,50,75,90,95,99,100-1,100)
c ProofOnly useless byFinalLBD 2146905 clauses, percentiles 1 4 6 7 10 13 16 20 23 29 68 85 (0,1,5,10,25,50,75,90,95,99,100-1,100)
c All useful byInitialLBD 1051186 clauses, percentiles 0 2 3 5 8 10 13 15 16 19 40 41 (0,1,5,10,25,50,75,90,95,99,100-1,100)
c All useless byInitialLBD 2147162 clauses, percentiles 0 5 7 8 10 13 17 20 23 29 68 85 (0,1,5,10,25,50,75,90,95,99,100-1,100)
c ProofOnly useful byInitialLBD 1030802 clauses, percentiles 0 3 4 5 8 10 13 15 16 19 40 41 (0,1,5,10,25,50,75,90,95,99,100-1,100)
c ProofOnly useless byInitialLBD 2146905 clauses, percentiles 2 5 7 8 10 13 17 20 23 29 68 85 (0,1,5,10,25,50,75,90,95,99,100-1,100)
c Literals ProofOnly useful 209308836
c Literals ProofOnly useless 425094942
c additional windowsGood 1 1 1 1 1 1 2 3 3 5 122 129 (0,1,5,10,25,50,75,90,95,99,100-1,100)
c additional windowsBad 1 1 1 1 1 2 3 5 11 31 264 269 (0,1,5,10,25,50,75,90,95,99,100-1,100)
c additional 1WindowNoDecision 406059 207027 0.51 218712 102292 0.47 (nbWindowsGood,nbWindowsNoDecisionGood,nbWindowsBad,nbWindowsNoDecisionBad
c additional topclausessize all (10%,5%,1%,top) 781.91 908.60 1095.30 1453
c additional topclausessize proofonly (10%,5%,1%,top) 783.90 910.16 1096.12 1453
c additional topclausesinitialLBD all (10%,5%,1%,top) 695.11 839.46 1059.43 1453
c additional topclausesinitialLBD proofonly (10%,5%,1%,top) 624.44 783.90 1030.64 1453
c additional topclausesfinalLBD all (10%,5%,1%,top) 562.46 736.51 1005.52 1453
c additional topclausesfinalLBD proofonly (10%,5%,1%,top) 510.14 695.87 983.40 1453
c additional predictionInitialLBD 1 37 1030802 1.00 0.00 0.00 3177670 2146905 0.68 2.08 1.02 0.68 (nbgoodclauses,nbtotalgood,precisionGood,recallGood,FGood,nbbadclause,nbtotalbad,precisionBad,recallBad,FBad,accuracy)
c additional predictionInitialLBD 2 7577 1030802 0.96 0.01 0.01 3170130 2146905 0.68 2.08 1.02 0.68 (nbgoodclauses,nbtotalgood,precisionGood,recallGood,FGood,nbbadclause,nbtotalbad,precisionBad,recallBad,FBad,accuracy)
c additional predictionInitialLBD 3 45020 1030802 0.95 0.04 0.08 3132687 2146905 0.68 2.08 1.03 0.69 (nbgoodclauses,nbtotalgood,precisionGood,recallGood,FGood,nbbadclause,nbtotalbad,precisionBad,recallBad,FBad,accuracy)
c additional predictionInitialLBD 4 88759 1030802 0.84 0.07 0.13 3088948 2146905 0.69 2.07 1.04 0.69 (nbgoodclauses,nbtotalgood,precisionGood,recallGood,FGood,nbbadclause,nbtotalbad,precisionBad,recallBad,FBad,accuracy)
c additional predictionInitialLBD 5 158162 1030802 0.72 0.11 0.19 3019545 2146905 0.70 2.04 1.04 0.70 (nbgoodclauses,nbtotalgood,precisionGood,recallGood,FGood,nbbadclause,nbtotalbad,precisionBad,recallBad,FBad,accuracy)
c additional predictionInitialLBD 6 255892 1030802 0.65 0.16 0.26 2921815 2146905 0.70 2.00 1.04 0.70 (nbgoodclauses,nbtotalgood,precisionGood,recallGood,FGood,nbbadclause,nbtotalbad,precisionBad,recallBad,FBad,accuracy)
c additional predictionInitialLBD 7 398220 1030802 0.60 0.23 0.33 2779487 2146905 0.71 1.93 1.04 0.70 (nbgoodclauses,nbtotalgood,precisionGood,recallGood,FGood,nbbadclause,nbtotalbad,precisionBad,recallBad,FBad,accuracy)
c additional predictionInitialLBD 8 589290 1030802 0.56 0.32 0.41 2588417 2146905 0.73 1.83 1.04 0.70 (nbgoodclauses,nbtotalgood,precisionGood,recallGood,FGood,nbbadclause,nbtotalbad,precisionBad,recallBad,FBad,accuracy)
c additional predictionInitialLBD 10 1102731 1030802 0.50 0.54 0.52 2074976 2146905 0.77 1.55 1.03 0.68 (nbgoodclauses,nbtotalgood,precisionGood,recallGood,FGood,nbbadclause,nbtotalbad,precisionBad,recallBad,FBad,accuracy)
c additional predictionInitialLBD 14 2210652 1030802 0.41 0.89 0.56 967055 2146905 0.88 0.82 0.85 0.56 (nbgoodclauses,nbtotalgood,precisionGood,recallGood,FGood,nbbadclause,nbtotalbad,precisionBad,recallBad,FBad,accuracy)
c additional predictionInitialLBD 18 2826679 1030802 0.36 0.99 0.53 351028 2146905 0.96 0.33 0.49 0.43 (nbgoodclauses,nbtotalgood,precisionGood,recallGood,FGood,nbbadclause,nbtotalbad,precisionBad,recallBad,FBad,accuracy)
c additional predictionInitialLBD 22 3052741 1030802 0.34 1.00 0.50 124966 2146905 0.99 0.12 0.21 0.36 (nbgoodclauses,nbtotalgood,precisionGood,recallGood,FGood,nbbadclause,nbtotalbad,precisionBad,recallBad,FBad,accuracy)
c additional predictionInitialLBD 30 3163250 1030802 0.33 1.00 0.49 14457 2146905 1.00 0.01 0.03 0.33 (nbgoodclauses,nbtotalgood,precisionGood,recallGood,FGood,nbbadclause,nbtotalbad,precisionBad,recallBad,FBad,accuracy)
c additional predictionInitialLBD 40 3176604 1030802 0.32 1.00 0.49 1103 2146905 1.00 0.00 0.00 0.32 (nbgoodclauses,nbtotalgood,precisionGood,recallGood,FGood,nbbadclause,nbtotalbad,precisionBad,recallBad,FBad,accuracy)
c additional predictionFinallLBD 1 39653 1030802 0.97 0.04 0.07 3138054 2146905 0.68 1.00 0.81 0.69 (nbgoodclauses,nbtotalgood,precisionGood,recallGood,FGood,nbbadclause,nbtotalbad,precisionBad,recallBad,FBad,accuracy)
c additional predictionFinallLBD 2 85441 1030802 0.94 0.08 0.14 3092266 2146905 0.69 1.00 0.82 0.70 (nbgoodclauses,nbtotalgood,precisionGood,recallGood,FGood,nbbadclause,nbtotalbad,precisionBad,recallBad,FBad,accuracy)
c additional predictionFinallLBD 3 131616 1030802 0.90 0.12 0.20 3046091 2146905 0.70 0.99 0.82 0.71 (nbgoodclauses,nbtotalgood,precisionGood,recallGood,FGood,nbbadclause,nbtotalbad,precisionBad,recallBad,FBad,accuracy)
c additional predictionFinallLBD 4 203157 1030802 0.82 0.16 0.27 2974550 2146905 0.71 0.98 0.82 0.72 (nbgoodclauses,nbtotalgood,precisionGood,recallGood,FGood,nbbadclause,nbtotalbad,precisionBad,recallBad,FBad,accuracy)
c additional predictionFinallLBD 5 318853 1030802 0.71 0.22 0.33 2858854 2146905 0.72 0.96 0.82 0.72 (nbgoodclauses,nbtotalgood,precisionGood,recallGood,FGood,nbbadclause,nbtotalbad,precisionBad,recallBad,FBad,accuracy)
c additional predictionFinallLBD 6 466819 1030802 0.64 0.29 0.40 2710888 2146905 0.73 0.92 0.81 0.72 (nbgoodclauses,nbtotalgood,precisionGood,recallGood,FGood,nbbadclause,nbtotalbad,precisionBad,recallBad,FBad,accuracy)
c additional predictionFinallLBD 7 649447 1030802 0.59 0.37 0.45 2528260 2146905 0.74 0.88 0.80 0.71 (nbgoodclauses,nbtotalgood,precisionGood,recallGood,FGood,nbbadclause,nbtotalbad,precisionBad,recallBad,FBad,accuracy)
c additional predictionFinallLBD 8 863827 1030802 0.55 0.46 0.50 2313880 2146905 0.76 0.82 0.79 0.70 (nbgoodclauses,nbtotalgood,precisionGood,recallGood,FGood,nbbadclause,nbtotalbad,precisionBad,recallBad,FBad,accuracy)
c additional predictionFinallLBD 10 1360327 1030802 0.49 0.65 0.56 1817380 2146905 0.80 0.68 0.74 0.67 (nbgoodclauses,nbtotalgood,precisionGood,recallGood,FGood,nbbadclause,nbtotalbad,precisionBad,recallBad,FBad,accuracy)
c additional predictionFinallLBD 14 2319310 1030802 0.41 0.92 0.56 858397 2146905 0.90 0.36 0.51 0.54 (nbgoodclauses,nbtotalgood,precisionGood,recallGood,FGood,nbbadclause,nbtotalbad,precisionBad,recallBad,FBad,accuracy)
c additional predictionFinallLBD 18 2855937 1030802 0.36 0.99 0.53 321770 2146905 0.97 0.15 0.25 0.42 (nbgoodclauses,nbtotalgood,precisionGood,recallGood,FGood,nbbadclause,nbtotalbad,precisionBad,recallBad,FBad,accuracy)
c additional predictionFinallLBD 22 3060815 1030802 0.34 1.00 0.50 116892 2146905 0.99 0.05 0.10 0.36 (nbgoodclauses,nbtotalgood,precisionGood,recallGood,FGood,nbbadclause,nbtotalbad,precisionBad,recallBad,FBad,accuracy)
c additional predictionFinallLBD 30 3164074 1030802 0.33 1.00 0.49 13633 2146905 1.00 0.01 0.01 0.33 (nbgoodclauses,nbtotalgood,precisionGood,recallGood,FGood,nbbadclause,nbtotalbad,precisionBad,recallBad,FBad,accuracy)
c additional predictionFinallLBD 40 3176668 1030802 0.32 1.00 0.49 1039 2146905 1.00 0.00 0.00 0.32 (nbgoodclauses,nbtotalgood,precisionGood,recallGood,FGood,nbbadclause,nbtotalbad,precisionBad,recallBad,FBad,accuracy)
c additional predictionSize 1 37 1030802 1.00 0.00 0.00 3177670 2146905 0.68 2.08 1.02 0.68 (nbgoodclauses,nbtotalgood,precisionGood,recallGood,FGood,nbbadclause,nbtotalbad,precisionBad,recallBad,FBad,accuracy)
c additional predictionSize 2 1097 1030802 0.99 0.00 0.00 3176610 2146905 0.68 2.08 1.02 0.68 (nbgoodclauses,nbtotalgood,precisionGood,recallGood,FGood,nbbadclause,nbtotalbad,precisionBad,recallBad,FBad,accuracy)
c additional predictionSize 3 26334 1030802 0.97 0.02 0.05 3151373 2146905 0.68 2.08 1.03 0.68 (nbgoodclauses,nbtotalgood,precisionGood,recallGood,FGood,nbbadclause,nbtotalbad,precisionBad,recallBad,FBad,accuracy)
c additional predictionSize 4 38439 1030802 0.93 0.03 0.07 3139268 2146905 0.68 2.08 1.03 0.69 (nbgoodclauses,nbtotalgood,precisionGood,recallGood,FGood,nbbadclause,nbtotalbad,precisionBad,recallBad,FBad,accuracy)
c additional predictionSize 5 66928 1030802 0.84 0.05 0.10 3110779 2146905 0.69 2.07 1.03 0.69 (nbgoodclauses,nbtotalgood,precisionGood,recallGood,FGood,nbbadclause,nbtotalbad,precisionBad,recallBad,FBad,accuracy)
c additional predictionSize 6 84284 1030802 0.81 0.07 0.12 3093423 2146905 0.69 2.07 1.03 0.69 (nbgoodclauses,nbtotalgood,precisionGood,recallGood,FGood,nbbadclause,nbtotalbad,precisionBad,recallBad,FBad,accuracy)
c additional predictionSize 7 104771 1030802 0.76 0.08 0.14 3072936 2146905 0.69 2.06 1.03 0.69 (nbgoodclauses,nbtotalgood,precisionGood,recallGood,FGood,nbbadclause,nbtotalbad,precisionBad,recallBad,FBad,accuracy)
c additional predictionSize 8 119445 1030802 0.73 0.08 0.15 3058262 2146905 0.69 2.05 1.03 0.69 (nbgoodclauses,nbtotalgood,precisionGood,recallGood,FGood,nbbadclause,nbtotalbad,precisionBad,recallBad,FBad,accuracy)
c additional predictionSize 10 153479 1030802 0.67 0.10 0.17 3024228 2146905 0.69 2.03 1.03 0.69 (nbgoodclauses,nbtotalgood,precisionGood,recallGood,FGood,nbbadclause,nbtotalbad,precisionBad,recallBad,FBad,accuracy)
c additional predictionSize 14 226478 1030802 0.59 0.13 0.21 2951229 2146905 0.70 1.99 1.03 0.69 (nbgoodclauses,nbtotalgood,precisionGood,recallGood,FGood,nbbadclause,nbtotalbad,precisionBad,recallBad,FBad,accuracy)
c additional predictionSize 18 299066 1030802 0.53 0.16 0.24 2878641 2146905 0.70 1.95 1.03 0.68 (nbgoodclauses,nbtotalgood,precisionGood,recallGood,FGood,nbbadclause,nbtotalbad,precisionBad,recallBad,FBad,accuracy)
c additional predictionSize 22 373259 1030802 0.49 0.18 0.26 2804448 2146905 0.70 1.90 1.02 0.67 (nbgoodclauses,nbtotalgood,precisionGood,recallGood,FGood,nbbadclause,nbtotalbad,precisionBad,recallBad,FBad,accuracy)
c additional predictionSize 30 520563 1030802 0.45 0.22 0.30 2657144 2146905 0.70 1.80 1.01 0.66 (nbgoodclauses,nbtotalgood,precisionGood,recallGood,FGood,nbbadclause,nbtotalbad,precisionBad,recallBad,FBad,accuracy)
c additional predictionSize 40 701012 1030802 0.41 0.28 0.33 2476695 2146905 0.70 1.68 0.99 0.64 (nbgoodclauses,nbtotalgood,precisionGood,recallGood,FGood,nbbadclause,nbtotalbad,precisionBad,recallBad,FBad,accuracy)
c additional predictionAge 1 40447 1030802 0.72 0.03 0.05 3137260 2146905 0.68 2.07 1.02 0.68 (nbgoodclauses,nbtotalgood,precisionGood,recallGood,FGood,nbbadclause,nbtotalbad,precisionBad,recallBad,FBad,accuracy)
c additional predictionAge 10 48959 1030802 0.64 0.03 0.06 3128748 2146905 0.68 2.07 1.02 0.68 (nbgoodclauses,nbtotalgood,precisionGood,recallGood,FGood,nbbadclause,nbtotalbad,precisionBad,recallBad,FBad,accuracy)
c additional predictionAge 25 56175 1030802 0.60 0.03 0.06 3121532 2146905 0.68 2.06 1.02 0.68 (nbgoodclauses,nbtotalgood,precisionGood,recallGood,FGood,nbbadclause,nbtotalbad,precisionBad,recallBad,FBad,accuracy)
c additional predictionAge 50 60864 1030802 0.57 0.03 0.06 3116843 2146905 0.68 2.06 1.02 0.68 (nbgoodclauses,nbtotalgood,precisionGood,recallGood,FGood,nbbadclause,nbtotalbad,precisionBad,recallBad,FBad,accuracy)
c additional predictionAge 100 66292 1030802 0.55 0.04 0.07 3111415 2146905 0.68 2.05 1.02 0.68 (nbgoodclauses,nbtotalgood,precisionGood,recallGood,FGood,nbbadclause,nbtotalbad,precisionBad,recallBad,FBad,accuracy)
c additional predictionAge 250 73489 1030802 0.52 0.04 0.07 3104218 2146905 0.68 2.05 1.02 0.68 (nbgoodclauses,nbtotalgood,precisionGood,recallGood,FGood,nbbadclause,nbtotalbad,precisionBad,recallBad,FBad,accuracy)
c additional predictionAge 500 78824 1030802 0.51 0.04 0.07 3098883 2146905 0.68 2.05 1.02 0.68 (nbgoodclauses,nbtotalgood,precisionGood,recallGood,FGood,nbbadclause,nbtotalbad,precisionBad,recallBad,FBad,accuracy)
c additional predictionAge 1000 83912 1030802 0.50 0.04 0.08 3093795 2146905 0.68 2.04 1.02 0.68 (nbgoodclauses,nbtotalgood,precisionGood,recallGood,FGood,nbbadclause,nbtotalbad,precisionBad,recallBad,FBad,accuracy)
c additional predictionAge 2500 91073 1030802 0.49 0.04 0.08 3086634 2146905 0.68 2.04 1.02 0.68 (nbgoodclauses,nbtotalgood,precisionGood,recallGood,FGood,nbbadclause,nbtotalbad,precisionBad,recallBad,FBad,accuracy)
c additional predictionAge 5000 97864 1030802 0.48 0.05 0.08 3079843 2146905 0.68 2.03 1.02 0.67 (nbgoodclauses,nbtotalgood,precisionGood,recallGood,FGood,nbbadclause,nbtotalbad,precisionBad,recallBad,FBad,accuracy)
c additional predictionAge 10000 106839 1030802 0.47 0.05 0.09 3070868 2146905 0.68 2.03 1.02 0.67 (nbgoodclauses,nbtotalgood,precisionGood,recallGood,FGood,nbbadclause,nbtotalbad,precisionBad,recallBad,FBad,accuracy)
c additional predictionAge 25000 128107 1030802 0.44 0.05 0.10 3049600 2146905 0.68 2.01 1.02 0.67 (nbgoodclauses,nbtotalgood,precisionGood,recallGood,FGood,nbbadclause,nbtotalbad,precisionBad,recallBad,FBad,accuracy)
c additional predictionAge 50000 159355 1030802 0.39 0.06 0.11 3018352 2146905 0.68 1.99 1.01 0.66 (nbgoodclauses,nbtotalgood,precisionGood,recallGood,FGood,nbbadclause,nbtotalbad,precisionBad,recallBad,FBad,accuracy)
c additional predictionAge 100000 216289 1030802 0.34 0.07 0.12 2961418 2146905 0.68 1.95 1.00 0.65 (nbgoodclauses,nbtotalgood,precisionGood,recallGood,FGood,nbbadclause,nbtotalbad,precisionBad,recallBad,FBad,accuracy)
c additional predictionTicks 1 40498 1030802 0.72 0.03 0.05 3137209 2146905 0.68 2.07 1.02 0.68 (nbgoodclauses,nbtotalgood,precisionGood,recallGood,FGood,nbbadclause,nbtotalbad,precisionBad,recallBad,FBad,accuracy)
c additional predictionTicks 10 137146 1030802 0.48 0.06 0.11 3040561 2146905 0.68 2.01 1.02 0.67 (nbgoodclauses,nbtotalgood,precisionGood,recallGood,FGood,nbbadclause,nbtotalbad,precisionBad,recallBad,FBad,accuracy)
c additional predictionTicks 25 216662 1030802 0.43 0.09 0.15 2961045 2146905 0.68 1.96 1.01 0.67 (nbgoodclauses,nbtotalgood,precisionGood,recallGood,FGood,nbbadclause,nbtotalbad,precisionBad,recallBad,FBad,accuracy)
c additional predictionTicks 50 294251 1030802 0.41 0.12 0.18 2883456 2146905 0.68 1.91 1.01 0.66 (nbgoodclauses,nbtotalgood,precisionGood,recallGood,FGood,nbbadclause,nbtotalbad,precisionBad,recallBad,FBad,accuracy)
c additional predictionTicks 100 401520 1030802 0.39 0.15 0.22 2776187 2146905 0.69 1.85 1.00 0.65 (nbgoodclauses,nbtotalgood,precisionGood,recallGood,FGood,nbbadclause,nbtotalbad,precisionBad,recallBad,FBad,accuracy)
c additional predictionTicks 250 569809 1030802 0.38 0.21 0.27 2607898 2146905 0.69 1.74 0.99 0.63 (nbgoodclauses,nbtotalgood,precisionGood,recallGood,FGood,nbbadclause,nbtotalbad,precisionBad,recallBad,FBad,accuracy)
c additional predictionTicks 500 724702 1030802 0.38 0.27 0.32 2453005 2146905 0.69 1.65 0.98 0.62 (nbgoodclauses,nbtotalgood,precisionGood,recallGood,FGood,nbbadclause,nbtotalbad,precisionBad,recallBad,FBad,accuracy)
c additional predictionTicks 1000 896784 1030802 0.38 0.33 0.35 2280923 2146905 0.70 1.54 0.96 0.61 (nbgoodclauses,nbtotalgood,precisionGood,recallGood,FGood,nbbadclause,nbtotalbad,precisionBad,recallBad,FBad,accuracy)
c additional predictionTicks 2500 1152515 1030802 0.38 0.43 0.40 2025192 2146905 0.71 1.39 0.94 0.59 (nbgoodclauses,nbtotalgood,precisionGood,recallGood,FGood,nbbadclause,nbtotalbad,precisionBad,recallBad,FBad,accuracy)
c additional predictionTicks 5000 1370639 1030802 0.38 0.51 0.44 1807068 2146905 0.72 1.26 0.92 0.57 (nbgoodclauses,nbtotalgood,precisionGood,recallGood,FGood,nbbadclause,nbtotalbad,precisionBad,recallBad,FBad,accuracy)
c additional predictionTicks 10000 1618576 1030802 0.38 0.59 0.46 1559131 2146905 0.73 1.10 0.88 0.55 (nbgoodclauses,nbtotalgood,precisionGood,recallGood,FGood,nbbadclause,nbtotalbad,precisionBad,recallBad,FBad,accuracy)
c additional predictionTicks 25000 2014716 1030802 0.36 0.71 0.48 1162991 2146905 0.74 0.84 0.78 0.50 (nbgoodclauses,nbtotalgood,precisionGood,recallGood,FGood,nbbadclause,nbtotalbad,precisionBad,recallBad,FBad,accuracy)
c additional predictionTicks 50000 2375107 1030802 0.35 0.80 0.48 802600 2146905 0.74 0.58 0.65 0.45 (nbgoodclauses,nbtotalgood,precisionGood,recallGood,FGood,nbbadclause,nbtotalbad,precisionBad,recallBad,FBad,accuracy)
c additional predictionTicks 100000 2732752 1030802 0.33 0.89 0.49 444955 2146905 0.74 0.32 0.44 0.39 (nbgoodclauses,nbtotalgood,precisionGood,recallGood,FGood,nbbadclause,nbtotalbad,precisionBad,recallBad,FBad,accuracy)
c additional lifetimeGood 1 4 180 12924 336429 1331444 2145442 2658939 2840174 3066898 3177558 3177691 (0,1,5,10,25,50,75,90,95,99,100-1,100)
c additional lifetimeBad 1 4 52 5696 196487 779586 1591749 2294384 2581116 3009528 3177756 3177775 (0,1,5,10,25,50,75,90,95,99,100-1,100)
c additional lifetimeBadBad 4 4 4 4 12 420 64651 334382 776992 1881001 3176229 3177109 (0,1,5,10,25,50,75,90,95,99,100-1,100)
c additional compositionBad 1 3 5 7 13 27 55 103 148 285 1513 1575 (0,1,5,10,25,50,75,90,95,99,100-1,100)
c additional compositionBadWithGood 0 0 1 2 5 11 24 45 64 128 724 838 (0,1,5,10,25,50,75,90,95,99,100-1,100)
c additional compositionBadWithBad 0 0 0 0 1 2 4 6 8 14 59 75 (0,1,5,10,25,50,75,90,95,99,100-1,100)
c additional compositionBadWithInitial 0 0 1 2 6 13 28 54 80 159 897 1162 (0,1,5,10,25,50,75,90,95,99,100-1,100)
c additional compositionGood 1 2 3 4 8 21 51 107 163 336 1452 1507 (0,1,5,10,25,50,75,90,95,99,100-1,100)
c additional compositionGoodWithGood 0 0 1 2 4 11 26 52 77 155 675 693 (0,1,5,10,25,50,75,90,95,99,100-1,100)
c additional compositionGoodWithInitial 0 0 1 2 4 9 24 55 87 195 1024 1039 (0,1,5,10,25,50,75,90,95,99,100-1,100)
c additional propagationGood total 306175113 percentiles 0 1 1 1 1 2 11 167 983 6956 155140 161640 (0,1,5,10,25,50,75,90,95,99,100-1,100)
c additional propagationBad total 14569271 percentiles 1 1 1 1 1 1 3 7 15 75 22000 22582 (0,1,5,10,25,50,75,90,95,99,100-1,100)
c additional resolutionGood total 47283019 percentiles 0 1 1 1 1 2 7 43 144 877 49548 64669 (0,1,5,10,25,50,75,90,95,99,100-1,100)
c additional resolutionBad total 5799069 percentiles 0 0 0 0 1 1 2 5 8 26 4066 6295 (0,1,5,10,25,50,75,90,95,99,100-1,100)
Computing K-Core for 3198348 clauses...
c building structure for KCore computation.
c the graph has 143208192 edges, maxdegree=1575
c we start the KCore with the value 20
c Non directed graph built
K=20,1053091 nodes removed so far
K=21,1122188 nodes removed so far
K=22,1188413 nodes removed so far
K=23,1253108 nodes removed so far
K=24,1314642 nodes removed so far
K=25,1374291 nodes removed so far
K=26,1431378 nodes removed so far
K=27,1486537 nodes removed so far
K=28,1538965 nodes removed so far
K=29,1589980 nodes removed so far
K=30,1638429 nodes removed so far
K=31,1685035 nodes removed so far
K=32,1729594 nodes removed so far
K=33,1772534 nodes removed so far
K=34,1813470 nodes removed so far
K=35,1852521 nodes removed so far
K=36,1890693 nodes removed so far
K=37,1927303 nodes removed so far
K=38,1962598 nodes removed so far
K=39,1996385 nodes removed so far
K=40,2028672 nodes removed so far
K=41,2059774 nodes removed so far
K=42,2089762 nodes removed so far
K=43,2118089 nodes removed so far
K=44,2145736 nodes removed so far
K=45,2172281 nodes removed so far
K=46,2198280 nodes removed so far
K=47,2223487 nodes removed so far
K=48,2247356 nodes removed so far
K=49,2270474 nodes removed so far
K=50,2292952 nodes removed so far
K=51,2314386 nodes removed so far
K=52,2335351 nodes removed so far
K=53,2355624 nodes removed so far
K=54,2375214 nodes removed so far
K=55,2394386 nodes removed so far
K=56,2413060 nodes removed so far
K=57,2430876 nodes removed so far
K=58,2448463 nodes removed so far
K=59,2465055 nodes removed so far
K=60,2481245 nodes removed so far
K=61,2496881 nodes removed so far
K=62,2512352 nodes removed so far
K=63,2527397 nodes removed so far
K=64,2541821 nodes removed so far
K=65,2555832 nodes removed so far
K=66,2569532 nodes removed so far
K=67,2582737 nodes removed so far
K=68,2595559 nodes removed so far
K=69,2608267 nodes removed so far
K=70,2620435 nodes removed so far
K=71,2631973 nodes removed so far
K=72,2643456 nodes removed so far
K=73,2654527 nodes removed so far
K=74,2665314 nodes removed so far
K=75,2675966 nodes removed so far
K=76,2686065 nodes removed so far
K=77,2696429 nodes removed so far
K=78,2706207 nodes removed so far
K=79,2715929 nodes removed so far
K=80,2725509 nodes removed so far
K=81,2734699 nodes removed so far
K=82,2743573 nodes removed so far
K=83,2752243 nodes removed so far
K=84,2760673 nodes removed so far
K=85,2768958 nodes removed so far
K=86,2776982 nodes removed so far
K=87,2784856 nodes removed so far
K=88,2792673 nodes removed so far
K=89,2800158 nodes removed so far
K=90,2807650 nodes removed so far
K=91,2814847 nodes removed so far
K=92,2821715 nodes removed so far
K=93,2828451 nodes removed so far
K=94,2835166 nodes removed so far
K=95,2841672 nodes removed so far
K=96,2847946 nodes removed so far
K=97,2854021 nodes removed so far
K=98,2860133 nodes removed so far
K=99,2866086 nodes removed so far
K=100,2871841 nodes removed so far
K=101,2877614 nodes removed so far
K=102,2883324 nodes removed so far
K=103,2888798 nodes removed so far
K=104,2894040 nodes removed so far
K=105,2899363 nodes removed so far
K=106,2904472 nodes removed so far
K=107,2909429 nodes removed so far
K=108,2914266 nodes removed so far
K=109,2919009 nodes removed so far
K=110,2923666 nodes removed so far
K=111,2928375 nodes removed so far
K=112,2932744 nodes removed so far
K=113,2937041 nodes removed so far
K=114,2941506 nodes removed so far
K=115,2945737 nodes removed so far
K=116,2949810 nodes removed so far
K=117,2953837 nodes removed so far
K=118,2957831 nodes removed so far
K=119,2961783 nodes removed so far
K=120,2965578 nodes removed so far
K=121,2969321 nodes removed so far
K=122,2973045 nodes removed so far
K=123,2976619 nodes removed so far
K=124,2980015 nodes removed so far
K=125,2983599 nodes removed so far
K=126,2987078 nodes removed so far
K=127,2990357 nodes removed so far
K=128,2993666 nodes removed so far
K=129,2996967 nodes removed so far
K=130,3000210 nodes removed so far
K=131,3003281 nodes removed so far
K=132,3006390 nodes removed so far
K=133,3009416 nodes removed so far
K=134,3012320 nodes removed so far
K=135,3015115 nodes removed so far
K=136,3018108 nodes removed so far
K=137,3020971 nodes removed so far
K=138,3023719 nodes removed so far
K=139,3026500 nodes removed so far
K=140,3029122 nodes removed so far
K=141,3031729 nodes removed so far
K=142,3034214 nodes removed so far
K=143,3036684 nodes removed so far
K=144,3039153 nodes removed so far
K=145,3041470 nodes removed so far
K=146,3043704 nodes removed so far
K=147,3045952 nodes removed so far
K=148,3048205 nodes removed so far
K=149,3050359 nodes removed so far
K=150,3052494 nodes removed so far
K=151,3054568 nodes removed so far
K=152,3056609 nodes removed so far
K=153,3058834 nodes removed so far
K=154,3060906 nodes removed so far
K=155,3063003 nodes removed so far
K=156,3065003 nodes removed so far
K=157,3067029 nodes removed so far
K=158,3068867 nodes removed so far
K=159,3070648 nodes removed so far
K=160,3072519 nodes removed so far
K=161,3074303 nodes removed so far
K=162,3076035 nodes removed so far
K=163,3077770 nodes removed so far
K=164,3079520 nodes removed so far
K=165,3081238 nodes removed so far
K=166,3082852 nodes removed so far
K=167,3084475 nodes removed so far
K=168,3086078 nodes removed so far
K=169,3087705 nodes removed so far
K=170,3089400 nodes removed so far
K=171,3090937 nodes removed so far
K=172,3092581 nodes removed so far
K=173,3094097 nodes removed so far
K=174,3095709 nodes removed so far
K=175,3097087 nodes removed so far
K=176,3098535 nodes removed so far
K=177,3099895 nodes removed so far
K=178,3101360 nodes removed so far
K=179,3102698 nodes removed so far
K=180,3103996 nodes removed so far
K=181,3105419 nodes removed so far
K=182,3106645 nodes removed so far
K=183,3107900 nodes removed so far
K=184,3109125 nodes removed so far
K=185,3110430 nodes removed so far
K=186,3111726 nodes removed so far
K=187,3112903 nodes removed so far
K=188,3114124 nodes removed so far
K=189,3115316 nodes removed so far
K=190,3116505 nodes removed so far
K=191,3117721 nodes removed so far
K=192,3118946 nodes removed so far
K=193,3120085 nodes removed so far
K=194,3121180 nodes removed so far
K=195,3122318 nodes removed so far
K=196,3123496 nodes removed so far
K=197,3124504 nodes removed so far
K=198,3125685 nodes removed so far
K=199,3126724 nodes removed so far
K=200,3127771 nodes removed so far
K=201,3128858 nodes removed so far
K=202,3129928 nodes removed so far
K=203,3130926 nodes removed so far
K=204,3131864 nodes removed so far
K=205,3133042 nodes removed so far
K=206,3134001 nodes removed so far
K=207,3134987 nodes removed so far
K=208,3136009 nodes removed so far
K=209,3137085 nodes removed so far
K=210,3138074 nodes removed so far
K=211,3138971 nodes removed so far
K=212,3139934 nodes removed so far
K=213,3140987 nodes removed so far
K=214,3142276 nodes removed so far
K=215,3143620 nodes removed so far
K=216,3144539 nodes removed so far
K=217,3145382 nodes removed so far
K=218,3146363 nodes removed so far
K=219,3147131 nodes removed so far
K=220,3147940 nodes removed so far
K=221,3148829 nodes removed so far
K=222,3149548 nodes removed so far
K=223,3150389 nodes removed so far
K=224,3151180 nodes removed so far
K=225,3151970 nodes removed so far
K=226,3152720 nodes removed so far
K=227,3153508 nodes removed so far
K=228,3154393 nodes removed so far
K=229,3155178 nodes removed so far
K=230,3155984 nodes removed so far
K=231,3156790 nodes removed so far
K=232,3157693 nodes removed so far
K=233,3158482 nodes removed so far
K=234,3159138 nodes removed so far
K=235,3159947 nodes removed so far
K=236,3160690 nodes removed so far
K=237,3161440 nodes removed so far
K=238,3162153 nodes removed so far
K=239,3162881 nodes removed so far
K=240,3163691 nodes removed so far
K=241,3164231 nodes removed so far
K=242,3164790 nodes removed so far
K=243,3165299 nodes removed so far
K=244,3166103 nodes removed so far
K=245,3166625 nodes removed so far
K=246,3167347 nodes removed so far
K=247,3168000 nodes removed so far
K=248,3168544 nodes removed so far
K=249,3169080 nodes removed so far
K=250,3169718 nodes removed so far
K=251,3170348 nodes removed so far
K=252,3170999 nodes removed so far
K=253,3171825 nodes removed so far
K=254,3172520 nodes removed so far
K=255,3173229 nodes removed so far
K=256,3173821 nodes removed so far
K=257,3174554 nodes removed so far
K=258,3174983 nodes removed so far
K=259,3175497 nodes removed so far
K=260,3175977 nodes removed so far
K=261,3176577 nodes removed so far
K=262,3177070 nodes removed so far
K=263,3177652 nodes removed so far
K=264,3178565 nodes removed so far
K=265,3179065 nodes removed so far
K=266,3179558 nodes removed so far
K=267,3180192 nodes removed so far
K=268,3181240 nodes removed so far
K=269,3183470 nodes removed so far
K=270,3183871 nodes removed so far
K=271,3184245 nodes removed so far
K=272,3184841 nodes removed so far
K=273,3185222 nodes removed so far
K=274,3186146 nodes removed so far
K=275,3187850 nodes removed so far
K=276,3194947 nodes removed so far
K=277,3194975 nodes removed so far
K=278,3195015 nodes removed so far
K=279,3195064 nodes removed so far
K=280,3195076 nodes removed so far
K=281,3195119 nodes removed so far
K=282,3195207 nodes removed so far
K=283,3195227 nodes removed so far
K=284,3195304 nodes removed so far
K=285,3195337 nodes removed so far
K=286,3195412 nodes removed so far
K=287,3195437 nodes removed so far
K=288,3195465 nodes removed so far
K=289,3195508 nodes removed so far
K=290,3195536 nodes removed so far
K=291,3195557 nodes removed so far
K=292,3195624 nodes removed so far
K=293,3195653 nodes removed so far
K=294,3195676 nodes removed so far
K=295,3195899 nodes removed so far
K=296,3195958 nodes removed so far
K=297,3195968 nodes removed so far
K=298,3196203 nodes removed so far
K=299,3196223 nodes removed so far
K=300,3196240 nodes removed so far
K=301,3196248 nodes removed so far
K=302,3196280 nodes removed so far
K=303,3196294 nodes removed so far
K=304,3196318 nodes removed so far
K=305,3196339 nodes removed so far
K=306,3196351 nodes removed so far
K=307,3196359 nodes removed so far
K=308,3196364 nodes removed so far
K=309,3196371 nodes removed so far
K=310,3196391 nodes removed so far
K=311,3196404 nodes removed so far
K=312,3196413 nodes removed so far
K=313,3196429 nodes removed so far
K=314,3196439 nodes removed so far
K=315,3196450 nodes removed so far
K=316,3196465 nodes removed so far
K=317,3196483 nodes removed so far
K=318,3196487 nodes removed so far
K=319,3196491 nodes removed so far
K=320,3196505 nodes removed so far
K=321,3196510 nodes removed so far
K=322,3196524 nodes removed so far
K=323,3196541 nodes removed so far
K=324,3196559 nodes removed so far
K=325,3196571 nodes removed so far
K=326,3196581 nodes removed so far
K=327,3196592 nodes removed so far
K=328,3196607 nodes removed so far
K=329,3196623 nodes removed so far
K=330,3196632 nodes removed so far
K=331,3196639 nodes removed so far
K=332,3196649 nodes removed so far
K=333,3196666 nodes removed so far
K=334,3196673 nodes removed so far
K=335,3196685 nodes removed so far
K=336,3196692 nodes removed so far
K=337,3196700 nodes removed so far
K=338,3196710 nodes removed so far
K=339,K=340,K=341,K=342,K=343,K=344,K=345,K=346,K=347,K=348,K=349,K=350,K=351,K=352,K=353,K=354,K=355,K=356,K=357,K=358,K=359,K=360,K=361,K=362,K=363,K=364,K=365,K=366,K=367,K=368,K=369,K=370,K=371,KCore = 371
Building structure for PR...
Computing PR...
Pageranking 2974319 nodes done in 18 iteration. cumulError=9.44798e-11
clause level 840 (Kante=1077, Kdesc=147152, core=0):-34 
clause level 8 (Kante=4, Kdesc=161168, core=3):157 
clause level 884 (Kante=1121, Kdesc=101451, core=1):-33 
clause level 1 (Kante=5, Kdesc=100346, core=1):56 -157 -152 
clause level 768 (Kante=1257, Kdesc=68527, core=1):1721 
clause level 7 (Kante=4, Kdesc=26599, core=3):1748 -3151 
clause level 12 (Kante=11, Kdesc=42206, core=3):1574 -1178 
clause level 6 (Kante=4, Kdesc=26252, core=0):1550 -1462 
clause level 7 (Kante=4, Kdesc=29132, core=3):1760 -2907 
clause level 4 (Kante=8, Kdesc=28680, core=2):149 -1493 -1481 
clause level 4 (Kante=3, Kdesc=25196, core=0):152 -151 -1493 
clause level 7 (Kante=4, Kdesc=21972, core=0):730 34 
clause level 962 (Kante=1317, Kdesc=23279, core=0):-238 
clause level 4 (Kante=4, Kdesc=18709, core=1):34 2119 
clause level 9 (Kante=8, Kdesc=14911, core=3):1562 -1326 -1316 
clause level 3 (Kante=8, Kdesc=19751, core=3):832 34 
clause level 5 (Kante=6, Kdesc=16719, core=3):34 2389 
clause level 4 (Kante=5, Kdesc=19221, core=1):1769 -3050 -1770 
clause level 3 (Kante=3, Kdesc=21273, core=3):674 34 
clause level 14 (Kante=3, Kdesc=20250, core=0):1608 -697 
clause level 843 (Kante=5, Kdesc=26141, core=0):80 33 -876 -257 -555 
clause level 7 (Kante=4, Kdesc=17182, core=1):1598 -851 
clause level 8 (Kante=2, Kdesc=17143, core=2):34 2315 
clause level 13 (Kante=4, Kdesc=10401, core=3):3139 -2897 -2907 
clause level 9 (Kante=2, Kdesc=13438, core=1):3137 -2927 
clause level 5 (Kante=6, Kdesc=19655, core=3):1770 34 
clause level 6 (Kante=7, Kdesc=9222, core=1):34 2147 
clause level 7 (Kante=5, Kdesc=16941, core=1):1700 -2088 -3199 -2060 
clause level 5 (Kante=7, Kdesc=13846, core=3):34 2365 
clause level 8 (Kante=2, Kdesc=13063, core=0):1544 -1505 
clause level 841 (Kante=10, Kdesc=19215, core=0):121 33 
clause level 6 (Kante=5, Kdesc=13190, core=3):784 34 
clause level 3 (Kante=6, Kdesc=11729, core=3):702 34 
clause level 8 (Kante=4, Kdesc=8976, core=3):3173 -2461 
clause level 5 (Kante=3, Kdesc=10697, core=0):91 -1608 -669 
clause level 10 (Kante=3, Kdesc=13971, core=1):127 -1188 -1574 
clause level 7 (Kante=3, Kdesc=11176, core=1):3117 -3109 
clause level 5 (Kante=3, Kdesc=10383, core=3):3151 -1151 
clause level 7 (Kante=4, Kdesc=12362, core=0):1606 -725 -730 
clause level 6 (Kante=4, Kdesc=9469, core=3):808 -2389 34 
clause level 8 (Kante=5, Kdesc=14487, core=3):33 151 
clause level 12 (Kante=3, Kdesc=10383, core=0):1596 -875 
clause level 885 (Kante=18, Kdesc=13338, core=1):1638 
clause level 9 (Kante=4, Kdesc=10268, core=1):1742 33 
clause level 7 (Kante=7, Kdesc=9027, core=0):3121 -3086 
clause level 8 (Kante=3, Kdesc=12095, core=0):3159 -2650 -2649 -2641 -2637 -2653 
clause level 8 (Kante=4, Kdesc=7544, core=1):3125 33 
clause level 11 (Kante=4, Kdesc=6108, core=2):1558 -1366 
clause level 7 (Kante=4, Kdesc=7034, core=0):3199 -2063 34 -2060 
clause level 7 (Kante=7, Kdesc=5341, core=2):139 -1326 
clause level 7 (Kante=3, Kdesc=5173, core=0):3147 -2807 
clause level 6 (Kante=13, Kdesc=7342, core=3):1564 -1285 -1288 -1298 
clause level 18 (Kante=8, Kdesc=4862, core=3):-3215 33 34 -1645 
clause level 11 (Kante=7, Kdesc=7019, core=3):34 24 -127 -1205 -1574 -1932 
clause level 6 (Kante=12, Kdesc=3960, core=3):34 2231 -339 -611 -528 
clause level 7 (Kante=8, Kdesc=4744, core=0):1582 34 -1060 -1072 
clause level 1 (Kante=3, Kdesc=3165, core=0):33 34 2259 
clause level 3 (Kante=2, Kdesc=4052, core=0):1036 34 -1031 
clause level 5 (Kante=4, Kdesc=3935, core=0):3135 -2939 -2947 -2948 -2949 
clause level 6 (Kante=3, Kdesc=3616, core=0):1542 -1522 -1518 
clause level 6 (Kante=8, Kdesc=3019, core=1):1570 -1225 -1226 -1215 
clause level 1018 (Kante=1239, Kdesc=600, core=0):280 -164 -646 -2071 -2099 -2113 -2211 -2233 -624 -1612 -2219 -632 -83 -610 -540 -1618 -2197 -2127 -2057 -346 -526 -484 -470 -3189 -1697 -1704 -326 -1917 -344 -1937 -1694 -328 -1935 
clause level 1060 (Kante=1208, Kdesc=275, core=0):-163 
clause level 1013 (Kante=1116, Kdesc=490, core=0):21 -164 -2057 -2071 -484 -470 -2099 -1618 -2113 -610 -646 -2211 -2233 -2219 -632 -624 -83 -526 -2127 -2197 -540 -346 -280 -326 -1937 -1694 -1704 -1917 -2451 -344 -328 -2703 -2739 -1122 -1158 -3189 -2463 -870 
clause level 928 (Kante=837, Kdesc=13, core=0):-280 -238 -414 -398 -2003 
clause level 1078 (Kante=666, Kdesc=2, core=0):-1656 -1015 171 -2598 
clause level 699 (Kante=1507, Kdesc=3, core=0):-1434 1681 1414 -656 1768 -1767 -1764 1411 -1410 
clause level 885 (Kante=456, Kdesc=34, core=0):169 1656 -2619 97 170 -2571 -1677 -113 -3161 -1734 -2276 -624 -3157 -1671 -2169 -596 -3191 -1614 -116 -1675 -2667 -2309 -2729 -2307 -668 -2584 -2683 -3187 -2265 -676 -2267 -2575 -738 -662 -666 -661 -2585 -680 -2290 -2248 -2323 -2247 -2261 -724 -1102 -1001 -689 -929 -2512 -594 -85 -1098 -1097 -1085 -703 -610 -2019 -432 -905 -2488 -2680 -722 -2251 -893 -970 -2500 -1817 -1090 -220 -2476 -1145 -1049 -2632 -675 -246 -1109 -2668 -908 -910 -1086 -580 -2587 2565 -917 -994 -1038 -990 
clause level 894 (Kante=820, Kdesc=1, core=0):-171 172 -1930 188 -325 -326 -1927 -1851 -271 -181 -1848 -433 -1819 -256 -1929 -1861 -1632 -1868 -270 -1867 -186 -1793 -182 -222 -1806 -177 -1634 -354 -1945 -2008 -417 -1992 -401 -2022 -449 -2038 -1686 -1871 -1669 179 164 -2233 -477 -2066 -482 -505 -463 -2080 -491 -2052 -2206 -2083 -2094 -251 -2139 -552 -566 -2211 -2237 -645 -1612 -2219 -632 -2239 -2220 -2164 -2194 -568 -2192 -1616 -2209 -646 -2155 -617 -589 -575 570 2157 -619 -379 -3189 -2169 -603 -3193 -2153 -86 -533 -519 -1810 -211 -1896 -337 -170 -1881 -1878 -303 -281 -1901 -1898 -283 -1876 -1814 -1788 -173 -187 -65 -1869 -1685 -420 -71 -404 -1971 -3205 -2393 -717 -2318 -2301 -2401 -716 -724 -2394 -2304 -2407 -763 -3177 97 -795 -2395 1718 -820 -1604 -731 -2034 -288 -1879 -306 -1899 -1600 -96 -630 -605 -652 -636 -602 -238 -2104 -517 -529 2045 -2057 -2108 -2122 -1838 -2105 -2208 -2178 -591 -2055 -2179 280 -138 -1122 -2923 -3153 -119 -2925 -1343 -2935 -183 -52 -1466 -1456 -1340 3138 -1344 -1354 -781 -3039 -3047 -184 -1045 -115 -2975 -1114 -1121 -1126 -2704 -1576 -2731 -1157 -1150 -3161 -1042 -2647 -1078 -2599 -1018 -2659 -122 -1158 -2695 -1586 -1066 -116 -1458 -2597 -2598 -968 -2463 -2467 945 -2501 840 -881 -2464 -2452 -908 -869 -910 -2503 -934 -920 -870 -964 -2451 -1591 -2556 -886 -3176 -2499 -918 -898 -922 -1722 -2524 -953 -970 -2536 -2515 -982 -107 -2549 -943 -2538 -937 -2526 -2525 2528 -109 1601 -2402 -811 -812 -2441 -577 -1635 -2195 -2018 -445 -429 -215 -448 -622 2213 -1974 -384 -368 -797 -438 -336 -2003 -1963 -422 -374 -42 -3203 -696 -367 -796 -2363 -2377 -1342 -2353 -276 -1845 -1170 -331 -800 -2715 -2716 -1134 -2707 -2752 -2751 -2181 -2007 -252 -272 -1991 -418 -1923 -1133 -402 -2011 -2027 -2009 -2921 -1957 -1924 -349 -332 -1942 -1941 -383 -1584 -330 221 -2021 -507 -480 -2081 -2095 -2067 -466 -512 -2082 -450 -484 -2053 -2068 -3155 2358 -809 -193 -1798 -225 -494 -1136 -1939 -798 787 -1940 -550 -564 -2025 -1002 -930 -2511 -2477 -2513 3179 -2347 -2583 -2563 -2561 -932 -2151 -26 -1922 -3187 2241 -2267 -682 -2631 -3133 -2137 -772 -1339 -348 -1628 788 -508 -434 -101 -1728 -1973 -2037 -1865 -1626 -440 -388 -465 -2623 -1588 -493 -580 -250 -454 -2717 -1958 -218 -85 -217 -1961 -1977 -398 -406 -3201 -2043 -1790 -1816 -1630 -1006 -2166 -578 -2165 -1993 -456 773 -1995 -67 -3209 -2261 -2247 -1098 -676 -2520 -2544 -1849 -382 -2035 -261 -241 -1917 -1918 -414 -1624 -1954 -363 -631 2101 -601 -2223 -2234 -2002 -411 -343 -344 -395 -1970 -1936 -264 -1692 -301 -254 -165 -1858 -167 -859 -850 -2430 -2041 -350 -496 -1703 -1937 -68 -1839 -596 -515 -2443 -940 -963 -941 -1592 -939 -2532 -3169 -2491 -961 -3163 -2581 -1000 2369 
clause level 887 (Kante=589, Kdesc=10, core=0):-426 -2713 280 -2683 -1126 -2707 -2719 -2695 -1578 -1114 -1162 -97 -2731 -2743 -1740 -1150 -122 -52 -1635 -26 -2752 -116 -3157 -1396 -2837 -2685 -1734 -2647 -2599 -2623 -1084 -2628 -2671 -1045 -1042 -113 -2997 -1176 -2797 -1766 -2977 -1024 188 -1356 -2601 -1066 -2589 -1080 -2620 -2619 -1090 -1054 -115 -2622 -1061 -1169 -1128 -1116 -1014 -1637 -2 -3214 -3 -1102 -2644 -1013 -596 -2183 -1614 -2635 -85 -946 -73 -2539 -958 -3167 -86 -1703 -1660 -48 -1679 -1677 -1636 -1659 -5 -740 -1763 
clause level 886 (Kante=399, Kdesc=70, core=0):-1656 -171 -280 -271 -1868 188 -251 -336 -1927 -1632 -433 -2038 -1945 -354 -449 -1686 -2008 -2022 -274 -1685 -254 -591 -577 -401 -1992 -1669 -1671 -594 -1993 -417 -404 -1653 -599 -301 -85 -2181 -1848 -281 -308 -602 -2188 279 -2704 -2740 -1157 -1121 -2741 -2705 -3088 -1507 -26 -3163 -1501 -1013 -1061 -2644 -2596 -2597 -2692 -1109 -2273 -3082 -1740 -1145 -2728 -1169 -2752 -2729 -1876 -1881 -2693 -1064 -1133 -1037 -2620 -2645 -2202 -630 -115 -2623 -1736 -1042 -3083 -1504 -1584 -2452 -1126 -2716 -869 -613 -5 -2301 -820 -122 -2717 -1000 -940 -1869 -2183 -1138 -716 -989 -2441 -2429 -2443 -582 -65 -1630 -2464 -881 -964 -1172 -2521 -992 -872 -1016 -2166 -2572 -845 -857 -2621 -2453 -2573 -1112 -1849 -2009 -420 -860 -1114 -848 -2455 
clause level 889 (Kante=455, Kdesc=26, core=0):19 -1637 -172 -2635 -1042 -1030 -115 -3161 -2647 -1078 -2659 -2601 -2685 -52 -3157 -1677 -1679 -26 -2977 -133 -1635 -1054 -145 171 -1012 -1169 -238 -50 -2752 -2611 -1063 -1133 -2716 -2701 -2713 -2717 -3155 -116 -1015 -2689 -2605 -3163 -5 -97 -280 -2671 -2493 -1763 -1733 -1132 -1636 -1740 -2719 -1158 -2739 -1150 -1576 -1546 -1468 -1766 -1090 -2634 -2598 -1051 -1008 -1138 -1020 -1157 -1739 -2755 -1734 -1102 -1024 -652 -2225 -2239 -86 -596 -1614 -1703 -946 -85 -2323 -738 -2539 -958 -3167 -109 188 -1659 279 -3049 -724 -48 -2703 -1122 -1013 -2740 -2623 -1061 -146 -2644 -2729 -2596 -1501 -2692 -1109 -1584 -3088 -6 -1121 -2273 -3082 -2917 -2997 -2597 -22 
clause level 888 (Kante=438, Kdesc=22, core=0):-1637 -2 -1172 -1157 -280 -2671 -1174 -1162 -1138 -1126 -1158 -2601 -655 -1150 -1169 -3 -172 -3214 -1679 -52 -122 -133 -2605 -1739 -1677 -2685 -2755 -145 -2739 -1090 -1740 -50 -97 -1102 -1734 -1636 -1635 -1468 -1546 -1763 -1766 -1080 -1681 -54 -238 -1008 -1012 -1020 -1024 -1054 -2635 -1066 -652 -2225 -2239 -86 -2183 -596 -1614 -1703 -73 -946 -85 -2323 -738 -2539 -958 -3167 -109 
clause level 890 (Kante=562, Kdesc=17, core=0):-2 -426 2740 -2751 -2965 -2739 -2659 -2599 -1734 -2601 -1736 -2611 -2937 -2945 -2955 1157 -1122 1121 -1170 -1158 -172 -280 -2837 -1104 -122 -115 -1578 -1090 -1080 -1110 -2727 -279 -2703 -171 2704 1061 -2605 -3157 -1584 -1102 -1026 -2635 -1016 -1054 -1012 -3161 -1064 -2655 -1066 -1074 -1046 -2597 -2627 -1128 -113 -1677 -2646 -2665 -2709 -2697 -2645 -1084 -1078 -2729 -2695 -2683 -2647 -2685 -740 -1637 -145 -1763 -1766 -54 -97 -3 -1681 -1636 -3214 -52 -1635 -652 -2225 -2239 -86 -2183 -596 -1614 -1703 -946 -85 -738 -2539 -958 -3167 -109 -2323 -48 -1659 
clause level 886 (Kante=468, Kdesc=34, core=0):-426 -1637 -3214 -2 -1636 -3 -655 53 -596 -2183 -2225 -172 -86 -1614 -738 -2635 -2323 -85 -946 -73 -2539 -958 -3167 -2239 31 -1649 -26 -1703 -1054 -1660 -48 -1066 
clause level 975 (Kante=1046, Kdesc=1, core=0):164 170 -2309 -2318 -2323 -738 -731 -717 -718 -732 -2317 -2034 -2303 188 -2304 -722 -2193 -631 -2220 -2169 -645 -2183 -576 -596 -3191 -582 172 -2194 -2164 -589 -575 -605 -619 -3189 -2234 -1739 -1121 -2704 -2755 -1157 -1174 -119 -2599 -122 -1734 -1851 -113 -624 -1614 -2585 -1102 -3187 -2574 -2267 -666 -680 -668 -724 -991 -979 -2265 -967 -594 -85 -3165 -1039 -2195 -2550 -610 -432 -2562 -994 -2251 -970 -1090 -220 -2683 -580 -2321 -2307 -417 -1918 -1929 -338 -429 -2022 -2008 -448 -2038 -1945 -449 -433 -1992 -401 -404 -356 -354 -430 -420 -2167 -2181 -2211 -44 -325 -343 -1936 -703 -689 -2290 -2276 -2512 -905 -917 -956 -2476 -2488 -2511 -3163 -591 -577 -2197 -1868 -1869 -65 -1788 -1634 -173 -1814 -1848 -1927 -2208 -1727 -3169 -893 -2500 -736 -918 -2489 -930 -2583 -2561 -929 -2584 -1730 -2549 -2526 -2525 -968 -1993 -2018 -2752 -2740 -2753 -2743 -1133 -2716 -1740 -1169 -2715 -1015 -2671 -2719 -1063 -1124 -2527 -2538 -2537 -1003 -1002 -1001 -67 -2253 -1004 -2177 -2655 -1074 -2611 -2598 -50 -2622 -1624 -620 -2178 -1612 -2634 -1025 -2741 -1028 -2646 -1051 -71 -2608 -1073 -1026 -1109 -2692 -2656 -1027 -2693 -2751 -1134 -2499 -2513 -2586 -2477 -682 -1172 -1145 -1052 -2609 -2166 -2163 -980 -590 -1170 -2728 -271 -251 -2717 -1849 -1580 -1706 -1787 -1789 -1791 -215 -218 -1813 -174 -2017 -2009 -622 
clause level 913 (Kante=769, Kdesc=2, core=0):-1637 -1145 -170 -188 -73 -238 -172 -1881 -1911 -1891 171 -208 -234 -1864 -1851 -1844 -1861 -246 -174 -1865 -256 -1813 -266 -220 -1871 -267 -247 -1814 -215 -173 -414 -1694 -1126 -1162 -3 -1133 -2752 -2716 -1030 -2659 -1078 -1169 -1063 -2717 -1015 -97 -1636 -54 -2634 -1740 -2598 -2646 -1051 -74 -1935 -415 -2647 -180 -250 -1817 -1845 -67 -1936 -2003 -1917 -814 -1618 -2113 -2127 -526 -540 -2523 -944 -954 -2535 -596 -86 -2715 -1066 -645 -624 -631 -2220 -638 -646 -2219 -632 -2183 -2197 -2239 -2233 -2237 -2211 -110 -824 -790 -836 -1600 -492 -2079 -2093 -2099 -506 -2057 -2071 -2526 -2538 -524 -1904 -1884 -2225 -95 -652 -1703 -85 -2323 -738 -2743 -22 -512 -484 -3197 -470 -1697 -1691 -2111 -3189 -636 -2234 -1704 -1134 -2751 -1018 -943 -1718 -98 -1715 -2395 -1384 -1076 -1716 -2753 -1003 -1612 -2599 -2181 -2167 -140 -1757 -137 -2955 -1394 -2975 -1374 -2371 -778 -3179 -1634 -1831 -309 -289 -20 -48 -2467 -3177 -1655 -1990 -1937 -2006 -1614 -83 -1054 -2635 -1739 -946 -968 -942 -982 -2511 -2561 -2583 -2585 -1004 -918 -2499 -2563 -1588 -1002 -930 -576 -575 -589 -1042 -2623 -1584 -1556 -3133 -1576 -115 -2164 -1073 -2033 -2017 -2027 -325 -326 -1728 -2527 -107 -1170 -2609 -1028 -1026 -343 -344 -399 -1653 -650 -396 -2001 -1602 -2405 -2383 -2586 -1918 -119 -2655 -955 -1578 -696 -718 -710 -2018 -956 -2209 -605 -619 -620 -2631 -731 -717 -732 -2193 -2177 -2163 -2195 -298 -886 -1805 -2223 -5 -1885 -1905 -547 -312 -2150 -561 -2136 -1632 -1136 -292 -1172 -122 -26 -178 -270 -440 -429 -432 -2034 -456 -468 163 280 -1987 -218 -1919 -328 -430 -398 -2043 -2169 -3203 -2587 -1791 -113 -2731 -1114 -2695 -2707 -1736 -2671 -1150 -1102 -2683 -1045 -1734 -116 -2597 -2991 -237 -164 -3153 -1580 -3157 -1146 -2981 -1626 -1785 -168 -276 -318 -1876 -3209 -281 -610 -572 -3191 -2069 -2097 -2055 -496 -538 -2083 -482 -491 -505 -2094 -1675 -874 -2549 -2551 -958 -980 -1590 -823 -736 -835 -2406 -716 -724 -688 -2304 -2307 -2318 -3075 -1490 -1677 -2539 -990 -989 -2628 -301 -2556 -2441 -858 -2427 -848 -846 -847 -859 -445 -2439 -2400 -515 -997 -850 -860 -992 -2520 -2524 -941 -2547 -2559 -978 -961 -973 -890 -2471 -2429 -857 -845 -2440 -2428 -2303 -2430 -2418 -2317 -817 -829 -2125 -474 -2080 -623 -411 -460 -1862 -412 -953 -1841 -446 -1787 -216 -2309 -2272 -2281 -2295 -2412 -699 -2314 -2300 -1896 -1788 -599 -606 -600 -2619 -2620 -1038 -1037 -2019 -2188 -2187 -2201 -2212 -2178 -510 -2173 -602 -608 -2194 -2207 -2208 -395 -2442 -2573 -1000 -949 -937 -2580 -2536 -2301 -2417 -2273 -1727 -2544 
clause level 891 (Kante=605, Kdesc=3, core=0):-237 3055 -1133 -426 -1054 -1126 -1157 -115 -1174 -1046 -1138 -280 -2647 171 -2659 -2635 -1066 -1736 -97 -1635 -1121 -1453 3049 3067 1488 3079 1512 1476 1468 1524 3103 -3122 -54 -22 -1637 -2752 -279 -2703 -2740 -2704 -2739 -2719 -2707 -1122 -3 -1677 -2960 -1397 -3005 -2965 -1417 -2920 -3020 -1424 -1437 -1404 -2955 -1384 -6 -1394 -3023 -1758 -2945 -1357 -2980 -2973 -1337 -1374 -1757 1500 31 -188 -3036 -140 -2985 -137 -3087 -3081 -1502 -172 -2239 -596 -2183 -2225 -652 -86 -1614 -738 -2323 -85 -2539 -958 -3167 -238 -1703 -1649 -2975 -3214 -20 -1016 -1018 -1014 2601 1128 1116 1008 1104 2661 2685 1020 -1556 -5 -363 -1969 -364 -170 1376 2589 -2870 -2875 -2880 -1304 -1264 -1284 -1042 -2840 -2860 -2760 -2780 -2825 -1217 -2800 -1204 -1237 2185 -1162 -1172 -2716 -3161 -2743 -2717 -2609 -1028 -2598 -2597 -1030 -1078 -50 164 816 -380 -814 -1718 -1674 740 766 2349 -2407 792 2373 2397 -1709 -830 -818 -46 -974 -943 -107 960 -109 -1590 -2535 -1676 936 -968 2493 -2526 -2549 -2525 2541 912 -930 2565 -950 -2519 -938 -2523 -1004 -1003 984 -992 2577 -2579 -3165 -2585 -2527 -2573 -2561 -994 -2586 -962 -2511 -954 -953 -2536 -2538 -944 -1588 -2587 -1730 -1727 -1722 -918 -2499 888 2469 -898 -922 840 -874 -870 -2439 2421 542 2101 -846 2445 -2427 -882 -2463 -2451 2129 
clause level 886 (Kante=524, Kdesc=3, core=0):1718 1656 188 -354 -356 -1626 -69 -327 -2359 -417 -448 172 446 -440 -414 -432 -456 -361 -164 -823 -1675 -336 -859 -524 -2209 -710 -886 -958 -631 -3209 -2195 -2539 -835 -2467 -1637 -246 -3167 -2443 -838 -826 163 -526 -266 -540 -1618 -2197 -2211 -2150 -2234 -2136 -2406 -512 -498 -561 -547 -1841 -1861 -645 -2220 -496 -538 -2111 -2113 -608 -622 -2127 -3197 -2085 -2057 -2055 -468 -510 -2097 -1785 -1901 -308 -325 -482 -2099 -1632 -2083 -1918 -1919 -2407 -2071 -1936 -168 -2069 -847 -2418 -2430 -1851 -1836 -1856 -1871 169 171 1873 -1881 -312 -1884 -285 -1690 -298 -289 -338 -1903 -318 -1927 -1904 -1929 -1883 -1630 -1885 -1891 -1911 -1686 -2383 
clause level 889 (Kante=612, Kdesc=2, core=0):-237 -2155 -848 -717 -2136 -1703 -2304 -731 -835 -1730 -2318 -338 -2537 -990 163 -946 -109 -886 -2234 -631 -645 -1918 -325 -343 -846 -2220 -1936 -858 -2150 -547 -1671 -874 -575 -619 -1612 -561 -97 -2194 -2164 -589 -605 -2211 -2427 -2195 -1685 -2178 -2187 -2201 -600 -1739 -2755 -1157 -1174 -1162 -1078 -122 -1121 -943 172 -2743 -2659 -1681 -2955 -1384 -137 -1374 -1675 -2945 -2965 -2740 -2704 -2406 -2439 -823 -2526 -2525 -1394 -1653 -42 -847 -859 -860 -2442 -2441 -2429 -2430 -1126 -1364 -1697 -2705 -838 -2538 -1000 -2418 -2208 -2571 -2619 -956 -1578 -1659 -1062 -346 -2209 -1014 -2467 -1073 -2656 -2608 -1025 -1160 -1038 -2595 -2975 -2443 -2018 -2741 -445 -622 -1076 -2034 -246 -266 -1841 -1861 -608 -1785 -308 -1632 -1919 -3209 -3193 -238 -65 -826 -2431 -958 -2407 -1624 -2527 -850 -624 -2419 -1937 -328 -404 -420 -2035 -173 -48 -429 -215 -1814 -218 -178 -1815 -2657 -1028 -955 -1993 -68 -448 -2080 646 -2079 -75 -496 -3197 -2093 -2097 -505 -2094 -492 -506 -2057 -411 -2083 -470 -491 -2129 -280 -484 -164 -540 -526 -546 -524 -1618 -486 -2125 -2101 -568 -2045 -606 -2157 -2161 -460 -2133 -596 -81 -2163 -576 -590 -85 -83 -570 -1614 -3189 -614 171 -2229 -2213 -626 -1704 -279 
clause level 1075 (Kante=915, Kdesc=23, core=0):237 
clause level 904 (Kante=633, Kdesc=4, core=0):41 -71 -1162 -164 -1126 -1578 -2443 -1935 -172 -6 171 -1635 -74 -188 -346 -3 -73 -2743 -343 -344 -1937 -1692 -415 -406 -1691 -1995 -1990 -1936 -2233 -1124 -1904 -1884 -1831 -2234 -267 -1817 -208 -247 -1805 -220 -568 -596 -2219 -631 -2223 -2225 -624 -2239 -638 -632 -652 -645 -646 -2220 -1704 -1703 -97 -22 -54 -2155 -2237 -1612 -86 -83 -2323 -399 -1885 -1905 -2057 -2071 -1698 -484 -470 -2099 -512 -524 -1618 -2111 -2113 -309 -312 -67 -2084 -3197 -838 -790 -814 -1600 -98 -48 -1917 -325 -326 -2006 -2183 -738 -85 -1384 -140 -1757 -137 -2955 -1394 -2975 -3133 -1170 -650 -1918 -1632 -109 -1718 -1758 -1374 -2419 -2395 -2371 -2407 -95 -1730 -2752 -1015 -1740 -1133 -2716 -1169 -2659 -1051 -1655 -1715 -3177 -778 -2741 -2526 -955 -2717 -1003 -1134 -2611 -1063 -1078 -1030 -1136 -2634 -2598 -2751 -1138 -2945 -1716 -2359 -1602 -722 -2383 -2586 -2753 -2646 -526 -1160 -2715 -289 -292 -1172 -122 -1018 -26 -1586 -1364 -2211 -2181 -2538 -1864 -1844 -3179 -943 -1653 -119 -177 -2167 -2197 -498 -554 -180 -234 -540 -2141 -2127 -250 -270 -1634 -548 -2149 -562 -2135 -1790 -772 -766 -422 -287 -688 -689 -288 -746 -690 -703 -704 -694 -280 -1899 -278 -1880 -1901 -1911 -1891 -1900 -1879 -1296 -2329 -2003 -2004 -414 -1919 -328 -163 -1953 -244 -276 -266 -246 -1862 -1865 -1861 -256 -2408 -2463 -2451 -882 -870 -320 -1837 -264 -168 -1851 -1791 -1845 -1785 -241 -3209 -1833 -261 -424 -1838 -824 -826 -238 -816 -836 -820 69 
clause level 889 (Kante=498, Kdesc=6, core=0):-2 -1636 -237 -1637 -1410 -2981 -1400 -2991 -279 172 -2739 -1150 -1090 -1018 -1025 -2608 -2656 -1073 -1121 -1114 -2704 -2627 -1046 2661 -2719 -2740 -1740 -2743 -113 -1028 1128 -2691 -1126 -2671 -122 -2703 -2683 -3157 -1122 -1158 -1102 -3155 -2752 -1677 -2635 -1734 -1038 -1054 -280 31 -3 -1649 -1337 -2960 -97 -3005 -1437 -1357 -2945 -2920 3103 -1453 3079 1524 1512 3067 1488 3091 3055 3049 1476 1500 1468 -3036 -1417 -1397 740 -1404 -22 -238 -3039 -1244 -922 -526 -20 171 2349 -1344 -1133 -2716 -2659 -1078 -1066 792 2373 -1162 -2646 -2645 1376 -1635 188 -2595 2601 -2647 -2965 -1424 -6 -2980 1116 1008 2697 2709 2589 -3214 -2692 -1026 -1030 -2655 -1074 -2607 -1157 -1138 2129 -2611 -50 -2751 -1169 712 -2729 -1287 -1673 -1294 -728 1104 2185 -2597 -2598 -1027 912 2685 1020 -3122 -1543 -1502 -3087 -2825 -2800 1196 1296 -2840 -1177 -2860 2325 -2760 -1304 -2870 -2805 
clause level 887 (Kante=516, Kdesc=11, core=0):-426 -655 -1660 1488 -188 -1453 1476 1468 1524 3103 3067 1512 3091 3049 -3036 -1397 -2985 -1384 -140 -3005 -3023 -1417 -1414 3055 -145 -1437 -1757 -137 -1543 425 -3095 -2960 -280 -279 -3087 -3081 -1502 -1637 -52 -2 3079 -2955 -2962 -172 -2239 -596 -2183 -2225 -652 -86 -1614 -738 -2635 -2323 -85 -946 -73 -2539 -958 -3167 -3 -238 -1703 -1054 31 -48 -1066 -1649 -2995 -2975 -1394 -3214 -1636 -1244 -20 21 -54 -22 -1635 
clause level 892 (Kante=594, Kdesc=10, core=0):21 -2623 -426 -2739 -280 -115 -1158 -2685 -116 -2659 -1066 -1736 -171 -2589 -2601 -2611 1157 -1122 1121 -1170 -172 -2837 -122 -1578 -1110 -2727 -279 -2703 2704 1061 -2751 -2689 -3157 -1584 -1026 -2635 -1016 -1054 -1012 -3161 -2593 -1064 -2655 -1074 -1046 -2597 -2627 -1128 -1679 -2646 -2709 -2697 -2645 2608 -2701 -2715 -188 -52 -652 -2225 -2239 -86 -2183 -596 -1614 -1703 -946 -85 -2323 -738 -2539 -958 -3167 -48 -109 -97 -1635 -1766 -912 -1637 -3 -145 -1636 -3214 -1681 -54 -1763 -1468 -1673 -1697 -22 -1655 -1116 1656 -1042 -1052 -1014 -2607 -2621 -2619 -1038 -2595 -1008 -1586 -1020 -1556 -3133 -50 -1146 -170 -2977 -2633 2740 -237 -238 -1015 -2957 -2965 -1384 -1364 -2937 -2945 -2955 -1356 -1374 -740 -1546 -3049 -26 
Found 518 good successive clauses in order (433 originals, maxlevel=1078)
c KCorePR 3198348 371 518 433 1078
c DistanceTo...Unseen 35913
c DistanceToGoodKCore c   DIST 0: 518 (+518) / 518 (+518)
c   DIST 1: 1170514 (+1169996) / 414150 (+413632)
c   DIST 2: 2573580 (+1403066) / 943872 (+529722)
c   DIST 3: 3019645 (+446065) / 1038702 (+94830)
c   DIST 4: 3125401 (+105756) / 1049929 (+11227)
c   DIST 5: 3150482 (+25081) / 1051018 (+1089)
c   DIST 6: 3157900 (+7418) / 1051142 (+124)
c   DIST 7: 3160640 (+2740) / 1051178 (+36)
c   DIST 8: 3161722 (+1082) / 1051184 (+6)
c   DIST 9: 3162157 (+435) / 1051185 (+1)
c   DIST 10: 3162335 (+178) / 1051186 (+1)
c   DIST 11: 3162396 (+61) / 1051186 (+0)
c   DIST 12: 3162415 (+19) / 1051186 (+0)
c   DIST 13: 3162430 (+15) / 1051186 (+0)
c   DIST 14: 3162434 (+4) / 1051186 (+0)
c   DIST 15: 3162435 (+1) / 1051186 (+0)
c TotalDistance=3198348
No graph is dumped
c result of core 2 is UNSAT
c One thread has finished
c Core 2 said it finished
c result of core 0 is UNKNOWN
c result of core 1 is UNKNOWN
c result of core 3 is UNKNOWN
c restarts              : 2099 (378 conflicts in avg)
c blocked restarts      : 2222 (multiple: 430) 
c last block at restart : 2099
c nb ReduceDB           : 23
c nb removed Clauses    : 712028
c nb learnts DL2        : 2091
c nb learnts size 2     : 299
c nb learnts size 1     : 16
c conflicts             : 794427         (161 /sec)
c decisions             : 1272753        (0.00 % random) (257 /sec)
c propagations          : 192103015      (38865 /sec)
c conflict literals     : 147525392      (3.99 % deleted)
c nb reduced Clauses    : 4438
c CPU time              : 4942.85 s

s INDETERMINATE
