c
c This is glucose-proof 1.0 based on  2.1 --  (thanks to MiniSAT)
c
c EXPERIMENTAL EASY PARALLEL (ROUND ROBIN) VERSION
c
c WARNING: for repeatability, setting FPU to use double precision
c Parallel version 6 solvers created.
c ========================================[ Problem Statistics ]===========================================
c |                                                                                                       |
c |  Number of variables:         23407                                                                   |
c |  Number of clauses:          135139                                                                   |
c |  Parse time:                   0.27 s                                                                 |
c |                                                                                                       |
c ========================================[ MAGIC CONSTANTS ]==============================================
c | Constants are supposed to work well together :-)                                                      |
c | however, if you find better choices, please let us known...                                           |
c |-------------------------------------------------------------------------------------------------------|
c |                                |                                |                                     |
c | - Restarts:                    | - Reduce Clause DB:            | - Minimize Asserting:               |
c |   * LBD Queue    :     50      |   * First     :   4000         |    * size <  30                     |
c |   * Trail  Queue :   5000      |   * Inc       :    300         |    * lbd  <   6                     |
c |   * K            :   0.80      |   * Special   :   1000         |                                     |
c |   * R            :   1.40      |   * Protected :  (lbd)< 30     |                                     |
c |                                |                                |                                     |
c ==================================[ Search Statistics (every  10000 conflicts) ]=========================
c |                                                                                                       |
c |          RESTARTS           |          ORIGINAL         |              LEARNT              | Progress |
c |       NB   Blocked  Avg Cfc |    Vars  Clauses Literals |   Red   Learnts    LBD2  Removed |          |
c =========================================================================================================
c |       51         0      196 |   23230   135139   456442 |     1     7991     1223     5903 |  0.756 % |
c |      108        85      185 |   23181   135139   456442 |     2    13715     2031    16669 |  0.966 % |
c |      163       153      184 |   23167   135139   456442 |     3    15481     2596    32192 |  1.025 % |
c |      225       222      177 |   23147   135139   456442 |     4    14988     3137    48553 |  1.111 % |
c |      283       300      176 |   23094   135139   456442 |     4    24954     3551    48553 |  1.337 % |
c |      363       362      165 |   23089   135139   456442 |     5    19476     3868    69610 |  1.359 % |
c |      424       416      165 |   23081   135139   456442 |     5    29452     4193    69610 |  1.393 % |
c |      471       470      169 |   23051   135139   456442 |     6    22362     4464    90702 |  1.521 % |
c |      543       533      165 |   23033   135139   456442 |     6    32168     4696    90702 |  1.598 % |
c |      617       594      162 |   23009   135139   456442 |     6    42108     4901    90702 |  1.700 % |
c |      688       649      159 |   22998   135139   456442 |     7    29523     5077   117358 |  1.747 % |
c |      766       706      156 |   22911   135139   456442 |     7    39383     5300   117358 |  2.119 % |
c |      844       754      154 |   22876   135139   456442 |     8    26543     5473   143679 |  2.269 % |
c |      913       814      153 |   22865   135139   456442 |     8    36496     5654   143679 |  2.316 % |
c |      975       874      153 |   22834   135139   456442 |     8    46461     5832   143679 |  2.448 % |
c |     1046       932      152 |   22816   135139   456442 |     9    31613     5979   171717 |  2.525 % |
c |     1088       976      156 |   22813   135139   456442 |     9    41591     6137   171717 |  2.538 % |
c |     1154      1036      155 |   22785   135139   456442 |     9    51581     6248   171717 |  2.657 % |
c |     1217      1088      156 |   22727   135139   456442 |    10    35010     6370   201092 |  2.905 % |
c |     1281      1149      156 |   22718   135139   456442 |    10    44970     6480   201092 |  2.944 % |
c |     1360      1191      154 |   22686   135139   456442 |    10    54866     6570   201092 |  3.080 % |
c |     1423      1270      154 |   22676   135139   456442 |    10    64732     6660   201092 |  3.123 % |
c |     1480      1321      155 |   22676   135139   456442 |    11    44666     6752   234321 |  3.123 % |
c |     1529      1398      156 |   22636   135139   456442 |    11    54487     6883   234321 |  3.294 % |
c |     1585      1463      157 |   22635   135139   456442 |    11    64478     6963   234321 |  3.298 % |
c |     1648      1514      157 |   22617   135139   456442 |    12    42573     7017   268796 |  3.375 % |
c |     1703      1584      158 |   22580   135139   456442 |    12    52522     7089   268796 |  3.533 % |
c |     1755      1646      159 |   22529   135139   456442 |    12    62327     7164   268796 |  3.751 % |
c |     1810      1700      160 |   22527   135139   456442 |    12    72315     7244   268796 |  3.760 % |
c |     1874      1744      160 |   22519   135139   456442 |    13    47645     7326   305815 |  3.794 % |
c |     1933      1800      160 |   22492   135139   456442 |    13    57553     7376   305815 |  3.909 % |
c |     1983      1848      161 |   22423   135139   456442 |    13    67089     7439   305815 |  4.204 % |
c |     2036      1912      162 |   22410   135139   456442 |    13    77079     7496   305815 |  4.260 % |
c |     2081      1992      163 |   22398   135139   456442 |    14    49677     7578   345459 |  4.311 % |
c |     2135      2036      163 |   22395   135139   456442 |    14    59476     7633   345459 |  4.323 % |
c |     2177      2095      165 |   22366   135139   456442 |    14    68742     7694   345459 |  4.447 % |
c |     2241      2148      165 |   22364   135139   456442 |    14    78561     7767   345459 |  4.456 % |
c |     2301      2217      165 |   22362   135139   456442 |    15    49512     7825   386230 |  4.465 % |
c |     2371      2273      164 |   22334   135139   456442 |    15    58705     7884   386230 |  4.584 % |
c |     2434      2340      164 |   22329   135139   456442 |    15    68605     7948   386230 |  4.605 % |
c |     2509      2415      163 |   22328   135139   456442 |    15    78604     8004   386230 |  4.610 % |
c |     2562      2461      163 |   22326   135139   456442 |    15    88603     8040   386230 |  4.618 % |
c |     2616      2512      164 |   22317   135139   456442 |    16    56819     8099   429599 |  4.657 % |
c |     2669      2561      164 |   22313   135139   456442 |    16    66724     8136   429599 |  4.674 % |
c |     2727      2643      165 |   22304   135139   456442 |    16    76703     8172   429599 |  4.712 % |
c |     2782      2723      165 |   22303   135139   456442 |    16    86597     8203   429599 |  4.717 % |
c |     2839      2791      165 |   22294   135139   456442 |    16    96544     8251   429599 |  4.755 % |
c |     2915      2855      164 |   22288   135139   456442 |    17    61503     8283   475890 |  4.781 % |
c |     2967      2891      165 |   22284   135139   456442 |    17    70464     8314   475890 |  4.798 % |
c |     3036      2938      164 |   22274   135139   456442 |    17    80416     8355   475890 |  4.840 % |
c |     3098      3007      164 |   22244   135139   456442 |    17    89732     8378   475890 |  4.969 % |
c |     3148      3066      165 |   21784   135139   456442 |    17    99732     8418   475890 |  6.934 % |
c |     3217      3151      164 |   21719   135139   456442 |    18    58773     8463   514296 |  7.212 % |
c empty clause found by core 4 at conflict 539965
*
c checking the resolution graph...