c
c This is glucose-proof 1.0 based on  2.1 --  (thanks to MiniSAT)
c
c EXPERIMENTAL EASY PARALLEL (ROUND ROBIN) VERSION
c
c WARNING: for repeatability, setting FPU to use double precision
c Parallel version 4 solvers created.
c ========================================[ Problem Statistics ]===========================================
c |                                                                                                       |
c |  Number of variables:         61909                                                                   |
c |  Number of clauses:          404240                                                                   |
c |  Parse time:                   0.78 s                                                                 |
c |                                                                                                       |
c ========================================[ MAGIC CONSTANTS ]==============================================
c | Constants are supposed to work well together :-)                                                      |
c | however, if you find better choices, please let us known...                                           |
c |-------------------------------------------------------------------------------------------------------|
c |                                |                                |                                     |
c | - Restarts:                    | - Reduce Clause DB:            | - Minimize Asserting:               |
c |   * LBD Queue    :     50      |   * First     :   4000         |    * size <  30                     |
c |   * Trail  Queue :   5000      |   * Inc       :    300         |    * lbd  <   6                     |
c |   * K            :   0.80      |   * Special   :   1000         |                                     |
c |   * R            :   1.40      |   * Protected :  (lbd)< 30     |                                     |
c |                                |                                |                                     |
c ==================================[ Search Statistics (every  10000 conflicts) ]=========================
c |                                                                                                       |
c |          RESTARTS           |          ORIGINAL         |              LEARNT              | Progress |
c |       NB   Blocked  Avg Cfc |    Vars  Clauses Literals |   Red   Learnts    LBD2  Removed |          |
c =========================================================================================================
c |       29         0      344 |   61429   404240  1266187 |     1     7995     1466     4033 |  0.775 % |
c |       62        47      322 |   61416   404240  1266187 |     2    13693     2581    12163 |  0.796 % |
c |      115       120      260 |   61394   404240  1266187 |     3    15481     3439    25391 |  0.832 % |
c |      152       193      263 |   61325   404240  1266187 |     4    12945     4243    43274 |  0.943 % |
c |      178       250      280 |   61205   404240  1266187 |     4    22925     5165    43274 |  1.137 % |
c |      218       316      275 |   60860   404240  1266187 |     4    32724     5877    43274 |  1.694 % |
c |      260       376      269 |   60480   404240  1266187 |     5    25491     6459    65586 |  2.308 % |
c |      297       434      269 |   60424   404240  1266187 |     5    35478     6991    65586 |  2.399 % |
c |      364       479      247 |   60354   404240  1266187 |     6    25449     7519    89331 |  2.512 % |
c |      434       534      230 |   60293   404240  1266187 |     6    35335     7991    89331 |  2.610 % |
c |      483       597      227 |   60280   404240  1266187 |     6    45332     8295    89331 |  2.631 % |
c |      531       668      225 |   60272   404240  1266187 |     7    31347     8601   115895 |  2.644 % |
c |      588       731      221 |   60263   404240  1266187 |     7    41344     8962   115895 |  2.659 % |
c |      654       775      214 |   60252   404240  1266187 |     7    51331     9253   115895 |  2.677 % |
c |      741       818      202 |   60212   404240  1266187 |     7    61288     9501   115895 |  2.741 % |
c |      813       886      196 |   60208   404240  1266187 |     8    42821     9733   146461 |  2.748 % |
c |      892       941      190 |   60197   404240  1266187 |     8    52792     9988   146461 |  2.765 % |
c |      974       989      184 |   60194   404240  1266187 |     8    62792    10127   146461 |  2.770 % |
c |     1041      1053      182 |   60127   404240  1266187 |     8    72776    10290   146461 |  2.878 % |
c |     1112      1115      179 |   60103   404240  1266187 |     9    49725    10441   180952 |  2.917 % |
c |     1190      1181      176 |   60019   404240  1266187 |     9    59693    10603   180952 |  3.053 % |
c |     1280      1231      171 |   60013   404240  1266187 |     9    69692    10722   180952 |  3.063 % |
c |     1350      1278      170 |   60008   404240  1266187 |     9    79689    10815   180952 |  3.071 % |
c |     1410      1364      170 |   59909   404240  1266187 |    10    51548    10927   220165 |  3.231 % |
c empty clause found by core 2 at conflict 241598
*
c checking the resolution graph...OK
c All useful bySize 429578 clauses, percentiles 0 2 2 2 3 8 35 103 166 312 887 931 (0,1,5,10,25,50,75,90,95,99,100-1,100)
c All useless bySize 941792 clauses, percentiles 0 2 2 2 4 18 70 163 244 446 1231 1268 (0,1,5,10,25,50,75,90,95,99,100-1,100)
c ProofOnly useful bySize 306970 clauses, percentiles 0 2 3 4 7 17 57 132 196 341 887 931 (0,1,5,10,25,50,75,90,95,99,100-1,100)
c ProofOnly useless bySize 659421 clauses, percentiles 1 3 6 8 16 42 103 204 287 492 1231 1268 (0,1,5,10,25,50,75,90,95,99,100-1,100)
c All useful byFinalLBD 429578 clauses, percentiles 0 1 1 1 2 3 5 8 10 14 42 47 (0,1,5,10,25,50,75,90,95,99,100-1,100)
c All useless byFinalLBD 941792 clauses, percentiles 0 2 2 2 3 5 9 13 17 24 129 129 (0,1,5,10,25,50,75,90,95,99,100-1,100)
c ProofOnly useful byFinalLBD 306970 clauses, percentiles 0 1 1 1 2 3 6 9 11 15 42 47 (0,1,5,10,25,50,75,90,95,99,100-1,100)
c ProofOnly useless byFinalLBD 659421 clauses, percentiles 1 1 3 3 5 7 11 15 18 26 129 129 (0,1,5,10,25,50,75,90,95,99,100-1,100)
c All useful byInitialLBD 429578 clauses, percentiles 0 2 2 2 3 4 7 9 11 15 47 47 (0,1,5,10,25,50,75,90,95,99,100-1,100)
c All useless byInitialLBD 941792 clauses, percentiles 0 2 2 2 3 6 10 14 17 25 129 129 (0,1,5,10,25,50,75,90,95,99,100-1,100)
c ProofOnly useful byInitialLBD 306970 clauses, percentiles 0 2 2 2 3 5 7 10 12 16 47 47 (0,1,5,10,25,50,75,90,95,99,100-1,100)
c ProofOnly useless byInitialLBD 659421 clauses, percentiles 1 2 3 4 5 8 11 15 19 27 129 129 (0,1,5,10,25,50,75,90,95,99,100-1,100)
c Literals ProofOnly useful 14588530
c Literals ProofOnly useless 53021142
c additional windowsGood 1 1 1 1 1 1 2 3 3 5 77 111 (0,1,5,10,25,50,75,90,95,99,100-1,100)
c additional windowsBad 1 1 1 1 1 2 3 7 10 19 122 151 (0,1,5,10,25,50,75,90,95,99,100-1,100)
c additional 1WindowNoDecision 142865 69361 0.49 72277 28480 0.39 (nbWindowsGood,nbWindowsNoDecisionGood,nbWindowsBad,nbWindowsNoDecisionBad
c additional topclausessize all (10%,5%,1%,top) 192.82 255.66 395.70 931
c additional topclausessize proofonly (10%,5%,1%,top) 206.72 269.51 408.51 931
c additional topclausesinitialLBD all (10%,5%,1%,top) 165.68 227.97 369.95 931
c additional topclausesinitialLBD proofonly (10%,5%,1%,top) 145.51 206.72 350.00 931
c additional topclausesfinalLBD all (10%,5%,1%,top) 124.17 183.69 327.96 931
c additional topclausesfinalLBD proofonly (10%,5%,1%,top) 112.21 170.42 314.89 931
c additional predictionInitialLBD 1 249 306970 0.84 0.00 0.00 966142 659421 0.68 2.15 1.04 0.68 (nbgoodclauses,nbtotalgood,precisionGood,recallGood,FGood,nbbadclause,nbtotalbad,precisionBad,recallBad,FBad,accuracy)
c additional predictionInitialLBD 2 43105 306970 0.78 0.11 0.19 923286 659421 0.70 2.12 1.06 0.71 (nbgoodclauses,nbtotalgood,precisionGood,recallGood,FGood,nbbadclause,nbtotalbad,precisionBad,recallBad,FBad,accuracy)
c additional predictionInitialLBD 3 132581 306970 0.64 0.28 0.39 833810 659421 0.73 1.99 1.07 0.72 (nbgoodclauses,nbtotalgood,precisionGood,recallGood,FGood,nbbadclause,nbtotalbad,precisionBad,recallBad,FBad,accuracy)
c additional predictionInitialLBD 4 242459 306970 0.54 0.42 0.47 723932 659421 0.76 1.78 1.06 0.70 (nbgoodclauses,nbtotalgood,precisionGood,recallGood,FGood,nbbadclause,nbtotalbad,precisionBad,recallBad,FBad,accuracy)
c additional predictionInitialLBD 5 352721 306970 0.48 0.55 0.52 613670 659421 0.78 1.55 1.04 0.67 (nbgoodclauses,nbtotalgood,precisionGood,recallGood,FGood,nbbadclause,nbtotalbad,precisionBad,recallBad,FBad,accuracy)
c additional predictionInitialLBD 6 452913 306970 0.45 0.66 0.53 513478 659421 0.80 1.33 1.00 0.63 (nbgoodclauses,nbtotalgood,precisionGood,recallGood,FGood,nbbadclause,nbtotalbad,precisionBad,recallBad,FBad,accuracy)
c additional predictionInitialLBD 7 544567 306970 0.42 0.75 0.54 421824 659421 0.82 1.13 0.95 0.60 (nbgoodclauses,nbtotalgood,precisionGood,recallGood,FGood,nbbadclause,nbtotalbad,precisionBad,recallBad,FBad,accuracy)
c additional predictionInitialLBD 8 623764 306970 0.40 0.82 0.54 342627 659421 0.84 0.94 0.89 0.56 (nbgoodclauses,nbtotalgood,precisionGood,recallGood,FGood,nbbadclause,nbtotalbad,precisionBad,recallBad,FBad,accuracy)
c additional predictionInitialLBD 10 745958 306970 0.38 0.91 0.53 220433 659421 0.88 0.63 0.73 0.49 (nbgoodclauses,nbtotalgood,precisionGood,recallGood,FGood,nbbadclause,nbtotalbad,precisionBad,recallBad,FBad,accuracy)
c additional predictionInitialLBD 14 878366 306970 0.34 0.98 0.51 88025 659421 0.93 0.27 0.42 0.40 (nbgoodclauses,nbtotalgood,precisionGood,recallGood,FGood,nbbadclause,nbtotalbad,precisionBad,recallBad,FBad,accuracy)
c additional predictionInitialLBD 18 930885 306970 0.33 1.00 0.49 35506 659421 0.96 0.11 0.20 0.35 (nbgoodclauses,nbtotalgood,precisionGood,recallGood,FGood,nbbadclause,nbtotalbad,precisionBad,recallBad,FBad,accuracy)
c additional predictionInitialLBD 22 951032 306970 0.32 1.00 0.49 15359 659421 0.97 0.05 0.09 0.33 (nbgoodclauses,nbtotalgood,precisionGood,recallGood,FGood,nbbadclause,nbtotalbad,precisionBad,recallBad,FBad,accuracy)
c additional predictionInitialLBD 30 962898 306970 0.32 1.00 0.48 3493 659421 0.98 0.01 0.02 0.32 (nbgoodclauses,nbtotalgood,precisionGood,recallGood,FGood,nbbadclause,nbtotalbad,precisionBad,recallBad,FBad,accuracy)
c additional predictionInitialLBD 40 965578 306970 0.32 1.00 0.48 813 659421 1.00 0.00 0.01 0.32 (nbgoodclauses,nbtotalgood,precisionGood,recallGood,FGood,nbbadclause,nbtotalbad,precisionBad,recallBad,FBad,accuracy)
c additional predictionFinallLBD 1 66271 306970 0.87 0.19 0.31 900120 659421 0.72 0.99 0.83 0.73 (nbgoodclauses,nbtotalgood,precisionGood,recallGood,FGood,nbbadclause,nbtotalbad,precisionBad,recallBad,FBad,accuracy)
c additional predictionFinallLBD 2 165254 306970 0.81 0.44 0.57 801137 659421 0.78 0.95 0.86 0.79 (nbgoodclauses,nbtotalgood,precisionGood,recallGood,FGood,nbbadclause,nbtotalbad,precisionBad,recallBad,FBad,accuracy)
c additional predictionFinallLBD 3 251672 306970 0.68 0.56 0.62 714719 659421 0.81 0.88 0.84 0.78 (nbgoodclauses,nbtotalgood,precisionGood,recallGood,FGood,nbbadclause,nbtotalbad,precisionBad,recallBad,FBad,accuracy)
c additional predictionFinallLBD 4 353150 306970 0.57 0.66 0.61 613241 659421 0.83 0.77 0.80 0.74 (nbgoodclauses,nbtotalgood,precisionGood,recallGood,FGood,nbbadclause,nbtotalbad,precisionBad,recallBad,FBad,accuracy)
c additional predictionFinallLBD 5 447143 306970 0.51 0.74 0.60 519248 659421 0.84 0.66 0.74 0.69 (nbgoodclauses,nbtotalgood,precisionGood,recallGood,FGood,nbbadclause,nbtotalbad,precisionBad,recallBad,FBad,accuracy)
c additional predictionFinallLBD 6 530548 306970 0.46 0.80 0.59 435843 659421 0.86 0.57 0.68 0.64 (nbgoodclauses,nbtotalgood,precisionGood,recallGood,FGood,nbbadclause,nbtotalbad,precisionBad,recallBad,FBad,accuracy)
c additional predictionFinallLBD 7 606122 306970 0.43 0.85 0.57 360269 659421 0.87 0.48 0.62 0.60 (nbgoodclauses,nbtotalgood,precisionGood,recallGood,FGood,nbbadclause,nbtotalbad,precisionBad,recallBad,FBad,accuracy)
c additional predictionFinallLBD 8 671633 306970 0.41 0.89 0.56 294758 659421 0.89 0.40 0.55 0.55 (nbgoodclauses,nbtotalgood,precisionGood,recallGood,FGood,nbbadclause,nbtotalbad,precisionBad,recallBad,FBad,accuracy)
c additional predictionFinallLBD 10 774357 306970 0.38 0.95 0.54 192034 659421 0.92 0.27 0.41 0.48 (nbgoodclauses,nbtotalgood,precisionGood,recallGood,FGood,nbbadclause,nbtotalbad,precisionBad,recallBad,FBad,accuracy)
c additional predictionFinallLBD 14 888182 306970 0.34 0.99 0.51 78209 659421 0.96 0.11 0.20 0.39 (nbgoodclauses,nbtotalgood,precisionGood,recallGood,FGood,nbbadclause,nbtotalbad,precisionBad,recallBad,FBad,accuracy)
c additional predictionFinallLBD 18 934356 306970 0.33 1.00 0.49 32035 659421 0.98 0.05 0.09 0.35 (nbgoodclauses,nbtotalgood,precisionGood,recallGood,FGood,nbbadclause,nbtotalbad,precisionBad,recallBad,FBad,accuracy)
c additional predictionFinallLBD 22 952487 306970 0.32 1.00 0.49 13904 659421 0.98 0.02 0.04 0.33 (nbgoodclauses,nbtotalgood,precisionGood,recallGood,FGood,nbbadclause,nbtotalbad,precisionBad,recallBad,FBad,accuracy)
c additional predictionFinallLBD 30 963199 306970 0.32 1.00 0.48 3192 659421 0.99 0.00 0.01 0.32 (nbgoodclauses,nbtotalgood,precisionGood,recallGood,FGood,nbbadclause,nbtotalbad,precisionBad,recallBad,FBad,accuracy)
c additional predictionFinallLBD 40 965645 306970 0.32 1.00 0.48 746 659421 1.00 0.00 0.00 0.32 (nbgoodclauses,nbtotalgood,precisionGood,recallGood,FGood,nbbadclause,nbtotalbad,precisionBad,recallBad,FBad,accuracy)
c additional predictionSize 1 249 306970 0.84 0.00 0.00 966142 659421 0.68 2.15 1.04 0.68 (nbgoodclauses,nbtotalgood,precisionGood,recallGood,FGood,nbbadclause,nbtotalbad,precisionBad,recallBad,FBad,accuracy)
c additional predictionSize 2 12931 306970 0.87 0.04 0.07 953460 659421 0.69 2.14 1.04 0.69 (nbgoodclauses,nbtotalgood,precisionGood,recallGood,FGood,nbbadclause,nbtotalbad,precisionBad,recallBad,FBad,accuracy)
c additional predictionSize 3 34193 306970 0.80 0.09 0.16 932198 659421 0.70 2.13 1.05 0.70 (nbgoodclauses,nbtotalgood,precisionGood,recallGood,FGood,nbbadclause,nbtotalbad,precisionBad,recallBad,FBad,accuracy)
c additional predictionSize 4 61855 306970 0.73 0.15 0.25 904536 659421 0.71 2.09 1.06 0.71 (nbgoodclauses,nbtotalgood,precisionGood,recallGood,FGood,nbbadclause,nbtotalbad,precisionBad,recallBad,FBad,accuracy)
c additional predictionSize 5 92017 306970 0.68 0.20 0.31 874374 659421 0.72 2.05 1.07 0.72 (nbgoodclauses,nbtotalgood,precisionGood,recallGood,FGood,nbbadclause,nbtotalbad,precisionBad,recallBad,FBad,accuracy)
c additional predictionSize 6 120321 306970 0.64 0.25 0.36 846070 659421 0.73 2.01 1.07 0.72 (nbgoodclauses,nbtotalgood,precisionGood,recallGood,FGood,nbbadclause,nbtotalbad,precisionBad,recallBad,FBad,accuracy)
c additional predictionSize 7 147022 306970 0.61 0.29 0.39 819369 659421 0.73 1.96 1.07 0.71 (nbgoodclauses,nbtotalgood,precisionGood,recallGood,FGood,nbbadclause,nbtotalbad,precisionBad,recallBad,FBad,accuracy)
c additional predictionSize 8 172115 306970 0.58 0.32 0.41 794276 659421 0.74 1.91 1.07 0.71 (nbgoodclauses,nbtotalgood,precisionGood,recallGood,FGood,nbbadclause,nbtotalbad,precisionBad,recallBad,FBad,accuracy)
c additional predictionSize 10 218250 306970 0.53 0.38 0.44 748141 659421 0.75 1.82 1.06 0.70 (nbgoodclauses,nbtotalgood,precisionGood,recallGood,FGood,nbbadclause,nbtotalbad,precisionBad,recallBad,FBad,accuracy)
c additional predictionSize 14 291623 306970 0.49 0.46 0.47 674768 659421 0.75 1.66 1.04 0.67 (nbgoodclauses,nbtotalgood,precisionGood,recallGood,FGood,nbbadclause,nbtotalbad,precisionBad,recallBad,FBad,accuracy)
c additional predictionSize 18 347445 306970 0.46 0.52 0.48 618946 659421 0.76 1.53 1.02 0.65 (nbgoodclauses,nbtotalgood,precisionGood,recallGood,FGood,nbbadclause,nbtotalbad,precisionBad,recallBad,FBad,accuracy)
c additional predictionSize 22 392420 306970 0.44 0.56 0.49 573971 659421 0.76 1.43 1.00 0.63 (nbgoodclauses,nbtotalgood,precisionGood,recallGood,FGood,nbbadclause,nbtotalbad,precisionBad,recallBad,FBad,accuracy)
c additional predictionSize 30 462095 306970 0.41 0.62 0.49 504296 659421 0.77 1.26 0.96 0.60 (nbgoodclauses,nbtotalgood,precisionGood,recallGood,FGood,nbbadclause,nbtotalbad,precisionBad,recallBad,FBad,accuracy)
c additional predictionSize 40 530577 306970 0.39 0.68 0.50 435814 659421 0.77 1.10 0.91 0.56 (nbgoodclauses,nbtotalgood,precisionGood,recallGood,FGood,nbbadclause,nbtotalbad,precisionBad,recallBad,FBad,accuracy)
c additional predictionAge 1 61222 306970 0.43 0.09 0.14 905169 659421 0.69 2.04 1.03 0.67 (nbgoodclauses,nbtotalgood,precisionGood,recallGood,FGood,nbbadclause,nbtotalbad,precisionBad,recallBad,FBad,accuracy)
c additional predictionAge 10 69433 306970 0.41 0.09 0.15 896958 659421 0.69 2.02 1.03 0.67 (nbgoodclauses,nbtotalgood,precisionGood,recallGood,FGood,nbbadclause,nbtotalbad,precisionBad,recallBad,FBad,accuracy)
c additional predictionAge 25 74329 306970 0.40 0.10 0.16 892062 659421 0.69 2.00 1.03 0.67 (nbgoodclauses,nbtotalgood,precisionGood,recallGood,FGood,nbbadclause,nbtotalbad,precisionBad,recallBad,FBad,accuracy)
c additional predictionAge 50 76960 306970 0.39 0.10 0.16 889431 659421 0.69 2.00 1.02 0.67 (nbgoodclauses,nbtotalgood,precisionGood,recallGood,FGood,nbbadclause,nbtotalbad,precisionBad,recallBad,FBad,accuracy)
c additional predictionAge 100 79466 306970 0.39 0.10 0.16 886925 659421 0.69 1.99 1.02 0.66 (nbgoodclauses,nbtotalgood,precisionGood,recallGood,FGood,nbbadclause,nbtotalbad,precisionBad,recallBad,FBad,accuracy)
c additional predictionAge 250 82120 306970 0.39 0.10 0.16 884271 659421 0.69 1.98 1.02 0.66 (nbgoodclauses,nbtotalgood,precisionGood,recallGood,FGood,nbbadclause,nbtotalbad,precisionBad,recallBad,FBad,accuracy)
c additional predictionAge 500 84019 306970 0.39 0.11 0.17 882372 659421 0.69 1.98 1.02 0.66 (nbgoodclauses,nbtotalgood,precisionGood,recallGood,FGood,nbbadclause,nbtotalbad,precisionBad,recallBad,FBad,accuracy)
c additional predictionAge 1000 86072 306970 0.38 0.11 0.17 880319 659421 0.69 1.98 1.02 0.66 (nbgoodclauses,nbtotalgood,precisionGood,recallGood,FGood,nbbadclause,nbtotalbad,precisionBad,recallBad,FBad,accuracy)
c additional predictionAge 2500 89320 306970 0.38 0.11 0.17 877071 659421 0.69 1.97 1.02 0.66 (nbgoodclauses,nbtotalgood,precisionGood,recallGood,FGood,nbbadclause,nbtotalbad,precisionBad,recallBad,FBad,accuracy)
c additional predictionAge 5000 93138 306970 0.38 0.12 0.18 873253 659421 0.69 1.96 1.02 0.66 (nbgoodclauses,nbtotalgood,precisionGood,recallGood,FGood,nbbadclause,nbtotalbad,precisionBad,recallBad,FBad,accuracy)
c additional predictionAge 10000 100703 306970 0.38 0.12 0.19 865688 659421 0.69 1.94 1.02 0.66 (nbgoodclauses,nbtotalgood,precisionGood,recallGood,FGood,nbbadclause,nbtotalbad,precisionBad,recallBad,FBad,accuracy)
c additional predictionAge 25000 120888 306970 0.37 0.15 0.21 845503 659421 0.69 1.90 1.01 0.65 (nbgoodclauses,nbtotalgood,precisionGood,recallGood,FGood,nbbadclause,nbtotalbad,precisionBad,recallBad,FBad,accuracy)
c additional predictionAge 50000 150833 306970 0.36 0.18 0.24 815558 659421 0.69 1.84 1.00 0.64 (nbgoodclauses,nbtotalgood,precisionGood,recallGood,FGood,nbbadclause,nbtotalbad,precisionBad,recallBad,FBad,accuracy)
c additional predictionAge 100000 204262 306970 0.35 0.23 0.28 762129 659421 0.69 1.71 0.98 0.62 (nbgoodclauses,nbtotalgood,precisionGood,recallGood,FGood,nbbadclause,nbtotalbad,precisionBad,recallBad,FBad,accuracy)
c additional predictionTicks 1 61273 306970 0.43 0.09 0.14 905118 659421 0.69 2.04 1.03 0.67 (nbgoodclauses,nbtotalgood,precisionGood,recallGood,FGood,nbbadclause,nbtotalbad,precisionBad,recallBad,FBad,accuracy)
c additional predictionTicks 10 98676 306970 0.42 0.13 0.20 867715 659421 0.69 1.96 1.02 0.67 (nbgoodclauses,nbtotalgood,precisionGood,recallGood,FGood,nbbadclause,nbtotalbad,precisionBad,recallBad,FBad,accuracy)
c additional predictionTicks 25 125756 306970 0.41 0.17 0.24 840635 659421 0.70 1.91 1.02 0.66 (nbgoodclauses,nbtotalgood,precisionGood,recallGood,FGood,nbbadclause,nbtotalbad,precisionBad,recallBad,FBad,accuracy)
c additional predictionTicks 50 146723 306970 0.40 0.19 0.26 819668 659421 0.70 1.86 1.02 0.65 (nbgoodclauses,nbtotalgood,precisionGood,recallGood,FGood,nbbadclause,nbtotalbad,precisionBad,recallBad,FBad,accuracy)
c additional predictionTicks 100 171563 306970 0.40 0.23 0.29 794828 659421 0.70 1.81 1.01 0.65 (nbgoodclauses,nbtotalgood,precisionGood,recallGood,FGood,nbbadclause,nbtotalbad,precisionBad,recallBad,FBad,accuracy)
c additional predictionTicks 250 204921 306970 0.40 0.27 0.32 761470 659421 0.70 1.75 1.00 0.64 (nbgoodclauses,nbtotalgood,precisionGood,recallGood,FGood,nbbadclause,nbtotalbad,precisionBad,recallBad,FBad,accuracy)
c additional predictionTicks 500 233235 306970 0.40 0.30 0.35 733156 659421 0.71 1.69 1.00 0.63 (nbgoodclauses,nbtotalgood,precisionGood,recallGood,FGood,nbbadclause,nbtotalbad,precisionBad,recallBad,FBad,accuracy)
c additional predictionTicks 1000 264932 306970 0.40 0.34 0.37 701459 659421 0.71 1.63 0.99 0.63 (nbgoodclauses,nbtotalgood,precisionGood,recallGood,FGood,nbbadclause,nbtotalbad,precisionBad,recallBad,FBad,accuracy)
c additional predictionTicks 2500 320430 306970 0.39 0.41 0.40 645961 659421 0.72 1.52 0.98 0.61 (nbgoodclauses,nbtotalgood,precisionGood,recallGood,FGood,nbbadclause,nbtotalbad,precisionBad,recallBad,FBad,accuracy)
c additional predictionTicks 5000 384526 306970 0.39 0.49 0.43 581865 659421 0.73 1.38 0.95 0.59 (nbgoodclauses,nbtotalgood,precisionGood,recallGood,FGood,nbbadclause,nbtotalbad,precisionBad,recallBad,FBad,accuracy)
c additional predictionTicks 10000 478413 306970 0.38 0.59 0.46 487978 659421 0.74 1.18 0.91 0.56 (nbgoodclauses,nbtotalgood,precisionGood,recallGood,FGood,nbbadclause,nbtotalbad,precisionBad,recallBad,FBad,accuracy)
c additional predictionTicks 25000 643602 306970 0.36 0.75 0.48 322789 659421 0.76 0.80 0.78 0.49 (nbgoodclauses,nbtotalgood,precisionGood,recallGood,FGood,nbbadclause,nbtotalbad,precisionBad,recallBad,FBad,accuracy)
c additional predictionTicks 50000 781733 306970 0.34 0.86 0.49 184658 659421 0.77 0.47 0.58 0.42 (nbgoodclauses,nbtotalgood,precisionGood,recallGood,FGood,nbbadclause,nbtotalbad,precisionBad,recallBad,FBad,accuracy)
c additional predictionTicks 100000 890788 306970 0.33 0.95 0.49 75603 659421 0.79 0.19 0.31 0.36 (nbgoodclauses,nbtotalgood,precisionGood,recallGood,FGood,nbbadclause,nbtotalbad,precisionBad,recallBad,FBad,accuracy)
c additional lifetimeGood 1 4 4921 31780 136838 346728 582842 749767 822868 902403 965978 966151 (0,1,5,10,25,50,75,90,95,99,100-1,100)
c additional lifetimeBad 1 4 1281 24401 112760 299019 523773 698755 781557 892216 966448 966608 (0,1,5,10,25,50,75,90,95,99,100-1,100)
c additional lifetimeBadBad 1 4 4 4 8 84 40147 156926 275092 568667 956999 957510 (0,1,5,10,25,50,75,90,95,99,100-1,100)
c additional compositionBad 1 2 4 6 12 31 80 186 293 621 6065 6290 (0,1,5,10,25,50,75,90,95,99,100-1,100)
c additional compositionBadWithGood 0 0 0 1 3 11 31 73 115 237 1188 1299 (0,1,5,10,25,50,75,90,95,99,100-1,100)
c additional compositionBadWithBad 0 0 0 0 0 1 2 4 6 11 87 88 (0,1,5,10,25,50,75,90,95,99,100-1,100)
c additional compositionBadWithInitial 0 1 2 3 7 18 47 110 177 391 4832 5134 (0,1,5,10,25,50,75,90,95,99,100-1,100)
c additional compositionGood 1 2 3 3 6 14 47 125 208 458 3087 4348 (0,1,5,10,25,50,75,90,95,99,100-1,100)
c additional compositionGoodWithGood 0 0 0 1 2 6 21 53 86 189 914 1020 (0,1,5,10,25,50,75,90,95,99,100-1,100)
c additional compositionGoodWithInitial 0 0 1 2 3 8 26 72 123 278 2067 3434 (0,1,5,10,25,50,75,90,95,99,100-1,100)
c additional propagationGood total 116600211 percentiles 0 1 1 1 2 12 102 633 1701 7376 36941 37330 (0,1,5,10,25,50,75,90,95,99,100-1,100)
c additional propagationBad total 6596127 percentiles 1 1 1 1 1 1 3 9 19 100 26810 31816 (0,1,5,10,25,50,75,90,95,99,100-1,100)
c additional resolutionGood total 19311657 percentiles 0 1 1 1 2 6 27 111 267 1108 9719 9958 (0,1,5,10,25,50,75,90,95,99,100-1,100)
c additional resolutionBad total 1117981 percentiles 0 0 0 0 1 1 2 3 5 15 278 302 (0,1,5,10,25,50,75,90,95,99,100-1,100)
Computing K-Core for 1371370 clauses...
c building structure for KCore computation.
c the graph has 64347945 edges, maxdegree=6290
c we start the KCore with the value 20
c Non directed graph built
K=20,426633 nodes removed so far
K=21,444897 nodes removed so far
K=22,462621 nodes removed so far
K=23,479614 nodes removed so far
K=24,496027 nodes removed so far
K=25,511626 nodes removed so far
K=26,526503 nodes removed so far
K=27,540889 nodes removed so far
K=28,554574 nodes removed so far
K=29,567843 nodes removed so far
K=30,580603 nodes removed so far
K=31,593191 nodes removed so far
K=32,604983 nodes removed so far
K=33,616311 nodes removed so far
K=34,627532 nodes removed so far
K=35,638266 nodes removed so far
K=36,648610 nodes removed so far
K=37,658412 nodes removed so far
K=38,667653 nodes removed so far
K=39,676888 nodes removed so far
K=40,685994 nodes removed so far
K=41,694707 nodes removed so far
K=42,703034 nodes removed so far
K=43,711394 nodes removed so far
K=44,719338 nodes removed so far
K=45,726844 nodes removed so far
K=46,734371 nodes removed so far
K=47,741716 nodes removed so far
K=48,748820 nodes removed so far
K=49,755945 nodes removed so far
K=50,762702 nodes removed so far
K=51,769264 nodes removed so far
K=52,775607 nodes removed so far
K=53,781826 nodes removed so far
K=54,787773 nodes removed so far
K=55,793653 nodes removed so far
K=56,799425 nodes removed so far
K=57,804956 nodes removed so far
K=58,810569 nodes removed so far
K=59,815993 nodes removed so far
K=60,821267 nodes removed so far
K=61,826259 nodes removed so far
K=62,831242 nodes removed so far
K=63,836093 nodes removed so far
K=64,840851 nodes removed so far
K=65,845568 nodes removed so far
K=66,850076 nodes removed so far
K=67,854611 nodes removed so far
K=68,859062 nodes removed so far
K=69,863389 nodes removed so far
K=70,867610 nodes removed so far
K=71,871766 nodes removed so far
K=72,875733 nodes removed so far
K=73,879568 nodes removed so far
K=74,883409 nodes removed so far
K=75,887217 nodes removed so far
K=76,890876 nodes removed so far
K=77,894560 nodes removed so far
K=78,898283 nodes removed so far
K=79,901625 nodes removed so far
K=80,905064 nodes removed so far
K=81,908375 nodes removed so far
K=82,911613 nodes removed so far
K=83,914867 nodes removed so far
K=84,917932 nodes removed so far
K=85,920909 nodes removed so far
K=86,924042 nodes removed so far
K=87,927102 nodes removed so far
K=88,930117 nodes removed so far
K=89,933061 nodes removed so far
K=90,935905 nodes removed so far
K=91,938726 nodes removed so far
K=92,941448 nodes removed so far
K=93,944051 nodes removed so far
K=94,946626 nodes removed so far
K=95,949317 nodes removed so far
K=96,951743 nodes removed so far
K=97,954117 nodes removed so far
K=98,956485 nodes removed so far
K=99,958971 nodes removed so far
K=100,961337 nodes removed so far
K=101,963591 nodes removed so far
K=102,965872 nodes removed so far
K=103,968102 nodes removed so far
K=104,970501 nodes removed so far
K=105,972650 nodes removed so far
K=106,974787 nodes removed so far
K=107,976918 nodes removed so far
K=108,979013 nodes removed so far
K=109,981102 nodes removed so far
K=110,982990 nodes removed so far
K=111,984973 nodes removed so far
K=112,986941 nodes removed so far
K=113,988777 nodes removed so far
K=114,990716 nodes removed so far
K=115,992632 nodes removed so far
K=116,994572 nodes removed so far
K=117,996450 nodes removed so far
K=118,998212 nodes removed so far
K=119,K=120,1001667 nodes removed so far
K=121,K=122,K=123,K=124,K=125,1010081 nodes removed so far
K=126,K=127,K=128,K=129,K=130,K=131,K=132,1020818 nodes removed so far
K=133,K=134,K=135,K=136,K=137,K=138,K=139,1030558 nodes removed so far
K=140,K=141,K=142,K=143,K=144,K=145,K=146,K=147,1040806 nodes removed so far
K=148,K=149,K=150,K=151,K=152,K=153,K=154,K=155,1050206 nodes removed so far
K=156,K=157,K=158,K=159,K=160,K=161,K=162,K=163,K=164,K=165,1060593 nodes removed so far
K=166,K=167,K=168,K=169,K=170,K=171,K=172,K=173,K=174,K=175,1070390 nodes removed so far
K=176,K=177,K=178,K=179,K=180,K=181,K=182,K=183,K=184,K=185,K=186,1080123 nodes removed so far
K=187,K=188,K=189,K=190,K=191,K=192,K=193,K=194,K=195,K=196,K=197,K=198,K=199,1090520 nodes removed so far
K=200,K=201,K=202,K=203,K=204,K=205,K=206,K=207,K=208,K=209,K=210,K=211,K=212,K=213,1100061 nodes removed so far
K=214,K=215,K=216,K=217,K=218,K=219,K=220,K=221,K=222,K=223,K=224,K=225,K=226,K=227,K=228,K=229,K=230,1110403 nodes removed so far
K=231,K=232,K=233,K=234,K=235,K=236,K=237,K=238,K=239,K=240,K=241,K=242,K=243,K=244,K=245,K=246,K=247,K=248,1120201 nodes removed so far
K=249,K=250,K=251,K=252,K=253,K=254,K=255,K=256,K=257,K=258,K=259,K=260,K=261,K=262,K=263,K=264,K=265,K=266,K=267,1130176 nodes removed so far
K=268,K=269,K=270,K=271,K=272,K=273,K=274,K=275,K=276,K=277,K=278,K=279,K=280,K=281,K=282,K=283,K=284,K=285,K=286,K=287,1140202 nodes removed so far
K=288,K=289,K=290,K=291,K=292,K=293,K=294,K=295,K=296,K=297,K=298,K=299,K=300,K=301,1154686 nodes removed so far
K=302,K=303,K=304,K=305,K=306,K=307,K=308,K=309,K=310,K=311,K=312,K=313,K=314,K=315,K=316,K=317,K=318,K=319,K=320,K=321,K=322,K=323,K=324,K=325,K=326,KCore = 326
Building structure for PR...
Computing PR...
Pageranking 1009286 nodes done in 21 iteration. cumulError=6.79443e-11
clause level 1 (Kante=6, Kdesc=61850, core=2):-1987 
clause level 1 (Kante=6, Kdesc=43446, core=2):-1418 
clause level 2 (Kante=23, Kdesc=38573, core=3):-2761 
clause level 2 (Kante=12, Kdesc=27953, core=3):-4850 
clause level 23 (Kante=216, Kdesc=40151, core=0):-4702 
clause level 66 (Kante=15, Kdesc=23757, core=1):19449 
clause level 60 (Kante=61, Kdesc=24823, core=3):-13336 
clause level 65 (Kante=10, Kdesc=21629, core=2):-19424 -19449 
clause level 58 (Kante=198, Kdesc=25078, core=3):-12257 
clause level 11 (Kante=9, Kdesc=28617, core=0):-2082 
clause level 6 (Kante=15, Kdesc=24355, core=3):-3654 
clause level 19 (Kante=12, Kdesc=18646, core=2):-10898 
clause level 37 (Kante=246, Kdesc=23546, core=2):-7303 
clause level 9 (Kante=4, Kdesc=29355, core=2):-3601 
clause level 5 (Kante=17, Kdesc=16810, core=3):-5840 
clause level 26 (Kante=9, Kdesc=34954, core=0):-5235 
clause level 70 (Kante=5, Kdesc=18410, core=0):-21570 19424 
clause level 36 (Kante=525, Kdesc=8446, core=3):-9565 10631 
clause level 5 (Kante=15, Kdesc=32768, core=1):-4285 4702 
clause level 14 (Kante=201, Kdesc=8024, core=3):7443 -5354 
clause level 4 (Kante=18, Kdesc=22087, core=3):-2863 
clause level 59 (Kante=4, Kdesc=17529, core=2):16264 
clause level 4 (Kante=20, Kdesc=25918, core=1):-59759 4702 
clause level 64 (Kante=3, Kdesc=16793, core=2):13336 16172 18385 
clause level 6 (Kante=36, Kdesc=21264, core=3):-3668 
clause level 63 (Kante=14, Kdesc=14899, core=0):-18360 -18385 
clause level 11 (Kante=26, Kdesc=10409, core=3):-9837 
clause level 25 (Kante=3, Kdesc=16350, core=1):-5398 
clause level 3 (Kante=16, Kdesc=17518, core=3):-8680 
clause level 19 (Kante=5, Kdesc=7753, core=0):-9190 -9565 
clause level 33 (Kante=3, Kdesc=4989, core=2):13838 -13882 
clause level 9 (Kante=42, Kdesc=22493, core=1):-3930 
clause level 7 (Kante=35, Kdesc=26050, core=3):4702 -5237 
clause level 3 (Kante=29, Kdesc=17460, core=3):8680 -9066 
clause level 15 (Kante=2, Kdesc=7222, core=0):-7072 -7443 
clause level 82 (Kante=3, Kdesc=8357, core=0):-14924 16014 
clause level 24 (Kante=9, Kdesc=12045, core=0):60074 
clause level 3 (Kante=28, Kdesc=21408, core=2):3699 -3378 
clause level 65 (Kante=27, Kdesc=14386, core=1):-20500 21570 
clause level 49 (Kante=36, Kdesc=4525, core=1):18098 -19197 
clause level 59 (Kante=10, Kdesc=14196, core=3):-15185 
clause level 1 (Kante=4, Kdesc=6571, core=2):-17249 18119 
clause level 20 (Kante=16, Kdesc=13253, core=2):-10909 
clause level 37 (Kante=4, Kdesc=7634, core=0):9565 -7443 
clause level 1 (Kante=9, Kdesc=11488, core=2):-14679 -60074 
clause level 1 (Kante=2, Kdesc=21461, core=2):4892 -5895 5550 
clause level 9 (Kante=55, Kdesc=21591, core=0):-3550 
clause level 6 (Kante=28, Kdesc=21393, core=1):-3548 2716 
clause level 4 (Kante=3, Kdesc=8340, core=3):-16174 14924 
clause level 3 (Kante=11, Kdesc=6979, core=1):8787 -9565 
clause level 8 (Kante=34, Kdesc=6528, core=3):-11205 
clause level 2 (Kante=18, Kdesc=20429, core=2):-5592 
clause level 40 (Kante=4, Kdesc=15345, core=2):-6252 
clause level 2 (Kante=14, Kdesc=21377, core=2):1991 -61338 2718 2717 3378 
clause level 58 (Kante=101, Kdesc=9683, core=2):-16236 -16264 15185 
clause level 89 (Kante=21, Kdesc=10924, core=0):-9427 
clause level 44 (Kante=2, Kdesc=4252, core=1):-18944 18098 
clause level 16 (Kante=11, Kdesc=5301, core=0):-7443 -8129 
clause level 1 (Kante=3, Kdesc=11813, core=3):19026 -19449 
clause level 6 (Kante=20, Kdesc=9633, core=3):-8745 
clause level 27 (Kante=37, Kdesc=16549, core=3):-5397 
clause level 20 (Kante=95, Kdesc=8235, core=1):-13340 
clause level 62 (Kante=9, Kdesc=11705, core=2):-16248 
clause level 18 (Kante=8, Kdesc=6967, core=0):-10631 -12376 
clause level 21 (Kante=2, Kdesc=3038, core=0):-9609 9565 
clause level 75 (Kante=18, Kdesc=10651, core=0):21171 
clause level 8 (Kante=33, Kdesc=15914, core=2):-4593 4432 4546 
clause level 11 (Kante=32, Kdesc=19898, core=2):-5540 
clause level 8 (Kante=6, Kdesc=7884, core=0):-12769 10652 
clause level 40 (Kante=206, Kdesc=19825, core=0):-8377 
clause level 59 (Kante=7, Kdesc=5310, core=0):-22408 22363 
clause level 28 (Kante=42, Kdesc=18876, core=3):-9068 
clause level 53 (Kante=4, Kdesc=2382, core=1):-14924 13838 
clause level 12 (Kante=64, Kdesc=19607, core=0):5895 -8010 
clause level 30 (Kante=2, Kdesc=9647, core=1):-15173 16236 
clause level 1 (Kante=4, Kdesc=5635, core=0):-21529 21535 
clause level 20 (Kante=4, Kdesc=6599, core=0):-10259 -10631 
clause level 5 (Kante=14, Kdesc=17974, core=0):-8012 8010 
clause level 1 (Kante=9, Kdesc=2086, core=3):-12985 12986 
clause level 20 (Kante=4, Kdesc=7857, core=3):-9565 -9191 
clause level 23 (Kante=4, Kdesc=9039, core=2):12619 
clause level 1 (Kante=11, Kdesc=4123, core=0):-8634 8631 
clause level 5 (Kante=10, Kdesc=8686, core=3):-21671 22736 -21598 -21171 
clause level 1 (Kante=2, Kdesc=13791, core=0):4891 5540 -5894 
clause level 14 (Kante=29, Kdesc=5681, core=1):4475 -7443 
clause level 3 (Kante=38, Kdesc=14773, core=3):-7700 
clause level 60 (Kante=8, Kdesc=3079, core=3):13336 16172 -16168 
clause level 54 (Kante=3, Kdesc=17200, core=0):-10143 8043 9068 8012 
clause level 15 (Kante=34, Kdesc=15566, core=0):8010 -10145 
clause level 33 (Kante=20, Kdesc=5518, core=3):19422 
clause level 61 (Kante=18, Kdesc=4842, core=0):15201 
clause level 1 (Kante=8, Kdesc=15313, core=2):-10988 10174 
clause level 37 (Kante=3, Kdesc=5005, core=3):9756 
clause level 1 (Kante=8, Kdesc=3541, core=1):-6512 6514 
clause level 12 (Kante=4, Kdesc=5936, core=3):-8760 
clause level 11 (Kante=29, Kdesc=6859, core=0):-3477 5354 
clause level 1 (Kante=4, Kdesc=9716, core=2):3049 -4892 4580 3652 
clause level 57 (Kante=16, Kdesc=4649, core=0):-16236 -15201 -16264 
clause level 10 (Kante=4, Kdesc=9706, core=1):-3652 
clause level 38 (Kante=3, Kdesc=4356, core=1):-7443 8496 
clause level 4 (Kante=26, Kdesc=8821, core=3):21671 -20529 -20527 -20098 
clause level 54 (Kante=123, Kdesc=6011, core=2):-14106 
clause level 22 (Kante=6, Kdesc=2826, core=3):9565 -10674 
clause level 66 (Kante=2, Kdesc=6951, core=2):19521 -18387 
clause level 1 (Kante=5, Kdesc=6234, core=3):11035 10749 
clause level 22 (Kante=10, Kdesc=4705, core=1):13048 
clause level 2 (Kante=4, Kdesc=4621, core=2):-20587 20478 20586 
clause level 20 (Kante=3, Kdesc=3756, core=3):-9565 -10259 
clause level 38 (Kante=3, Kdesc=2515, core=1):13838 -16014 
clause level 9 (Kante=6, Kdesc=6319, core=0):-10883 
clause level 55 (Kante=8, Kdesc=10484, core=0):-13032 
clause level 90 (Kante=8, Kdesc=6217, core=2):-8360 
clause level 10 (Kante=20, Kdesc=6518, core=0):-5366 -4475 
clause level 31 (Kante=3, Kdesc=5437, core=2):13623 -11790 
clause level 26 (Kante=6, Kdesc=5624, core=2):5354 -6429 
clause level 29 (Kante=43, Kdesc=12917, core=3):9069 -10892 
clause level 18 (Kante=27, Kdesc=12178, core=1):-12259 11209 11238 
clause level 26 (Kante=109, Kdesc=10082, core=3):-13013 13032 
clause level 55 (Kante=44, Kdesc=12421, core=0):10892 -11207 
clause level 13 (Kante=56, Kdesc=10542, core=2):-8753 
clause level 38 (Kante=188, Kdesc=3812, core=3):-8496 9565 
clause level 25 (Kante=3, Kdesc=2302, core=0):10631 -11739 
clause level 36 (Kante=3, Kdesc=3070, core=2):13838 -13883 
clause level 43 (Kante=4, Kdesc=5606, core=2):-8581 
clause level 9 (Kante=25, Kdesc=4793, core=0):-9822 
clause level 31 (Kante=4, Kdesc=4822, core=0):-13143 13623 
clause level 28 (Kante=31, Kdesc=7763, core=3):13050 -11984 
clause level 18 (Kante=56, Kdesc=2690, core=0):18662 -19728 
clause level 10 (Kante=22, Kdesc=11858, core=0):5237 -7713 
clause level 89 (Kante=7, Kdesc=2903, core=0):18098 -19176 
clause level 63 (Kante=13, Kdesc=5965, core=0):18387 -17393 
clause level 16 (Kante=8, Kdesc=4263, core=0):-9427 10927 
clause level 7 (Kante=31, Kdesc=6339, core=1):5563 -7463 
clause level 66 (Kante=114, Kdesc=7540, core=1):17393 -15203 
clause level 27 (Kante=24, Kdesc=4350, core=2):7443 -8539 
clause level 27 (Kante=6, Kdesc=5520, core=3):-15835 17393 15173 16236 -16264 
clause level 55 (Kante=41, Kdesc=7012, core=2):15203 -13050 
clause level 2 (Kante=5, Kdesc=4927, core=1):-9959 -9970 
clause level 8 (Kante=5, Kdesc=4048, core=3):-9495 
clause level 1 (Kante=3, Kdesc=4456, core=3):15840 -16264 
clause level 15 (Kante=3, Kdesc=9983, core=0):-9449 
clause level 65 (Kante=15, Kdesc=6129, core=0):20529 -19521 -19026 -19449 
clause level 23 (Kante=2, Kdesc=10125, core=1):12257 -10144 
clause level 30 (Kante=3, Kdesc=2179, core=1):11696 -11740 
clause level 20 (Kante=7, Kdesc=4061, core=0):8786 -7443 -8787 -8496 
clause level 20 (Kante=5, Kdesc=5157, core=3):11984 -10927 
clause level 1 (Kante=3, Kdesc=3250, core=2):-7073 7561 7072 7570 
clause level 67 (Kante=5, Kdesc=5038, core=2):20529 -20093 
clause level 31 (Kante=3, Kdesc=3137, core=1):-13623 13838 12986 13882 14067 
clause level 1 (Kante=4, Kdesc=3244, core=2):-6510 6512 
clause level 21 (Kante=5, Kdesc=6543, core=2):11984 -11561 
clause level 2 (Kante=3, Kdesc=4798, core=2):6778 6504 6513 
clause level 45 (Kante=5, Kdesc=4326, core=1):-9654 
clause level 40 (Kante=7, Kdesc=4105, core=0):-7528 9427 
clause level 23 (Kante=10, Kdesc=5567, core=2):-11966 
clause level 23 (Kante=2, Kdesc=2060, core=3):20814 -22946 
clause level 1 (Kante=7, Kdesc=2487, core=3):23681 23683 
clause level 4 (Kante=3, Kdesc=4197, core=0):-6769 6514 
clause level 65 (Kante=21, Kdesc=4207, core=0):21671 -21166 -19449 -20098 -19026 -20527 
clause level 38 (Kante=3, Kdesc=3938, core=0):-10631 -11327 
clause level 3 (Kante=3, Kdesc=2142, core=2):16015 15971 16014 -17071 
clause level 41 (Kante=15, Kdesc=5757, core=3):-6267 7318 
clause level 18 (Kante=10, Kdesc=3586, core=0):13336 -15486 
clause level 11 (Kante=28, Kdesc=7166, core=0):5895 -8040 
clause level 19 (Kante=5, Kdesc=2427, core=1):9970 -9565 
clause level 14 (Kante=18, Kdesc=4054, core=0):-8360 8789 
clause level 1 (Kante=5, Kdesc=3629, core=0):-3439 -2112 
clause level 1 (Kante=5, Kdesc=3572, core=0):-2169 -2112 
clause level 2 (Kante=3, Kdesc=4033, core=1):-7827 7561 7570 
clause level 1 (Kante=5, Kdesc=2522, core=0):-12973 13838 
clause level 28 (Kante=4, Kdesc=3732, core=1):16542 18360 -15484 
clause level 38 (Kante=3, Kdesc=2380, core=1):13838 -14946 
clause level 2 (Kante=2, Kdesc=3725, core=0):9574 -9565 
clause level 1 (Kante=7, Kdesc=3141, core=3):-11786 10883 
clause level 8 (Kante=4, Kdesc=3148, core=2):-10720 
clause level 6 (Kante=20, Kdesc=2939, core=1):-9655 
clause level 62 (Kante=7, Kdesc=3778, core=2):-16574 
clause level 22 (Kante=54, Kdesc=4052, core=2):-13701 -8788 -8365 -13048 -12619 15203 -14135 
clause level 2 (Kante=3, Kdesc=4135, core=0):-6770 6504 6513 
clause level 48 (Kante=82, Kdesc=4960, core=3):-7318 7741 
clause level 1 (Kante=5, Kdesc=6324, core=0):8754 -10170 8040 8769 
clause level 4 (Kante=3, Kdesc=2471, core=0):9863 -9565 -10631 -9756 
clause level 25 (Kante=2, Kdesc=3753, core=0):10927 -9935 
clause level 28 (Kante=21, Kdesc=2762, core=1):7444 -8517 
clause level 43 (Kante=4, Kdesc=3902, core=3):17320 16894 -16868 17329 
clause level 11 (Kante=3, Kdesc=2678, core=3):-12071 11790 
clause level 1 (Kante=6, Kdesc=5860, core=1):8011 8696 8685 -9069 
clause level 40 (Kante=36, Kdesc=2362, core=2):9565 -14361 
clause level 9 (Kante=33, Kdesc=6635, core=0):11208 10892 -13015 10174 11238 
clause level 27 (Kante=54, Kdesc=3280, core=3):6502 
clause level 17 (Kante=59, Kdesc=2292, core=0):7443 -7956 
clause level 41 (Kante=29, Kdesc=2375, core=2):7443 -6387 
clause level 15 (Kante=61, Kdesc=2984, core=0):7443 -6898 
clause level 39 (Kante=17, Kdesc=2152, core=0):9565 -10086 
clause level 39 (Kante=85, Kdesc=4403, core=2):-6293 
clause level 38 (Kante=41, Kdesc=2498, core=0):-12795 12750 
clause level 62 (Kante=13, Kdesc=2947, core=0):-14767 15202 
clause level 37 (Kante=10, Kdesc=1871, core=2):10631 -13858 
clause level 41 (Kante=6, Kdesc=2985, core=2):-7741 -10631 
clause level 31 (Kante=5, Kdesc=2032, core=3):-16542 17600 18360 16236 
clause level 1 (Kante=2, Kdesc=1135, core=2):26135 -27200 26829 26825 
clause level 14 (Kante=34, Kdesc=5587, core=3):7713 7714 -10891 9098 8043 
clause level 7 (Kante=4, Kdesc=2532, core=0):-8128 7072 9190 
clause level 2 (Kante=3, Kdesc=2269, core=2):-13927 12376 
clause level 5 (Kante=3, Kdesc=2300, core=0):-12836 11326 
clause level 18 (Kante=75, Kdesc=2129, core=0):7443 -18183 
clause level 2 (Kante=7, Kdesc=2689, core=2):-10562 11326 11825 10758 
clause level 56 (Kante=6, Kdesc=4137, core=1):-14206 15203 
clause level 27 (Kante=3, Kdesc=3458, core=0):-17286 13336 16236 
clause level 19 (Kante=330, Kdesc=2816, core=2):-11882 12986 
clause level 2 (Kante=3, Kdesc=1281, core=2):-23782 22975 
clause level 18 (Kante=74, Kdesc=1726, core=1):7443 -16053 
clause level 9 (Kante=7, Kdesc=3307, core=1):-11939 11882 
clause level 1 (Kante=7, Kdesc=1370, core=3):22616 22618 
clause level 26 (Kante=91, Kdesc=2483, core=0):2112 -7443 
clause level 11 (Kante=16, Kdesc=3400, core=3):5895 -8039 
clause level 27 (Kante=5, Kdesc=1781, core=1):-14416 15484 18360 
clause level 23 (Kante=3, Kdesc=2813, core=1):8700 -7443 -4475 
clause level 41 (Kante=20, Kdesc=2044, core=1):-9565 -13466 
clause level 61 (Kante=97, Kdesc=4149, core=1):-12258 14416 
clause level 1 (Kante=7, Kdesc=2728, core=3):-8576 8634 
clause level 9 (Kante=7, Kdesc=2270, core=0):11783 11882 
clause level 2 (Kante=6, Kdesc=1780, core=3):7629 7072 -8496 
clause level 63 (Kante=8, Kdesc=3004, core=0):16337 -15211 
clause level 63 (Kante=161, Kdesc=2536, core=0):12631 -15484 
clause level 3 (Kante=9, Kdesc=1352, core=0):-22618 17546 
clause level 39 (Kante=22, Kdesc=2935, core=2):-6253 
clause level 21 (Kante=2, Kdesc=1087, core=0):19726 -20816 
clause level 66 (Kante=71, Kdesc=1726, core=0):15852 -17600 
clause level 3 (Kante=11, Kdesc=1888, core=0):-12892 13882 12915 
clause level 1 (Kante=2, Kdesc=3222, core=2):13013 13014 -14099 
clause level 11 (Kante=38, Kdesc=3458, core=2):5895 8010 8011 9846 -11234 8769 
clause level 67 (Kante=8, Kdesc=2831, core=2):17393 -16337 
clause level 1 (Kante=3, Kdesc=2073, core=0):-11578 12631 11583 
clause level 66 (Kante=3, Kdesc=2447, core=3):-15516 
clause level 1 (Kante=11, Kdesc=2538, core=0):-11212 -11680 -12045 12262 
clause level 19 (Kante=9, Kdesc=3239, core=2):-11208 12257 13336 11234 9767 12259 -11199 11207 11209 10143 10830 10831 10174 8010 
clause level 36 (Kante=2, Kdesc=1399, core=2):12614 -12750 13838 13701 
clause level 67 (Kante=123, Kdesc=1994, core=1):17393 -18461 
clause level 9 (Kante=7, Kdesc=2394, core=1):-12838 11939 
clause level 53 (Kante=117, Kdesc=2865, core=0):-10822 9098 8011 10143 
clause level 45 (Kante=14, Kdesc=1563, core=2):-19504 18098 19532 19536 
clause level 21 (Kante=6, Kdesc=2331, core=2):11561 -12614 13050 
clause level 23 (Kante=16, Kdesc=2971, core=0):-11208 13336 -12249 11209 11207 12257 12259 10831 -11199 
clause level 71 (Kante=15, Kdesc=1874, core=3):-15484 18387 
clause level 1 (Kante=8, Kdesc=1933, core=1):-10542 10759 10758 
clause level 41 (Kante=23, Kdesc=1584, core=0):6910 -61500 7529 7528 
clause level 16 (Kante=6, Kdesc=1848, core=0):-7824 -9565 9190 
clause level 15 (Kante=23, Kdesc=2851, core=3):-11208 11233 10822 9068 10145 -10135 10143 11204 9065 9831 11209 -11199 12257 13336 11207 10831 10174 
clause level 22 (Kante=40, Kdesc=2975, core=0):12258 10892 12291 -14101 12257 
clause level 50 (Kante=3, Kdesc=1024, core=0):-16015 13838 
clause level 73 (Kante=4, Kdesc=1110, core=2):20814 -24760 19423 
clause level 96 (Kante=697, Kdesc=1275, core=0):-10927 -20229 
clause level 1 (Kante=3, Kdesc=1476, core=0):-10513 11578 10518 
clause level 1 (Kante=4, Kdesc=2461, core=3):-15097 15484 
clause level 17 (Kante=47, Kdesc=1826, core=3):-11946 8012 5895 5894 7713 8044 10143 
clause level 57 (Kante=79, Kdesc=1273, core=3):15203 -15175 14767 
clause level 1 (Kante=3, Kdesc=861, core=0):-17980 19037 17985 
clause level 53 (Kante=4, Kdesc=1122, core=3):13838 13623 -10652 14903 
clause level 31 (Kante=54, Kdesc=1890, core=3):7443 -7526 
clause level 37 (Kante=8, Kdesc=1298, core=0):13838 -14945 
clause level 61 (Kante=159, Kdesc=1636, core=1):-11208 
clause level 1 (Kante=2, Kdesc=1290, core=0):17286 -18352 17287 
clause level 65 (Kante=4, Kdesc=1345, core=1):-16542 13718 
clause level 1 (Kante=7, Kdesc=1243, core=2):-18188 17279 
clause level 67 (Kante=209, Kdesc=1284, core=0):-15485 17600 16331 
clause level 23 (Kante=6, Kdesc=1565, core=3):14416 -17287 14417 15516 15515 
clause level 19 (Kante=7, Kdesc=1538, core=3):7443 -9651 9648 
clause level 9 (Kante=39, Kdesc=1050, core=3):-13929 9918 10984 
clause level 29 (Kante=11, Kdesc=1001, core=0):-60281 11164 10098 12631 
clause level 68 (Kante=20, Kdesc=1168, core=2):18387 -13838 18325 17260 18098 
clause level 24 (Kante=25, Kdesc=976, core=0):-61387 9026 11578 10098 
clause level 1 (Kante=3, Kdesc=887, core=0):-14784 15852 14789 
clause level 61 (Kante=167, Kdesc=1349, core=3):-13337 15484 14416 -14408 12258 
clause level 63 (Kante=4, Kdesc=1148, core=2):-18666 16916 
clause level 42 (Kante=4, Kdesc=804, core=0):10631 13106 12037 -16490 
clause level 16 (Kante=19, Kdesc=658, core=2):-21388 14361 18441 
clause level 63 (Kante=147, Kdesc=880, core=2):13337 -15484 
clause level 1 (Kante=3, Kdesc=987, core=0):-13718 14784 13723 
clause level 22 (Kante=72, Kdesc=841, core=2):-10984 10794 10768 10983 9565 
clause level 5 (Kante=5, Kdesc=679, core=1):-18182 18265 19197 
clause level 1 (Kante=7, Kdesc=950, core=0):20109 18663 18662 -20437 20431 19042 
clause level 41 (Kante=18, Kdesc=515, core=2):9565 12750 14903 12986 13838 -12203 13106 
clause level 56 (Kante=95, Kdesc=1069, core=0):12258 -14416 12254 10144 12257 12942 
clause level 1 (Kante=7, Kdesc=743, core=0):-23519 -22616 
clause level 5 (Kante=5, Kdesc=764, core=0):-18184 18182 18265 18181 19197 
clause level 40 (Kante=13, Kdesc=729, core=1):11696 -11152 11561 10901 10496 10927 
clause level 2 (Kante=9, Kdesc=811, core=3):11208 11948 -14101 11238 11894 12291 11898 
clause level 69 (Kante=137, Kdesc=713, core=1):20529 18098 -14903 -16156 17260 
clause level 4 (Kante=3, Kdesc=793, core=0):-19233 18098 
clause level 28 (Kante=5, Kdesc=678, core=0):9565 -10716 
clause level 3 (Kante=5, Kdesc=589, core=0):15484 -16911 19037 
clause level 7 (Kante=3, Kdesc=616, core=3):-16051 14903 
clause level 84 (Kante=432, Kdesc=51, core=1):18387 17260 -27942 -28996 -27874 18098 18325 
clause level 61 (Kante=138, Kdesc=574, core=0):16230 -18353 15516 15514 16229 
clause level 31 (Kante=3, Kdesc=559, core=2):11696 -11782 11780 
clause level 120 (Kante=660, Kdesc=232, core=2):-29796 -27197 -28361 27770 
clause level 90 (Kante=300, Kdesc=304, core=3):18387 17260 -19726 18098 18325 
clause level 3 (Kante=3, Kdesc=581, core=0):-14985 13838 
clause level 61 (Kante=136, Kdesc=400, core=2):11212 -13337 11606 
clause level 129 (Kante=612, Kdesc=17, core=2):-23429 -25068 21673 -20529 24687 -22228 -25567 -27942 -27874 -28996 -24001 24581 
clause level 89 (Kante=734, Kdesc=56, core=3):22363 -25833 21573 22452 25069 21386 22228 -21597 18461 22736 -21490 
clause level 45 (Kante=252, Kdesc=200, core=3):13838 -16911 14990 11992 13927 12837 11784 11785 14991 13050 13024 
clause level 118 (Kante=725, Kdesc=167, core=1):22736 -31129 -29986 29796 30860 -29982 28734 27909 28822 -31794 -31230 31132 -28924 -33929 31930 -33285 -33181 26621 23429 
Found 1135 good successive clauses in order (831 originals, maxlevel=129)
c KCorePR 1371370 326 1135 831 129
c DistanceTo...Unseen 337929
c DistanceToGoodKCore c   DIST 0: 1135 (+1135) / 1135 (+1135)
c   DIST 1: 201633 (+200498) / 70480 (+69345)
c   DIST 2: 570853 (+369220) / 301698 (+231218)
c   DIST 3: 744329 (+173476) / 374061 (+72363)
c   DIST 4: 868559 (+124230) / 408164 (+34103)
c   DIST 5: 941231 (+72672) / 422647 (+14483)
c   DIST 6: 981060 (+39829) / 427733 (+5086)
c   DIST 7: 1004149 (+23089) / 429105 (+1372)
c   DIST 8: 1017633 (+13484) / 429453 (+348)
c   DIST 9: 1024669 (+7036) / 429540 (+87)
c   DIST 10: 1028575 (+3906) / 429568 (+28)
c   DIST 11: 1030620 (+2045) / 429577 (+9)
c   DIST 12: 1031694 (+1074) / 429578 (+1)
c   DIST 13: 1032319 (+625) / 429578 (+0)
c   DIST 14: 1032710 (+391) / 429578 (+0)
c   DIST 15: 1032992 (+282) / 429578 (+0)
c   DIST 16: 1033165 (+173) / 429578 (+0)
c   DIST 17: 1033288 (+123) / 429578 (+0)
c   DIST 18: 1033387 (+99) / 429578 (+0)
c   DIST 19: 1033431 (+44) / 429578 (+0)
c   DIST 20: 1033441 (+10) / 429578 (+0)
c TotalDistance=1371370
No graph is dumped
c result of core 2 is UNSAT
c One thread has finished
c Core 2 said it finished
c result of core 3 is UNKNOWN
c result of core 1 is UNKNOWN
c result of core 0 is UNKNOWN
c restarts              : 1427 (169 conflicts in avg)
c blocked restarts      : 1365 (multiple: 442) 
c last block at restart : 1410
c nb ReduceDB           : 10
c nb removed Clauses    : 220165
c nb learnts DL2        : 10949
c nb learnts size 2     : 3353
c nb learnts size 1     : 60
c conflicts             : 241598         (266 /sec)
c decisions             : 660549         (0.00 % random) (728 /sec)
c propagations          : 224187253      (247139 /sec)
c conflict literals     : 17153076       (9.08 % deleted)
c nb reduced Clauses    : 14634
c CPU time              : 907.131 s

s INDETERMINATE
