c
c This is glucose-proof 1.0 based on  2.1 --  (thanks to MiniSAT)
c
c EXPERIMENTAL EASY PARALLEL (ROUND ROBIN) VERSION
c
c WARNING: for repeatability, setting FPU to use double precision
c Parallel version 6 solvers created.
c ========================================[ Problem Statistics ]===========================================
c |                                                                                                       |
c |  Number of variables:         61909                                                                   |
c |  Number of clauses:          404240                                                                   |
c |  Parse time:                   0.69 s                                                                 |
c |                                                                                                       |
c ========================================[ MAGIC CONSTANTS ]==============================================
c | Constants are supposed to work well together :-)                                                      |
c | however, if you find better choices, please let us known...                                           |
c |-------------------------------------------------------------------------------------------------------|
c |                                |                                |                                     |
c | - Restarts:                    | - Reduce Clause DB:            | - Minimize Asserting:               |
c |   * LBD Queue    :     50      |   * First     :   4000         |    * size <  30                     |
c |   * Trail  Queue :   5000      |   * Inc       :    300         |    * lbd  <   6                     |
c |   * K            :   0.80      |   * Special   :   1000         |                                     |
c |   * R            :   1.40      |   * Protected :  (lbd)< 30     |                                     |
c |                                |                                |                                     |
c ==================================[ Search Statistics (every  10000 conflicts) ]=========================
c |                                                                                                       |
c |          RESTARTS           |          ORIGINAL         |              LEARNT              | Progress |
c |       NB   Blocked  Avg Cfc |    Vars  Clauses Literals |   Red   Learnts    LBD2  Removed |          |
c =========================================================================================================
c |       51         0      196 |   61277   404240  1266187 |     1     8017     1286     5115 |  1.021 % |
c |       94        86      212 |   61196   404240  1266187 |     3     6997     2219    28004 |  1.152 % |
c |      124       154      241 |   61122   404240  1266187 |     3    16972     3025    28004 |  1.271 % |
c |      154       235      259 |   60912   404240  1266187 |     4    15634     3845    47819 |  1.610 % |
c |      192       285      260 |   60744   404240  1266187 |     4    25624     4601    47819 |  1.882 % |
c |      234       351      256 |   60354   404240  1266187 |     5    19704     5191    71224 |  2.512 % |
c |      284       410      246 |   60284   404240  1266187 |     5    29601     5645    71224 |  2.625 % |
c |      333       462      240 |   60259   404240  1266187 |     5    39577     6069    71224 |  2.665 % |
c |      363       515      247 |   60197   404240  1266187 |     6    29350     6585    96719 |  2.765 % |
c |      419       572      238 |   60115   404240  1266187 |     6    39235     6917    96719 |  2.898 % |
c |      484       620      227 |   59987   404240  1266187 |     6    49209     7213    96719 |  3.105 % |
c |      545       686      220 |   59945   404240  1266187 |     7    35516     7462   124071 |  3.172 % |
c |      614       736      211 |   59941   404240  1266187 |     7    45515     7711   124071 |  3.179 % |
c |      700       794      200 |   59914   404240  1266187 |     7    55511     7948   124071 |  3.222 % |
c |      776       837      193 |   59897   404240  1266187 |     8    37532     8139   154869 |  3.250 % |
c |      837       893      191 |   59896   404240  1266187 |     8    47522     8283   154869 |  3.252 % |
c |      901       945      188 |   59873   404240  1266187 |     8    57522     8449   154869 |  3.289 % |
c |      961       996      187 |   59870   404240  1266187 |     9    39978     8571   183037 |  3.294 % |
c |     1026      1054      185 |   59828   404240  1266187 |     9    49953     8692   183037 |  3.361 % |
c |     1088      1103      183 |   59779   404240  1266187 |     9    59036     8832   183037 |  3.441 % |
c empty clause found by core 2 at conflict 201255
*
c checking the resolution graph...OK
c All useful bySize 487498 clauses, percentiles 0 2 2 2 3 9 35 95 146 277 1018 1035 (0,1,5,10,25,50,75,90,95,99,100-1,100)
c All useless bySize 1125882 clauses, percentiles 0 2 2 2 5 22 71 154 223 411 1313 1468 (0,1,5,10,25,50,75,90,95,99,100-1,100)
c ProofOnly useful bySize 363379 clauses, percentiles 0 2 3 4 6 17 53 116 169 302 1018 1035 (0,1,5,10,25,50,75,90,95,99,100-1,100)
c ProofOnly useless bySize 844148 clauses, percentiles 1 4 6 8 16 40 96 182 254 447 1313 1468 (0,1,5,10,25,50,75,90,95,99,100-1,100)
c All useful byFinalLBD 487498 clauses, percentiles 0 1 1 1 2 3 5 8 10 13 66 69 (0,1,5,10,25,50,75,90,95,99,100-1,100)
c All useless byFinalLBD 1125882 clauses, percentiles 0 1 2 2 3 6 9 13 16 24 148 148 (0,1,5,10,25,50,75,90,95,99,100-1,100)
c ProofOnly useful byFinalLBD 363379 clauses, percentiles 0 1 1 1 2 3 5 8 10 14 66 69 (0,1,5,10,25,50,75,90,95,99,100-1,100)
c ProofOnly useless byFinalLBD 844148 clauses, percentiles 1 1 2 3 5 7 10 15 18 25 148 148 (0,1,5,10,25,50,75,90,95,99,100-1,100)
c All useful byInitialLBD 487498 clauses, percentiles 0 2 2 2 3 4 6 9 11 15 68 69 (0,1,5,10,25,50,75,90,95,99,100-1,100)
c All useless byInitialLBD 1125882 clauses, percentiles 0 2 2 2 4 6 10 14 17 24 148 148 (0,1,5,10,25,50,75,90,95,99,100-1,100)
c ProofOnly useful byInitialLBD 363379 clauses, percentiles 0 2 2 2 3 5 7 10 11 15 68 69 (0,1,5,10,25,50,75,90,95,99,100-1,100)
c ProofOnly useless byInitialLBD 844148 clauses, percentiles 1 2 3 4 5 8 11 15 18 25 148 148 (0,1,5,10,25,50,75,90,95,99,100-1,100)
c Literals ProofOnly useful 15553858
c Literals ProofOnly useless 62348651
c additional windowsGood 1 1 1 1 1 1 2 2 3 5 65 69 (0,1,5,10,25,50,75,90,95,99,100-1,100)
c additional windowsBad 1 1 1 1 1 2 4 6 9 18 76 89 (0,1,5,10,25,50,75,90,95,99,100-1,100)
c additional 1WindowNoDecision 171483 83262 0.49 75550 28924 0.38 (nbWindowsGood,nbWindowsNoDecisionGood,nbWindowsBad,nbWindowsNoDecisionBad
c additional topclausessize all (10%,5%,1%,top) 172.69 227.92 363.20 1035
c additional topclausessize proofonly (10%,5%,1%,top) 183.32 239.08 374.94 1035
c additional topclausesinitialLBD all (10%,5%,1%,top) 148.42 202.32 335.94 1035
c additional topclausesinitialLBD proofonly (10%,5%,1%,top) 130.50 183.32 315.56 1035
c additional topclausesfinalLBD all (10%,5%,1%,top) 112.28 163.75 294.38 1035
c additional topclausesfinalLBD proofonly (10%,5%,1%,top) 101.54 152.02 281.54 1035
c additional predictionInitialLBD 1 326 363379 0.87 0.00 0.00 1207201 844148 0.70 2.32 1.07 0.70 (nbgoodclauses,nbtotalgood,precisionGood,recallGood,FGood,nbbadclause,nbtotalbad,precisionBad,recallBad,FBad,accuracy)
c additional predictionInitialLBD 2 52550 363379 0.75 0.11 0.19 1154977 844148 0.72 2.29 1.09 0.72 (nbgoodclauses,nbtotalgood,precisionGood,recallGood,FGood,nbbadclause,nbtotalbad,precisionBad,recallBad,FBad,accuracy)
c additional predictionInitialLBD 3 164461 363379 0.64 0.29 0.40 1043066 844148 0.75 2.16 1.12 0.74 (nbgoodclauses,nbtotalgood,precisionGood,recallGood,FGood,nbbadclause,nbtotalbad,precisionBad,recallBad,FBad,accuracy)
c additional predictionInitialLBD 4 306100 363379 0.52 0.44 0.48 901427 844148 0.77 1.92 1.10 0.71 (nbgoodclauses,nbtotalgood,precisionGood,recallGood,FGood,nbbadclause,nbtotalbad,precisionBad,recallBad,FBad,accuracy)
c additional predictionInitialLBD 5 449611 363379 0.46 0.57 0.51 757916 844148 0.80 1.66 1.08 0.67 (nbgoodclauses,nbtotalgood,precisionGood,recallGood,FGood,nbbadclause,nbtotalbad,precisionBad,recallBad,FBad,accuracy)
c additional predictionInitialLBD 6 580511 363379 0.43 0.69 0.53 627016 844148 0.82 1.41 1.04 0.63 (nbgoodclauses,nbtotalgood,precisionGood,recallGood,FGood,nbbadclause,nbtotalbad,precisionBad,recallBad,FBad,accuracy)
c additional predictionInitialLBD 7 698945 363379 0.40 0.78 0.53 508582 844148 0.84 1.18 0.98 0.59 (nbgoodclauses,nbtotalgood,precisionGood,recallGood,FGood,nbbadclause,nbtotalbad,precisionBad,recallBad,FBad,accuracy)
c additional predictionInitialLBD 8 799987 363379 0.38 0.84 0.53 407540 844148 0.86 0.97 0.91 0.54 (nbgoodclauses,nbtotalgood,precisionGood,recallGood,FGood,nbbadclause,nbtotalbad,precisionBad,recallBad,FBad,accuracy)
c additional predictionInitialLBD 10 951496 363379 0.35 0.93 0.51 256031 844148 0.90 0.63 0.74 0.47 (nbgoodclauses,nbtotalgood,precisionGood,recallGood,FGood,nbbadclause,nbtotalbad,precisionBad,recallBad,FBad,accuracy)
c additional predictionInitialLBD 14 1109585 363379 0.32 0.99 0.49 97942 844148 0.95 0.26 0.40 0.37 (nbgoodclauses,nbtotalgood,precisionGood,recallGood,FGood,nbbadclause,nbtotalbad,precisionBad,recallBad,FBad,accuracy)
c additional predictionInitialLBD 18 1168341 363379 0.31 1.00 0.47 39186 844148 0.97 0.10 0.19 0.33 (nbgoodclauses,nbtotalgood,precisionGood,recallGood,FGood,nbbadclause,nbtotalbad,precisionBad,recallBad,FBad,accuracy)
c additional predictionInitialLBD 22 1191539 363379 0.30 1.00 0.47 15988 844148 0.98 0.04 0.08 0.31 (nbgoodclauses,nbtotalgood,precisionGood,recallGood,FGood,nbbadclause,nbtotalbad,precisionBad,recallBad,FBad,accuracy)
c additional predictionInitialLBD 30 1204164 363379 0.30 1.00 0.46 3363 844148 0.98 0.01 0.02 0.30 (nbgoodclauses,nbtotalgood,precisionGood,recallGood,FGood,nbbadclause,nbtotalbad,precisionBad,recallBad,FBad,accuracy)
c additional predictionInitialLBD 40 1206827 363379 0.30 1.00 0.46 700 844148 0.96 0.00 0.00 0.30 (nbgoodclauses,nbtotalgood,precisionGood,recallGood,FGood,nbbadclause,nbtotalbad,precisionBad,recallBad,FBad,accuracy)
c additional predictionFinallLBD 1 81275 363379 0.86 0.19 0.31 1126252 844148 0.74 0.99 0.85 0.75 (nbgoodclauses,nbtotalgood,precisionGood,recallGood,FGood,nbbadclause,nbtotalbad,precisionBad,recallBad,FBad,accuracy)
c additional predictionFinallLBD 2 203533 363379 0.79 0.44 0.57 1003994 844148 0.80 0.95 0.87 0.80 (nbgoodclauses,nbtotalgood,precisionGood,recallGood,FGood,nbbadclause,nbtotalbad,precisionBad,recallBad,FBad,accuracy)
c additional predictionFinallLBD 3 310623 363379 0.67 0.57 0.61 896904 844148 0.83 0.88 0.85 0.78 (nbgoodclauses,nbtotalgood,precisionGood,recallGood,FGood,nbbadclause,nbtotalbad,precisionBad,recallBad,FBad,accuracy)
c additional predictionFinallLBD 4 442713 363379 0.55 0.67 0.61 764814 844148 0.84 0.76 0.80 0.74 (nbgoodclauses,nbtotalgood,precisionGood,recallGood,FGood,nbbadclause,nbtotalbad,precisionBad,recallBad,FBad,accuracy)
c additional predictionFinallLBD 5 565526 363379 0.48 0.75 0.59 642001 844148 0.86 0.65 0.74 0.68 (nbgoodclauses,nbtotalgood,precisionGood,recallGood,FGood,nbbadclause,nbtotalbad,precisionBad,recallBad,FBad,accuracy)
c additional predictionFinallLBD 6 674452 363379 0.44 0.82 0.57 533075 844148 0.88 0.55 0.68 0.63 (nbgoodclauses,nbtotalgood,precisionGood,recallGood,FGood,nbbadclause,nbtotalbad,precisionBad,recallBad,FBad,accuracy)
c additional predictionFinallLBD 7 771683 363379 0.41 0.87 0.56 435844 844148 0.89 0.46 0.61 0.58 (nbgoodclauses,nbtotalgood,precisionGood,recallGood,FGood,nbbadclause,nbtotalbad,precisionBad,recallBad,FBad,accuracy)
c additional predictionFinallLBD 8 855422 363379 0.39 0.91 0.54 352105 844148 0.91 0.38 0.53 0.54 (nbgoodclauses,nbtotalgood,precisionGood,recallGood,FGood,nbbadclause,nbtotalbad,precisionBad,recallBad,FBad,accuracy)
c additional predictionFinallLBD 10 983244 363379 0.35 0.96 0.52 224283 844148 0.93 0.25 0.39 0.46 (nbgoodclauses,nbtotalgood,precisionGood,recallGood,FGood,nbbadclause,nbtotalbad,precisionBad,recallBad,FBad,accuracy)
c additional predictionFinallLBD 14 1119729 363379 0.32 0.99 0.49 87798 844148 0.97 0.10 0.18 0.37 (nbgoodclauses,nbtotalgood,precisionGood,recallGood,FGood,nbbadclause,nbtotalbad,precisionBad,recallBad,FBad,accuracy)
c additional predictionFinallLBD 18 1172145 363379 0.31 1.00 0.47 35382 844148 0.98 0.04 0.08 0.33 (nbgoodclauses,nbtotalgood,precisionGood,recallGood,FGood,nbbadclause,nbtotalbad,precisionBad,recallBad,FBad,accuracy)
c additional predictionFinallLBD 22 1193033 363379 0.30 1.00 0.47 14494 844148 0.98 0.02 0.03 0.31 (nbgoodclauses,nbtotalgood,precisionGood,recallGood,FGood,nbbadclause,nbtotalbad,precisionBad,recallBad,FBad,accuracy)
c additional predictionFinallLBD 30 1204477 363379 0.30 1.00 0.46 3050 844148 0.98 0.00 0.01 0.30 (nbgoodclauses,nbtotalgood,precisionGood,recallGood,FGood,nbbadclause,nbtotalbad,precisionBad,recallBad,FBad,accuracy)
c additional predictionFinallLBD 40 1206915 363379 0.30 1.00 0.46 612 844148 0.97 0.00 0.00 0.30 (nbgoodclauses,nbtotalgood,precisionGood,recallGood,FGood,nbbadclause,nbtotalbad,precisionBad,recallBad,FBad,accuracy)
c additional predictionSize 1 326 363379 0.87 0.00 0.00 1207201 844148 0.70 2.32 1.07 0.70 (nbgoodclauses,nbtotalgood,precisionGood,recallGood,FGood,nbbadclause,nbtotalbad,precisionBad,recallBad,FBad,accuracy)
c additional predictionSize 2 14877 363379 0.86 0.04 0.07 1192650 844148 0.71 2.32 1.08 0.71 (nbgoodclauses,nbtotalgood,precisionGood,recallGood,FGood,nbbadclause,nbtotalbad,precisionBad,recallBad,FBad,accuracy)
c additional predictionSize 3 40056 363379 0.80 0.09 0.16 1167471 844148 0.72 2.30 1.09 0.72 (nbgoodclauses,nbtotalgood,precisionGood,recallGood,FGood,nbbadclause,nbtotalbad,precisionBad,recallBad,FBad,accuracy)
c additional predictionSize 4 73351 363379 0.73 0.15 0.25 1134176 844148 0.73 2.27 1.10 0.73 (nbgoodclauses,nbtotalgood,precisionGood,recallGood,FGood,nbbadclause,nbtotalbad,precisionBad,recallBad,FBad,accuracy)
c additional predictionSize 5 109772 363379 0.68 0.20 0.31 1097755 844148 0.74 2.22 1.11 0.73 (nbgoodclauses,nbtotalgood,precisionGood,recallGood,FGood,nbbadclause,nbtotalbad,precisionBad,recallBad,FBad,accuracy)
c additional predictionSize 6 145144 363379 0.63 0.25 0.36 1062383 844148 0.74 2.18 1.11 0.73 (nbgoodclauses,nbtotalgood,precisionGood,recallGood,FGood,nbbadclause,nbtotalbad,precisionBad,recallBad,FBad,accuracy)
c additional predictionSize 7 178853 363379 0.60 0.29 0.40 1028674 844148 0.75 2.13 1.11 0.73 (nbgoodclauses,nbtotalgood,precisionGood,recallGood,FGood,nbbadclause,nbtotalbad,precisionBad,recallBad,FBad,accuracy)
c additional predictionSize 8 210900 363379 0.57 0.33 0.42 996627 844148 0.76 2.07 1.11 0.72 (nbgoodclauses,nbtotalgood,precisionGood,recallGood,FGood,nbbadclause,nbtotalbad,precisionBad,recallBad,FBad,accuracy)
c additional predictionSize 10 269929 363379 0.52 0.39 0.44 937598 844148 0.76 1.97 1.10 0.71 (nbgoodclauses,nbtotalgood,precisionGood,recallGood,FGood,nbbadclause,nbtotalbad,precisionBad,recallBad,FBad,accuracy)
c additional predictionSize 14 363436 363379 0.47 0.47 0.47 844091 844148 0.77 1.79 1.08 0.68 (nbgoodclauses,nbtotalgood,precisionGood,recallGood,FGood,nbbadclause,nbtotalbad,precisionBad,recallBad,FBad,accuracy)
c additional predictionSize 18 435483 363379 0.44 0.53 0.48 772044 844148 0.78 1.65 1.06 0.66 (nbgoodclauses,nbtotalgood,precisionGood,recallGood,FGood,nbbadclause,nbtotalbad,precisionBad,recallBad,FBad,accuracy)
c additional predictionSize 22 494792 363379 0.42 0.57 0.48 712735 844148 0.78 1.53 1.03 0.63 (nbgoodclauses,nbtotalgood,precisionGood,recallGood,FGood,nbbadclause,nbtotalbad,precisionBad,recallBad,FBad,accuracy)
c additional predictionSize 30 586783 363379 0.39 0.63 0.48 620744 844148 0.79 1.34 0.99 0.59 (nbgoodclauses,nbtotalgood,precisionGood,recallGood,FGood,nbbadclause,nbtotalbad,precisionBad,recallBad,FBad,accuracy)
c additional predictionSize 40 676638 363379 0.37 0.69 0.49 530889 844148 0.79 1.16 0.94 0.56 (nbgoodclauses,nbtotalgood,precisionGood,recallGood,FGood,nbbadclause,nbtotalbad,precisionBad,recallBad,FBad,accuracy)
c additional predictionAge 1 71066 363379 0.42 0.08 0.14 1136461 844148 0.71 2.21 1.07 0.69 (nbgoodclauses,nbtotalgood,precisionGood,recallGood,FGood,nbbadclause,nbtotalbad,precisionBad,recallBad,FBad,accuracy)
c additional predictionAge 10 75875 363379 0.41 0.09 0.14 1131652 844148 0.71 2.20 1.07 0.69 (nbgoodclauses,nbtotalgood,precisionGood,recallGood,FGood,nbbadclause,nbtotalbad,precisionBad,recallBad,FBad,accuracy)
c additional predictionAge 25 84152 363379 0.39 0.09 0.15 1123375 844148 0.71 2.18 1.07 0.68 (nbgoodclauses,nbtotalgood,precisionGood,recallGood,FGood,nbbadclause,nbtotalbad,precisionBad,recallBad,FBad,accuracy)
c additional predictionAge 50 87208 363379 0.39 0.09 0.15 1120319 844148 0.71 2.18 1.07 0.68 (nbgoodclauses,nbtotalgood,precisionGood,recallGood,FGood,nbbadclause,nbtotalbad,precisionBad,recallBad,FBad,accuracy)
c additional predictionAge 100 89977 363379 0.38 0.10 0.15 1117550 844148 0.71 2.17 1.07 0.68 (nbgoodclauses,nbtotalgood,precisionGood,recallGood,FGood,nbbadclause,nbtotalbad,precisionBad,recallBad,FBad,accuracy)
c additional predictionAge 250 93350 363379 0.38 0.10 0.16 1114177 844148 0.71 2.16 1.06 0.68 (nbgoodclauses,nbtotalgood,precisionGood,recallGood,FGood,nbbadclause,nbtotalbad,precisionBad,recallBad,FBad,accuracy)
c additional predictionAge 500 95710 363379 0.38 0.10 0.16 1111817 844148 0.71 2.16 1.06 0.68 (nbgoodclauses,nbtotalgood,precisionGood,recallGood,FGood,nbbadclause,nbtotalbad,precisionBad,recallBad,FBad,accuracy)
c additional predictionAge 1000 98003 363379 0.38 0.10 0.16 1109524 844148 0.71 2.16 1.06 0.68 (nbgoodclauses,nbtotalgood,precisionGood,recallGood,FGood,nbbadclause,nbtotalbad,precisionBad,recallBad,FBad,accuracy)
c additional predictionAge 2500 101390 363379 0.38 0.10 0.16 1106137 844148 0.71 2.15 1.06 0.68 (nbgoodclauses,nbtotalgood,precisionGood,recallGood,FGood,nbbadclause,nbtotalbad,precisionBad,recallBad,FBad,accuracy)
c additional predictionAge 5000 105650 363379 0.38 0.11 0.17 1101877 844148 0.71 2.14 1.06 0.68 (nbgoodclauses,nbtotalgood,precisionGood,recallGood,FGood,nbbadclause,nbtotalbad,precisionBad,recallBad,FBad,accuracy)
c additional predictionAge 10000 113524 363379 0.37 0.12 0.18 1094003 844148 0.71 2.13 1.06 0.68 (nbgoodclauses,nbtotalgood,precisionGood,recallGood,FGood,nbbadclause,nbtotalbad,precisionBad,recallBad,FBad,accuracy)
c additional predictionAge 25000 135099 363379 0.36 0.14 0.20 1072428 844148 0.71 2.09 1.06 0.67 (nbgoodclauses,nbtotalgood,precisionGood,recallGood,FGood,nbbadclause,nbtotalbad,precisionBad,recallBad,FBad,accuracy)
c additional predictionAge 50000 167585 363379 0.35 0.16 0.22 1039942 844148 0.71 2.03 1.05 0.66 (nbgoodclauses,nbtotalgood,precisionGood,recallGood,FGood,nbbadclause,nbtotalbad,precisionBad,recallBad,FBad,accuracy)
c additional predictionAge 100000 226195 363379 0.34 0.21 0.26 981332 844148 0.71 1.91 1.03 0.64 (nbgoodclauses,nbtotalgood,precisionGood,recallGood,FGood,nbbadclause,nbtotalbad,precisionBad,recallBad,FBad,accuracy)
c additional predictionTicks 1 71137 363379 0.42 0.08 0.14 1136390 844148 0.71 2.21 1.07 0.69 (nbgoodclauses,nbtotalgood,precisionGood,recallGood,FGood,nbbadclause,nbtotalbad,precisionBad,recallBad,FBad,accuracy)
c additional predictionTicks 10 99996 363379 0.41 0.11 0.18 1107531 844148 0.71 2.16 1.07 0.68 (nbgoodclauses,nbtotalgood,precisionGood,recallGood,FGood,nbbadclause,nbtotalbad,precisionBad,recallBad,FBad,accuracy)
c additional predictionTicks 25 136709 363379 0.40 0.15 0.22 1070818 844148 0.71 2.10 1.06 0.68 (nbgoodclauses,nbtotalgood,precisionGood,recallGood,FGood,nbbadclause,nbtotalbad,precisionBad,recallBad,FBad,accuracy)
c additional predictionTicks 50 160326 363379 0.39 0.17 0.24 1047201 844148 0.71 2.06 1.06 0.67 (nbgoodclauses,nbtotalgood,precisionGood,recallGood,FGood,nbbadclause,nbtotalbad,precisionBad,recallBad,FBad,accuracy)
c additional predictionTicks 100 188330 363379 0.39 0.20 0.27 1019197 844148 0.72 2.01 1.06 0.67 (nbgoodclauses,nbtotalgood,precisionGood,recallGood,FGood,nbbadclause,nbtotalbad,precisionBad,recallBad,FBad,accuracy)
c additional predictionTicks 250 232138 363379 0.39 0.25 0.30 975389 844148 0.72 1.93 1.05 0.66 (nbgoodclauses,nbtotalgood,precisionGood,recallGood,FGood,nbbadclause,nbtotalbad,precisionBad,recallBad,FBad,accuracy)
c additional predictionTicks 500 269320 363379 0.39 0.29 0.33 938207 844148 0.72 1.87 1.04 0.65 (nbgoodclauses,nbtotalgood,precisionGood,recallGood,FGood,nbbadclause,nbtotalbad,precisionBad,recallBad,FBad,accuracy)
c additional predictionTicks 1000 311887 363379 0.39 0.33 0.36 895640 844148 0.73 1.80 1.04 0.64 (nbgoodclauses,nbtotalgood,precisionGood,recallGood,FGood,nbbadclause,nbtotalbad,precisionBad,recallBad,FBad,accuracy)
c additional predictionTicks 2500 381855 363379 0.38 0.40 0.39 825672 844148 0.74 1.67 1.02 0.63 (nbgoodclauses,nbtotalgood,precisionGood,recallGood,FGood,nbbadclause,nbtotalbad,precisionBad,recallBad,FBad,accuracy)
c additional predictionTicks 5000 456342 363379 0.38 0.47 0.42 751185 844148 0.75 1.54 1.00 0.61 (nbgoodclauses,nbtotalgood,precisionGood,recallGood,FGood,nbbadclause,nbtotalbad,precisionBad,recallBad,FBad,accuracy)
c additional predictionTicks 10000 563428 363379 0.37 0.57 0.44 644099 844148 0.76 1.34 0.97 0.57 (nbgoodclauses,nbtotalgood,precisionGood,recallGood,FGood,nbbadclause,nbtotalbad,precisionBad,recallBad,FBad,accuracy)
c additional predictionTicks 25000 753946 363379 0.35 0.72 0.47 453581 844148 0.77 0.96 0.86 0.51 (nbgoodclauses,nbtotalgood,precisionGood,recallGood,FGood,nbbadclause,nbtotalbad,precisionBad,recallBad,FBad,accuracy)
c additional predictionTicks 50000 922686 363379 0.33 0.83 0.47 284841 844148 0.79 0.62 0.69 0.44 (nbgoodclauses,nbtotalgood,precisionGood,recallGood,FGood,nbbadclause,nbtotalbad,precisionBad,recallBad,FBad,accuracy)
c additional predictionTicks 100000 1074138 363379 0.31 0.93 0.47 133389 844148 0.80 0.29 0.43 0.37 (nbgoodclauses,nbtotalgood,precisionGood,recallGood,FGood,nbbadclause,nbtotalbad,precisionBad,recallBad,FBad,accuracy)
c additional lifetimeGood 1 6 5299 36005 165116 425234 730346 950965 1053127 1156500 1208645 1208800 (0,1,5,10,25,50,75,90,95,99,100-1,100)
c additional lifetimeBad 1 6 1566 28870 135833 368321 651449 868588 972379 1113263 1208959 1209012 (0,1,5,10,25,50,75,90,95,99,100-1,100)
c additional lifetimeBadBad 1 6 6 6 12 138 53525 196567 342714 733240 1198608 1198632 (0,1,5,10,25,50,75,90,95,99,100-1,100)
c additional compositionBad 1 2 4 6 12 31 77 172 268 566 5566 5724 (0,1,5,10,25,50,75,90,95,99,100-1,100)
c additional compositionBadWithGood 0 0 0 1 4 12 32 71 110 227 1206 1242 (0,1,5,10,25,50,75,90,95,99,100-1,100)
c additional compositionBadWithBad 0 0 0 0 0 1 2 4 6 11 97 120 (0,1,5,10,25,50,75,90,95,99,100-1,100)
c additional compositionBadWithInitial 0 0 2 3 7 17 44 99 157 344 5496 5651 (0,1,5,10,25,50,75,90,95,99,100-1,100)
c additional compositionGood 1 2 3 3 6 14 45 115 187 402 2756 3345 (0,1,5,10,25,50,75,90,95,99,100-1,100)
c additional compositionGoodWithGood 0 0 0 1 2 6 21 52 83 181 1024 1093 (0,1,5,10,25,50,75,90,95,99,100-1,100)
c additional compositionGoodWithInitial 0 0 1 2 3 8 24 63 105 231 1864 2369 (0,1,5,10,25,50,75,90,95,99,100-1,100)
c additional propagationGood total 153111770 percentiles 0 1 1 1 2 12 99 661 1823 8369 46461 47241 (0,1,5,10,25,50,75,90,95,99,100-1,100)
c additional propagationBad total 9379485 percentiles 1 1 1 1 1 1 3 9 19 110 38446 40005 (0,1,5,10,25,50,75,90,95,99,100-1,100)
c additional resolutionGood total 23698554 percentiles 0 1 1 1 2 6 26 111 274 1175 11545 14793 (0,1,5,10,25,50,75,90,95,99,100-1,100)
c additional resolutionBad total 1456491 percentiles 0 0 0 0 1 1 2 3 6 15 335 360 (0,1,5,10,25,50,75,90,95,99,100-1,100)
Computing K-Core for 1613380 clauses...
c building structure for KCore computation.
c the graph has 75715490 edges, maxdegree=5724
c we start the KCore with the value 20
c Non directed graph built
K=20,507595 nodes removed so far
K=21,530295 nodes removed so far
K=22,552141 nodes removed so far
K=23,573192 nodes removed so far
K=24,593264 nodes removed so far
K=25,612335 nodes removed so far
K=26,630747 nodes removed so far
K=27,648688 nodes removed so far
K=28,665935 nodes removed so far
K=29,682626 nodes removed so far
K=30,698457 nodes removed so far
K=31,713842 nodes removed so far
K=32,728784 nodes removed so far
K=33,742738 nodes removed so far
K=34,756630 nodes removed so far
K=35,769923 nodes removed so far
K=36,782750 nodes removed so far
K=37,795259 nodes removed so far
K=38,807069 nodes removed so far
K=39,818852 nodes removed so far
K=40,830382 nodes removed so far
K=41,841439 nodes removed so far
K=42,852067 nodes removed so far
K=43,862282 nodes removed so far
K=44,872231 nodes removed so far
K=45,881870 nodes removed so far
K=46,891213 nodes removed so far
K=47,900427 nodes removed so far
K=48,909310 nodes removed so far
K=49,918069 nodes removed so far
K=50,926488 nodes removed so far
K=51,934751 nodes removed so far
K=52,942700 nodes removed so far
K=53,950634 nodes removed so far
K=54,958206 nodes removed so far
K=55,965716 nodes removed so far
K=56,972807 nodes removed so far
K=57,979702 nodes removed so far
K=58,986509 nodes removed so far
K=59,993240 nodes removed so far
K=60,999686 nodes removed so far
K=61,1006124 nodes removed so far
K=62,1012485 nodes removed so far
K=63,1018770 nodes removed so far
K=64,1024646 nodes removed so far
K=65,1030548 nodes removed so far
K=66,1036361 nodes removed so far
K=67,1041996 nodes removed so far
K=68,1047553 nodes removed so far
K=69,1052883 nodes removed so far
K=70,1058021 nodes removed so far
K=71,1063239 nodes removed so far
K=72,1068291 nodes removed so far
K=73,1073262 nodes removed so far
K=74,1078111 nodes removed so far
K=75,1082769 nodes removed so far
K=76,1087586 nodes removed so far
K=77,1092116 nodes removed so far
K=78,1096514 nodes removed so far
K=79,1100754 nodes removed so far
K=80,1104916 nodes removed so far
K=81,1109044 nodes removed so far
K=82,1113025 nodes removed so far
K=83,1117129 nodes removed so far
K=84,1121082 nodes removed so far
K=85,1124897 nodes removed so far
K=86,1128770 nodes removed so far
K=87,1132593 nodes removed so far
K=88,1136375 nodes removed so far
K=89,1139916 nodes removed so far
K=90,1143380 nodes removed so far
K=91,1146893 nodes removed so far
K=92,1150360 nodes removed so far
K=93,1153831 nodes removed so far
K=94,1157097 nodes removed so far
K=95,1160284 nodes removed so far
K=96,1163369 nodes removed so far
K=97,1166344 nodes removed so far
K=98,1169471 nodes removed so far
K=99,1172537 nodes removed so far
K=100,1175503 nodes removed so far
K=101,1178414 nodes removed so far
K=102,1181210 nodes removed so far
K=103,1184034 nodes removed so far
K=104,1186798 nodes removed so far
K=105,1189507 nodes removed so far
K=106,1192069 nodes removed so far
K=107,1194693 nodes removed so far
K=108,1197095 nodes removed so far
K=109,1199722 nodes removed so far
K=110,1202261 nodes removed so far
K=111,1204668 nodes removed so far
K=112,1207015 nodes removed so far
K=113,1209478 nodes removed so far
K=114,1211860 nodes removed so far
K=115,1214080 nodes removed so far
K=116,1216293 nodes removed so far
K=117,1218517 nodes removed so far
K=118,1220778 nodes removed so far
K=119,1223073 nodes removed so far
K=120,1225235 nodes removed so far
K=121,1227339 nodes removed so far
K=122,1229413 nodes removed so far
K=123,1231413 nodes removed so far
K=124,1233520 nodes removed so far
K=125,1235435 nodes removed so far
K=126,1237401 nodes removed so far
K=127,1239304 nodes removed so far
K=128,1241312 nodes removed so far
K=129,1243201 nodes removed so far
K=130,1244987 nodes removed so far
K=131,1246845 nodes removed so far
K=132,1248655 nodes removed so far
K=133,1250542 nodes removed so far
K=134,1252366 nodes removed so far
K=135,1254170 nodes removed so far
K=136,1255884 nodes removed so far
K=137,1257524 nodes removed so far
K=138,1259209 nodes removed so far
K=139,1260932 nodes removed so far
K=140,1262566 nodes removed so far
K=141,1264237 nodes removed so far
K=142,1265869 nodes removed so far
K=143,1267429 nodes removed so far
K=144,1269002 nodes removed so far
K=145,1270623 nodes removed so far
K=146,1272221 nodes removed so far
K=147,K=148,K=149,K=150,K=151,K=152,1281110 nodes removed so far
K=153,K=154,K=155,K=156,K=157,K=158,K=159,1290901 nodes removed so far
K=160,K=161,K=162,K=163,K=164,K=165,K=166,K=167,1301029 nodes removed so far
K=168,K=169,K=170,K=171,K=172,K=173,K=174,K=175,1310350 nodes removed so far
K=176,K=177,K=178,K=179,K=180,K=181,K=182,K=183,K=184,K=185,1320903 nodes removed so far
K=186,K=187,K=188,K=189,K=190,K=191,K=192,K=193,K=194,K=195,K=196,1330700 nodes removed so far
K=197,K=198,K=199,K=200,K=201,K=202,K=203,K=204,K=205,K=206,K=207,K=208,1340497 nodes removed so far
K=209,K=210,K=211,K=212,K=213,K=214,K=215,K=216,K=217,K=218,K=219,K=220,K=221,1350243 nodes removed so far
K=222,K=223,K=224,K=225,K=226,K=227,K=228,K=229,K=230,K=231,K=232,K=233,K=234,K=235,K=236,1360490 nodes removed so far
K=237,K=238,K=239,K=240,K=241,K=242,K=243,K=244,K=245,K=246,K=247,K=248,K=249,K=250,K=251,K=252,1370015 nodes removed so far
K=253,K=254,K=255,K=256,K=257,K=258,K=259,K=260,K=261,K=262,K=263,K=264,K=265,K=266,K=267,K=268,K=269,K=270,1380179 nodes removed so far
K=271,K=272,K=273,K=274,K=275,K=276,K=277,K=278,K=279,K=280,K=281,K=282,K=283,K=284,K=285,K=286,K=287,1390743 nodes removed so far
K=288,K=289,1401070 nodes removed so far
K=290,K=291,K=292,K=293,K=294,K=295,K=296,K=297,K=298,K=299,K=300,K=301,K=302,K=303,K=304,K=305,K=306,K=307,K=308,KCore = 308
Building structure for PR...
Computing PR...
Pageranking 1215086 nodes done in 23 iteration. cumulError=4.55284e-11
clause level 2 (Kante=3, Kdesc=74583, core=1):-1987 
clause level 1 (Kante=6, Kdesc=61591, core=1):-2074 
clause level 2 (Kante=3, Kdesc=61208, core=1):-1418 
clause level 5 (Kante=110, Kdesc=59839, core=3):-1991 
clause level 4 (Kante=19, Kdesc=40990, core=3):-2863 
clause level 85 (Kante=5, Kdesc=39308, core=0):-18786 
clause level 12 (Kante=78, Kdesc=52562, core=3):-2848 
clause level 51 (Kante=70, Kdesc=26396, core=5):-10262 
clause level 49 (Kante=111, Kdesc=24230, core=3):-19424 
clause level 22 (Kante=27, Kdesc=29523, core=5):-4593 
clause level 31 (Kante=33, Kdesc=44121, core=3):-5235 
clause level 57 (Kante=10, Kdesc=4878, core=2):-19196 19155 
clause level 2 (Kante=22, Kdesc=23115, core=4):-10562 
clause level 2 (Kante=17, Kdesc=21994, core=5):-11473 
clause level 1 (Kante=9, Kdesc=8811, core=5):-16189 17050 
clause level 75 (Kante=2, Kdesc=5248, core=3):-22408 22363 
clause level 70 (Kante=4, Kdesc=4445, core=5):-21343 21300 
clause level 19 (Kante=30, Kdesc=30603, core=4):-3721 
clause level 57 (Kante=13, Kdesc=17591, core=3):-20500 
clause level 73 (Kante=19, Kdesc=18307, core=4):-21570 
clause level 5 (Kante=18, Kdesc=19284, core=5):-5840 
clause level 24 (Kante=25, Kdesc=19677, core=4):-5398 
clause level 7 (Kante=20, Kdesc=18844, core=3):-3654 
clause level 11 (Kante=106, Kdesc=32295, core=3):-2716 
clause level 29 (Kante=10, Kdesc=5812, core=4):7443 -4387 
clause level 7 (Kante=12, Kdesc=32271, core=3):-2715 
clause level 38 (Kante=104, Kdesc=11285, core=5):14135 
clause level 1 (Kante=7, Kdesc=13429, core=1):-10755 10759 10758 
clause level 40 (Kante=9, Kdesc=16047, core=3):19424 -18360 
clause level 23 (Kante=28, Kdesc=25249, core=2):5235 -4648 
clause level 8 (Kante=11, Kdesc=18699, core=4):5375 -6407 
clause level 40 (Kante=132, Kdesc=14436, core=5):15201 
clause level 56 (Kante=18, Kdesc=4275, core=3):17029 -19196 
clause level 30 (Kante=480, Kdesc=5009, core=4):-6429 7669 
clause level 51 (Kante=69, Kdesc=16048, core=5):-9193 
clause level 18 (Kante=101, Kdesc=28727, core=3):-5237 
clause level 65 (Kante=8, Kdesc=3662, core=2):-19197 19155 
clause level 24 (Kante=34, Kdesc=9870, core=0):-8516 8517 
clause level 9 (Kante=8, Kdesc=10054, core=0):-7072 -7443 
clause level 1 (Kante=4, Kdesc=12382, core=1):-10757 10755 
clause level 38 (Kante=117, Kdesc=25854, core=3):-10143 
clause level 33 (Kante=14, Kdesc=10376, core=4):-15173 -14135 -15201 
clause level 55 (Kante=43, Kdesc=8301, core=4):23696 
clause level 42 (Kante=5, Kdesc=4292, core=3):-11739 11696 
clause level 5 (Kante=20, Kdesc=13574, core=5):5840 -9650 
clause level 44 (Kante=6, Kdesc=20098, core=5):-5598 
clause level 3 (Kante=9, Kdesc=27105, core=3):4285 -4581 
clause level 65 (Kante=4, Kdesc=10596, core=2):9862 
clause level 51 (Kante=4, Kdesc=3198, core=4):-14946 14903 
clause level 5 (Kante=3, Kdesc=13751, core=3):-17294 15173 18360 
clause level 1 (Kante=6, Kdesc=9111, core=3):-12064 12771 
clause level 3 (Kante=15, Kdesc=25487, core=3):5237 -5895 
clause level 7 (Kante=7, Kdesc=7285, core=2):-4991 -5354 
clause level 39 (Kante=5, Kdesc=11619, core=2):-14107 
clause level 6 (Kante=15, Kdesc=12358, core=5):-9822 
clause level 34 (Kante=11, Kdesc=3441, core=0):8496 -9608 
clause level 42 (Kante=8, Kdesc=12717, core=5):-16236 
clause level 23 (Kante=2, Kdesc=24699, core=1):10143 -8011 
clause level 24 (Kante=18, Kdesc=12551, core=5):-7463 5562 
clause level 3 (Kante=30, Kdesc=23655, core=3):6269 -6956 
clause level 47 (Kante=4, Kdesc=2988, core=3):-13882 13838 
clause level 5 (Kante=17, Kdesc=13984, core=3):-7627 
clause level 2 (Kante=3, Kdesc=6620, core=2):15025 13463 
clause level 70 (Kante=8, Kdesc=4412, core=2):-21088 21300 
clause level 2 (Kante=4, Kdesc=8797, core=0):10918 -9565 
clause level 46 (Kante=87, Kdesc=22152, core=4):-9098 
clause level 8 (Kante=8, Kdesc=4204, core=2):-5354 -6009 
clause level 19 (Kante=74, Kdesc=21969, core=4):-10145 10143 
clause level 27 (Kante=9, Kdesc=6566, core=1):-6399 
clause level 41 (Kante=4, Kdesc=8520, core=0):8496 -7443 
clause level 50 (Kante=5, Kdesc=2316, core=2):13838 -14946 
clause level 47 (Kante=9, Kdesc=11360, core=1):17321 
clause level 50 (Kante=11, Kdesc=7320, core=4):22231 
clause level 22 (Kante=42, Kdesc=21575, core=1):-11207 8011 9065 9098 10145 10143 
clause level 67 (Kante=3, Kdesc=3852, core=4):19155 -20272 
clause level 10 (Kante=9, Kdesc=10149, core=4):-5562 5517 
clause level 6 (Kante=4, Kdesc=8485, core=0):-11825 13463 
clause level 72 (Kante=10, Kdesc=9728, core=4):20529 -19521 
clause level 45 (Kante=257, Kdesc=20312, core=4):11207 -12257 
clause level 46 (Kante=4, Kdesc=9964, core=3):6670 
clause level 7 (Kante=22, Kdesc=9469, core=1):-6658 
clause level 89 (Kante=3, Kdesc=8037, core=0):-9653 
clause level 34 (Kante=8, Kdesc=5776, core=0):7669 -8517 
clause level 2 (Kante=3, Kdesc=3746, core=2):-6501 -7443 
clause level 61 (Kante=2, Kdesc=3697, core=4):-19197 17029 
clause level 51 (Kante=4, Kdesc=7080, core=1):22631 
clause level 22 (Kante=6, Kdesc=4864, core=0):-9068 10143 
clause level 2 (Kante=2, Kdesc=5631, core=5):-17376 17273 17375 
clause level 53 (Kante=4, Kdesc=4570, core=2):-16015 15971 
clause level 56 (Kante=4, Kdesc=2314, core=4):13838 -13859 
clause level 54 (Kante=11, Kdesc=3920, core=1):15971 -17071 
clause level 13 (Kante=8, Kdesc=3964, core=3):-7443 -9190 
clause level 7 (Kante=45, Kdesc=8297, core=5):-7716 
clause level 1 (Kante=4, Kdesc=8964, core=4):-8745 7623 
clause level 30 (Kante=5, Kdesc=5052, core=4):7443 -8283 
clause level 50 (Kante=9, Kdesc=2578, core=1):11696 -12771 
clause level 18 (Kante=58, Kdesc=9012, core=3):-4284 
clause level 13 (Kante=4, Kdesc=4246, core=2):-7443 -8129 
clause level 21 (Kante=143, Kdesc=10580, core=2):-8010 
clause level 1 (Kante=7, Kdesc=8964, core=1):-8680 8745 
clause level 1 (Kante=9, Kdesc=3723, core=2):-18325 18326 
clause level 91 (Kante=145, Kdesc=6328, core=3):-10718 
clause level 9 (Kante=3, Kdesc=8003, core=1):-10817 
clause level 48 (Kante=4, Kdesc=2926, core=2):-9586 11696 
clause level 34 (Kante=3, Kdesc=2000, core=0):-9609 8496 
clause level 10 (Kante=6, Kdesc=11252, core=5):10143 -11209 
clause level 7 (Kante=30, Kdesc=7876, core=5):-9754 
clause level 35 (Kante=4, Kdesc=4284, core=2):8496 -10674 
clause level 40 (Kante=10, Kdesc=5630, core=3):-10837 9586 
clause level 4 (Kante=2, Kdesc=6659, core=0):23795 -22635 -22231 -22631 
clause level 88 (Kante=48, Kdesc=5468, core=1):-7528 
clause level 64 (Kante=25, Kdesc=2286, core=2):-7443 10631 
clause level 36 (Kante=3, Kdesc=4071, core=3):7443 -6387 
clause level 21 (Kante=12, Kdesc=7327, core=1):-13013 
clause level 29 (Kante=17, Kdesc=4922, core=0):7225 -6175 
clause level 6 (Kante=55, Kdesc=9315, core=5):-7700 
clause level 50 (Kante=6, Kdesc=8106, core=4):19521 -18387 
clause level 2 (Kante=6, Kdesc=3743, core=0):-15045 15042 
clause level 57 (Kante=6, Kdesc=2440, core=1):13838 -14924 
clause level 25 (Kante=3, Kdesc=5825, core=1):-6521 
clause level 15 (Kante=39, Kdesc=7490, core=5):9935 -9427 
clause level 6 (Kante=27, Kdesc=5656, core=5):-9655 
clause level 94 (Kante=5, Kdesc=3748, core=0):-19730 
clause level 8 (Kante=59, Kdesc=9114, core=4):-8753 
clause level 45 (Kante=14, Kdesc=7605, core=3):-6471 
clause level 20 (Kante=111, Kdesc=12543, core=0):-8769 10143 
clause level 1 (Kante=5, Kdesc=6340, core=2):6778 6504 
clause level 36 (Kante=25, Kdesc=7061, core=1):18387 -17393 -17321 17294 
clause level 46 (Kante=11, Kdesc=5452, core=4):-6770 -9565 
clause level 57 (Kante=10, Kdesc=7146, core=4):17393 -16337 
clause level 11 (Kante=2, Kdesc=3731, core=3):-7443 -8128 
clause level 56 (Kante=32, Kdesc=7252, core=5):17393 -15203 
clause level 19 (Kante=6, Kdesc=6120, core=1):-8496 -7073 7072 
clause level 8 (Kante=4, Kdesc=5128, core=0):-5354 -4992 
clause level 1 (Kante=2, Kdesc=1710, core=4):26885 26886 -27934 
clause level 11 (Kante=36, Kdesc=4284, core=0):-11786 
clause level 31 (Kante=33, Kdesc=2534, core=3):-8539 6428 -6670 7669 
clause level 24 (Kante=5, Kdesc=4562, core=1):-15835 17393 -15201 -14772 -16264 14107 
clause level 1 (Kante=3, Kdesc=4785, core=5):-16274 16894 
clause level 49 (Kante=3, Kdesc=2562, core=4):13838 -13883 
clause level 4 (Kante=3, Kdesc=4208, core=5):-12836 11326 
clause level 58 (Kante=6, Kdesc=2364, core=4):-17072 17029 18098 
clause level 48 (Kante=128, Kdesc=6807, core=0):-16894 18387 
clause level 1 (Kante=6, Kdesc=1774, core=4):15180 -15484 
clause level 16 (Kante=72, Kdesc=8495, core=4):-9833 
clause level 17 (Kante=32, Kdesc=7073, core=5):-8360 8789 
clause level 58 (Kante=9, Kdesc=2698, core=1):15971 -17072 
clause level 7 (Kante=30, Kdesc=4016, core=5):-10720 
clause level 31 (Kante=7, Kdesc=5550, core=0):7668 -7443 -8496 
clause level 48 (Kante=9, Kdesc=3026, core=5):-11836 9586 
clause level 2 (Kante=3, Kdesc=2634, core=5):-10851 11696 
clause level 5 (Kante=6, Kdesc=2168, core=5):14689 -13623 14140 
clause level 34 (Kante=3, Kdesc=5096, core=1):6482 -7443 
clause level 55 (Kante=372, Kdesc=3437, core=5):15484 -23698 
clause level 1 (Kante=3, Kdesc=3671, core=4):6611 -7444 
clause level 28 (Kante=13, Kdesc=6290, core=0):-5437 
clause level 51 (Kante=7, Kdesc=3180, core=0):-16320 16319 17049 
clause level 1 (Kante=3, Kdesc=4331, core=0):-9565 9574 
clause level 25 (Kante=3, Kdesc=6021, core=5):10143 -13014 
clause level 31 (Kante=21, Kdesc=3437, core=4):7443 -7487 
clause level 21 (Kante=8, Kdesc=3070, core=5):-12038 12037 12770 
clause level 1 (Kante=3, Kdesc=5022, core=2):7452 -7443 
clause level 54 (Kante=4, Kdesc=3291, core=5):-12959 11739 
clause level 96 (Kante=3, Kdesc=2716, core=5):19155 -20249 
clause level 55 (Kante=2, Kdesc=1685, core=3):17029 -17878 16015 
clause level 39 (Kante=7, Kdesc=4623, core=5):-13701 15203 
clause level 41 (Kante=3, Kdesc=2638, core=4):11696 10771 -11740 
clause level 86 (Kante=5, Kdesc=2821, core=4):17029 -19176 
clause level 20 (Kante=3, Kdesc=2183, core=5):-10631 -11327 10755 
clause level 54 (Kante=2, Kdesc=1558, core=4):-16014 14903 
clause level 51 (Kante=7, Kdesc=2745, core=2):11696 -13858 
clause level 26 (Kante=33, Kdesc=1984, core=5):-6428 7669 6429 -6670 
clause level 18 (Kante=5, Kdesc=3406, core=3):-8496 -8612 
clause level 39 (Kante=82, Kdesc=7515, core=4):12257 -14100 
clause level 11 (Kante=15, Kdesc=4316, core=5):12257 -14418 
clause level 1 (Kante=7, Kdesc=3158, core=3):-12939 13006 
clause level 45 (Kante=9, Kdesc=2989, core=4):8496 -13285 
clause level 17 (Kante=2, Kdesc=2008, core=5):20814 -22946 
clause level 6 (Kante=32, Kdesc=6076, core=4):6655 -9095 7714 6656 
clause level 58 (Kante=6, Kdesc=3426, core=3):-18352 
clause level 45 (Kante=22, Kdesc=4761, core=0):-6470 9427 
clause level 1 (Kante=7, Kdesc=1947, core=1):18343 18345 
clause level 1 (Kante=3, Kdesc=3745, core=4):-6387 6396 
clause level 26 (Kante=5, Kdesc=3455, core=3):-9774 8517 
clause level 23 (Kante=13, Kdesc=4375, core=3):13014 -15165 
clause level 42 (Kante=4, Kdesc=1876, core=4):19424 18662 -15484 
clause level 51 (Kante=2, Kdesc=2472, core=0):11696 -12770 
clause level 34 (Kante=3, Kdesc=7101, core=1):12257 -10144 11209 10145 8769 10830 
clause level 41 (Kante=2, Kdesc=2093, core=4):11696 -12535 
clause level 22 (Kante=3, Kdesc=5295, core=1):-11899 
clause level 3 (Kante=3, Kdesc=2245, core=2):-8580 7072 
clause level 1 (Kante=3, Kdesc=3297, core=4):8505 -8496 
clause level 40 (Kante=5, Kdesc=4266, core=4):15203 -14143 
clause level 2 (Kante=6, Kdesc=1402, core=0):14889 -15484 
clause level 51 (Kante=13, Kdesc=1452, core=4):24003 -26886 
clause level 3 (Kante=3, Kdesc=3037, core=5):8892 7072 
clause level 10 (Kante=6, Kdesc=2339, core=3):-19505 18117 -18341 19504 
clause level 40 (Kante=6, Kdesc=5832, core=4):14100 -17286 
clause level 35 (Kante=5, Kdesc=2333, core=1):15484 -18302 
clause level 49 (Kante=3, Kdesc=2788, core=4):-5354 7443 
clause level 48 (Kante=3, Kdesc=2949, core=2):17600 -16542 
clause level 33 (Kante=5, Kdesc=3136, core=3):7669 -8538 
clause level 94 (Kante=5, Kdesc=2241, core=4):15971 -18119 
clause level 49 (Kante=10, Kdesc=2280, core=5):9073 -7443 
clause level 93 (Kante=115, Kdesc=2958, core=3):19521 -15484 
clause level 23 (Kante=19, Kdesc=2204, core=2):-10983 10723 11012 11016 
clause level 1 (Kante=3, Kdesc=832, core=2):20814 20815 -21494 
clause level 37 (Kante=3, Kdesc=2495, core=0):8496 -10673 
clause level 47 (Kante=2, Kdesc=2282, core=3):7443 -18183 
clause level 52 (Kante=3, Kdesc=2994, core=4):-16574 
clause level 54 (Kante=4, Kdesc=2071, core=4):13838 -14689 
clause level 32 (Kante=95, Kdesc=3769, core=3):10143 -14040 9098 
clause level 49 (Kante=17, Kdesc=2038, core=1):-12769 11696 10851 12771 
clause level 37 (Kante=32, Kdesc=2749, core=4):5354 -10089 
clause level 63 (Kante=38, Kdesc=1921, core=1):17600 -23690 
clause level 9 (Kante=8, Kdesc=4547, core=5):9549 9098 
clause level 5 (Kante=4, Kdesc=1075, core=0):-13625 13623 12376 
clause level 12 (Kante=3, Kdesc=3789, core=4):8698 -9069 
clause level 55 (Kante=3, Kdesc=2145, core=2):-18479 17029 16201 
clause level 54 (Kante=6, Kdesc=2265, core=5):-15759 15138 
clause level 30 (Kante=4, Kdesc=3041, core=1):-13336 15484 16236 14107 14199 -14207 15185 
clause level 3 (Kante=3, Kdesc=2439, core=5):11033 9190 
clause level 1 (Kante=2, Kdesc=1819, core=3):18352 18353 -19416 
clause level 50 (Kante=140, Kdesc=4314, core=0):-12944 15484 
clause level 24 (Kante=5, Kdesc=1571, core=0):-14060 15971 
clause level 49 (Kante=149, Kdesc=4297, core=0):15484 -13337 13336 
clause level 47 (Kante=12, Kdesc=3018, core=3):10148 -9073 
clause level 52 (Kante=13, Kdesc=2923, core=5):-14448 
clause level 1 (Kante=13, Kdesc=2308, core=0):-7530 
clause level 33 (Kante=41, Kdesc=1108, core=2):-12614 13049 
clause level 42 (Kante=3, Kdesc=1374, core=2):11696 -11483 
clause level 1 (Kante=2, Kdesc=1109, core=0):20815 21501 21505 -21877 
clause level 7 (Kante=37, Kdesc=2538, core=5):-11882 11939 
clause level 19 (Kante=73, Kdesc=3810, core=4):-9831 8010 8011 8769 
clause level 23 (Kante=20, Kdesc=3153, core=5):-15167 13337 13336 14116 
clause level 65 (Kante=22, Kdesc=3704, core=4):18387 -9935 
clause level 22 (Kante=118, Kdesc=3582, core=1):-8698 10143 9068 -9549 -8851 8011 
clause level 3 (Kante=12, Kdesc=1730, core=4):-18345 13285 15088 
clause level 16 (Kante=3, Kdesc=1791, core=2):14416 -15486 
clause level 13 (Kante=44, Kdesc=1939, core=5):9442 -61500 8581 8580 9444 
clause level 12 (Kante=39, Kdesc=2277, core=5):-12838 11882 
clause level 29 (Kante=2, Kdesc=1493, core=4):11696 -13924 
clause level 1 (Kante=7, Kdesc=1735, core=0):-13929 12939 
clause level 60 (Kante=131, Kdesc=1338, core=0):15971 -11696 17393 16056 
clause level 30 (Kante=7, Kdesc=1949, core=5):-14416 13336 15484 
clause level 44 (Kante=4, Kdesc=1210, core=1):11696 -13883 11740 
clause level 82 (Kante=3, Kdesc=1165, core=4):15971 -17050 
clause level 2 (Kante=10, Kdesc=3000, core=5):11212 -9549 -9073 -10992 -9551 -10616 
clause level 41 (Kante=4, Kdesc=2796, core=5):-14767 15202 
clause level 75 (Kante=5, Kdesc=1419, core=1):22944 -28988 
clause level 47 (Kante=9, Kdesc=1897, core=2):7968 -61301 5438 6470 8580 8581 6471 
clause level 29 (Kante=5, Kdesc=2209, core=2):13337 -14095 15185 15484 
clause level 44 (Kante=4, Kdesc=1648, core=1):8496 -60545 
clause level 39 (Kante=125, Kdesc=1470, core=2):7443 9427 -10513 
clause level 47 (Kante=152, Kdesc=2036, core=0):-11208 12944 
clause level 2 (Kante=9, Kdesc=1270, core=4):-18188 13285 
clause level 54 (Kante=5, Kdesc=1501, core=0):-7443 -12376 
clause level 19 (Kante=52, Kdesc=1294, core=4):-9444 10513 
clause level 47 (Kante=22, Kdesc=1423, core=2):13938 13838 
clause level 19 (Kante=63, Kdesc=2625, core=5):8754 -10170 8769 
clause level 50 (Kante=8, Kdesc=1159, core=2):13838 -14945 
clause level 56 (Kante=5, Kdesc=1504, core=4):-13463 -8496 11326 
clause level 13 (Kante=48, Kdesc=1685, core=5):-14992 14092 
clause level 3 (Kante=3, Kdesc=1311, core=3):-16572 16173 
clause level 21 (Kante=125, Kdesc=2136, core=3):-11234 10143 9098 
clause level 52 (Kante=14, Kdesc=1476, core=4):-14140 -13938 
clause level 47 (Kante=92, Kdesc=1534, core=0):-13718 14784 
clause level 91 (Kante=6, Kdesc=1602, core=0):-15484 7443 
clause level 32 (Kante=42, Kdesc=1909, core=5):-6470 -7443 -8496 
clause level 1 (Kante=4, Kdesc=1366, core=0):-17118 15088 
clause level 1 (Kante=8, Kdesc=1467, core=5):-12290 13337 
clause level 58 (Kante=127, Kdesc=1044, core=0):17393 15971 -14903 16056 
clause level 44 (Kante=2, Kdesc=1434, core=0):-9585 11696 9586 
clause level 11 (Kante=7, Kdesc=1163, core=5):-11939 10864 
clause level 58 (Kante=32, Kdesc=757, core=5):19726 -21563 
clause level 1 (Kante=5, Kdesc=1157, core=4):-14092 11154 
clause level 38 (Kante=5, Kdesc=1194, core=1):-19356 19042 19360 
clause level 43 (Kante=3, Kdesc=897, core=5):17600 -17602 
clause level 3 (Kante=3, Kdesc=1158, core=5):-13927 12376 
clause level 61 (Kante=3, Kdesc=1367, core=1):17393 -8496 15971 16056 
clause level 49 (Kante=106, Kdesc=1209, core=5):15854 16541 
clause level 34 (Kante=6, Kdesc=2031, core=0):-12258 13337 12257 12944 12259 
clause level 52 (Kante=160, Kdesc=1354, core=1):14784 -17600 9929 
clause level 52 (Kante=89, Kdesc=814, core=4):-16278 15483 
clause level 51 (Kante=158, Kdesc=1860, core=0):15484 -14443 
clause level 51 (Kante=334, Kdesc=1078, core=2):-6175 -10513 
clause level 35 (Kante=5, Kdesc=1254, core=0):8496 -9651 
clause level 68 (Kante=2, Kdesc=920, core=1):19155 -18098 21166 21673 
clause level 8 (Kante=7, Kdesc=1040, core=5):-12834 12832 12915 13887 12889 -12907 
clause level 42 (Kante=2, Kdesc=1167, core=4):11696 -11831 11836 10771 
clause level 52 (Kante=147, Kdesc=1313, core=0):12631 -15484 
clause level 48 (Kante=132, Kdesc=1424, core=0):12258 -14416 
clause level 2 (Kante=4, Kdesc=659, core=0):25454 24760 -25769 25773 
clause level 1 (Kante=3, Kdesc=1301, core=3):-6465 7443 -6670 
clause level 1 (Kante=8, Kdesc=872, core=3):-19756 20437 
clause level 50 (Kante=5, Kdesc=1496, core=1):-15182 14446 14448 
clause level 54 (Kante=3, Kdesc=912, core=4):-11326 -15484 
clause level 13 (Kante=3, Kdesc=1209, core=4):-8581 -9565 -7443 8792 
clause level 1 (Kante=7, Kdesc=967, core=5):-19240 -18343 
clause level 32 (Kante=47, Kdesc=1109, core=0):5437 6468 6470 6471 -7318 5438 5439 
clause level 15 (Kante=8, Kdesc=692, core=2):-20318 13285 15261 
clause level 1 (Kante=7, Kdesc=768, core=1):-23519 22618 
clause level 69 (Kante=5, Kdesc=582, core=1):19155 -20314 
clause level 48 (Kante=3, Kdesc=783, core=5):-13882 -15199 15971 14143 14903 
clause level 53 (Kante=196, Kdesc=629, core=3):15484 -18353 16572 
clause level 47 (Kante=104, Kdesc=904, core=5):14784 -15110 13336 13337 
clause level 55 (Kante=14, Kdesc=691, core=2):-6429 -15484 7528 -10631 10718 5517 
clause level 35 (Kante=4, Kdesc=525, core=3):-11561 13049 -11884 11739 11696 11913 
clause level 95 (Kante=15, Kdesc=639, core=3):-21880 19155 17029 20587 
clause level 4 (Kante=3, Kdesc=745, core=2):-18181 17029 
clause level 24 (Kante=41, Kdesc=638, core=5):-12838 14415 -15180 
clause level 46 (Kante=10, Kdesc=557, core=1):11696 -10716 16337 
clause level 174 (Kante=1343, Kdesc=26, core=3):34334 34885 -27942 -28996 -30061 -29986 36773 
clause level 134 (Kante=926, Kdesc=53, core=2):23429 -27731 -25567 -26621 22669 24887 -26663 -26761 24617 -24792 -24898 -24899 26412 -27732 -23724 26662 25945 25946 25942 25943 
clause level 174 (Kante=1475, Kdesc=15, core=3):33259 -29986 23179 -27942 -30061 -33934 -31129 34431 
clause level 40 (Kante=4, Kdesc=506, core=4):15203 14073 13838 13927 -14206 
clause level 47 (Kante=138, Kdesc=338, core=3):9935 -10511 8578 57394 7526 6468 6471 5438 5439 8581 9654 9651 9653 9444 6252 6387 8496 7443 
clause level 133 (Kante=900, Kdesc=7, core=2):25433 25567 25926 24770 26993 -31129 24734 
clause level 44 (Kante=196, Kdesc=335, core=3):13337 17303 -18692 13336 13367 12944 14030 14447 14448 15516 15515 -16328 15484 16542 
clause level 74 (Kante=284, Kdesc=278, core=1):20814 -24030 22642 21876 21877 
clause level 177 (Kante=861, Kdesc=75, core=3):-26134 -24357 24002 22943 -20814 22635 21572 21053 17842 19725 24036 22977 -25826 24843 19349 26156 24770 -24792 -24689 -25852 28999 -25433 -26488 -27556 -28601 -30725 -22560 -22562 26922 28244 -29003 -27942 -24695 -24693 -29090 -26893 -20428 -20507 20551 21497 25069 -25761 -25763 -26815 26816 26133 
clause level 81 (Kante=443, Kdesc=20, core=4):19155 -21300 18661 21673 21166 20529 -21876 
Found 1102 good successive clauses in order (780 originals, maxlevel=177)
c KCorePR 1613380 308 1102 780 177
c DistanceTo...Unseen 369334
c DistanceToGoodKCore c   DIST 0: 1102 (+1102) / 1102 (+1102)
c   DIST 1: 272794 (+271692) / 90593 (+89491)
c   DIST 2: 755292 (+482498) / 369060 (+278467)
c   DIST 3: 953988 (+198696) / 447100 (+78040)
c   DIST 4: 1063880 (+109892) / 473516 (+26416)
c   DIST 5: 1132299 (+68419) / 482588 (+9072)
c   DIST 6: 1180446 (+48147) / 485811 (+3223)
c   DIST 7: 1209638 (+29192) / 486992 (+1181)
c   DIST 8: 1225010 (+15372) / 487348 (+356)
c   DIST 9: 1233026 (+8016) / 487447 (+99)
c   DIST 10: 1237275 (+4249) / 487482 (+35)
c   DIST 11: 1239672 (+2397) / 487489 (+7)
c   DIST 12: 1241159 (+1487) / 487494 (+5)
c   DIST 13: 1242289 (+1130) / 487496 (+2)
c   DIST 14: 1242997 (+708) / 487498 (+2)
c   DIST 15: 1243442 (+445) / 487498 (+0)
c   DIST 16: 1243697 (+255) / 487498 (+0)
c   DIST 17: 1243879 (+182) / 487498 (+0)
c   DIST 18: 1243961 (+82) / 487498 (+0)
c   DIST 19: 1244007 (+46) / 487498 (+0)
c   DIST 20: 1244027 (+20) / 487498 (+0)
c   DIST 21: 1244035 (+8) / 487498 (+0)
c   DIST 22: 1244038 (+3) / 487498 (+0)
c   DIST 23: 1244041 (+3) / 487498 (+0)
c   DIST 24: 1244044 (+3) / 487498 (+0)
c   DIST 25: 1244046 (+2) / 487498 (+0)
c TotalDistance=1613380
No graph is dumped
c result of core 2 is UNSAT
c One thread has finished
c Core 2 said it finished
c result of core 0 is UNKNOWN
c result of core 3 is UNKNOWN
c result of core 1 is UNKNOWN
c result of core 5 is UNKNOWN
c result of core 4 is UNKNOWN
c restarts              : 1099 (183 conflicts in avg)
c blocked restarts      : 1103 (multiple: 369) 
c last block at restart : 1085
c nb ReduceDB           : 9
c nb removed Clauses    : 183037
c nb learnts DL2        : 8868
c nb learnts size 2     : 2374
c nb learnts size 1     : 51
c conflicts             : 201255         (151 /sec)
c decisions             : 556656         (0.00 % random) (417 /sec)
c propagations          : 186081747      (139330 /sec)
c conflict literals     : 12793311       (8.85 % deleted)
c nb reduced Clauses    : 12569
c CPU time              : 1335.54 s

s INDETERMINATE
