c
c This is glucose-proof 1.0 based on  2.1 --  (thanks to MiniSAT)
c
c EXPERIMENTAL EASY PARALLEL (ROUND ROBIN) VERSION
c
c WARNING: for repeatability, setting FPU to use double precision
c Parallel version 8 solvers created.
c ========================================[ Problem Statistics ]===========================================
c |                                                                                                       |
c |  Number of variables:          9929                                                                   |
c |  Number of clauses:          303750                                                                   |
c |  Parse time:                   1.49 s                                                                 |
c |                                                                                                       |
c ========================================[ MAGIC CONSTANTS ]==============================================
c | Constants are supposed to work well together :-)                                                      |
c | however, if you find better choices, please let us known...                                           |
c |-------------------------------------------------------------------------------------------------------|
c |                                |                                |                                     |
c | - Restarts:                    | - Reduce Clause DB:            | - Minimize Asserting:               |
c |   * LBD Queue    :     50      |   * First     :   4000         |    * size <  30                     |
c |   * Trail  Queue :   5000      |   * Inc       :    300         |    * lbd  <   6                     |
c |   * K            :   0.80      |   * Special   :   1000         |                                     |
c |   * R            :   1.40      |   * Protected :  (lbd)< 30     |                                     |
c |                                |                                |                                     |
c ==================================[ Search Statistics (every  10000 conflicts) ]=========================
c |                                                                                                       |
c |          RESTARTS           |          ORIGINAL         |              LEARNT              | Progress |
c |       NB   Blocked  Avg Cfc |    Vars  Clauses Literals |   Red   Learnts    LBD2  Removed |          |
c =========================================================================================================
c |        9         0     1111 |    9929   303750  1080048 |     1     7999        0     2000 |  0.000 % |
c |       23         0      869 |    9929   303750  1080048 |     3     6956        1    13043 |  0.000 % |
c |       36         0      833 |    9929   303750  1080048 |     3    16956        2    13043 |  0.000 % |
c |       62         0      645 |    9929   303750  1080048 |     4    17685        3    22314 |  0.000 % |
c |       84         0      595 |    9929   303750  1080048 |     5    15849        3    34150 |  0.000 % |
c |       96         0      625 |    9929   303750  1080048 |     5    25849        3    34150 |  0.000 % |
c |      105         0      666 |    9929   303750  1080048 |     6    21426        4    48573 |  0.000 % |
c |      133         0      601 |    9929   303750  1080048 |     6    31426        7    48573 |  0.000 % |
c |      152         0      592 |    9928   303750  1080048 |     7    24414        8    65580 |  0.010 % |
c |      165         9      606 |    9927   303750  1080048 |     7    34414       10    65580 |  0.020 % |
c |      201        12      547 |    9927   303750  1080048 |     8    24805       14    85180 |  0.020 % |
c |      233        12      515 |    9927   303750  1080048 |     8    34805       15    85180 |  0.020 % |
c |      264        16      492 |    9926   303750  1080048 |     9    20334       19   107385 |  0.030 % |
c |      310        16      451 |    9924   303750  1080048 |     9    30334       21   107385 |  0.050 % |
c |      352        16      426 |    9923   303750  1080048 |     9    40334       22   107385 |  0.060 % |
c |      372        30      430 |    9921   303750  1080048 |    10    26264       25   130643 |  0.081 % |
c |      418        47      406 |    9916   303750  1080048 |    10    36264       33   130643 |  0.131 % |
c empty clause found by core 5 at conflict 172561
*
c checking the resolution graph...OK
c All useful bySize 832746 clauses, percentiles 0 12 15 18 24 33 43 53 58 69 100 100 (0,1,5,10,25,50,75,90,95,99,100-1,100)
c All useless bySize 851662 clauses, percentiles 0 2 2 2 2 29 87 244 385 721 1468 1476 (0,1,5,10,25,50,75,90,95,99,100-1,100)
c ProofOnly useful bySize 830901 clauses, percentiles 0 12 15 18 24 33 43 53 59 69 100 100 (0,1,5,10,25,50,75,90,95,99,100-1,100)
c ProofOnly useless bySize 549585 clauses, percentiles 1 14 15 21 31 58 155 331 479 802 1468 1476 (0,1,5,10,25,50,75,90,95,99,100-1,100)
c All useful byFinalLBD 832746 clauses, percentiles 0 3 5 6 7 10 13 16 18 23 37 38 (0,1,5,10,25,50,75,90,95,99,100-1,100)
c All useless byFinalLBD 851662 clauses, percentiles 0 2 2 2 2 12 21 30 35 50 249 250 (0,1,5,10,25,50,75,90,95,99,100-1,100)
c ProofOnly useful byFinalLBD 830901 clauses, percentiles 0 3 5 6 7 10 13 16 18 23 37 38 (0,1,5,10,25,50,75,90,95,99,100-1,100)
c ProofOnly useless byFinalLBD 549585 clauses, percentiles 1 5 7 8 12 18 26 33 39 55 249 250 (0,1,5,10,25,50,75,90,95,99,100-1,100)
c All useful byInitialLBD 832746 clauses, percentiles 0 4 6 7 8 11 14 17 19 23 38 39 (0,1,5,10,25,50,75,90,95,99,100-1,100)
c All useless byInitialLBD 851662 clauses, percentiles 0 2 2 2 2 12 22 30 36 50 249 250 (0,1,5,10,25,50,75,90,95,99,100-1,100)
c ProofOnly useful byInitialLBD 830901 clauses, percentiles 0 5 6 7 8 11 14 17 19 23 38 39 (0,1,5,10,25,50,75,90,95,99,100-1,100)
c ProofOnly useless byInitialLBD 549585 clauses, percentiles 1 6 8 9 13 19 26 34 40 55 249 250 (0,1,5,10,25,50,75,90,95,99,100-1,100)
c Literals ProofOnly useful 28468480
c Literals ProofOnly useless 70368701
c additional windowsGood 1 1 1 1 1 2 4 7 7 15 304 390 (0,1,5,10,25,50,75,90,95,99,100-1,100)
c additional windowsBad 1 1 1 1 1 1 2 5 7 7 919 1519 (0,1,5,10,25,50,75,90,95,99,100-1,100)
c additional 1WindowNoDecision 97233 47071 0.48 162169 82481 0.51 (nbWindowsGood,nbWindowsNoDecisionGood,nbWindowsBad,nbWindowsNoDecisionBad
c additional topclausessize all (10%,5%,1%,top) 60.01 64.74 73.29 100
c additional topclausessize proofonly (10%,5%,1%,top) 60.02 64.74 73.29 100
c additional topclausesinitialLBD all (10%,5%,1%,top) 56.82 62.07 71.40 100
c additional topclausesinitialLBD proofonly (10%,5%,1%,top) 54.32 60.02 69.93 100
c additional topclausesfinalLBD all (10%,5%,1%,top) 52.24 58.30 68.76 100
c additional topclausesfinalLBD proofonly (10%,5%,1%,top) 50.45 56.82 67.75 100
c additional predictionInitialLBD 1 26 830901 0.96 0.00 0.00 1380460 549585 0.40 0.66 0.50 0.40 (nbgoodclauses,nbtotalgood,precisionGood,recallGood,FGood,nbbadclause,nbtotalbad,precisionBad,recallBad,FBad,accuracy)
c additional predictionInitialLBD 2 330 830901 0.93 0.00 0.00 1380156 549585 0.40 0.66 0.50 0.40 (nbgoodclauses,nbtotalgood,precisionGood,recallGood,FGood,nbbadclause,nbtotalbad,precisionBad,recallBad,FBad,accuracy)
c additional predictionInitialLBD 3 1784 830901 0.91 0.00 0.00 1378702 549585 0.40 0.66 0.50 0.40 (nbgoodclauses,nbtotalgood,precisionGood,recallGood,FGood,nbbadclause,nbtotalbad,precisionBad,recallBad,FBad,accuracy)
c additional predictionInitialLBD 4 8703 830901 0.89 0.01 0.02 1371783 549585 0.40 0.66 0.50 0.40 (nbgoodclauses,nbtotalgood,precisionGood,recallGood,FGood,nbbadclause,nbtotalbad,precisionBad,recallBad,FBad,accuracy)
c additional predictionInitialLBD 5 31203 830901 0.88 0.03 0.06 1349283 549585 0.40 0.66 0.50 0.42 (nbgoodclauses,nbtotalgood,precisionGood,recallGood,FGood,nbbadclause,nbtotalbad,precisionBad,recallBad,FBad,accuracy)
c additional predictionInitialLBD 6 76365 830901 0.88 0.08 0.15 1304121 549585 0.41 0.65 0.51 0.44 (nbgoodclauses,nbtotalgood,precisionGood,recallGood,FGood,nbbadclause,nbtotalbad,precisionBad,recallBad,FBad,accuracy)
c additional predictionInitialLBD 7 153690 830901 0.86 0.16 0.27 1226796 549585 0.43 0.64 0.51 0.48 (nbgoodclauses,nbtotalgood,precisionGood,recallGood,FGood,nbbadclause,nbtotalbad,precisionBad,recallBad,FBad,accuracy)
c additional predictionInitialLBD 8 253064 830901 0.85 0.26 0.40 1127422 549585 0.45 0.62 0.52 0.53 (nbgoodclauses,nbtotalgood,precisionGood,recallGood,FGood,nbbadclause,nbtotalbad,precisionBad,recallBad,FBad,accuracy)
c additional predictionInitialLBD 10 477843 830901 0.83 0.48 0.60 902643 549585 0.52 0.56 0.54 0.62 (nbgoodclauses,nbtotalgood,precisionGood,recallGood,FGood,nbbadclause,nbtotalbad,precisionBad,recallBad,FBad,accuracy)
c additional predictionInitialLBD 14 849526 830901 0.79 0.80 0.79 530960 549585 0.69 0.44 0.54 0.75 (nbgoodclauses,nbtotalgood,precisionGood,recallGood,FGood,nbbadclause,nbtotalbad,precisionBad,recallBad,FBad,accuracy)
c additional predictionInitialLBD 18 1058386 830901 0.74 0.94 0.83 322100 549585 0.86 0.33 0.48 0.77 (nbgoodclauses,nbtotalgood,precisionGood,recallGood,FGood,nbbadclause,nbtotalbad,precisionBad,recallBad,FBad,accuracy)
c additional predictionInitialLBD 22 1174429 830901 0.70 0.99 0.82 206057 549585 0.95 0.24 0.38 0.74 (nbgoodclauses,nbtotalgood,precisionGood,recallGood,FGood,nbbadclause,nbtotalbad,precisionBad,recallBad,FBad,accuracy)
c additional predictionInitialLBD 30 1297075 830901 0.64 1.00 0.78 83411 549585 1.00 0.10 0.18 0.66 (nbgoodclauses,nbtotalgood,precisionGood,recallGood,FGood,nbbadclause,nbtotalbad,precisionBad,recallBad,FBad,accuracy)
c additional predictionInitialLBD 40 1356102 830901 0.61 1.00 0.76 24384 549585 1.00 0.03 0.06 0.62 (nbgoodclauses,nbtotalgood,precisionGood,recallGood,FGood,nbbadclause,nbtotalbad,precisionBad,recallBad,FBad,accuracy)
c additional predictionFinallLBD 1 252 830901 0.94 0.00 0.00 1380234 549585 0.40 1.00 0.57 0.40 (nbgoodclauses,nbtotalgood,precisionGood,recallGood,FGood,nbbadclause,nbtotalbad,precisionBad,recallBad,FBad,accuracy)
c additional predictionFinallLBD 2 2157 830901 0.91 0.00 0.00 1378329 549585 0.40 1.00 0.57 0.40 (nbgoodclauses,nbtotalgood,precisionGood,recallGood,FGood,nbbadclause,nbtotalbad,precisionBad,recallBad,FBad,accuracy)
c additional predictionFinallLBD 3 11601 830901 0.91 0.01 0.03 1368885 549585 0.40 1.00 0.57 0.41 (nbgoodclauses,nbtotalgood,precisionGood,recallGood,FGood,nbbadclause,nbtotalbad,precisionBad,recallBad,FBad,accuracy)
c additional predictionFinallLBD 4 39657 830901 0.91 0.04 0.08 1340829 549585 0.41 0.99 0.58 0.42 (nbgoodclauses,nbtotalgood,precisionGood,recallGood,FGood,nbbadclause,nbtotalbad,precisionBad,recallBad,FBad,accuracy)
c additional predictionFinallLBD 5 91202 830901 0.89 0.10 0.18 1289284 549585 0.42 0.98 0.59 0.45 (nbgoodclauses,nbtotalgood,precisionGood,recallGood,FGood,nbbadclause,nbtotalbad,precisionBad,recallBad,FBad,accuracy)
c additional predictionFinallLBD 6 159356 830901 0.87 0.17 0.28 1221130 549585 0.43 0.96 0.60 0.48 (nbgoodclauses,nbtotalgood,precisionGood,recallGood,FGood,nbbadclause,nbtotalbad,precisionBad,recallBad,FBad,accuracy)
c additional predictionFinallLBD 7 246569 830901 0.86 0.25 0.39 1133917 549585 0.45 0.94 0.61 0.53 (nbgoodclauses,nbtotalgood,precisionGood,recallGood,FGood,nbbadclause,nbtotalbad,precisionBad,recallBad,FBad,accuracy)
c additional predictionFinallLBD 8 345828 830901 0.84 0.35 0.49 1034658 549585 0.48 0.90 0.62 0.57 (nbgoodclauses,nbtotalgood,precisionGood,recallGood,FGood,nbbadclause,nbtotalbad,precisionBad,recallBad,FBad,accuracy)
c additional predictionFinallLBD 10 552329 830901 0.82 0.54 0.65 828157 549585 0.54 0.81 0.65 0.65 (nbgoodclauses,nbtotalgood,precisionGood,recallGood,FGood,nbbadclause,nbtotalbad,precisionBad,recallBad,FBad,accuracy)
c additional predictionFinallLBD 14 886405 830901 0.78 0.83 0.80 494081 549585 0.71 0.64 0.67 0.75 (nbgoodclauses,nbtotalgood,precisionGood,recallGood,FGood,nbbadclause,nbtotalbad,precisionBad,recallBad,FBad,accuracy)
c additional predictionFinallLBD 18 1077912 830901 0.73 0.95 0.83 302574 549585 0.87 0.48 0.62 0.76 (nbgoodclauses,nbtotalgood,precisionGood,recallGood,FGood,nbbadclause,nbtotalbad,precisionBad,recallBad,FBad,accuracy)
c additional predictionFinallLBD 22 1185721 830901 0.69 0.99 0.82 194765 549585 0.96 0.34 0.50 0.73 (nbgoodclauses,nbtotalgood,precisionGood,recallGood,FGood,nbbadclause,nbtotalbad,precisionBad,recallBad,FBad,accuracy)
c additional predictionFinallLBD 30 1301956 830901 0.64 1.00 0.78 78530 549585 1.00 0.14 0.25 0.66 (nbgoodclauses,nbtotalgood,precisionGood,recallGood,FGood,nbbadclause,nbtotalbad,precisionBad,recallBad,FBad,accuracy)
c additional predictionFinallLBD 40 1357404 830901 0.61 1.00 0.76 23082 549585 1.00 0.04 0.08 0.62 (nbgoodclauses,nbtotalgood,precisionGood,recallGood,FGood,nbbadclause,nbtotalbad,precisionBad,recallBad,FBad,accuracy)
c additional predictionSize 1 26 830901 0.96 0.00 0.00 1380460 549585 0.40 0.66 0.50 0.40 (nbgoodclauses,nbtotalgood,precisionGood,recallGood,FGood,nbbadclause,nbtotalbad,precisionBad,recallBad,FBad,accuracy)
c additional predictionSize 2 129 830901 0.90 0.00 0.00 1380357 549585 0.40 0.66 0.50 0.40 (nbgoodclauses,nbtotalgood,precisionGood,recallGood,FGood,nbbadclause,nbtotalbad,precisionBad,recallBad,FBad,accuracy)
c additional predictionSize 3 219 830901 0.90 0.00 0.00 1380267 549585 0.40 0.66 0.50 0.40 (nbgoodclauses,nbtotalgood,precisionGood,recallGood,FGood,nbbadclause,nbtotalbad,precisionBad,recallBad,FBad,accuracy)
c additional predictionSize 4 290 830901 0.92 0.00 0.00 1380196 549585 0.40 0.66 0.50 0.40 (nbgoodclauses,nbtotalgood,precisionGood,recallGood,FGood,nbbadclause,nbtotalbad,precisionBad,recallBad,FBad,accuracy)
c additional predictionSize 5 410 830901 0.93 0.00 0.00 1380076 549585 0.40 0.66 0.50 0.40 (nbgoodclauses,nbtotalgood,precisionGood,recallGood,FGood,nbbadclause,nbtotalbad,precisionBad,recallBad,FBad,accuracy)
c additional predictionSize 6 541 830901 0.92 0.00 0.00 1379945 549585 0.40 0.66 0.50 0.40 (nbgoodclauses,nbtotalgood,precisionGood,recallGood,FGood,nbbadclause,nbtotalbad,precisionBad,recallBad,FBad,accuracy)
c additional predictionSize 7 963 830901 0.93 0.00 0.00 1379523 549585 0.40 0.66 0.50 0.40 (nbgoodclauses,nbtotalgood,precisionGood,recallGood,FGood,nbbadclause,nbtotalbad,precisionBad,recallBad,FBad,accuracy)
c additional predictionSize 8 1572 830901 0.94 0.00 0.00 1378914 549585 0.40 0.66 0.50 0.40 (nbgoodclauses,nbtotalgood,precisionGood,recallGood,FGood,nbbadclause,nbtotalbad,precisionBad,recallBad,FBad,accuracy)
c additional predictionSize 10 2766 830901 0.92 0.00 0.01 1377720 549585 0.40 0.66 0.50 0.40 (nbgoodclauses,nbtotalgood,precisionGood,recallGood,FGood,nbbadclause,nbtotalbad,precisionBad,recallBad,FBad,accuracy)
c additional predictionSize 14 44523 830901 0.84 0.04 0.09 1335963 549585 0.41 0.65 0.50 0.42 (nbgoodclauses,nbtotalgood,precisionGood,recallGood,FGood,nbbadclause,nbtotalbad,precisionBad,recallBad,FBad,accuracy)
c additional predictionSize 18 128547 830901 0.69 0.11 0.18 1251939 549585 0.41 0.61 0.49 0.43 (nbgoodclauses,nbtotalgood,precisionGood,recallGood,FGood,nbbadclause,nbtotalbad,precisionBad,recallBad,FBad,accuracy)
c additional predictionSize 22 253838 830901 0.68 0.21 0.32 1126648 549585 0.42 0.56 0.48 0.46 (nbgoodclauses,nbtotalgood,precisionGood,recallGood,FGood,nbbadclause,nbtotalbad,precisionBad,recallBad,FBad,accuracy)
c additional predictionSize 30 487305 830901 0.72 0.42 0.54 893181 549585 0.47 0.50 0.48 0.56 (nbgoodclauses,nbtotalgood,precisionGood,recallGood,FGood,nbbadclause,nbtotalbad,precisionBad,recallBad,FBad,accuracy)
c additional predictionSize 40 783794 830901 0.75 0.70 0.72 596692 549585 0.59 0.42 0.49 0.68 (nbgoodclauses,nbtotalgood,precisionGood,recallGood,FGood,nbbadclause,nbtotalbad,precisionBad,recallBad,FBad,accuracy)
c additional predictionAge 1 146254 830901 0.23 0.04 0.07 1234232 549585 0.35 0.53 0.42 0.34 (nbgoodclauses,nbtotalgood,precisionGood,recallGood,FGood,nbbadclause,nbtotalbad,precisionBad,recallBad,FBad,accuracy)
c additional predictionAge 10 177189 830901 0.24 0.05 0.08 1203297 549585 0.34 0.50 0.41 0.33 (nbgoodclauses,nbtotalgood,precisionGood,recallGood,FGood,nbbadclause,nbtotalbad,precisionBad,recallBad,FBad,accuracy)
c additional predictionAge 25 210693 830901 0.24 0.06 0.10 1169793 549585 0.33 0.47 0.39 0.32 (nbgoodclauses,nbtotalgood,precisionGood,recallGood,FGood,nbbadclause,nbtotalbad,precisionBad,recallBad,FBad,accuracy)
c additional predictionAge 50 232178 830901 0.25 0.07 0.11 1148308 549585 0.33 0.45 0.38 0.31 (nbgoodclauses,nbtotalgood,precisionGood,recallGood,FGood,nbbadclause,nbtotalbad,precisionBad,recallBad,FBad,accuracy)
c additional predictionAge 100 255066 830901 0.25 0.08 0.12 1125420 549585 0.32 0.43 0.37 0.31 (nbgoodclauses,nbtotalgood,precisionGood,recallGood,FGood,nbbadclause,nbtotalbad,precisionBad,recallBad,FBad,accuracy)
c additional predictionAge 250 291829 830901 0.25 0.09 0.13 1088657 549585 0.30 0.40 0.34 0.29 (nbgoodclauses,nbtotalgood,precisionGood,recallGood,FGood,nbbadclause,nbtotalbad,precisionBad,recallBad,FBad,accuracy)
c additional predictionAge 500 323952 830901 0.25 0.10 0.14 1056534 549585 0.29 0.37 0.32 0.28 (nbgoodclauses,nbtotalgood,precisionGood,recallGood,FGood,nbbadclause,nbtotalbad,precisionBad,recallBad,FBad,accuracy)
c additional predictionAge 1000 362364 830901 0.25 0.11 0.15 1018122 549585 0.27 0.33 0.30 0.27 (nbgoodclauses,nbtotalgood,precisionGood,recallGood,FGood,nbbadclause,nbtotalbad,precisionBad,recallBad,FBad,accuracy)
c additional predictionAge 2500 423080 830901 0.26 0.13 0.18 957406 549585 0.25 0.28 0.26 0.25 (nbgoodclauses,nbtotalgood,precisionGood,recallGood,FGood,nbbadclause,nbtotalbad,precisionBad,recallBad,FBad,accuracy)
c additional predictionAge 5000 476250 830901 0.27 0.16 0.20 904236 549585 0.23 0.25 0.23 0.24 (nbgoodclauses,nbtotalgood,precisionGood,recallGood,FGood,nbbadclause,nbtotalbad,precisionBad,recallBad,FBad,accuracy)
c additional predictionAge 10000 535909 830901 0.30 0.19 0.23 844577 549585 0.20 0.21 0.21 0.24 (nbgoodclauses,nbtotalgood,precisionGood,recallGood,FGood,nbbadclause,nbtotalbad,precisionBad,recallBad,FBad,accuracy)
c additional predictionAge 25000 629507 830901 0.34 0.26 0.29 750979 549585 0.18 0.16 0.17 0.25 (nbgoodclauses,nbtotalgood,precisionGood,recallGood,FGood,nbbadclause,nbtotalbad,precisionBad,recallBad,FBad,accuracy)
c additional predictionAge 50000 716919 830901 0.38 0.33 0.36 663567 549585 0.16 0.13 0.14 0.28 (nbgoodclauses,nbtotalgood,precisionGood,recallGood,FGood,nbbadclause,nbtotalbad,precisionBad,recallBad,FBad,accuracy)
c additional predictionAge 100000 829017 830901 0.44 0.43 0.43 551469 549585 0.15 0.10 0.12 0.32 (nbgoodclauses,nbtotalgood,precisionGood,recallGood,FGood,nbbadclause,nbtotalbad,precisionBad,recallBad,FBad,accuracy)
c additional predictionTicks 1 148019 830901 0.24 0.04 0.07 1232467 549585 0.35 0.53 0.42 0.34 (nbgoodclauses,nbtotalgood,precisionGood,recallGood,FGood,nbbadclause,nbtotalbad,precisionBad,recallBad,FBad,accuracy)
c additional predictionTicks 10 232933 830901 0.32 0.09 0.14 1147553 549585 0.34 0.47 0.40 0.34 (nbgoodclauses,nbtotalgood,precisionGood,recallGood,FGood,nbbadclause,nbtotalbad,precisionBad,recallBad,FBad,accuracy)
c additional predictionTicks 25 323968 830901 0.36 0.14 0.20 1056518 549585 0.33 0.41 0.36 0.33 (nbgoodclauses,nbtotalgood,precisionGood,recallGood,FGood,nbbadclause,nbtotalbad,precisionBad,recallBad,FBad,accuracy)
c additional predictionTicks 50 396950 830901 0.39 0.19 0.25 983536 549585 0.31 0.37 0.34 0.34 (nbgoodclauses,nbtotalgood,precisionGood,recallGood,FGood,nbbadclause,nbtotalbad,precisionBad,recallBad,FBad,accuracy)
c additional predictionTicks 100 479212 830901 0.42 0.24 0.31 901274 549585 0.30 0.33 0.31 0.34 (nbgoodclauses,nbtotalgood,precisionGood,recallGood,FGood,nbbadclause,nbtotalbad,precisionBad,recallBad,FBad,accuracy)
c additional predictionTicks 250 603938 830901 0.45 0.32 0.38 776548 549585 0.28 0.26 0.27 0.35 (nbgoodclauses,nbtotalgood,precisionGood,recallGood,FGood,nbbadclause,nbtotalbad,precisionBad,recallBad,FBad,accuracy)
c additional predictionTicks 500 699383 830901 0.47 0.39 0.43 681103 549585 0.26 0.21 0.23 0.37 (nbgoodclauses,nbtotalgood,precisionGood,recallGood,FGood,nbbadclause,nbtotalbad,precisionBad,recallBad,FBad,accuracy)
c additional predictionTicks 1000 797919 830901 0.49 0.47 0.48 582567 549585 0.24 0.17 0.20 0.39 (nbgoodclauses,nbtotalgood,precisionGood,recallGood,FGood,nbbadclause,nbtotalbad,precisionBad,recallBad,FBad,accuracy)
c additional predictionTicks 2500 923981 830901 0.52 0.57 0.54 456505 549585 0.22 0.12 0.16 0.42 (nbgoodclauses,nbtotalgood,precisionGood,recallGood,FGood,nbbadclause,nbtotalbad,precisionBad,recallBad,FBad,accuracy)
c additional predictionTicks 5000 1014793 830901 0.53 0.65 0.59 365693 549585 0.21 0.09 0.13 0.45 (nbgoodclauses,nbtotalgood,precisionGood,recallGood,FGood,nbbadclause,nbtotalbad,precisionBad,recallBad,FBad,accuracy)
c additional predictionTicks 10000 1098187 830901 0.55 0.73 0.63 282299 549585 0.19 0.07 0.10 0.48 (nbgoodclauses,nbtotalgood,precisionGood,recallGood,FGood,nbbadclause,nbtotalbad,precisionBad,recallBad,FBad,accuracy)
c additional predictionTicks 25000 1193053 830901 0.57 0.82 0.67 187433 549585 0.18 0.04 0.07 0.52 (nbgoodclauses,nbtotalgood,precisionGood,recallGood,FGood,nbbadclause,nbtotalbad,precisionBad,recallBad,FBad,accuracy)
c additional predictionTicks 50000 1253330 830901 0.58 0.87 0.70 127156 549585 0.17 0.03 0.05 0.54 (nbgoodclauses,nbtotalgood,precisionGood,recallGood,FGood,nbbadclause,nbtotalbad,precisionBad,recallBad,FBad,accuracy)
c additional predictionTicks 100000 1304326 830901 0.59 0.92 0.72 76160 549585 0.17 0.02 0.03 0.57 (nbgoodclauses,nbtotalgood,precisionGood,recallGood,FGood,nbbadclause,nbtotalbad,precisionBad,recallBad,FBad,accuracy)
c additional lifetimeGood 1 8 8 8 80 22015 154474 385328 546030 831133 1360331 1376103 (0,1,5,10,25,50,75,90,95,99,100-1,100)
c additional lifetimeBad 1 8 8 8 32 784 14848 104416 257408 662435 1376263 1376391 (0,1,5,10,25,50,75,90,95,99,100-1,100)
c additional lifetimeBadBad 8 8 8 8 24 312 4864 30688 70176 214776 1153250 1154282 (0,1,5,10,25,50,75,90,95,99,100-1,100)
c additional compositionBad 1 3 4 4 7 13 27 53 77 147 906 1316 (0,1,5,10,25,50,75,90,95,99,100-1,100)
c additional compositionBadWithGood 0 0 0 0 0 0 0 2 3 7 28 30 (0,1,5,10,25,50,75,90,95,99,100-1,100)
c additional compositionBadWithBad 0 0 0 0 0 1 3 6 8 15 64 67 (0,1,5,10,25,50,75,90,95,99,100-1,100)
c additional compositionBadWithInitial 0 1 2 4 5 11 24 48 70 135 873 1261 (0,1,5,10,25,50,75,90,95,99,100-1,100)
c additional compositionGood 1 2 3 4 6 10 15 22 27 40 108 111 (0,1,5,10,25,50,75,90,95,99,100-1,100)
c additional compositionGoodWithGood 0 0 1 1 2 3 5 8 9 13 36 38 (0,1,5,10,25,50,75,90,95,99,100-1,100)
c additional compositionGoodWithInitial 0 0 2 2 4 6 10 16 20 31 92 96 (0,1,5,10,25,50,75,90,95,99,100-1,100)
c additional propagationGood total 5180555 percentiles 0 1 1 1 1 1 3 9 21 94 14381 16296 (0,1,5,10,25,50,75,90,95,99,100-1,100)
c additional propagationBad total 2624063 percentiles 1 1 1 1 1 1 3 8 16 60 1766 2280 (0,1,5,10,25,50,75,90,95,99,100-1,100)
c additional resolutionGood total 2787274 percentiles 0 1 1 1 1 1 2 5 10 42 6302 6495 (0,1,5,10,25,50,75,90,95,99,100-1,100)
c additional resolutionBad total 1304684 percentiles 0 0 0 0 1 1 2 4 7 23 524 584 (0,1,5,10,25,50,75,90,95,99,100-1,100)
Computing K-Core for 1684408 clauses...
c building structure for KCore computation.
c the graph has 22659925 edges, maxdegree=1316
c we start the KCore with the value 20
c Non directed graph built
K=20,1206818 nodes removed so far
K=21,1231492 nodes removed so far
K=22,1253142 nodes removed so far
K=23,1272276 nodes removed so far
K=24,1289085 nodes removed so far
K=25,1304217 nodes removed so far
K=26,1318133 nodes removed so far
K=27,1330691 nodes removed so far
K=28,1342109 nodes removed so far
K=29,1353239 nodes removed so far
K=30,1363308 nodes removed so far
K=31,1372651 nodes removed so far
K=32,1381493 nodes removed so far
K=33,1389736 nodes removed so far
K=34,1397433 nodes removed so far
K=35,1404987 nodes removed so far
K=36,1412036 nodes removed so far
K=37,1418999 nodes removed so far
K=38,1425460 nodes removed so far
K=39,1431539 nodes removed so far
K=40,1437686 nodes removed so far
K=41,1443698 nodes removed so far
K=42,1452079 nodes removed so far
K=43,1457270 nodes removed so far
K=44,1461955 nodes removed so far
K=45,1466935 nodes removed so far
K=46,1472286 nodes removed so far
K=47,1477937 nodes removed so far
K=48,1483076 nodes removed so far
K=49,1489302 nodes removed so far
K=50,1525569 nodes removed so far
K=51,1527264 nodes removed so far
KCore = 51
Building structure for PR...
Computing PR...
Pageranking 1470784 nodes done in 17 iteration. cumulError=3.52417e-11
Found 0 good successive clauses in order (0 originals, maxlevel=0)
c KCorePR 1684408 51 0 0 0
c DistanceTo...Unseen 1684408
c DistanceToGoodKCore c TotalDistance=1684408
No graph is dumped
c result of core 5 is UNSAT
c One thread has finished
c Core 5 said it finished
c result of core 0 is UNKNOWN
c result of core 1 is UNKNOWN
c result of core 3 is UNKNOWN
c result of core 6 is UNKNOWN
c result of core 4 is UNKNOWN
c result of core 7 is UNKNOWN
c result of core 2 is UNKNOWN
c restarts              : 421 (409 conflicts in avg)
c blocked restarts      : 61 (multiple: 21) 
c last block at restart : 421
c nb ReduceDB           : 10
c nb removed Clauses    : 130643
c nb learnts DL2        : 50
c nb learnts size 2     : 20
c nb learnts size 1     : 2
c conflicts             : 172561         (280 /sec)
c decisions             : 217553         (0.00 % random) (353 /sec)
c propagations          : 13639163       (22125 /sec)
c conflict literals     : 6489583        (1.06 % deleted)
c nb reduced Clauses    : 1973
c CPU time              : 616.466 s

s INDETERMINATE
