c
c This is glucose-proof 1.0 based on  2.1 --  (thanks to MiniSAT)
c
c EXPERIMENTAL EASY PARALLEL (ROUND ROBIN) VERSION
c
c WARNING: for repeatability, setting FPU to use double precision
c Parallel version 6 solvers created.
c ========================================[ Problem Statistics ]===========================================
c |                                                                                                       |
c |  Number of variables:           608                                                                   |
c |  Number of clauses:            2447                                                                   |
c |  Parse time:                   0.00 s                                                                 |
c |                                                                                                       |
c ========================================[ MAGIC CONSTANTS ]==============================================
c | Constants are supposed to work well together :-)                                                      |
c | however, if you find better choices, please let us known...                                           |
c |-------------------------------------------------------------------------------------------------------|
c |                                |                                |                                     |
c | - Restarts:                    | - Reduce Clause DB:            | - Minimize Asserting:               |
c |   * LBD Queue    :     50      |   * First     :   4000         |    * size <  30                     |
c |   * Trail  Queue :   5000      |   * Inc       :    300         |    * lbd  <   6                     |
c |   * K            :   0.80      |   * Special   :   1000         |                                     |
c |   * R            :   1.40      |   * Protected :  (lbd)< 30     |                                     |
c |                                |                                |                                     |
c ==================================[ Search Statistics (every  10000 conflicts) ]=========================
c |                                                                                                       |
c |          RESTARTS           |          ORIGINAL         |              LEARNT              | Progress |
c |       NB   Blocked  Avg Cfc |    Vars  Clauses Literals |   Red   Learnts    LBD2  Removed |          |
c =========================================================================================================
c |       11         0      909 |     606     2447     6986 |     1     8002       62     2192 |  0.329 % |
c |       11         0     1818 |     606     2447     6986 |     3     6952       83    13655 |  0.329 % |
c |       16         0     1875 |     603     2447     6986 |     3    14574      115    13655 |  0.823 % |
c |       24         0     1666 |     565     2447     6986 |     4    16428      141    21860 |  7.073 % |
c empty clause found by core 0 at conflict 41357
*
c checking the resolution graph...OK
c All useful bySize 227438 clauses, percentiles 0 3 7 11 22 57 94 117 129 153 225 227 (0,1,5,10,25,50,75,90,95,99,100-1,100)
c All useless bySize 23199 clauses, percentiles 0 8 14 19 31 61 96 118 130 151 200 201 (0,1,5,10,25,50,75,90,95,99,100-1,100)
c ProofOnly useful bySize 224996 clauses, percentiles 0 5 8 11 23 58 94 117 130 153 225 227 (0,1,5,10,25,50,75,90,95,99,100-1,100)
c ProofOnly useless bySize 23141 clauses, percentiles 2 9 14 19 31 61 96 118 130 151 200 201 (0,1,5,10,25,50,75,90,95,99,100-1,100)
c All useful byFinalLBD 227438 clauses, percentiles 0 1 2 3 5 8 10 12 13 15 24 24 (0,1,5,10,25,50,75,90,95,99,100-1,100)
c All useless byFinalLBD 23199 clauses, percentiles 0 3 4 5 7 9 11 14 15 18 28 28 (0,1,5,10,25,50,75,90,95,99,100-1,100)
c ProofOnly useful byFinalLBD 224996 clauses, percentiles 0 1 2 3 6 8 10 12 13 15 24 24 (0,1,5,10,25,50,75,90,95,99,100-1,100)
c ProofOnly useless byFinalLBD 23141 clauses, percentiles 1 3 5 6 7 9 11 14 15 18 28 28 (0,1,5,10,25,50,75,90,95,99,100-1,100)
c All useful byInitialLBD 227438 clauses, percentiles 0 3 4 5 6 8 10 12 13 15 24 25 (0,1,5,10,25,50,75,90,95,99,100-1,100)
c All useless byInitialLBD 23199 clauses, percentiles 0 4 5 6 8 9 12 14 15 19 28 30 (0,1,5,10,25,50,75,90,95,99,100-1,100)
c ProofOnly useful byInitialLBD 224996 clauses, percentiles 0 3 4 5 7 8 10 12 13 15 24 25 (0,1,5,10,25,50,75,90,95,99,100-1,100)
c ProofOnly useless byInitialLBD 23141 clauses, percentiles 2 4 5 6 8 9 12 14 15 19 28 30 (0,1,5,10,25,50,75,90,95,99,100-1,100)
c Literals ProofOnly useful 13739035
c Literals ProofOnly useless 1510090
c additional windowsGood 1 1 1 1 3 5 5 11 38 183 619 732 (0,1,5,10,25,50,75,90,95,99,100-1,100)
c additional windowsBad 1 1 1 1 1 1 1 2 2 3 9 10 (0,1,5,10,25,50,75,90,95,99,100-1,100)
c additional 1WindowNoDecision 2423 1335 0.55 17919 8808 0.49 (nbWindowsGood,nbWindowsNoDecisionGood,nbWindowsBad,nbWindowsNoDecisionBad
c additional topclausessize all (10%,5%,1%,top) 133.25 143.87 164.95 227
c additional topclausessize proofonly (10%,5%,1%,top) 133.34 143.95 165.02 227
c additional topclausesinitialLBD all (10%,5%,1%,top) 126.32 137.88 160.00 227
c additional topclausesinitialLBD proofonly (10%,5%,1%,top) 120.87 133.34 156.38 227
c additional topclausesfinalLBD all (10%,5%,1%,top) 116.16 129.57 153.47 227
c additional topclausesfinalLBD proofonly (10%,5%,1%,top) 111.96 126.35 151.05 227
c additional predictionInitialLBD 1 12 224996 1.00 0.00 0.00 248125 23141 0.09 0.10 0.10 0.09 (nbgoodclauses,nbtotalgood,precisionGood,recallGood,FGood,nbbadclause,nbtotalbad,precisionBad,recallBad,FBad,accuracy)
c additional predictionInitialLBD 2 946 224996 0.97 0.00 0.01 247191 23141 0.09 0.10 0.10 0.10 (nbgoodclauses,nbtotalgood,precisionGood,recallGood,FGood,nbbadclause,nbtotalbad,precisionBad,recallBad,FBad,accuracy)
c additional predictionInitialLBD 3 5538 224996 0.97 0.02 0.05 242599 23141 0.09 0.10 0.10 0.11 (nbgoodclauses,nbtotalgood,precisionGood,recallGood,FGood,nbbadclause,nbtotalbad,precisionBad,recallBad,FBad,accuracy)
c additional predictionInitialLBD 4 16318 224996 0.96 0.07 0.13 231819 23141 0.10 0.10 0.10 0.15 (nbgoodclauses,nbtotalgood,precisionGood,recallGood,FGood,nbbadclause,nbtotalbad,precisionBad,recallBad,FBad,accuracy)
c additional predictionInitialLBD 5 34442 224996 0.96 0.15 0.25 213695 23141 0.10 0.10 0.10 0.22 (nbgoodclauses,nbtotalgood,precisionGood,recallGood,FGood,nbbadclause,nbtotalbad,precisionBad,recallBad,FBad,accuracy)
c additional predictionInitialLBD 6 59185 224996 0.95 0.25 0.39 188952 23141 0.11 0.09 0.10 0.31 (nbgoodclauses,nbtotalgood,precisionGood,recallGood,FGood,nbbadclause,nbtotalbad,precisionBad,recallBad,FBad,accuracy)
c additional predictionInitialLBD 7 90374 224996 0.94 0.38 0.54 157763 23141 0.11 0.08 0.09 0.41 (nbgoodclauses,nbtotalgood,precisionGood,recallGood,FGood,nbbadclause,nbtotalbad,precisionBad,recallBad,FBad,accuracy)
c additional predictionInitialLBD 8 124454 224996 0.93 0.51 0.66 123683 23141 0.12 0.06 0.08 0.52 (nbgoodclauses,nbtotalgood,precisionGood,recallGood,FGood,nbbadclause,nbtotalbad,precisionBad,recallBad,FBad,accuracy)
c additional predictionInitialLBD 10 188418 224996 0.92 0.77 0.84 59719 23141 0.14 0.04 0.06 0.74 (nbgoodclauses,nbtotalgood,precisionGood,recallGood,FGood,nbbadclause,nbtotalbad,precisionBad,recallBad,FBad,accuracy)
c additional predictionInitialLBD 14 242337 224996 0.91 0.98 0.95 5800 23141 0.29 0.01 0.01 0.90 (nbgoodclauses,nbtotalgood,precisionGood,recallGood,FGood,nbbadclause,nbtotalbad,precisionBad,recallBad,FBad,accuracy)
c additional predictionInitialLBD 18 247581 224996 0.91 1.00 0.95 556 23141 0.42 0.00 0.00 0.91 (nbgoodclauses,nbtotalgood,precisionGood,recallGood,FGood,nbbadclause,nbtotalbad,precisionBad,recallBad,FBad,accuracy)
c additional predictionInitialLBD 22 248082 224996 0.91 1.00 0.95 55 23141 0.58 0.00 0.00 0.91 (nbgoodclauses,nbtotalgood,precisionGood,recallGood,FGood,nbbadclause,nbtotalbad,precisionBad,recallBad,FBad,accuracy)
c additional predictionInitialLBD 30 248137 224996 0.91 1.00 0.95 0 23141 -nan 0.00 -nan 0.91 (nbgoodclauses,nbtotalgood,precisionGood,recallGood,FGood,nbbadclause,nbtotalbad,precisionBad,recallBad,FBad,accuracy)
c additional predictionInitialLBD 40 248137 224996 0.91 1.00 0.95 0 23141 -nan 0.00 -nan 0.91 (nbgoodclauses,nbtotalgood,precisionGood,recallGood,FGood,nbbadclause,nbtotalbad,precisionBad,recallBad,FBad,accuracy)
c additional predictionFinallLBD 1 4302 224996 1.00 0.02 0.04 243835 23141 0.09 1.00 0.17 0.11 (nbgoodclauses,nbtotalgood,precisionGood,recallGood,FGood,nbbadclause,nbtotalbad,precisionBad,recallBad,FBad,accuracy)
c additional predictionFinallLBD 2 14536 224996 0.99 0.06 0.12 233601 23141 0.10 0.99 0.18 0.15 (nbgoodclauses,nbtotalgood,precisionGood,recallGood,FGood,nbbadclause,nbtotalbad,precisionBad,recallBad,FBad,accuracy)
c additional predictionFinallLBD 3 26501 224996 0.98 0.12 0.21 221636 23141 0.10 0.98 0.19 0.20 (nbgoodclauses,nbtotalgood,precisionGood,recallGood,FGood,nbbadclause,nbtotalbad,precisionBad,recallBad,FBad,accuracy)
c additional predictionFinallLBD 4 40411 224996 0.97 0.17 0.30 207726 23141 0.11 0.95 0.19 0.25 (nbgoodclauses,nbtotalgood,precisionGood,recallGood,FGood,nbbadclause,nbtotalbad,precisionBad,recallBad,FBad,accuracy)
c additional predictionFinallLBD 5 57062 224996 0.96 0.24 0.39 191075 23141 0.11 0.90 0.19 0.30 (nbgoodclauses,nbtotalgood,precisionGood,recallGood,FGood,nbbadclause,nbtotalbad,precisionBad,recallBad,FBad,accuracy)
c additional predictionFinallLBD 6 78134 224996 0.95 0.33 0.49 170003 23141 0.11 0.82 0.20 0.38 (nbgoodclauses,nbtotalgood,precisionGood,recallGood,FGood,nbbadclause,nbtotalbad,precisionBad,recallBad,FBad,accuracy)
c additional predictionFinallLBD 7 105630 224996 0.94 0.44 0.60 142507 23141 0.12 0.72 0.20 0.47 (nbgoodclauses,nbtotalgood,precisionGood,recallGood,FGood,nbbadclause,nbtotalbad,precisionBad,recallBad,FBad,accuracy)
c additional predictionFinallLBD 8 136216 224996 0.93 0.56 0.70 111921 23141 0.12 0.59 0.20 0.57 (nbgoodclauses,nbtotalgood,precisionGood,recallGood,FGood,nbbadclause,nbtotalbad,precisionBad,recallBad,FBad,accuracy)
c additional predictionFinallLBD 10 194811 224996 0.92 0.80 0.86 53326 23141 0.15 0.35 0.21 0.76 (nbgoodclauses,nbtotalgood,precisionGood,recallGood,FGood,nbbadclause,nbtotalbad,precisionBad,recallBad,FBad,accuracy)
c additional predictionFinallLBD 14 243317 224996 0.91 0.99 0.95 4820 23141 0.32 0.07 0.11 0.90 (nbgoodclauses,nbtotalgood,precisionGood,recallGood,FGood,nbbadclause,nbtotalbad,precisionBad,recallBad,FBad,accuracy)
c additional predictionFinallLBD 18 247697 224996 0.91 1.00 0.95 440 23141 0.48 0.01 0.02 0.91 (nbgoodclauses,nbtotalgood,precisionGood,recallGood,FGood,nbbadclause,nbtotalbad,precisionBad,recallBad,FBad,accuracy)
c additional predictionFinallLBD 22 248096 224996 0.91 1.00 0.95 41 23141 0.63 0.00 0.00 0.91 (nbgoodclauses,nbtotalgood,precisionGood,recallGood,FGood,nbbadclause,nbtotalbad,precisionBad,recallBad,FBad,accuracy)
c additional predictionFinallLBD 30 248137 224996 0.91 1.00 0.95 0 23141 -nan 0.00 -nan 0.91 (nbgoodclauses,nbtotalgood,precisionGood,recallGood,FGood,nbbadclause,nbtotalbad,precisionBad,recallBad,FBad,accuracy)
c additional predictionFinallLBD 40 248137 224996 0.91 1.00 0.95 0 23141 -nan 0.00 -nan 0.91 (nbgoodclauses,nbtotalgood,precisionGood,recallGood,FGood,nbbadclause,nbtotalbad,precisionBad,recallBad,FBad,accuracy)
c additional predictionSize 1 12 224996 1.00 0.00 0.00 248125 23141 0.09 0.10 0.10 0.09 (nbgoodclauses,nbtotalgood,precisionGood,recallGood,FGood,nbbadclause,nbtotalbad,precisionBad,recallBad,FBad,accuracy)
c additional predictionSize 2 142 224996 0.95 0.00 0.00 247995 23141 0.09 0.10 0.10 0.09 (nbgoodclauses,nbtotalgood,precisionGood,recallGood,FGood,nbbadclause,nbtotalbad,precisionBad,recallBad,FBad,accuracy)
c additional predictionSize 3 626 224996 0.98 0.00 0.01 247511 23141 0.09 0.10 0.10 0.10 (nbgoodclauses,nbtotalgood,precisionGood,recallGood,FGood,nbbadclause,nbtotalbad,precisionBad,recallBad,FBad,accuracy)
c additional predictionSize 4 1977 224996 0.99 0.01 0.02 246160 23141 0.09 0.10 0.10 0.10 (nbgoodclauses,nbtotalgood,precisionGood,recallGood,FGood,nbbadclause,nbtotalbad,precisionBad,recallBad,FBad,accuracy)
c additional predictionSize 5 3887 224996 0.99 0.02 0.03 244250 23141 0.09 0.10 0.10 0.11 (nbgoodclauses,nbtotalgood,precisionGood,recallGood,FGood,nbbadclause,nbtotalbad,precisionBad,recallBad,FBad,accuracy)
c additional predictionSize 6 6771 224996 0.99 0.03 0.06 241366 23141 0.10 0.10 0.10 0.12 (nbgoodclauses,nbtotalgood,precisionGood,recallGood,FGood,nbbadclause,nbtotalbad,precisionBad,recallBad,FBad,accuracy)
c additional predictionSize 7 9932 224996 0.99 0.04 0.08 238205 23141 0.10 0.10 0.10 0.13 (nbgoodclauses,nbtotalgood,precisionGood,recallGood,FGood,nbbadclause,nbtotalbad,precisionBad,recallBad,FBad,accuracy)
c additional predictionSize 8 13224 224996 0.98 0.06 0.11 234913 23141 0.10 0.10 0.10 0.14 (nbgoodclauses,nbtotalgood,precisionGood,recallGood,FGood,nbbadclause,nbtotalbad,precisionBad,recallBad,FBad,accuracy)
c additional predictionSize 10 20099 224996 0.98 0.09 0.16 228038 23141 0.10 0.10 0.10 0.17 (nbgoodclauses,nbtotalgood,precisionGood,recallGood,FGood,nbbadclause,nbtotalbad,precisionBad,recallBad,FBad,accuracy)
c additional predictionSize 14 33881 224996 0.96 0.15 0.25 214256 23141 0.10 0.10 0.10 0.22 (nbgoodclauses,nbtotalgood,precisionGood,recallGood,FGood,nbbadclause,nbtotalbad,precisionBad,recallBad,FBad,accuracy)
c additional predictionSize 18 46744 224996 0.95 0.20 0.33 201393 23141 0.10 0.09 0.10 0.26 (nbgoodclauses,nbtotalgood,precisionGood,recallGood,FGood,nbbadclause,nbtotalbad,precisionBad,recallBad,FBad,accuracy)
c additional predictionSize 22 58967 224996 0.94 0.25 0.39 189170 23141 0.10 0.09 0.10 0.30 (nbgoodclauses,nbtotalgood,precisionGood,recallGood,FGood,nbbadclause,nbtotalbad,precisionBad,recallBad,FBad,accuracy)
c additional predictionSize 30 79678 224996 0.93 0.33 0.49 168459 23141 0.10 0.08 0.09 0.37 (nbgoodclauses,nbtotalgood,precisionGood,recallGood,FGood,nbbadclause,nbtotalbad,precisionBad,recallBad,FBad,accuracy)
c additional predictionSize 40 98612 224996 0.92 0.40 0.56 149525 23141 0.10 0.07 0.08 0.43 (nbgoodclauses,nbtotalgood,precisionGood,recallGood,FGood,nbbadclause,nbtotalbad,precisionBad,recallBad,FBad,accuracy)
c additional predictionAge 1 4283 224996 0.97 0.02 0.04 243854 23141 0.09 0.10 0.10 0.11 (nbgoodclauses,nbtotalgood,precisionGood,recallGood,FGood,nbbadclause,nbtotalbad,precisionBad,recallBad,FBad,accuracy)
c additional predictionAge 10 4811 224996 0.95 0.02 0.04 243326 23141 0.09 0.10 0.10 0.11 (nbgoodclauses,nbtotalgood,precisionGood,recallGood,FGood,nbbadclause,nbtotalbad,precisionBad,recallBad,FBad,accuracy)
c additional predictionAge 25 6197 224996 0.92 0.03 0.05 241940 23141 0.09 0.10 0.10 0.11 (nbgoodclauses,nbtotalgood,precisionGood,recallGood,FGood,nbbadclause,nbtotalbad,precisionBad,recallBad,FBad,accuracy)
c additional predictionAge 50 6689 224996 0.91 0.03 0.05 241448 23141 0.09 0.10 0.10 0.12 (nbgoodclauses,nbtotalgood,precisionGood,recallGood,FGood,nbbadclause,nbtotalbad,precisionBad,recallBad,FBad,accuracy)
c additional predictionAge 100 7277 224996 0.91 0.03 0.06 240860 23141 0.09 0.10 0.10 0.12 (nbgoodclauses,nbtotalgood,precisionGood,recallGood,FGood,nbbadclause,nbtotalbad,precisionBad,recallBad,FBad,accuracy)
c additional predictionAge 250 8238 224996 0.90 0.03 0.06 239899 23141 0.09 0.10 0.10 0.12 (nbgoodclauses,nbtotalgood,precisionGood,recallGood,FGood,nbbadclause,nbtotalbad,precisionBad,recallBad,FBad,accuracy)
c additional predictionAge 500 9109 224996 0.89 0.04 0.07 239028 23141 0.09 0.10 0.10 0.12 (nbgoodclauses,nbtotalgood,precisionGood,recallGood,FGood,nbbadclause,nbtotalbad,precisionBad,recallBad,FBad,accuracy)
c additional predictionAge 1000 10247 224996 0.88 0.04 0.08 237890 23141 0.09 0.10 0.09 0.12 (nbgoodclauses,nbtotalgood,precisionGood,recallGood,FGood,nbbadclause,nbtotalbad,precisionBad,recallBad,FBad,accuracy)
c additional predictionAge 2500 13014 224996 0.85 0.05 0.09 235123 23141 0.09 0.09 0.09 0.13 (nbgoodclauses,nbtotalgood,precisionGood,recallGood,FGood,nbbadclause,nbtotalbad,precisionBad,recallBad,FBad,accuracy)
c additional predictionAge 5000 16422 224996 0.84 0.06 0.11 231715 23141 0.09 0.09 0.09 0.14 (nbgoodclauses,nbtotalgood,precisionGood,recallGood,FGood,nbbadclause,nbtotalbad,precisionBad,recallBad,FBad,accuracy)
c additional predictionAge 10000 22867 224996 0.86 0.09 0.16 225270 23141 0.09 0.09 0.09 0.16 (nbgoodclauses,nbtotalgood,precisionGood,recallGood,FGood,nbbadclause,nbtotalbad,precisionBad,recallBad,FBad,accuracy)
c additional predictionAge 25000 39900 224996 0.88 0.16 0.26 208237 23141 0.09 0.08 0.08 0.21 (nbgoodclauses,nbtotalgood,precisionGood,recallGood,FGood,nbbadclause,nbtotalbad,precisionBad,recallBad,FBad,accuracy)
c additional predictionAge 50000 66366 224996 0.90 0.27 0.41 181771 23141 0.09 0.07 0.08 0.31 (nbgoodclauses,nbtotalgood,precisionGood,recallGood,FGood,nbbadclause,nbtotalbad,precisionBad,recallBad,FBad,accuracy)
c additional predictionAge 100000 116865 224996 0.92 0.48 0.63 131272 23141 0.11 0.06 0.08 0.49 (nbgoodclauses,nbtotalgood,precisionGood,recallGood,FGood,nbbadclause,nbtotalbad,precisionBad,recallBad,FBad,accuracy)
c additional predictionTicks 1 4380 224996 0.97 0.02 0.04 243757 23141 0.09 0.10 0.10 0.11 (nbgoodclauses,nbtotalgood,precisionGood,recallGood,FGood,nbbadclause,nbtotalbad,precisionBad,recallBad,FBad,accuracy)
c additional predictionTicks 10 9155 224996 0.94 0.04 0.07 238982 23141 0.09 0.10 0.10 0.13 (nbgoodclauses,nbtotalgood,precisionGood,recallGood,FGood,nbbadclause,nbtotalbad,precisionBad,recallBad,FBad,accuracy)
c additional predictionTicks 25 17276 224996 0.92 0.07 0.13 230861 23141 0.09 0.10 0.10 0.15 (nbgoodclauses,nbtotalgood,precisionGood,recallGood,FGood,nbbadclause,nbtotalbad,precisionBad,recallBad,FBad,accuracy)
c additional predictionTicks 50 25132 224996 0.91 0.10 0.18 223005 23141 0.09 0.09 0.09 0.18 (nbgoodclauses,nbtotalgood,precisionGood,recallGood,FGood,nbbadclause,nbtotalbad,precisionBad,recallBad,FBad,accuracy)
c additional predictionTicks 100 36270 224996 0.91 0.15 0.25 211867 23141 0.09 0.09 0.09 0.21 (nbgoodclauses,nbtotalgood,precisionGood,recallGood,FGood,nbbadclause,nbtotalbad,precisionBad,recallBad,FBad,accuracy)
c additional predictionTicks 250 57883 224996 0.91 0.23 0.37 190254 23141 0.09 0.08 0.09 0.28 (nbgoodclauses,nbtotalgood,precisionGood,recallGood,FGood,nbbadclause,nbtotalbad,precisionBad,recallBad,FBad,accuracy)
c additional predictionTicks 500 79239 224996 0.91 0.32 0.47 168898 23141 0.09 0.07 0.08 0.35 (nbgoodclauses,nbtotalgood,precisionGood,recallGood,FGood,nbbadclause,nbtotalbad,precisionBad,recallBad,FBad,accuracy)
c additional predictionTicks 1000 104271 224996 0.91 0.42 0.58 143866 23141 0.10 0.06 0.07 0.44 (nbgoodclauses,nbtotalgood,precisionGood,recallGood,FGood,nbbadclause,nbtotalbad,precisionBad,recallBad,FBad,accuracy)
c additional predictionTicks 2500 141264 224996 0.91 0.57 0.70 106873 23141 0.10 0.05 0.06 0.56 (nbgoodclauses,nbtotalgood,precisionGood,recallGood,FGood,nbbadclause,nbtotalbad,precisionBad,recallBad,FBad,accuracy)
c additional predictionTicks 5000 168609 224996 0.91 0.68 0.78 79528 23141 0.10 0.04 0.05 0.65 (nbgoodclauses,nbtotalgood,precisionGood,recallGood,FGood,nbbadclause,nbtotalbad,precisionBad,recallBad,FBad,accuracy)
c additional predictionTicks 10000 193344 224996 0.91 0.78 0.84 54793 23141 0.10 0.03 0.04 0.73 (nbgoodclauses,nbtotalgood,precisionGood,recallGood,FGood,nbbadclause,nbtotalbad,precisionBad,recallBad,FBad,accuracy)
c additional predictionTicks 25000 220314 224996 0.91 0.89 0.90 27823 23141 0.10 0.01 0.02 0.82 (nbgoodclauses,nbtotalgood,precisionGood,recallGood,FGood,nbbadclause,nbtotalbad,precisionBad,recallBad,FBad,accuracy)
c additional predictionTicks 50000 235804 224996 0.91 0.95 0.93 12333 23141 0.10 0.01 0.01 0.87 (nbgoodclauses,nbtotalgood,precisionGood,recallGood,FGood,nbbadclause,nbtotalbad,precisionBad,recallBad,FBad,accuracy)
c additional predictionTicks 100000 244998 224996 0.91 0.99 0.95 3139 23141 0.09 0.00 0.00 0.90 (nbgoodclauses,nbtotalgood,precisionGood,recallGood,FGood,nbbadclause,nbtotalbad,precisionBad,recallBad,FBad,accuracy)
c additional lifetimeGood 1 6 36 1266 14844 54443 116774 171558 197920 228900 248146 248148 (0,1,5,10,25,50,75,90,95,99,100-1,100)
c additional lifetimeBad 1 6 24 661 12927 59676 111274 171285 213529 240106 248139 248156 (0,1,5,10,25,50,75,90,95,99,100-1,100)
c additional lifetimeBadBad 4 6 6 6 6 30 1254 14736 25428 35892 215271 215277 (0,1,5,10,25,50,75,90,95,99,100-1,100)
c additional compositionBad 1 3 7 11 21 50 124 216 267 353 495 500 (0,1,5,10,25,50,75,90,95,99,100-1,100)
c additional compositionBadWithGood 0 0 1 2 4 9 20 38 50 69 103 104 (0,1,5,10,25,50,75,90,95,99,100-1,100)
c additional compositionBadWithBad 0 0 0 0 0 1 2 4 5 9 18 24 (0,1,5,10,25,50,75,90,95,99,100-1,100)
c additional compositionBadWithInitial 0 1 4 6 15 38 100 177 220 296 453 477 (0,1,5,10,25,50,75,90,95,99,100-1,100)
c additional compositionGood 1 3 5 7 15 45 133 229 282 363 514 516 (0,1,5,10,25,50,75,90,95,99,100-1,100)
c additional compositionGoodWithGood 0 0 1 2 4 10 24 43 56 76 121 122 (0,1,5,10,25,50,75,90,95,99,100-1,100)
c additional compositionGoodWithInitial 0 1 3 4 11 34 107 188 231 300 482 484 (0,1,5,10,25,50,75,90,95,99,100-1,100)
c additional propagationGood total 7942506 percentiles 0 1 1 1 1 1 3 23 72 559 23000 23614 (0,1,5,10,25,50,75,90,95,99,100-1,100)
c additional propagationBad total 48057 percentiles 1 1 1 1 1 1 1 3 5 21 266 318 (0,1,5,10,25,50,75,90,95,99,100-1,100)
c additional resolutionGood total 3953656 percentiles 0 1 1 1 1 1 2 14 40 272 10351 11458 (0,1,5,10,25,50,75,90,95,99,100-1,100)
c additional resolutionBad total 34017 percentiles 0 0 0 0 1 1 1 2 3 14 150 210 (0,1,5,10,25,50,75,90,95,99,100-1,100)
Computing K-Core for 250637 clauses...
c building structure for KCore computation.
c the graph has 21139229 edges, maxdegree=516
c we start the KCore with the value 20
c Non directed graph built
K=20,47055 nodes removed so far
K=21,50757 nodes removed so far
K=22,54589 nodes removed so far
K=23,58162 nodes removed so far
K=24,61728 nodes removed so far
K=25,65147 nodes removed so far
K=26,K=27,71725 nodes removed so far
K=28,K=29,K=30,80699 nodes removed so far
K=31,K=32,K=33,K=34,91253 nodes removed so far
K=35,K=36,K=37,K=38,100281 nodes removed so far
K=39,K=40,K=41,K=42,K=43,110105 nodes removed so far
K=44,K=45,K=46,K=47,K=48,K=49,K=50,121353 nodes removed so far
K=51,K=52,K=53,K=54,K=55,K=56,K=57,130742 nodes removed so far
K=58,K=59,K=60,K=61,K=62,K=63,K=64,K=65,K=66,140790 nodes removed so far
K=67,K=68,K=69,K=70,K=71,K=72,K=73,K=74,K=75,K=76,150038 nodes removed so far
K=77,K=78,K=79,K=80,K=81,K=82,K=83,K=84,K=85,K=86,K=87,K=88,K=89,160025 nodes removed so far
K=90,K=91,K=92,K=93,K=94,K=95,K=96,K=97,K=98,K=99,K=100,K=101,K=102,K=103,K=104,170227 nodes removed so far
K=105,K=106,K=107,K=108,K=109,K=110,K=111,K=112,K=113,K=114,K=115,K=116,K=117,K=118,K=119,K=120,K=121,180498 nodes removed so far
K=122,K=123,K=124,K=125,K=126,K=127,K=128,K=129,K=130,K=131,K=132,K=133,K=134,K=135,K=136,K=137,K=138,K=139,190390 nodes removed so far
K=140,K=141,K=142,K=143,K=144,K=145,K=146,K=147,K=148,K=149,K=150,K=151,K=152,K=153,K=154,K=155,K=156,K=157,K=158,K=159,200483 nodes removed so far
K=160,K=161,K=162,K=163,K=164,K=165,K=166,K=167,K=168,K=169,K=170,K=171,K=172,K=173,K=174,K=175,K=176,K=177,K=178,K=179,K=180,210320 nodes removed so far
K=181,K=182,K=183,K=184,K=185,K=186,K=187,K=188,K=189,K=190,K=191,K=192,K=193,K=194,K=195,K=196,K=197,K=198,K=199,K=200,K=201,K=202,K=203,K=204,220057 nodes removed so far
K=205,K=206,K=207,K=208,K=209,K=210,K=211,K=212,K=213,K=214,K=215,K=216,K=217,K=218,K=219,K=220,K=221,K=222,K=223,K=224,K=225,K=226,K=227,K=228,K=229,K=230,K=231,K=232,K=233,230283 nodes removed so far
K=234,K=235,K=236,K=237,K=238,K=239,K=240,K=241,K=242,K=243,K=244,K=245,K=246,K=247,K=248,K=249,K=250,K=251,K=252,K=253,K=254,K=255,K=256,K=257,K=258,K=259,K=260,K=261,K=262,K=263,K=264,K=265,240088 nodes removed so far
K=266,K=267,K=268,K=269,K=270,K=271,K=272,K=273,250580 nodes removed so far
KCore = 273
Building structure for PR...
Computing PR...
Pageranking 247019 nodes done in 15 iteration. cumulError=9.18851e-11
clause level 5 (Kante=8, Kdesc=35298, core=3):-359 
clause level 206 (Kante=486, Kdesc=40082, core=0):-82 
clause level 5 (Kante=3, Kdesc=18832, core=1):-89 359 
clause level 1 (Kante=5, Kdesc=12998, core=0):-194 190 
clause level 328 (Kante=403, Kdesc=9500, core=5):-3 
clause level 2 (Kante=3, Kdesc=7345, core=3):86 135 
clause level 12 (Kante=5, Kdesc=16166, core=5):-124 81 
clause level 2 (Kante=3, Kdesc=5419, core=1):91 -325 
clause level 3 (Kante=3, Kdesc=2905, core=5):108 -346 
clause level 3 (Kante=5, Kdesc=7863, core=5):4 397 -393 
clause level 1 (Kante=6, Kdesc=5547, core=3):19 387 
clause level 2 (Kante=4, Kdesc=8834, core=0):16 -376 380 
clause level 1 (Kante=3, Kdesc=10517, core=2):-220 -234 
clause level 5 (Kante=3, Kdesc=6158, core=3):87 359 414 
clause level 4 (Kante=8, Kdesc=6563, core=2):108 -364 368 
clause level 1 (Kante=6, Kdesc=4617, core=5):7 -354 
clause level 2 (Kante=3, Kdesc=6082, core=4):108 -368 364 
clause level 1 (Kante=4, Kdesc=9571, core=1):91 149 
clause level 3 (Kante=3, Kdesc=8713, core=2):16 430 -426 
clause level 5 (Kante=3, Kdesc=5568, core=2):108 393 -389 
clause level 313 (Kante=430, Kdesc=7560, core=2):-375 
clause level 1 (Kante=11, Kdesc=7548, core=3):4 347 -351 
clause level 3 (Kante=9, Kdesc=3545, core=3):91 -387 -389 
clause level 3 (Kante=6, Kdesc=5726, core=4):4 422 -418 394 
clause level 182 (Kante=352, Kdesc=3836, core=5):-141 -136 
clause level 2 (Kante=3, Kdesc=6174, core=0):1 220 
clause level 1 (Kante=9, Kdesc=4222, core=1):4 -350 
clause level 2 (Kante=3, Kdesc=7692, core=3):16 376 -380 
clause level 2 (Kante=11, Kdesc=5592, core=5):7 401 -397 
clause level 1 (Kante=16, Kdesc=6393, core=3):19 -472 
clause level 3 (Kante=3, Kdesc=6868, core=3):7 -426 422 
clause level 2 (Kante=8, Kdesc=5110, core=5):7 -372 376 
clause level 2 (Kante=3, Kdesc=3133, core=5):4 -396 
clause level 1 (Kante=4, Kdesc=2357, core=1):86 -134 
clause level 2 (Kante=7, Kdesc=6978, core=4):19 445 
clause level 4 (Kante=5, Kdesc=5371, core=5):108 -343 347 
clause level 2 (Kante=3, Kdesc=3401, core=4):7 -425 
clause level 1 (Kante=8, Kdesc=4243, core=1):19 -414 
clause level 3 (Kante=4, Kdesc=5097, core=4):4 -397 393 
clause level 4 (Kante=3, Kdesc=5131, core=4):4 368 -372 
clause level 2 (Kante=5, Kdesc=5390, core=4):94 -339 321 81 
clause level 1 (Kante=3, Kdesc=7479, core=1):-87 -102 
clause level 3 (Kante=2, Kdesc=4321, core=2):91 343 -339 
clause level 1 (Kante=3, Kdesc=3565, core=4):-387 -414 
clause level 3 (Kante=5, Kdesc=5809, core=0):7 -422 426 
clause level 2 (Kante=10, Kdesc=5434, core=5):86 -322 10 
clause level 4 (Kante=3, Kdesc=11443, core=3):-472 501 
clause level 3 (Kante=3, Kdesc=4804, core=3):7 372 -376 
clause level 2 (Kante=3, Kdesc=6021, core=3):190 199 -209 189 
clause level 3 (Kante=3, Kdesc=5759, core=3):7 -401 397 
clause level 70 (Kante=4, Kdesc=3612, core=4):-346 10 
clause level 3 (Kante=5, Kdesc=4271, core=1):-360 79 308 78 -87 
clause level 1 (Kante=8, Kdesc=6761, core=0):136 -167 
clause level 1 (Kante=8, Kdesc=2481, core=4):19 -120 
clause level 4 (Kante=3, Kdesc=3553, core=3):91 339 -343 
clause level 1 (Kante=5, Kdesc=4788, core=4):108 -316 
clause level 2 (Kante=3, Kdesc=6267, core=2):108 107 -126 
clause level 1 (Kante=3, Kdesc=2993, core=0):-81 321 
clause level 3 (Kante=8, Kdesc=5576, core=3):7 451 -447 
clause level 1 (Kante=5, Kdesc=6767, core=5):235 461 -457 433 
clause level 3 (Kante=3, Kdesc=3033, core=3):-86 385 -19 
clause level 1 (Kante=14, Kdesc=3776, core=5):16 426 -430 
clause level 2 (Kante=7, Kdesc=7359, core=4):16 -476 480 
clause level 3 (Kante=4, Kdesc=7149, core=0):-234 265 
clause level 246 (Kante=427, Kdesc=2936, core=1):-350 -159 
clause level 1 (Kante=4, Kdesc=5088, core=2):159 -134 
clause level 6 (Kante=3, Kdesc=5424, core=5):16 455 -451 
clause level 2 (Kante=5, Kdesc=3332, core=1):76 137 -301 
clause level 2 (Kante=5, Kdesc=4988, core=4):108 -107 126 
clause level 1 (Kante=4, Kdesc=3208, core=2):-87 -19 -80 
clause level 3 (Kante=5, Kdesc=11666, core=3):-501 531 -1 504 
clause level 1 (Kante=6, Kdesc=3319, core=5):91 -101 
clause level 1 (Kante=4, Kdesc=10353, core=1):189 -556 565 
clause level 2 (Kante=3, Kdesc=10450, core=4):19 49 
clause level 1 (Kante=3, Kdesc=3992, core=3):-445 -472 
clause level 3 (Kante=5, Kdesc=3967, core=3):-203 234 
clause level 3 (Kante=3, Kdesc=9445, core=4):-270 -265 -264 
clause level 1 (Kante=3, Kdesc=9502, core=3):235 520 544 -548 
clause level 91 (Kante=439, Kdesc=4588, core=0):-226 -91 
clause level 4 (Kante=3, Kdesc=3610, core=3):4 -422 418 
clause level 1 (Kante=8, Kdesc=3235, core=0):108 -168 
clause level 3 (Kante=7, Kdesc=3731, core=5):-1 206 189 -159 
clause level 7 (Kante=3, Kdesc=4543, core=0):360 -90 81 
clause level 1 (Kante=4, Kdesc=3998, core=5):91 94 -114 
clause level 3 (Kante=5, Kdesc=2599, core=5):-425 -422 -6 
clause level 1 (Kante=5, Kdesc=7639, core=1):235 -515 519 491 
clause level 1 (Kante=3, Kdesc=3305, core=4):90 -360 338 89 
clause level 2 (Kante=4, Kdesc=3948, core=0):108 -170 
clause level 1 (Kante=11, Kdesc=4954, core=3):16 401 -405 
clause level 5 (Kante=3, Kdesc=2646, core=1):108 389 -393 
clause level 4 (Kante=7, Kdesc=2952, core=3):91 388 -360 364 
clause level 1 (Kante=5, Kdesc=2117, core=3):-87 -360 78 10 
clause level 8 (Kante=22, Kdesc=4223, core=1):-417 367 
clause level 1 (Kante=5, Kdesc=3874, core=0):19 -90 84 
clause level 4 (Kante=8, Kdesc=2464, core=4):-414 418 359 -10 
clause level 1 (Kante=6, Kdesc=4805, core=0):136 -225 241 
clause level 1 (Kante=6, Kdesc=4024, core=0):7 -201 
clause level 1 (Kante=3, Kdesc=6612, core=3):-123 -264 
clause level 3 (Kante=3, Kdesc=6898, core=0):19 503 
clause level 3 (Kante=3, Kdesc=3690, core=0):86 -301 178 
clause level 4 (Kante=4, Kdesc=2941, core=5):-19 417 -108 472 
clause level 1 (Kante=3, Kdesc=7496, core=0):218 589 553 -591 
clause level 1 (Kante=4, Kdesc=3699, core=2):136 -241 225 
clause level 3 (Kante=9, Kdesc=5807, core=0):19 -600 
clause level 1 (Kante=3, Kdesc=3540, core=1):-189 411 413 -383 
clause level 1 (Kante=4, Kdesc=3321, core=2):-87 -90 84 
clause level 1 (Kante=5, Kdesc=4766, core=1):6 454 478 -482 
clause level 2 (Kante=5, Kdesc=7706, core=0):19 -264 
clause level 2 (Kante=6, Kdesc=3739, core=2):203 200 -206 201 
clause level 1 (Kante=6, Kdesc=2984, core=0):-213 192 210 197 
clause level 3 (Kante=4, Kdesc=6156, core=3):-263 -125 -239 
clause level 2 (Kante=4, Kdesc=4404, core=2):1 -487 
clause level 1 (Kante=3, Kdesc=8066, core=3):-33 24 -35 
clause level 2 (Kante=6, Kdesc=4413, core=5):461 -457 -430 433 
clause level 2 (Kante=5, Kdesc=3768, core=0):136 -170 
clause level 5 (Kante=3, Kdesc=2510, core=3):87 -10 107 89 
clause level 7 (Kante=5, Kdesc=2457, core=4):-418 121 472 108 
clause level 1 (Kante=5, Kdesc=3956, core=4):-251 232 227 
clause level 5 (Kante=3, Kdesc=4179, core=4):10 -478 19 
clause level 1 (Kante=5, Kdesc=2777, core=4):16 -455 429 451 
clause level 1 (Kante=5, Kdesc=3739, core=2):-2 486 -455 -482 
clause level 4 (Kante=6, Kdesc=5468, core=4):46 -20 
clause level 1 (Kante=6, Kdesc=2798, core=2):136 -233 
clause level 1 (Kante=6, Kdesc=1859, core=2):108 -119 
clause level 1 (Kante=5, Kdesc=5106, core=4):2 -511 515 487 
clause level 2 (Kante=4, Kdesc=5047, core=5):1 64 600 
clause level 1 (Kante=4, Kdesc=2974, core=5):108 -127 111 
clause level 4 (Kante=4, Kdesc=4700, core=4):-203 265 
clause level 3 (Kante=5, Kdesc=5159, core=3):19 -530 
clause level 2 (Kante=3, Kdesc=3989, core=2):19 123 
clause level 1 (Kante=5, Kdesc=2878, core=5):159 -213 192 
clause level 1 (Kante=5, Kdesc=3031, core=5):-218 -432 436 -405 
clause level 6 (Kante=4, Kdesc=2415, core=3):-472 -10 447 
clause level 2 (Kante=8, Kdesc=1379, core=5):265 -234 -1 237 
clause level 3 (Kante=5, Kdesc=2644, core=1):-19 -87 -301 
clause level 4 (Kante=3, Kdesc=4957, core=0):19 532 
clause level 2 (Kante=5, Kdesc=4221, core=0):-490 486 462 487 -459 
clause level 2 (Kante=3, Kdesc=4823, core=1):1 382 -483 
clause level 2 (Kante=5, Kdesc=3636, core=2):-261 126 240 
clause level 4 (Kante=3, Kdesc=3595, core=0):7 472 -476 
clause level 1 (Kante=5, Kdesc=6217, core=1):41 536 509 -540 
clause level 1 (Kante=5, Kdesc=3006, core=3):-411 407 381 203 
clause level 2 (Kante=5, Kdesc=4307, core=5):-271 293 -276 275 267 
clause level 13 (Kante=3, Kdesc=3032, core=0):-19 264 -108 
clause level 1 (Kante=6, Kdesc=2831, core=3):-441 436 410 203 
clause level 3 (Kante=6, Kdesc=4646, core=4):565 -560 553 528 591 -203 
clause level 1 (Kante=3, Kdesc=5148, core=5):-271 273 295 -274 
clause level 3 (Kante=9, Kdesc=5580, core=5):1 68 64 
clause level 1 (Kante=5, Kdesc=5537, core=4):41 507 480 -511 
clause level 1 (Kante=6, Kdesc=3406, core=4):1 -466 
clause level 2 (Kante=5, Kdesc=3952, core=3):136 -222 240 
clause level 3 (Kante=4, Kdesc=4947, core=0):-501 530 
clause level 1 (Kante=24, Kdesc=3505, core=5):-504 -501 -19 
clause level 2 (Kante=4, Kdesc=4708, core=1):-560 -605 -203 565 
clause level 2 (Kante=4, Kdesc=2159, core=4):91 -107 -105 
clause level 1 (Kante=16, Kdesc=1774, core=3):16 -479 427 
clause level 1 (Kante=10, Kdesc=2712, core=1):-437 381 406 432 218 
clause level 2 (Kante=7, Kdesc=4926, core=0):564 -75 -59 -562 -608 2 
clause level 2 (Kante=4, Kdesc=2693, core=1):108 -125 -123 
clause level 1 (Kante=8, Kdesc=2963, core=3):-2 -480 -6 485 -455 
clause level 2 (Kante=6, Kdesc=4584, core=5):16 -505 -503 
clause level 1 (Kante=5, Kdesc=4667, core=3):-218 523 -519 494 
clause level 3 (Kante=7, Kdesc=4704, core=5):-572 291 274 269 -276 275 267 
clause level 2 (Kante=5, Kdesc=2715, core=5):91 152 -156 
clause level 1 (Kante=15, Kdesc=4166, core=1):-553 519 493 218 522 548 
clause level 2 (Kante=3, Kdesc=3982, core=4):-189 558 -203 560 591 
clause level 1 (Kante=8, Kdesc=1480, core=4):19 101 -107 84 78 85 
clause level 1 (Kante=3, Kdesc=4720, core=1):52 69 600 -595 
clause level 1 (Kante=7, Kdesc=2757, core=4):6 482 -478 454 
clause level 9 (Kante=2, Kdesc=2277, core=3):264 387 -19 
clause level 6 (Kante=4, Kdesc=3771, core=2):19 -507 10 
clause level 1 (Kante=9, Kdesc=3625, core=4):1 -462 
clause level 10 (Kante=5, Kdesc=2800, core=3):87 264 
clause level 1 (Kante=4, Kdesc=3849, core=3):-469 465 439 203 
clause level 1 (Kante=7, Kdesc=3316, core=0):-528 523 203 
clause level 2 (Kante=2, Kdesc=3477, core=1):-52 535 509 533 
clause level 5 (Kante=5, Kdesc=3730, core=4):19 -599 
clause level 281 (Kante=327, Kdesc=1663, core=2):19 -16 
clause level 2 (Kante=5, Kdesc=3509, core=1):550 520 -218 -203 549 
clause level 1 (Kante=10, Kdesc=3713, core=1):-524 468 493 519 218 
clause level 69 (Kante=357, Kdesc=6, core=4):10 -108 -346 -345 347 
clause level 1 (Kante=3, Kdesc=3742, core=1):52 508 -532 -536 
clause level 1 (Kante=8, Kdesc=4134, core=4):-541 536 2 41 514 
clause level 4 (Kante=19, Kdesc=2578, core=1):-266 191 -204 -220 236 -237 
clause level 2 (Kante=3, Kdesc=3220, core=0):588 545 -218 -235 593 
clause level 2 (Kante=6, Kdesc=2967, core=4):564 -562 -75 608 -2 60 
clause level 2 (Kante=6, Kdesc=1812, core=3):277 -239 -265 -125 187 270 -271 
clause level 1 (Kante=5, Kdesc=3405, core=5):-271 272 297 273 -274 
clause level 4 (Kante=3, Kdesc=3138, core=3):601 -41 -52 533 599 
clause level 2 (Kante=7, Kdesc=3489, core=0):546 -235 -218 516 545 
clause level 1 (Kante=5, Kdesc=2019, core=3):-252 224 -236 
clause level 2 (Kante=13, Kdesc=3096, core=0):-549 468 493 235 544 
clause level 7 (Kante=6, Kdesc=1863, core=4):-475 -418 417 
clause level 2 (Kante=4, Kdesc=2407, core=4):1 -491 -141 
clause level 1 (Kante=6, Kdesc=2004, core=3):6 -24 
clause level 5 (Kante=3, Kdesc=2373, core=3):-16 61 12 21 9 34 -19 
clause level 1 (Kante=3, Kdesc=1952, core=0):-62 -600 -61 
clause level 1 (Kante=3, Kdesc=2276, core=0):235 -589 549 593 
clause level 5 (Kante=6, Kdesc=1719, core=5):-475 417 -108 
clause level 2 (Kante=22, Kdesc=2377, core=4):-187 -105 19 78 85 -123 
clause level 2 (Kante=4, Kdesc=1148, core=3):46 -20 24 33 
clause level 1 (Kante=10, Kdesc=1723, core=5):534 -41 -36 504 -52 533 
clause level 7 (Kante=6, Kdesc=2225, core=5):19 -534 506 10 
clause level 233 (Kante=417, Kdesc=177, core=3):-6 -10 -3 79 84 
clause level 264 (Kante=445, Kdesc=7, core=1):-136 -11 -10 -4 
clause level 90 (Kante=363, Kdesc=9, core=0):-6 -136 -91 -139 -226 -7 
clause level 249 (Kante=364, Kdesc=103, core=0):-408 79 -3 84 
clause level 129 (Kante=452, Kdesc=8, core=3):-10 -125 -3 -7 -8 124 
clause level 87 (Kante=494, Kdesc=149, core=5):-342 -141 -10 -6 -142 -91 -92 -95 
clause level 386 (Kante=483, Kdesc=312, core=0):-126 
clause level 23 (Kante=416, Kdesc=14, core=4):-346 404 -141 -136 377 -3 379 376 
clause level 145 (Kante=487, Kdesc=15, core=4):136 422 -370 369 -371 79 423 372 
clause level 202 (Kante=483, Kdesc=9, core=1):91 -368 -284 -4 -3 367 417 -369 
clause level 381 (Kante=461, Kdesc=61, core=2):-1 -19 388 
clause level 79 (Kante=447, Kdesc=9, core=3):-141 -91 -6 308 -3 -97 -95 
clause level 197 (Kante=372, Kdesc=1, core=0):-203 -86 -76 -6 -3 108 155 168 158 115 367 392 417 121 -178 308 119 415 388 175 164 157 154 170 -82 112 316 109 346 329 113 163 166 390 122 124 116 344 
clause level 194 (Kante=348, Kdesc=1, core=0):-136 203 526 468 497 439 108 7 210 211 -3 555 201 410 381 -6 335 314 154 176 116 115 170 117 161 -86 388 112 -82 164 175 168 8 32 21 365 417 415 9 354 352 166 163 375 195 400 31 423 121 450 390 329 346 367 193 122 124 157 -76 160 -178 473 475 12 392 306 327 109 119 316 320 398 22 34 
clause level 190 (Kante=344, Kdesc=1, core=0):10 -189 203 555 526 -2 497 468 -265 439 379 7 -1 402 210 159 193 352 354 108 325 -6 -82 -3 -86 388 381 316 375 154 311 157 136 226 312 -41 233 211 335 410 185 314 116 180 176 223 373 112 450 365 186 417 187 115 113 170 117 161 392 167 -76 121 175 300 128 131 8 415 168 124 400 348 194 -188 329 327 130 12 34 21 9 220 221 -206 122 -217 305 248 201 191 196 229 -209 237 306 145 31 13 32 195 132 163 139 143 346 137 -178 423 197 367 -301 153 202 109 
clause level 187 (Kante=352, Kdesc=1, core=0):-455 -189 203 555 526 -2 497 439 410 -265 108 -111 167 185 346 -217 190 210 233 7 468 220 221 8 223 -368 354 226 -1 381 327 175 325 161 132 163 157 139 159 143 299 -3 -322 81 -82 116 171 170 101 -10 -6 392 -86 415 388 -76 186 379 -178 180 176 318 166 316 305 306 314 -301 130 -188 145 128 154 310 136 348 365 -366 321 390 -41 -52 373 229 -364 115 -127 363 168 164 160 173 140 110 119 187 32 21 311 211 -209 124 22 -79 121 475 9 402 122 417 450 31 12 34 -206 201 193 194 191 237 202 196 425 367 
clause level 51 (Kante=497, Kdesc=91, core=3):-214 383 203 468 439 410 384 -10 159 131 160 145 196 305 381 128 130 555 161 134 318 497 190 191 193 201 197 205 202 
clause level 268 (Kante=355, Kdesc=18, core=5):-6 441 79 -3 408 368 437 369 84 
clause level 315 (Kante=440, Kdesc=50, core=4):136 203 555 526 410 460 -7 381 497 439 -461 468 466 
Found 1981 good successive clauses in order (1759 originals, maxlevel=386)
c KCorePR 250637 273 1981 1759 386
c DistanceTo...Unseen 57
c DistanceToGoodKCore c   DIST 0: 1981 (+1981) / 1981 (+1981)
c   DIST 1: 248590 (+246609) / 225546 (+223565)
c   DIST 2: 250580 (+1990) / 227438 (+1892)
c TotalDistance=250637
No graph is dumped
c =========================================================================================================
c result of core 0 is UNSAT
c One thread has finished
c Core 0 said it finished
c result of core 1 is UNKNOWN
c result of core 2 is UNKNOWN
c result of core 3 is UNKNOWN
c result of core 4 is UNKNOWN
c result of core 5 is UNKNOWN
c restarts              : 24 (1723 conflicts in avg)
c blocked restarts      : 0 (multiple: 0) 
c last block at restart : 0
c nb ReduceDB           : 4
c nb removed Clauses    : 21860
c nb learnts DL2        : 159
c nb learnts size 2     : 27
c nb learnts size 1     : 4
c conflicts             : 41357          (102 /sec)
c decisions             : 48978          (0.00 % random) (121 /sec)
c propagations          : 4791642        (11806 /sec)
c conflict literals     : 2477643        (12.01 % deleted)
c nb reduced Clauses    : 687
c CPU time              : 405.877 s

s INDETERMINATE
