c
c This is glucose-proof 1.0 based on  2.1 --  (thanks to MiniSAT)
c
c EXPERIMENTAL EASY PARALLEL (ROUND ROBIN) VERSION
c
c WARNING: for repeatability, setting FPU to use double precision
c Parallel version 10 solvers created.
c ========================================[ Problem Statistics ]===========================================
c |                                                                                                       |
c |  Number of variables:           608                                                                   |
c |  Number of clauses:            2447                                                                   |
c |  Parse time:                   0.01 s                                                                 |
c |                                                                                                       |
c ========================================[ MAGIC CONSTANTS ]==============================================
c | Constants are supposed to work well together :-)                                                      |
c | however, if you find better choices, please let us known...                                           |
c |-------------------------------------------------------------------------------------------------------|
c |                                |                                |                                     |
c | - Restarts:                    | - Reduce Clause DB:            | - Minimize Asserting:               |
c |   * LBD Queue    :     50      |   * First     :   4000         |    * size <  30                     |
c |   * Trail  Queue :   5000      |   * Inc       :    300         |    * lbd  <   6                     |
c |   * K            :   0.80      |   * Special   :   1000         |                                     |
c |   * R            :   1.40      |   * Protected :  (lbd)< 30     |                                     |
c |                                |                                |                                     |
c ==================================[ Search Statistics (every  10000 conflicts) ]=========================
c |                                                                                                       |
c |          RESTARTS           |          ORIGINAL         |              LEARNT              | Progress |
c |       NB   Blocked  Avg Cfc |    Vars  Clauses Literals |   Red   Learnts    LBD2  Removed |          |
c =========================================================================================================
c |        4         0     2500 |     605     2447     6986 |     1     7998       44     2294 |  0.495 % |
c |       21         0      952 |     604     2447     6986 |     3     6773       64    13708 |  0.658 % |
c |       30         0     1000 |     600     2447     6986 |     3    15273       89    13708 |  1.325 % |
c empty clause found by core 3 at conflict 35991
*
c checking the resolution graph...OK
c All useful bySize 339513 clauses, percentiles 0 4 8 11 23 59 95 118 132 158 236 241 (0,1,5,10,25,50,75,90,95,99,100-1,100)
c All useless bySize 22962 clauses, percentiles 0 7 14 18 31 61 94 119 135 164 226 231 (0,1,5,10,25,50,75,90,95,99,100-1,100)
c ProofOnly useful bySize 337071 clauses, percentiles 0 5 8 11 23 59 95 119 132 158 236 241 (0,1,5,10,25,50,75,90,95,99,100-1,100)
c ProofOnly useless bySize 22833 clauses, percentiles 2 9 14 19 31 62 95 120 135 164 226 231 (0,1,5,10,25,50,75,90,95,99,100-1,100)
c All useful byFinalLBD 339513 clauses, percentiles 0 1 2 3 6 8 10 12 13 15 26 26 (0,1,5,10,25,50,75,90,95,99,100-1,100)
c All useless byFinalLBD 22962 clauses, percentiles 0 3 5 6 8 10 13 15 17 22 33 34 (0,1,5,10,25,50,75,90,95,99,100-1,100)
c ProofOnly useful byFinalLBD 337071 clauses, percentiles 0 1 2 3 6 8 10 12 13 15 26 26 (0,1,5,10,25,50,75,90,95,99,100-1,100)
c ProofOnly useless byFinalLBD 22833 clauses, percentiles 1 4 5 6 8 10 13 15 17 22 33 34 (0,1,5,10,25,50,75,90,95,99,100-1,100)
c All useful byInitialLBD 339513 clauses, percentiles 0 3 4 5 7 9 10 12 13 15 26 26 (0,1,5,10,25,50,75,90,95,99,100-1,100)
c All useless byInitialLBD 22962 clauses, percentiles 0 4 5 6 8 10 13 15 17 22 33 34 (0,1,5,10,25,50,75,90,95,99,100-1,100)
c ProofOnly useful byInitialLBD 337071 clauses, percentiles 0 3 4 5 7 9 10 12 13 15 26 26 (0,1,5,10,25,50,75,90,95,99,100-1,100)
c ProofOnly useless byInitialLBD 22833 clauses, percentiles 2 4 6 7 8 10 13 15 17 22 33 34 (0,1,5,10,25,50,75,90,95,99,100-1,100)
c Literals ProofOnly useful 20965544
c Literals ProofOnly useless 1504556
c additional windowsGood 1 1 1 1 3 9 9 29 81 238 669 675 (0,1,5,10,25,50,75,90,95,99,100-1,100)
c additional windowsBad 1 1 1 1 1 1 1 2 2 4 9 14 (0,1,5,10,25,50,75,90,95,99,100-1,100)
c additional 1WindowNoDecision 2144 1229 0.57 16511 8112 0.49 (nbWindowsGood,nbWindowsNoDecisionGood,nbWindowsBad,nbWindowsNoDecisionBad
c additional topclausessize all (10%,5%,1%,top) 136.12 147.68 170.92 241
c additional topclausessize proofonly (10%,5%,1%,top) 136.18 147.73 170.97 241
c additional topclausesinitialLBD all (10%,5%,1%,top) 128.67 141.12 165.51 241
c additional topclausesinitialLBD proofonly (10%,5%,1%,top) 122.90 136.18 161.47 241
c additional topclausesfinalLBD all (10%,5%,1%,top) 117.98 132.13 158.23 241
c additional topclausesfinalLBD proofonly (10%,5%,1%,top) 113.62 128.70 155.54 241
c additional predictionInitialLBD 1 17 337071 1.00 0.00 0.00 359887 22833 0.06 0.07 0.07 0.06 (nbgoodclauses,nbtotalgood,precisionGood,recallGood,FGood,nbbadclause,nbtotalbad,precisionBad,recallBad,FBad,accuracy)
c additional predictionInitialLBD 2 1210 337071 0.98 0.00 0.01 358694 22833 0.06 0.07 0.07 0.07 (nbgoodclauses,nbtotalgood,precisionGood,recallGood,FGood,nbbadclause,nbtotalbad,precisionBad,recallBad,FBad,accuracy)
c additional predictionInitialLBD 3 7564 337071 0.99 0.02 0.04 352340 22833 0.06 0.07 0.07 0.08 (nbgoodclauses,nbtotalgood,precisionGood,recallGood,FGood,nbbadclause,nbtotalbad,precisionBad,recallBad,FBad,accuracy)
c additional predictionInitialLBD 4 22944 337071 0.98 0.07 0.13 336960 22833 0.07 0.07 0.07 0.12 (nbgoodclauses,nbtotalgood,precisionGood,recallGood,FGood,nbbadclause,nbtotalbad,precisionBad,recallBad,FBad,accuracy)
c additional predictionInitialLBD 5 47899 337071 0.98 0.14 0.24 312005 22833 0.07 0.06 0.07 0.19 (nbgoodclauses,nbtotalgood,precisionGood,recallGood,FGood,nbbadclause,nbtotalbad,precisionBad,recallBad,FBad,accuracy)
c additional predictionInitialLBD 6 81847 337071 0.97 0.24 0.38 278057 22833 0.07 0.06 0.07 0.28 (nbgoodclauses,nbtotalgood,precisionGood,recallGood,FGood,nbbadclause,nbtotalbad,precisionBad,recallBad,FBad,accuracy)
c additional predictionInitialLBD 7 124399 337071 0.97 0.36 0.52 235505 22833 0.08 0.06 0.07 0.39 (nbgoodclauses,nbtotalgood,precisionGood,recallGood,FGood,nbbadclause,nbtotalbad,precisionBad,recallBad,FBad,accuracy)
c additional predictionInitialLBD 8 172805 337071 0.96 0.49 0.65 187099 22833 0.09 0.05 0.06 0.51 (nbgoodclauses,nbtotalgood,precisionGood,recallGood,FGood,nbbadclause,nbtotalbad,precisionBad,recallBad,FBad,accuracy)
c additional predictionInitialLBD 10 266941 337071 0.96 0.76 0.85 92963 22833 0.12 0.03 0.05 0.74 (nbgoodclauses,nbtotalgood,precisionGood,recallGood,FGood,nbbadclause,nbtotalbad,precisionBad,recallBad,FBad,accuracy)
c additional predictionInitialLBD 14 350138 337071 0.94 0.98 0.96 9766 22833 0.32 0.01 0.02 0.93 (nbgoodclauses,nbtotalgood,precisionGood,recallGood,FGood,nbbadclause,nbtotalbad,precisionBad,recallBad,FBad,accuracy)
c additional predictionInitialLBD 18 358887 337071 0.94 1.00 0.97 1017 22833 0.62 0.00 0.00 0.94 (nbgoodclauses,nbtotalgood,precisionGood,recallGood,FGood,nbbadclause,nbtotalbad,precisionBad,recallBad,FBad,accuracy)
c additional predictionInitialLBD 22 359623 337071 0.94 1.00 0.97 281 22833 0.81 0.00 0.00 0.94 (nbgoodclauses,nbtotalgood,precisionGood,recallGood,FGood,nbbadclause,nbtotalbad,precisionBad,recallBad,FBad,accuracy)
c additional predictionInitialLBD 30 359894 337071 0.94 1.00 0.97 10 22833 1.00 0.00 0.00 0.94 (nbgoodclauses,nbtotalgood,precisionGood,recallGood,FGood,nbbadclause,nbtotalbad,precisionBad,recallBad,FBad,accuracy)
c additional predictionInitialLBD 40 359904 337071 0.94 1.00 0.97 0 22833 -nan 0.00 -nan 0.94 (nbgoodclauses,nbtotalgood,precisionGood,recallGood,FGood,nbbadclause,nbtotalbad,precisionBad,recallBad,FBad,accuracy)
c additional predictionFinallLBD 1 5836 337071 1.00 0.02 0.03 354068 22833 0.06 1.00 0.12 0.08 (nbgoodclauses,nbtotalgood,precisionGood,recallGood,FGood,nbbadclause,nbtotalbad,precisionBad,recallBad,FBad,accuracy)
c additional predictionFinallLBD 2 20145 337071 1.00 0.06 0.11 339759 22833 0.07 1.00 0.13 0.12 (nbgoodclauses,nbtotalgood,precisionGood,recallGood,FGood,nbbadclause,nbtotalbad,precisionBad,recallBad,FBad,accuracy)
c additional predictionFinallLBD 3 36840 337071 0.99 0.11 0.20 323064 22833 0.07 0.99 0.13 0.16 (nbgoodclauses,nbtotalgood,precisionGood,recallGood,FGood,nbbadclause,nbtotalbad,precisionBad,recallBad,FBad,accuracy)
c additional predictionFinallLBD 4 56145 337071 0.99 0.16 0.28 303759 22833 0.07 0.97 0.14 0.22 (nbgoodclauses,nbtotalgood,precisionGood,recallGood,FGood,nbbadclause,nbtotalbad,precisionBad,recallBad,FBad,accuracy)
c additional predictionFinallLBD 5 78987 337071 0.98 0.23 0.37 280917 22833 0.08 0.94 0.14 0.28 (nbgoodclauses,nbtotalgood,precisionGood,recallGood,FGood,nbbadclause,nbtotalbad,precisionBad,recallBad,FBad,accuracy)
c additional predictionFinallLBD 6 107769 337071 0.98 0.31 0.47 252135 22833 0.08 0.89 0.15 0.35 (nbgoodclauses,nbtotalgood,precisionGood,recallGood,FGood,nbbadclause,nbtotalbad,precisionBad,recallBad,FBad,accuracy)
c additional predictionFinallLBD 7 144863 337071 0.97 0.42 0.58 215041 22833 0.09 0.81 0.16 0.44 (nbgoodclauses,nbtotalgood,precisionGood,recallGood,FGood,nbbadclause,nbtotalbad,precisionBad,recallBad,FBad,accuracy)
c additional predictionFinallLBD 8 188683 337071 0.96 0.54 0.69 171221 22833 0.09 0.71 0.17 0.55 (nbgoodclauses,nbtotalgood,precisionGood,recallGood,FGood,nbbadclause,nbtotalbad,precisionBad,recallBad,FBad,accuracy)
c additional predictionFinallLBD 10 275643 337071 0.96 0.78 0.86 84261 22833 0.13 0.48 0.21 0.76 (nbgoodclauses,nbtotalgood,precisionGood,recallGood,FGood,nbbadclause,nbtotalbad,precisionBad,recallBad,FBad,accuracy)
c additional predictionFinallLBD 14 351761 337071 0.94 0.98 0.96 8143 22833 0.35 0.13 0.18 0.93 (nbgoodclauses,nbtotalgood,precisionGood,recallGood,FGood,nbbadclause,nbtotalbad,precisionBad,recallBad,FBad,accuracy)
c additional predictionFinallLBD 18 359069 337071 0.94 1.00 0.97 835 22833 0.69 0.03 0.05 0.94 (nbgoodclauses,nbtotalgood,precisionGood,recallGood,FGood,nbbadclause,nbtotalbad,precisionBad,recallBad,FBad,accuracy)
c additional predictionFinallLBD 22 359662 337071 0.94 1.00 0.97 242 22833 0.87 0.01 0.02 0.94 (nbgoodclauses,nbtotalgood,precisionGood,recallGood,FGood,nbbadclause,nbtotalbad,precisionBad,recallBad,FBad,accuracy)
c additional predictionFinallLBD 30 359895 337071 0.94 1.00 0.97 9 22833 1.00 0.00 0.00 0.94 (nbgoodclauses,nbtotalgood,precisionGood,recallGood,FGood,nbbadclause,nbtotalbad,precisionBad,recallBad,FBad,accuracy)
c additional predictionFinallLBD 40 359904 337071 0.94 1.00 0.97 0 22833 -nan 0.00 -nan 0.94 (nbgoodclauses,nbtotalgood,precisionGood,recallGood,FGood,nbbadclause,nbtotalbad,precisionBad,recallBad,FBad,accuracy)
c additional predictionSize 1 17 337071 1.00 0.00 0.00 359887 22833 0.06 0.07 0.07 0.06 (nbgoodclauses,nbtotalgood,precisionGood,recallGood,FGood,nbbadclause,nbtotalbad,precisionBad,recallBad,FBad,accuracy)
c additional predictionSize 2 153 337071 0.93 0.00 0.00 359751 22833 0.06 0.07 0.07 0.06 (nbgoodclauses,nbtotalgood,precisionGood,recallGood,FGood,nbbadclause,nbtotalbad,precisionBad,recallBad,FBad,accuracy)
c additional predictionSize 3 746 337071 0.98 0.00 0.00 359158 22833 0.06 0.07 0.07 0.07 (nbgoodclauses,nbtotalgood,precisionGood,recallGood,FGood,nbbadclause,nbtotalbad,precisionBad,recallBad,FBad,accuracy)
c additional predictionSize 4 2426 337071 0.99 0.01 0.01 357478 22833 0.06 0.07 0.07 0.07 (nbgoodclauses,nbtotalgood,precisionGood,recallGood,FGood,nbbadclause,nbtotalbad,precisionBad,recallBad,FBad,accuracy)
c additional predictionSize 5 5169 337071 0.99 0.02 0.03 354735 22833 0.06 0.07 0.07 0.08 (nbgoodclauses,nbtotalgood,precisionGood,recallGood,FGood,nbbadclause,nbtotalbad,precisionBad,recallBad,FBad,accuracy)
c additional predictionSize 6 9304 337071 0.99 0.03 0.05 350600 22833 0.06 0.07 0.07 0.09 (nbgoodclauses,nbtotalgood,precisionGood,recallGood,FGood,nbbadclause,nbtotalbad,precisionBad,recallBad,FBad,accuracy)
c additional predictionSize 7 14010 337071 0.99 0.04 0.08 345894 22833 0.07 0.07 0.07 0.10 (nbgoodclauses,nbtotalgood,precisionGood,recallGood,FGood,nbbadclause,nbtotalbad,precisionBad,recallBad,FBad,accuracy)
c additional predictionSize 8 18933 337071 0.99 0.06 0.11 340971 22833 0.07 0.07 0.07 0.11 (nbgoodclauses,nbtotalgood,precisionGood,recallGood,FGood,nbbadclause,nbtotalbad,precisionBad,recallBad,FBad,accuracy)
c additional predictionSize 10 29198 337071 0.98 0.09 0.16 330706 22833 0.07 0.07 0.07 0.14 (nbgoodclauses,nbtotalgood,precisionGood,recallGood,FGood,nbbadclause,nbtotalbad,precisionBad,recallBad,FBad,accuracy)
c additional predictionSize 14 49710 337071 0.98 0.14 0.25 310194 22833 0.07 0.06 0.07 0.19 (nbgoodclauses,nbtotalgood,precisionGood,recallGood,FGood,nbbadclause,nbtotalbad,precisionBad,recallBad,FBad,accuracy)
c additional predictionSize 18 68315 337071 0.97 0.20 0.33 291589 22833 0.07 0.06 0.07 0.24 (nbgoodclauses,nbtotalgood,precisionGood,recallGood,FGood,nbbadclause,nbtotalbad,precisionBad,recallBad,FBad,accuracy)
c additional predictionSize 22 85314 337071 0.96 0.24 0.39 274590 22833 0.07 0.06 0.06 0.28 (nbgoodclauses,nbtotalgood,precisionGood,recallGood,FGood,nbbadclause,nbtotalbad,precisionBad,recallBad,FBad,accuracy)
c additional predictionSize 30 113721 337071 0.95 0.32 0.48 246183 22833 0.07 0.05 0.06 0.35 (nbgoodclauses,nbtotalgood,precisionGood,recallGood,FGood,nbbadclause,nbtotalbad,precisionBad,recallBad,FBad,accuracy)
c additional predictionSize 40 139939 337071 0.94 0.39 0.55 219965 22833 0.07 0.04 0.05 0.41 (nbgoodclauses,nbtotalgood,precisionGood,recallGood,FGood,nbbadclause,nbtotalbad,precisionBad,recallBad,FBad,accuracy)
c additional predictionAge 1 5228 337071 0.97 0.02 0.03 354676 22833 0.06 0.07 0.07 0.08 (nbgoodclauses,nbtotalgood,precisionGood,recallGood,FGood,nbbadclause,nbtotalbad,precisionBad,recallBad,FBad,accuracy)
c additional predictionAge 10 5775 337071 0.96 0.02 0.03 354129 22833 0.06 0.07 0.07 0.08 (nbgoodclauses,nbtotalgood,precisionGood,recallGood,FGood,nbbadclause,nbtotalbad,precisionBad,recallBad,FBad,accuracy)
c additional predictionAge 25 6912 337071 0.95 0.02 0.04 352992 22833 0.06 0.07 0.07 0.08 (nbgoodclauses,nbtotalgood,precisionGood,recallGood,FGood,nbbadclause,nbtotalbad,precisionBad,recallBad,FBad,accuracy)
c additional predictionAge 50 7793 337071 0.94 0.02 0.04 352111 22833 0.06 0.07 0.06 0.08 (nbgoodclauses,nbtotalgood,precisionGood,recallGood,FGood,nbbadclause,nbtotalbad,precisionBad,recallBad,FBad,accuracy)
c additional predictionAge 100 8384 337071 0.93 0.02 0.05 351520 22833 0.06 0.07 0.06 0.08 (nbgoodclauses,nbtotalgood,precisionGood,recallGood,FGood,nbbadclause,nbtotalbad,precisionBad,recallBad,FBad,accuracy)
c additional predictionAge 250 9399 337071 0.92 0.03 0.05 350505 22833 0.06 0.07 0.06 0.09 (nbgoodclauses,nbtotalgood,precisionGood,recallGood,FGood,nbbadclause,nbtotalbad,precisionBad,recallBad,FBad,accuracy)
c additional predictionAge 500 10327 337071 0.92 0.03 0.05 349577 22833 0.06 0.07 0.06 0.09 (nbgoodclauses,nbtotalgood,precisionGood,recallGood,FGood,nbbadclause,nbtotalbad,precisionBad,recallBad,FBad,accuracy)
c additional predictionAge 1000 11533 337071 0.90 0.03 0.06 348371 22833 0.06 0.06 0.06 0.09 (nbgoodclauses,nbtotalgood,precisionGood,recallGood,FGood,nbbadclause,nbtotalbad,precisionBad,recallBad,FBad,accuracy)
c additional predictionAge 2500 14154 337071 0.88 0.04 0.07 345750 22833 0.06 0.06 0.06 0.09 (nbgoodclauses,nbtotalgood,precisionGood,recallGood,FGood,nbbadclause,nbtotalbad,precisionBad,recallBad,FBad,accuracy)
c additional predictionAge 5000 17694 337071 0.86 0.05 0.09 342210 22833 0.06 0.06 0.06 0.10 (nbgoodclauses,nbtotalgood,precisionGood,recallGood,FGood,nbbadclause,nbtotalbad,precisionBad,recallBad,FBad,accuracy)
c additional predictionAge 10000 24104 337071 0.84 0.06 0.11 335800 22833 0.06 0.06 0.06 0.11 (nbgoodclauses,nbtotalgood,precisionGood,recallGood,FGood,nbbadclause,nbtotalbad,precisionBad,recallBad,FBad,accuracy)
c additional predictionAge 25000 41581 337071 0.83 0.10 0.18 318323 22833 0.05 0.05 0.05 0.14 (nbgoodclauses,nbtotalgood,precisionGood,recallGood,FGood,nbbadclause,nbtotalbad,precisionBad,recallBad,FBad,accuracy)
c additional predictionAge 50000 68918 337071 0.88 0.18 0.30 290986 22833 0.05 0.04 0.05 0.21 (nbgoodclauses,nbtotalgood,precisionGood,recallGood,FGood,nbbadclause,nbtotalbad,precisionBad,recallBad,FBad,accuracy)
c additional predictionAge 100000 120675 337071 0.91 0.33 0.48 239229 22833 0.05 0.04 0.04 0.34 (nbgoodclauses,nbtotalgood,precisionGood,recallGood,FGood,nbbadclause,nbtotalbad,precisionBad,recallBad,FBad,accuracy)
c additional predictionTicks 1 5355 337071 0.97 0.02 0.03 354549 22833 0.06 0.07 0.07 0.08 (nbgoodclauses,nbtotalgood,precisionGood,recallGood,FGood,nbbadclause,nbtotalbad,precisionBad,recallBad,FBad,accuracy)
c additional predictionTicks 10 11552 337071 0.95 0.03 0.06 348352 22833 0.06 0.07 0.06 0.09 (nbgoodclauses,nbtotalgood,precisionGood,recallGood,FGood,nbbadclause,nbtotalbad,precisionBad,recallBad,FBad,accuracy)
c additional predictionTicks 25 17034 337071 0.94 0.05 0.09 342870 22833 0.06 0.06 0.06 0.11 (nbgoodclauses,nbtotalgood,precisionGood,recallGood,FGood,nbbadclause,nbtotalbad,precisionBad,recallBad,FBad,accuracy)
c additional predictionTicks 50 27865 337071 0.93 0.08 0.14 332039 22833 0.06 0.06 0.06 0.13 (nbgoodclauses,nbtotalgood,precisionGood,recallGood,FGood,nbbadclause,nbtotalbad,precisionBad,recallBad,FBad,accuracy)
c additional predictionTicks 100 42167 337071 0.93 0.12 0.21 317737 22833 0.06 0.06 0.06 0.16 (nbgoodclauses,nbtotalgood,precisionGood,recallGood,FGood,nbbadclause,nbtotalbad,precisionBad,recallBad,FBad,accuracy)
c additional predictionTicks 250 70783 337071 0.92 0.19 0.32 289121 22833 0.06 0.05 0.06 0.23 (nbgoodclauses,nbtotalgood,precisionGood,recallGood,FGood,nbbadclause,nbtotalbad,precisionBad,recallBad,FBad,accuracy)
c additional predictionTicks 500 100053 337071 0.92 0.27 0.42 259851 22833 0.06 0.05 0.05 0.30 (nbgoodclauses,nbtotalgood,precisionGood,recallGood,FGood,nbbadclause,nbtotalbad,precisionBad,recallBad,FBad,accuracy)
c additional predictionTicks 1000 134434 337071 0.93 0.37 0.53 225470 22833 0.06 0.04 0.05 0.38 (nbgoodclauses,nbtotalgood,precisionGood,recallGood,FGood,nbbadclause,nbtotalbad,precisionBad,recallBad,FBad,accuracy)
c additional predictionTicks 2500 184951 337071 0.93 0.51 0.66 174953 22833 0.06 0.03 0.04 0.51 (nbgoodclauses,nbtotalgood,precisionGood,recallGood,FGood,nbbadclause,nbtotalbad,precisionBad,recallBad,FBad,accuracy)
c additional predictionTicks 5000 222872 337071 0.93 0.62 0.74 137032 22833 0.06 0.02 0.03 0.60 (nbgoodclauses,nbtotalgood,precisionGood,recallGood,FGood,nbbadclause,nbtotalbad,precisionBad,recallBad,FBad,accuracy)
c additional predictionTicks 10000 259386 337071 0.94 0.72 0.81 100518 22833 0.06 0.02 0.03 0.69 (nbgoodclauses,nbtotalgood,precisionGood,recallGood,FGood,nbbadclause,nbtotalbad,precisionBad,recallBad,FBad,accuracy)
c additional predictionTicks 25000 301445 337071 0.94 0.84 0.88 58459 22833 0.07 0.01 0.02 0.80 (nbgoodclauses,nbtotalgood,precisionGood,recallGood,FGood,nbbadclause,nbtotalbad,precisionBad,recallBad,FBad,accuracy)
c additional predictionTicks 50000 329120 337071 0.94 0.91 0.93 30784 22833 0.07 0.01 0.01 0.86 (nbgoodclauses,nbtotalgood,precisionGood,recallGood,FGood,nbbadclause,nbtotalbad,precisionBad,recallBad,FBad,accuracy)
c additional predictionTicks 100000 347858 337071 0.94 0.97 0.95 12046 22833 0.07 0.00 0.00 0.91 (nbgoodclauses,nbtotalgood,precisionGood,recallGood,FGood,nbbadclause,nbtotalbad,precisionBad,recallBad,FBad,accuracy)
c additional lifetimeGood 1 10 80 2890 25810 86221 176272 256017 293637 337289 359998 360005 (0,1,5,10,25,50,75,90,95,99,100-1,100)
c additional lifetimeBad 1 10 30 543 9662 64153 172951 287683 324255 350089 359991 359999 (0,1,5,10,25,50,75,90,95,99,100-1,100)
c additional lifetimeBadBad 10 10 10 10 10 20 70 370 1090 6160 332105 349312 (0,1,5,10,25,50,75,90,95,99,100-1,100)
c additional compositionBad 1 4 8 12 22 48 119 213 264 352 501 506 (0,1,5,10,25,50,75,90,95,99,100-1,100)
c additional compositionBadWithGood 0 0 1 2 5 9 19 35 47 72 106 109 (0,1,5,10,25,50,75,90,95,99,100-1,100)
c additional compositionBadWithBad 0 0 0 0 0 1 1 3 4 6 11 13 (0,1,5,10,25,50,75,90,95,99,100-1,100)
c additional compositionBadWithInitial 0 1 4 7 15 37 96 179 225 312 471 490 (0,1,5,10,25,50,75,90,95,99,100-1,100)
c additional compositionGood 1 3 5 7 16 46 130 221 271 351 510 520 (0,1,5,10,25,50,75,90,95,99,100-1,100)
c additional compositionGoodWithGood 0 0 1 2 5 11 26 47 60 82 134 138 (0,1,5,10,25,50,75,90,95,99,100-1,100)
c additional compositionGoodWithInitial 0 1 3 4 11 33 103 176 217 285 472 486 (0,1,5,10,25,50,75,90,95,99,100-1,100)
c additional propagationGood total 12517852 percentiles 0 1 1 1 1 1 3 18 58 472 36918 40415 (0,1,5,10,25,50,75,90,95,99,100-1,100)
c additional propagationBad total 32427 percentiles 1 1 1 1 1 1 1 2 3 7 126 160 (0,1,5,10,25,50,75,90,95,99,100-1,100)
c additional resolutionGood total 6124955 percentiles 0 1 1 1 1 1 2 12 33 228 13750 13901 (0,1,5,10,25,50,75,90,95,99,100-1,100)
c additional resolutionBad total 22501 percentiles 0 0 0 0 1 1 1 2 2 5 17 19 (0,1,5,10,25,50,75,90,95,99,100-1,100)
Computing K-Core for 362475 clauses...
c building structure for KCore computation.
c the graph has 30126763 edges, maxdegree=520
c we start the KCore with the value 20
c Non directed graph built
K=20,69518 nodes removed so far
K=21,75113 nodes removed so far
K=22,80603 nodes removed so far
K=23,85890 nodes removed so far
K=24,90977 nodes removed so far
K=25,95981 nodes removed so far
K=26,100853 nodes removed so far
K=27,105399 nodes removed so far
K=28,109991 nodes removed so far
K=29,114251 nodes removed so far
K=30,118390 nodes removed so far
K=31,122386 nodes removed so far
K=32,K=33,K=34,133396 nodes removed so far
K=35,K=36,140131 nodes removed so far
K=37,K=38,K=39,K=40,152232 nodes removed so far
K=41,K=42,K=43,K=44,162463 nodes removed so far
K=45,K=46,K=47,K=48,171773 nodes removed so far
K=49,K=50,K=51,K=52,180041 nodes removed so far
K=53,K=54,K=55,K=56,K=57,K=58,191245 nodes removed so far
K=59,K=60,K=61,K=62,K=63,K=64,200854 nodes removed so far
K=65,K=66,K=67,K=68,K=69,K=70,K=71,211008 nodes removed so far
K=72,K=73,K=74,K=75,K=76,K=77,K=78,K=79,221201 nodes removed so far
K=80,K=81,K=82,K=83,K=84,K=85,K=86,K=87,230852 nodes removed so far
K=88,K=89,K=90,K=91,K=92,K=93,K=94,K=95,K=96,240508 nodes removed so far
K=97,K=98,K=99,K=100,K=101,K=102,K=103,K=104,K=105,K=106,250410 nodes removed so far
K=107,K=108,K=109,K=110,K=111,K=112,K=113,K=114,K=115,K=116,K=117,260369 nodes removed so far
K=118,K=119,K=120,K=121,K=122,K=123,K=124,K=125,K=126,K=127,K=128,K=129,270323 nodes removed so far
K=130,K=131,K=132,K=133,K=134,K=135,K=136,K=137,K=138,K=139,K=140,K=141,K=142,280565 nodes removed so far
K=143,K=144,K=145,K=146,K=147,K=148,K=149,K=150,K=151,K=152,K=153,K=154,K=155,290258 nodes removed so far
K=156,K=157,K=158,K=159,K=160,K=161,K=162,K=163,K=164,K=165,K=166,K=167,K=168,K=169,300055 nodes removed so far
K=170,K=171,K=172,K=173,K=174,K=175,K=176,K=177,K=178,K=179,K=180,K=181,K=182,K=183,K=184,K=185,310569 nodes removed so far
K=186,K=187,K=188,K=189,K=190,K=191,K=192,K=193,K=194,K=195,K=196,K=197,K=198,K=199,K=200,K=201,320163 nodes removed so far
K=202,K=203,K=204,K=205,K=206,K=207,K=208,K=209,K=210,K=211,K=212,K=213,K=214,K=215,K=216,K=217,K=218,K=219,K=220,330227 nodes removed so far
K=221,K=222,K=223,K=224,K=225,K=226,K=227,K=228,K=229,K=230,K=231,K=232,K=233,K=234,K=235,K=236,K=237,K=238,K=239,K=240,K=241,K=242,340267 nodes removed so far
K=243,K=244,K=245,K=246,K=247,K=248,K=249,K=250,K=251,K=252,K=253,K=254,K=255,K=256,K=257,K=258,K=259,K=260,K=261,K=262,K=263,K=264,K=265,K=266,K=267,350360 nodes removed so far
K=268,K=269,K=270,K=271,K=272,K=273,K=274,K=275,K=276,K=277,362346 nodes removed so far
KCore = 277
Building structure for PR...
Computing PR...
Pageranking 357600 nodes done in 17 iteration. cumulError=3.13171e-11
clause level 109 (Kante=430, Kdesc=70750, core=9):-79 
clause level 5 (Kante=4, Kdesc=41726, core=3):-89 
clause level 8 (Kante=5, Kdesc=32720, core=9):-359 
clause level 201 (Kante=173, Kdesc=31025, core=9):-6 
clause level 170 (Kante=210, Kdesc=37251, core=7):-115 
clause level 4 (Kante=5, Kdesc=20260, core=2):-205 
clause level 1 (Kante=3, Kdesc=16491, core=5):-87 -385 
clause level 1 (Kante=8, Kdesc=9154, core=8):19 -414 
clause level 2 (Kante=5, Kdesc=11787, core=5):4 -393 397 
clause level 3 (Kante=3, Kdesc=11352, core=1):4 -368 372 
clause level 252 (Kante=251, Kdesc=13084, core=8):-3 
clause level 3 (Kante=5, Kdesc=10335, core=2):108 368 -364 
clause level 1 (Kante=3, Kdesc=19623, core=2):-220 -234 
clause level 1 (Kante=5, Kdesc=14113, core=0):-194 190 
clause level 7 (Kante=3, Kdesc=8477, core=8):87 414 89 
clause level 3 (Kante=3, Kdesc=10706, core=7):108 364 -368 
clause level 3 (Kante=3, Kdesc=12253, core=4):4 -372 368 
clause level 2 (Kante=5, Kdesc=13653, core=9):4 -347 351 
clause level 1 (Kante=4, Kdesc=10097, core=7):91 149 
clause level 1 (Kante=4, Kdesc=7952, core=1):86 -134 
clause level 3 (Kante=3, Kdesc=12749, core=1):7 372 -376 
clause level 2 (Kante=3, Kdesc=12622, core=8):108 343 -347 
clause level 1 (Kante=10, Kdesc=4141, core=2):76 -308 
clause level 3 (Kante=3, Kdesc=5910, core=3):91 -342 
clause level 2 (Kante=8, Kdesc=9053, core=6):4 422 -418 
clause level 1 (Kante=7, Kdesc=9161, core=9):1 220 
clause level 2 (Kante=4, Kdesc=5356, core=2):7 -375 
clause level 3 (Kante=5, Kdesc=10741, core=6):7 -372 376 
clause level 1 (Kante=6, Kdesc=5493, core=8):16 -379 
clause level 1 (Kante=4, Kdesc=7979, core=5):-87 338 -360 
clause level 1 (Kante=15, Kdesc=4187, core=5):4 -396 
clause level 2 (Kante=8, Kdesc=6254, core=5):86 -339 77 
clause level 1 (Kante=8, Kdesc=8379, core=3):108 -329 
clause level 2 (Kante=9, Kdesc=9078, core=5):4 393 -397 
clause level 1 (Kante=9, Kdesc=5451, core=1):4 -350 
clause level 1 (Kante=37, Kdesc=19860, core=3):264 -268 
clause level 4 (Kante=3, Kdesc=11268, core=9):7 397 -401 
clause level 3 (Kante=3, Kdesc=7334, core=1):108 389 -393 
clause level 1 (Kante=8, Kdesc=9476, core=6):16 376 -380 
clause level 4 (Kante=5, Kdesc=11376, core=3):7 451 -447 
clause level 3 (Kante=3, Kdesc=8177, core=4):-414 443 
clause level 1 (Kante=7, Kdesc=5178, core=8):86 359 339 87 
clause level 3 (Kante=5, Kdesc=12042, core=9):16 405 -401 
clause level 1 (Kante=3, Kdesc=6146, core=5):386 389 -414 
clause level 2 (Kante=6, Kdesc=8350, core=9):4 418 -422 
clause level 1 (Kante=12, Kdesc=15352, core=3):19 -264 
clause level 2 (Kante=4, Kdesc=4808, core=7):16 -404 
clause level 2 (Kante=7, Kdesc=5355, core=9):108 -367 
clause level 2 (Kante=6, Kdesc=10470, core=8):16 -405 401 
clause level 4 (Kante=3, Kdesc=8961, core=5):16 426 -430 
clause level 1 (Kante=6, Kdesc=4865, core=7):7 -354 
clause level 2 (Kante=6, Kdesc=8488, core=1):91 -326 302 310 322 
clause level 2 (Kante=5, Kdesc=8729, core=5):16 380 -376 
clause level 3 (Kante=3, Kdesc=10265, core=1):91 309 -313 
clause level 4 (Kante=3, Kdesc=9016, core=3):7 -426 422 
clause level 2 (Kante=6, Kdesc=8819, core=9):19 445 
clause level 1 (Kante=7, Kdesc=5664, core=2):159 -206 189 
clause level 5 (Kante=3, Kdesc=13643, core=4):-472 501 
clause level 1 (Kante=4, Kdesc=7086, core=8):-82 81 79 
clause level 4 (Kante=4, Kdesc=5039, core=9):108 393 -389 417 
clause level 3 (Kante=4, Kdesc=3938, core=7):189 204 206 
clause level 2 (Kante=3, Kdesc=8512, core=6):4 -351 347 
clause level 4 (Kante=5, Kdesc=8734, core=6):7 401 -397 
clause level 2 (Kante=7, Kdesc=7583, core=0):159 -209 189 
clause level 3 (Kante=8, Kdesc=8093, core=6):16 -426 430 
clause level 3 (Kante=3, Kdesc=11856, core=3):19 474 
clause level 2 (Kante=3, Kdesc=4147, core=5):7 -425 
clause level 1 (Kante=5, Kdesc=7857, core=9):95 338 81 79 341 -114 98 
clause level 1 (Kante=4, Kdesc=6875, core=2):159 -134 
clause level 5 (Kante=5, Kdesc=5553, core=0):-201 189 194 
clause level 4 (Kante=3, Kdesc=6852, core=9):19 -90 79 
clause level 2 (Kante=5, Kdesc=7314, core=1):86 178 -301 
clause level 2 (Kante=5, Kdesc=6229, core=1):86 -309 6 
clause level 5 (Kante=4, Kdesc=2815, core=9):-419 447 
clause level 2 (Kante=5, Kdesc=7039, core=3):108 126 -107 
clause level 1 (Kante=7, Kdesc=6677, core=5):141 407 -403 379 
clause level 4 (Kante=6, Kdesc=8581, core=5):-234 -16 222 
clause level 1 (Kante=7, Kdesc=6981, core=1):108 313 -317 
clause level 1 (Kante=5, Kdesc=6907, core=8):108 -316 
clause level 1 (Kante=5, Kdesc=9076, core=2):218 465 -461 437 
clause level 2 (Kante=9, Kdesc=1434, core=3):19 -472 
clause level 1 (Kante=5, Kdesc=9401, core=0):108 161 -174 156 
clause level 1 (Kante=8, Kdesc=8133, core=7):136 -167 
clause level 6 (Kante=6, Kdesc=8093, core=1):87 264 
clause level 1 (Kante=8, Kdesc=5878, core=1):76 137 -301 
clause level 1 (Kante=5, Kdesc=5419, core=2):235 461 -457 433 
clause level 2 (Kante=3, Kdesc=4105, core=9):108 -418 -416 
clause level 4 (Kante=3, Kdesc=6864, core=0):7 447 -451 
clause level 5 (Kante=5, Kdesc=4688, core=0):-189 234 
clause level 4 (Kante=3, Kdesc=9521, core=5):-19 46 -7 
clause level 2 (Kante=2, Kdesc=6141, core=9):-120 104 107 
clause level 4 (Kante=3, Kdesc=2623, core=9):-86 385 89 -19 
clause level 2 (Kante=7, Kdesc=4185, core=0):-84 79 77 
clause level 2 (Kante=9, Kdesc=5745, core=0):91 313 -309 
clause level 5 (Kante=5, Kdesc=5118, core=7):-203 234 
clause level 5 (Kante=3, Kdesc=11976, core=2):-270 -265 -264 
clause level 1 (Kante=5, Kdesc=5620, core=4):6 396 420 -424 
clause level 1 (Kante=3, Kdesc=13921, core=8):2 545 598 -593 
clause level 1 (Kante=6, Kdesc=4680, core=3):108 127 -111 
clause level 2 (Kante=3, Kdesc=10104, core=4):19 49 
clause level 4 (Kante=4, Kdesc=5505, core=3):271 -264 -265 269 
clause level 6 (Kante=5, Kdesc=9066, core=3):1 -266 238 
clause level 6 (Kante=4, Kdesc=4610, core=3):87 120 
clause level 1 (Kante=3, Kdesc=7952, core=6):2 458 482 -486 
clause level 4 (Kante=3, Kdesc=6548, core=3):108 -126 107 
clause level 1 (Kante=3, Kdesc=9369, core=3):-474 -501 
clause level 3 (Kante=6, Kdesc=12682, core=2):19 64 
clause level 3 (Kante=5, Kdesc=6650, core=8):16 -455 451 
clause level 3 (Kante=3, Kdesc=8008, core=4):-268 271 -265 
clause level 4 (Kante=6, Kdesc=12372, core=5):19 -530 
clause level 3 (Kante=4, Kdesc=2234, core=9):7 -450 
clause level 1 (Kante=3, Kdesc=3068, core=3):-416 -443 
clause level 2 (Kante=5, Kdesc=5142, core=3):91 111 -90 
clause level 2 (Kante=3, Kdesc=9316, core=2):16 480 -476 
clause level 2 (Kante=3, Kdesc=4236, core=5):91 90 -111 
clause level 2 (Kante=2, Kdesc=3722, core=1):-443 472 -19 
clause level 1 (Kante=2, Kdesc=5449, core=9):444 447 446 -472 
clause level 1 (Kante=3, Kdesc=3276, core=5):94 321 -339 84 
clause level 2 (Kante=3, Kdesc=4659, core=5):16 -454 
clause level 1 (Kante=10, Kdesc=4741, core=0):-182 172 167 158 161 
clause level 1 (Kante=4, Kdesc=5821, core=1):136 225 -241 
clause level 5 (Kante=6, Kdesc=7809, core=0):239 -16 238 -265 
clause level 3 (Kante=6, Kdesc=9159, core=0):16 -480 476 
clause level 2 (Kante=4, Kdesc=7398, core=7):136 -222 240 
clause level 1 (Kante=4, Kdesc=2955, core=4):91 -114 94 
clause level 1 (Kante=6, Kdesc=9428, core=7):6 -24 
clause level 1 (Kante=3, Kdesc=10029, core=9):2 511 487 -515 
clause level 1 (Kante=4, Kdesc=2864, core=1):76 -134 
clause level 1 (Kante=3, Kdesc=4755, core=3):-203 410 408 -380 
clause level 1 (Kante=2, Kdesc=7356, core=0):236 239 238 -265 
clause level 2 (Kante=4, Kdesc=5456, core=4):154 114 -183 -136 
clause level 2 (Kante=5, Kdesc=4321, core=6):-329 -326 -136 
clause level 1 (Kante=8, Kdesc=9895, core=5):7 -25 20 
clause level 1 (Kante=6, Kdesc=5962, core=2):136 -225 241 
clause level 1 (Kante=6, Kdesc=4669, core=8):141 -225 211 206 
clause level 1 (Kante=6, Kdesc=3310, core=5):91 -101 
clause level 2 (Kante=5, Kdesc=7857, core=9):-34 24 
clause level 1 (Kante=3, Kdesc=4711, core=7):90 -360 338 89 
clause level 2 (Kante=3, Kdesc=5265, core=8):91 301 -304 
clause level 1 (Kante=5, Kdesc=4463, core=3):-410 -407 -380 
clause level 2 (Kante=3, Kdesc=5772, core=2):108 -170 
clause level 1 (Kante=6, Kdesc=2695, core=2):108 -119 
clause level 5 (Kante=6, Kdesc=4512, core=4):-189 206 203 
clause level 3 (Kante=3, Kdesc=5192, core=4):91 -155 
clause level 1 (Kante=7, Kdesc=4071, core=0):141 -206 220 221 225 
clause level 1 (Kante=5, Kdesc=7618, core=1):6 478 454 -482 
clause level 3 (Kante=5, Kdesc=3713, core=8):-425 -6 -422 
clause level 5 (Kante=8, Kdesc=6238, core=3):-203 265 
clause level 1 (Kante=6, Kdesc=2967, core=6):91 -94 114 
clause level 2 (Kante=2, Kdesc=6430, core=8):46 -20 
clause level 1 (Kante=11, Kdesc=5600, core=7):136 -170 
clause level 1 (Kante=3, Kdesc=5110, core=0):122 -264 125 
clause level 2 (Kante=10, Kdesc=4235, core=9):19 -107 101 84 89 
clause level 1 (Kante=4, Kdesc=6104, core=0):7 11 -15 
clause level 1 (Kante=3, Kdesc=7056, core=5):31 35 -46 
clause level 1 (Kante=6, Kdesc=4855, core=4):4 -333 
clause level 1 (Kante=5, Kdesc=8383, core=3):41 602 538 -598 
clause level 2 (Kante=3, Kdesc=9133, core=3):1 -520 
clause level 1 (Kante=3, Kdesc=8774, core=1):-218 589 -591 552 
clause level 2 (Kante=7, Kdesc=5958, core=8):91 -156 138 
clause level 1 (Kante=5, Kdesc=3343, core=4):-251 232 227 
clause level 5 (Kante=4, Kdesc=2647, core=3):-77 264 
clause level 10 (Kante=7, Kdesc=4522, core=6):-264 125 -10 
clause level 1 (Kante=5, Kdesc=6044, core=2):235 -486 490 462 
clause level 4 (Kante=5, Kdesc=2878, core=4):-450 -447 -10 
clause level 1 (Kante=10, Kdesc=5462, core=3):16 51 37 49 
clause level 6 (Kante=7, Kdesc=3523, core=4):19 -449 10 361 
clause level 3 (Kante=3, Kdesc=2764, core=0):91 102 -107 
clause level 7 (Kante=3, Kdesc=4978, core=2):-189 265 
clause level 1 (Kante=4, Kdesc=6709, core=3):2 274 -43 
clause level 1 (Kante=3, Kdesc=3628, core=9):-235 458 460 -430 
clause level 2 (Kante=7, Kdesc=4721, core=3):35 -10 -46 
clause level 2 (Kante=4, Kdesc=2978, core=5):7 192 -213 
clause level 1 (Kante=6, Kdesc=4118, core=0):-185 168 155 112 111 170 
clause level 2 (Kante=3, Kdesc=6832, core=1):1 382 -483 
clause level 1 (Kante=7, Kdesc=3316, core=3):-261 -255 -126 
clause level 1 (Kante=3, Kdesc=7067, core=1):-271 273 295 -274 
clause level 1 (Kante=20, Kdesc=5723, core=3):1 480 460 441 411 458 -494 
clause level 5 (Kante=4, Kdesc=3264, core=5):-16 208 -217 -141 
clause level 1 (Kante=6, Kdesc=4921, core=1):-18 284 12 9 
clause level 5 (Kante=5, Kdesc=5719, core=8):19 -599 
clause level 79 (Kante=450, Kdesc=11, core=1):-86 79 -115 -108 -3 
clause level 2 (Kante=3, Kdesc=5698, core=8):-52 535 533 -505 
clause level 1 (Kante=11, Kdesc=3120, core=6):108 182 -185 166 153 140 
clause level 8 (Kante=5, Kdesc=3205, core=4):87 472 89 
clause level 1 (Kante=6, Kdesc=2612, core=5):4 -24 
clause level 13 (Kante=4, Kdesc=3491, core=3):123 414 121 124 
clause level 1 (Kante=3, Kdesc=5935, core=8):52 537 599 -602 
clause level 2 (Kante=7, Kdesc=3326, core=3):-412 407 381 -203 -189 408 
clause level 2 (Kante=6, Kdesc=3313, core=4):-235 -430 -3 -455 460 
clause level 7 (Kante=5, Kdesc=4683, core=0):-19 61 -7 
clause level 2 (Kante=5, Kdesc=3485, core=5):51 -46 -35 -19 -10 
clause level 1 (Kante=8, Kdesc=3465, core=3):-460 456 -3 -430 
clause level 5 (Kante=3, Kdesc=3499, core=4):-19 48 -16 -7 
clause level 1 (Kante=5, Kdesc=5367, core=5):16 -30 25 
clause level 1 (Kante=5, Kdesc=3619, core=7):-218 -461 -434 465 
clause level 1 (Kante=3, Kdesc=3619, core=1):-2 512 514 -484 
clause level 2 (Kante=7, Kdesc=4772, core=4):496 466 -203 -189 495 
clause level 4 (Kante=4, Kdesc=4610, core=1):-1 67 -19 -10 -61 -46 -35 
clause level 1 (Kante=15, Kdesc=3214, core=4):141 152 136 -171 167 
clause level 1 (Kante=5, Kdesc=3415, core=8):-252 224 -236 
clause level 2 (Kante=4, Kdesc=3700, core=2):-251 232 230 
clause level 5 (Kante=3, Kdesc=3425, core=1):-265 271 -264 252 
clause level 1 (Kante=4, Kdesc=4998, core=3):-58 54 42 41 
clause level 2 (Kante=2, Kdesc=4578, core=6):562 -608 2 -75 297 
clause level 1 (Kante=4, Kdesc=3638, core=0):2 -72 75 
clause level 3 (Kante=7, Kdesc=3080, core=2):-189 236 -136 
clause level 1 (Kante=17, Kdesc=2333, core=7):26 455 377 -451 -6 
clause level 2 (Kante=4, Kdesc=4695, core=0):562 608 -2 -75 297 
clause level 1 (Kante=8, Kdesc=4754, core=2):-516 511 235 2 489 
clause level 3 (Kante=9, Kdesc=2801, core=2):292 -75 564 
clause level 4 (Kante=4, Kdesc=3654, core=4):7 -476 -474 
clause level 156 (Kante=346, Kdesc=22, core=4):-203 442 -136 469 238 
clause level 2 (Kante=4, Kdesc=3085, core=4):-252 -236 227 
clause level 2 (Kante=10, Kdesc=4914, core=7):71 -2 55 -41 69 
clause level 1 (Kante=5, Kdesc=3602, core=3):-41 69 55 71 -40 
clause level 1 (Kante=5, Kdesc=3600, core=8):-477 506 -1 504 
clause level 1 (Kante=12, Kdesc=2648, core=6):-122 268 113 
clause level 1 (Kante=5, Kdesc=2560, core=2):360 -100 88 84 362 359 
clause level 3 (Kante=9, Kdesc=3072, core=3):480 -476 -451 -6 -10 
clause level 3 (Kante=3, Kdesc=3657, core=3):538 508 -41 -2 537 
clause level 147 (Kante=370, Kdesc=11, core=1):91 -284 -3 -4 
clause level 12 (Kante=3, Kdesc=3488, core=5):-19 -91 530 
clause level 1 (Kante=14, Kdesc=2655, core=1):10 12 -445 423 -474 -478 
clause level 5 (Kante=4, Kdesc=3517, core=5):108 107 -254 -123 
clause level 2 (Kante=12, Kdesc=2533, core=0):26 -40 24 51 -6 
clause level 1 (Kante=6, Kdesc=1956, core=5):-24 31 11 21 13 
clause level 4 (Kante=7, Kdesc=3086, core=1):19 68 -54 55 53 39 37 
clause level 2 (Kante=6, Kdesc=3047, core=0):59 -56 30 40 44 -2 42 
clause level 2 (Kante=5, Kdesc=2842, core=0):-72 75 -59 
clause level 1 (Kante=6, Kdesc=2125, core=3):-66 70 58 67 53 -63 
clause level 318 (Kante=367, Kdesc=846, core=4):-10 
clause level 6 (Kante=6, Kdesc=1370, core=5):530 452 -19 -501 503 474 
clause level 196 (Kante=350, Kdesc=150, core=9):-4 -6 78 
clause level 155 (Kante=503, Kdesc=225, core=2):-442 -141 -218 -1 -265 408 -234 220 221 237 238 
clause level 174 (Kante=397, Kdesc=4, core=5):-41 2 74 45 58 456 485 30 514 60 543 73 
clause level 300 (Kante=414, Kdesc=123, core=3):462 405 375 406 
clause level 182 (Kante=366, Kdesc=14, core=9):-189 368 338 4 -136 229 -6 348 81 238 82 230 212 331 197 24 -10 78 333 321 249 284 77 90 31 20 397 307 213 319 214 370 5 88 396 372 11 134 84 196 199 393 394 350 13 85 93 385 421 386 
clause level 97 (Kante=344, Kdesc=132, core=5):-364 372 77 -87 339 385 102 78 88 340 373 104 386 85 
clause level 194 (Kante=370, Kdesc=1, core=9):241 212 284 -10 4 -6 20 -21 -7 396 141 50 286 208 210 331 -12 22 -91 134 82 308 388 81 78 -95 -92 216 372 370 84 24 142 -135 138 302 207 128 157 314 143 350 85 229 368 421 140 321 369 5 -25 31 394 11 249 333 371 444 230 419 213 
clause level 101 (Kante=472, Kdesc=1, core=9):-159 -10 -6 -79 -86 -76 81 -90 -360 80 
clause level 108 (Kante=418, Kdesc=1, core=9):-7 159 203 -10 -6 381 190 193 160 410 -76 -86 194 145 468 439 305 -360 -79 -90 80 555 526 497 81 134 446 202 191 201 128 131 
clause level 105 (Kante=381, Kdesc=1, core=9):-16 -6 -10 193 202 191 226 7 159 190 196 335 375 80 248 318 305 145 -76 356 -86 81 400 31 9 12 425 -90 -79 32 -360 160 373 354 423 446 473 450 8 128 227 448 134 131 475 195 21 
clause level 104 (Kante=356, Kdesc=1, core=9):-108 -79 159 80 128 -6 145 -86 -10 203 555 526 497 468 16 37 27 -90 -360 321 81 7 190 381 -465 410 439 213 207 216 -76 375 356 318 450 305 48 134 131 192 475 31 32 226 221 191 202 223 373 354 446 398 400 210 227 197 8 352 379 208 47 473 214 36 26 21 13 404 22 194 425 423 377 160 196 402 454 198 
clause level 100 (Kante=354, Kdesc=1, core=9):-189 16 -10 -6 -465 37 7 159 226 201 390 365 417 -90 108 -79 26 17 170 -86 36 32 8 464 190 337 115 404 -360 110 119 450 473 429 423 425 367 157 314 427 31 354 352 80 12 375 398 161 248 160 164 128 131 192 145 116 475 -76 134 216 208 227 202 191 223 373 379 210 211 207 327 113 117 321 402 27 344 196 329 316 154 400 318 454 
clause level 169 (Kante=406, Kdesc=1, core=7):-136 134 128 -3 137 86 -123 78 -115 -108 19 62 63 531 131 82 599 20 -532 600 48 299 77 90 339 340 -416 -474 -445 -64 -49 65 -33 83 415 93 414 444 103 31 -387 34 308 138 446 22 61 533 -503 124 85 530 32 475 50 321 472 122 504 104 386 264 502 
clause level 162 (Kante=399, Kdesc=1, core=7):-141 170 167 321 137 132 82 62 599 530 -532 19 -64 -115 223 20 22 -3 226 373 136 86 -108 229 -474 154 310 299 600 -49 90 85 133 -123 78 65 84 120 93 124 -445 155 168 -503 338 -33 34 339 360 81 348 77 385 533 415 361 -387 144 88 138 131 143 139 32 128 130 414 443 50 31 83 444 -87 475 145 140 103 224 386 122 531 61 46 121 47 502 
clause level 162 (Kante=360, Kdesc=1, core=7):16 139 -149 143 142 -3 -108 86 310 137 82 128 133 321 218 551 235 547 522 518 62 599 530 493 464 136 210 406 435 600 -532 -474 19 338 141 299 325 229 20 327 -115 223 312 -64 303 302 -135 156 22 -33 339 77 154 489 460 -49 65 352 207 431 78 -416 443 85 -445 226 170 -123 90 161 360 414 120 212 148 415 444 132 34 385 213 150 165 216 208 134 227 48 361 502 83 166 88 475 171 144 31 219 221 236 152 224 211 138 32 151 153 147 50 103 -87 131 230 -387 -503 
clause level 160 (Kante=353, Kdesc=1, core=7):426 235 547 518 489 62 431 460 207 19 -3 226 600 -49 -16 338 141 339 157 299 139 302 78 314 -17 -115 86 386 143 158 -108 155 -416 599 20 -64 -33 475 50 22 415 77 377 -503 32 31 -474 223 65 136 187 236 224 210 227 221 152 167 -445 348 472 -123 -105 90 88 102 360 85 212 310 312 325 229 321 142 148 137 82 308 303 373 171 154 151 138 166 331 133 144 444 443 124 173 161 165 150 -149 238 120 132 128 168 131 147 103 63 -87 208 414 340 156 122 48 361 83 264 140 34 
clause level 168 (Kante=403, Kdesc=1, core=7):-19 86 -3 -115 85 143 82 81 84 -108 134 321 132 137 78 128 131 299 
clause level 138 (Kante=371, Kdesc=84, core=9):-343 -393 -86 -91 392 446 -339 338 
clause level 30 (Kante=353, Kdesc=131, core=4):91 -86 132 141 78 142 284 302 369 212 10 388 92 79 109 93 110 211 286 218 377 390 210 157 21 331 128 213 11 551 522 446 448 53 535 22 36 37 287 493 208 67 52 506 361 464 207 406 216 221 219 435 143 419 158 214 477 
clause level 169 (Kante=453, Kdesc=11, core=1):383 -284 -4 -3 -97 -91 124 446 
clause level 283 (Kante=375, Kdesc=17, core=4):126 -19 -10 -277 
clause level 56 (Kante=455, Kdesc=88, core=8):159 432 -16 -7 223 136 170 -76 226 433 446 373 430 154 402 431 227 167 310 137 229 327 299 139 132 140 348 
clause level 281 (Kante=451, Kdesc=8, core=8):136 -108 -10 -109 475 
clause level 70 (Kante=493, Kdesc=2, core=0):-10 -451 -283 -282 287 -281 450 9 14 
clause level 198 (Kante=393, Kdesc=175, core=6):397 229 -126 226 235 489 518 223 460 547 236 136 167 348 170 137 132 431 299 310 154 119 168 327 402 373 139 140 153 155 
clause level 43 (Kante=498, Kdesc=18, core=2):126 -6 67 535 53 21 448 446 -86 -19 52 506 36 419 -120 -414 474 10 -264 -80 -472 22 11 477 416 87 388 93 109 92 110 -385 79 78 -102 106 105 387 124 
clause level 123 (Kante=410, Kdesc=110, core=9):-259 -6 493 235 489 406 223 218 -12 141 136 -7 154 308 402 327 157 132 167 158 551 314 212 210 213 165 229 171 464 431 518 139 166 153 140 142 137 -135 302 522 227 236 224 50 78 150 156 207 226 233 238 128 133 155 168 170 299 547 211 230 152 460 214 435 208 
clause level 151 (Kante=393, Kdesc=10, core=9):1 -271 377 -6 10 446 376 36 11 109 92 361 506 419 21 37 13 -91 270 448 390 417 -95 93 78 110 67 
clause level 195 (Kante=446, Kdesc=2, core=9):3 -4 -6 78 -5 
clause level 30 (Kante=424, Kdesc=36, core=2):225 -6 506 52 -86 67 53 -19 -126 78 79 10 -264 87 -80 -102 92 119 -120 474 11 37 361 36 388 93 448 446 -385 109 390 -414 535 417 21 419 416 124 13 -443 106 105 -472 
clause level 60 (Kante=318, Kdesc=71, core=2):-241 -19 21 78 -86 87 448 -472 79 10 92 -414 446 11 -443 474 36 110 -120 361 388 -102 93 -264 124 416 514 52 -530 506 37 13 67 53 -501 445 22 504 -385 109 535 106 105 503 532 123 
clause level 92 (Kante=413, Kdesc=60, core=8):-141 -7 6 95 79 338 81 84 -108 134 132 112 340 178 77 308 26 -383 12 382 377 -135 321 41 510 376 394 5 365 80 138 82 128 76 180 27 42 452 300 299 322 423 50 57 71 85 539 481 140 24 131 78 34 
clause level 221 (Kante=380, Kdesc=46, core=8):91 186 383 286 287 126 384 369 411 431 430 
clause level 111 (Kante=383, Kdesc=50, core=5):-383 426 4 455 16 453 223 24 396 472 17 430 451 477 502 47 31 448 20 192 22 36 11 224 454 -445 504 350 348 371 197 196 199 208 190 207 194 212 428 249 307 284 419 13 201 319 229 333 191 473 27 337 331 26 427 456 447 379 404 369 452 
clause level 34 (Kante=391, Kdesc=84, core=7):-389 -3 522 493 218 24 20 11 13 5 4 31 9 155 91 -149 148 303 95 342 92 97 141 139 157 158 142 340 363 361 96 229 210 312 314 212 350 323 302 352 464 207 196 208 211 221 216 284 310 331 145 348 325 551 435 132 143 213 406 128 98 99 249 34 369 377 140 153 396 197 93 371 219 230 101 104 14 151 147 106 419 103 444 446 388 
clause level 251 (Kante=357, Kdesc=1, core=8):-136 170 -3 108 -8 -281 157 -10 164 329 327 -7 154 367 109 -21 316 314 50 121 346 110 124 415 306 
clause level 117 (Kante=427, Kdesc=93, core=7):451 112 -10 -19 316 160 164 108 154 109 119 110 161 157 306 305 115 81 113 365 329 344 121 415 163 155 314 390 122 116 367 166 168 170 117 124 346 327 
clause level 62 (Kante=450, Kdesc=16, core=4):7 -223 506 -6 78 338 79 92 10 52 -16 -136 238 375 -372 -339 -26 36 37 446 535 109 361 417 93 21 390 11 22 13 67 110 419 53 448 
clause level 25 (Kante=488, Kdesc=63, core=1):-357 41 -203 539 510 71 57 481 42 404 26 24 423 12 -159 -317 452 394 112 79 95 -1 -16 84 -234 -222 27 5 6 316 82 34 237 365 113 89 96 -206 -265 221 -190 204 
clause level 46 (Kante=412, Kdesc=45, core=3):430 -3 81 -10 77 -49 600 -64 19 599 65 50 102 22 78 20 -123 414 385 476 425 448 -387 450 447 421 419 -416 106 -105 -87 187 264 124 32 477 530 -474 -445 46 47 61 62 85 502 31 103 386 122 415 
clause level 137 (Kante=437, Kdesc=26, core=9):-6 342 446 -91 -393 -343 338 -86 -339 392 
clause level 48 (Kante=427, Kdesc=38, core=8):-250 148 -159 147 91 -7 -16 145 139 432 136 431 433 430 170 140 229 -193 327 373 348 97 154 310 323 325 342 92 -76 156 -149 223 226 -190 221 167 158 95 98 402 137 361 446 132 386 93 142 152 151 143 103 101 96 138 99 
clause level 40 (Kante=419, Kdesc=7, core=1):430 92 -3 50 437 -284 84 79 85 86 -108 91 436 -4 -8 342 137 -149 155 -115 -7 142 128 310 95 338 97 101 98 323 161 148 130 103 96 145 139 134 321 78 132 93 303 99 299 363 325 104 361 386 147 143 138 151 150 106 
clause level 213 (Kante=356, Kdesc=17, core=4):-10 426 -136 284 176 41 510 481 24 238 5 112 338 17 26 95 427 113 365 71 34 39 57 96 119 69 178 182 2 283 539 369 514 485 18 3 452 8 394 60 456 6 321 175 97 82 398 101 428 27 29 13 454 98 12 99 74 73 543 45 42 286 289 179 
clause level 62 (Kante=375, Kdesc=37, core=4):203 189 587 558 500 -41 599 471 -6 -1 -62 64 -126 154 167 112 161 170 475 -472 84 88 360 -19 -389 -87 342 -347 108 -391 -393 442 445 -95 185 -341 -135 166 90 -343 339 302 474 384 113 388 -414 358 529 -530 413 504 109 82 361 178 115 363 -107 316 314 312 171 322 80 503 -125 -264 182 329 327 98 188 305 86 309 201 191 195 121 122 308 78 110 386 -443 102 94 137 153 299 385 151 81 77 365 367 148 -149 132 157 128 143 133 197 144 164 202 175 179 346 344 119 392 138 249 
clause level 19 (Kante=499, Kdesc=45, core=5):-333 528 203 555 526 -189 553 497 468 439 381 410 159 365 369 368 -265 -91 131 130 191 202 201 -1 193 128 335 -200 -206 220 197 -188 -209 364 134 204 -217 145 196 199 190 
clause level 316 (Kante=426, Kdesc=2, core=3):4 405 -462 375 406 -461 463 
clause level 263 (Kante=374, Kdesc=22, core=7):-91 385 -383 384 259 442 411 471 469 498 500 381 261 189 77 257 -87 413 408 191 88 102 202 104 558 557 85 90 358 386 360 
clause level 214 (Kante=419, Kdesc=8, core=9):-159 368 284 20 431 -1 430 4 371 11 372 395 398 393 446 249 212 318 397 370 348 331 286 333 213 396 214 22 196 18 373 229 31 444 307 350 419 369 
clause level 217 (Kante=392, Kdesc=13, core=3):218 -16 -1 136 229 348 230 170 -10 137 167 168 139 235 518 489 -52 -36 236 402 373 431 547 154 460 327 223 132 153 140 226 152 138 233 238 299 
clause level 37 (Kante=429, Kdesc=14, core=3):-141 -6 2 485 17 60 286 427 456 7 376 373 372 82 284 3 12 193 335 210 194 115 323 178 344 74 73 81 97 514 423 425 543 460 116 201 211 8 299 45 30 354 352 21 13 369 226 227 31 179 44 18 24 197 400 32 22 195 374 9 450 375 
clause level 184 (Kante=356, Kdesc=42, core=3):405 -97 108 154 6 81 82 -3 316 77 -10 78 414 -91 -416 170 102 -92 95 19 340 112 155 -87 88 84 96 41 417 161 264 158 5 71 510 599 57 600 42 65 329 371 -105 418 392 367 109 390 90 365 481 27 22 24 164 160 187 -64 26 447 396 62 530 539 327 120 32 9 157 12 -503 -49 31 103 85 47 386 -474 -123 46 61 473 104 121 531 -33 20 475 346 448 -445 122 13 48 306 
clause level 164 (Kante=386, Kdesc=45, core=3):-291 -10 -136 238 -141 -149 97 155 82 139 91 142 134 151 303 153 140 363 312 310 388 81 95 98 96 101 92 99 323 361 106 342 148 145 93 103 147 104 325 302 
clause level 33 (Kante=393, Kdesc=6, core=9):141 19 250 -87 -416 -4 -108 -229 599 475 -136 62 530 251 -503 -154 77 417 78 -445 -123 600 264 -49 385 414 -474 48 238 20 102 65 -105 -64 106 472 252 88 -33 31 268 50 103 122 443 415 34 
clause level 76 (Kante=414, Kdesc=2, core=4):-455 431 52 67 53 -136 535 -3 -530 -19 238 -6 10 -108 506 477 430 -264 -115 79 78 -112 92 397 109 11 21 13 22 417 110 124 93 446 36 -154 -472 504 475 123 390 448 532 474 -121 398 
clause level 18 (Kante=454, Kdesc=7, core=1):-182 -250 -327 -115 -116 -340 -108 -112 -6 -10 -109 81 -92 84 -86 -3 -344 388 -91 85 79 -83 342 338 -126 78 258 -347 -136 -241 -97 -323 -95 321 76 -301 311 -137 138 -152 -154 119 -80 328 169 172 140 179 180 
clause level 54 (Kante=416, Kdesc=8, core=1):-250 -136 -3 -137 -115 -86 79 -154 238 -108 388 455 456 
clause level 145 (Kante=380, Kdesc=14, core=7):-4 -141 -108 109 -19 10 110 92 361 -157 504 36 52 417 11 -121 78 446 37 475 21 123 13 477 -530 419 506 67 22 535 448 -501 -472 
clause level 59 (Kante=417, Kdesc=22, core=4):-284 218 207 551 522 493 52 535 464 435 352 377 141 406 10 92 212 331 142 158 109 78 302 361 110 79 132 157 37 210 93 128 143 67 36 13 53 21 390 22 208 11 221 219 
clause level 108 (Kante=373, Kdesc=25, core=5):203 -136 26 20 47 36 11 -10 17 81 16 479 4 396 472 430 48 477 502 428 31 426 448 451 192 419 447 5 22 24 212 331 229 504 190 191 207 473 9 238 356 379 383 223 333 443 455 431 350 453 224 249 213 196 13 348 454 318 194 404 208 
clause level 42 (Kante=469, Kdesc=6, core=0):126 189 287 413 442 441 -283 37 450 471 469 36 -451 10 419 448 109 78 92 529 358 382 -282 202 93 79 110 191 384 -281 261 558 557 475 11 21 500 
clause level 206 (Kante=454, Kdesc=3, core=8):-203 10 11 36 37 417 52 67 535 477 506 109 92 21 13 93 78 390 419 110 448 
clause level 34 (Kante=470, Kdesc=19, core=7):-91 160 -136 238 41 539 510 57 42 481 71 -10 164 108 341 82 79 13 24 329 12 26 34 154 316 394 158 161 166 327 342 6 452 95 157 306 163 155 5 170 305 115 346 340 121 385 96 363 81 84 88 -87 77 168 113 109 119 110 392 339 112 344 102 
clause level 264 (Kante=426, Kdesc=22, core=3):-203 -218 64 -141 532 -19 221 -62 238 220 237 
Found 2074 good successive clauses in order (1777 originals, maxlevel=318)
c KCorePR 362475 277 2074 1777 318
c DistanceTo...Unseen 129
c DistanceToGoodKCore c   DIST 0: 2074 (+2074) / 2074 (+2074)
c   DIST 1: 360189 (+358115) / 337431 (+335357)
c   DIST 2: 362345 (+2156) / 339513 (+2082)
c   DIST 3: 362346 (+1) / 339513 (+0)
c TotalDistance=362475
No graph is dumped
c result of core 3 is UNSAT
c One thread has finished
c Core 3 said it finished
c result of core 0 is UNKNOWN
c result of core 1 is UNKNOWN
c result of core 9 is UNKNOWN
c result of core 2 is UNKNOWN
c result of core 4 is UNKNOWN
c result of core 6 is UNKNOWN
c result of core 7 is UNKNOWN
c result of core 8 is UNKNOWN
c result of core 5 is UNKNOWN
c restarts              : 31 (1161 conflicts in avg)
c blocked restarts      : 0 (multiple: 0) 
c last block at restart : 0
c nb ReduceDB           : 4
c nb removed Clauses    : 22447
c nb learnts DL2        : 111
c nb learnts size 2     : 10
c nb learnts size 1     : 2
c conflicts             : 35991          (55 /sec)
c decisions             : 41900          (0.00 % random) (64 /sec)
c propagations          : 3872143        (5912 /sec)
c conflict literals     : 2249278        (11.23 % deleted)
c nb reduced Clauses    : 567
c CPU time              : 654.932 s

s INDETERMINATE
