c
c This is glucose-proof 1.0 based on  2.1 --  (thanks to MiniSAT)
c
c EXPERIMENTAL EASY PARALLEL (ROUND ROBIN) VERSION
c
c WARNING: for repeatability, setting FPU to use double precision
c Parallel version 8 solvers created.
c ========================================[ Problem Statistics ]===========================================
c |                                                                                                       |
c |  Number of variables:          6428                                                                   |
c |  Number of clauses:          216898                                                                   |
c |  Parse time:                   0.62 s                                                                 |
c |                                                                                                       |
c ========================================[ MAGIC CONSTANTS ]==============================================
c | Constants are supposed to work well together :-)                                                      |
c | however, if you find better choices, please let us known...                                           |
c |-------------------------------------------------------------------------------------------------------|
c |                                |                                |                                     |
c | - Restarts:                    | - Reduce Clause DB:            | - Minimize Asserting:               |
c |   * LBD Queue    :     50      |   * First     :   4000         |    * size <  30                     |
c |   * Trail  Queue :   5000      |   * Inc       :    300         |    * lbd  <   6                     |
c |   * K            :   0.80      |   * Special   :   1000         |                                     |
c |   * R            :   1.40      |   * Protected :  (lbd)< 30     |                                     |
c |                                |                                |                                     |
c ==================================[ Search Statistics (every  10000 conflicts) ]=========================
c |                                                                                                       |
c |          RESTARTS           |          ORIGINAL         |              LEARNT              | Progress |
c |       NB   Blocked  Avg Cfc |    Vars  Clauses Literals |   Red   Learnts    LBD2  Removed |          |
c =========================================================================================================
c |       35         0      285 |    6337   216898  1557105 |     1     8006       74     2307 |  1.416 % |
c |       58        76      344 |    6321   216898  1557105 |     3     6960      161    14222 |  1.665 % |
c |       74       153      405 |    6319   216898  1557105 |     3    16960      187    14222 |  1.696 % |
c |       92       236      434 |    6318   216898  1557105 |     4    17690      244    23982 |  1.711 % |
c |      110       313      454 |    6318   216898  1557105 |     5    15856      309    36407 |  1.711 % |
c |      128       379      468 |    6316   216898  1557105 |     5    25856      350    36407 |  1.742 % |
c |      147       450      476 |    6315   216898  1557105 |     6    21444      397    51381 |  1.758 % |
c |      171       510      467 |    6312   216898  1557105 |     6    31444      437    51381 |  1.805 % |
c |      182       583      494 |    6312   216898  1557105 |     7    24448      505    68885 |  1.805 % |
c |      196       657      510 |    6312   216898  1557105 |     7    34448      604    68885 |  1.805 % |
c |      215       714      511 |    6312   216898  1557105 |     8    24832      632    89298 |  1.805 % |
c |      231       788      519 |    6312   216898  1557105 |     8    34832      675    89298 |  1.805 % |
c |      249       858      522 |    6312   216898  1557105 |     9    22621      706   112269 |  1.805 % |
c |      260       923      538 |    6312   216898  1557105 |     9    32621      751   112269 |  1.805 % |
c |      272      1032      551 |    6310   216898  1557105 |     9    42621      789   112269 |  1.836 % |
c |      294      1087      544 |    6310   216898  1557105 |    10    27818      823   138063 |  1.836 % |
c |      317      1172      536 |    6310   216898  1557105 |    10    37818      845   138063 |  1.836 % |
c |      336      1249      535 |    6309   216898  1557105 |    10    47818      870   138063 |  1.851 % |
c |      353      1300      538 |    6309   216898  1557105 |    11    30431      943   166314 |  1.851 % |
c |      366      1371      546 |    6309   216898  1557105 |    11    40431      953   166314 |  1.851 % |
c |      378      1439      555 |    6309   216898  1557105 |    11    50431      993   166314 |  1.851 % |
c |      406      1518      541 |    6309   216898  1557105 |    12    30422     1007   197412 |  1.851 % |
c |      423      1563      543 |    6309   216898  1557105 |    12    40422     1052   197412 |  1.851 % |
c |      443      1626      541 |    6309   216898  1557105 |    12    50422     1123   197412 |  1.851 % |
c |      465      1693      537 |    6309   216898  1557105 |    12    60422     1170   197412 |  1.851 % |
c |      480      1781      541 |    6309   216898  1557105 |    13    37821     1219   231368 |  1.851 % |
c |      496      1868      544 |    6309   216898  1557105 |    13    47821     1265   231368 |  1.851 % |
c |      518      1925      540 |    6309   216898  1557105 |    13    57821     1299   231368 |  1.851 % |
c |      532      2018      545 |    6309   216898  1557105 |    13    67821     1345   231368 |  1.851 % |
c |      545      2085      550 |    6309   216898  1557105 |    14    42628     1380   267861 |  1.851 % |
c |      568      2160      545 |    6308   216898  1557105 |    14    52627     1404   267861 |  1.867 % |
c |      578      2216      553 |    6306   216898  1557105 |    14    62627     1444   267861 |  1.898 % |
c |      598      2284      551 |    6306   216898  1557105 |    14    72627     1476   267861 |  1.898 % |
c |      614      2363      553 |    6306   216898  1557105 |    15    44829     1514   306883 |  1.898 % |
c |      626      2422      559 |    6306   216898  1557105 |    15    54829     1602   306883 |  1.898 % |
c |      633      2511      568 |    6306   216898  1557105 |    15    64829     1691   306883 |  1.898 % |
c |      648      2582      570 |    6306   216898  1557105 |    15    74829     1741   306883 |  1.898 % |
c |      659      2631      576 |    6306   216898  1557105 |    16    44419     1800   348845 |  1.898 % |
c |      674      2724      578 |    6306   216898  1557105 |    16    54419     1875   348845 |  1.898 % |
c |      692      2799      578 |    6306   216898  1557105 |    16    64419     1935   348845 |  1.898 % |
c |      711      2878      576 |    6292   216898  1557105 |    16    74419     1986   348845 |  2.116 % |
c |      725      2957      579 |    6278   216898  1557105 |    16    82323     2044   348845 |  2.334 % |
c |      738      3026      582 |    6278   216898  1557105 |    17    50399     2088   392491 |  2.334 % |
c |      754      3112      583 |    6271   216898  1557105 |    17    60398     2129   392491 |  2.442 % |
c |      770      3182      584 |    6264   216898  1557105 |    17    70397     2193   392491 |  2.551 % |
c |      775      3248      593 |    6250   216898  1557105 |    17    80397     2229   392491 |  2.769 % |
c |      789      3306      595 |    6243   216898  1557105 |    18    45321     2257   439319 |  2.878 % |
c |      799      3380      600 |    6243   216898  1557105 |    18    53472     2322   439319 |  2.878 % |
c |      811      3425      604 |    6229   216898  1557105 |    18    63472     2339   439319 |  3.096 % |
c |      823      3475      607 |    6222   216898  1557105 |    18    73472     2383   439319 |  3.205 % |
c |      843      3500      604 |    6222   216898  1557105 |    18    83472     2421   439319 |  3.205 % |
c |      857      3553      606 |    6222   216898  1557105 |    18    93472     2455   439319 |  3.205 % |
c |      862      3573      614 |    6222   216898  1557105 |    19    56443     2460   487734 |  3.205 % |
c |      870      3573      620 |    6222   216898  1557105 |    19    65760     2470   487734 |  3.205 % |
c |      878      3573      626 |    6222   216898  1557105 |    19    75760     2478   487734 |  3.205 % |
c |      889      3610      629 |    6222   216898  1557105 |    19    85760     2541   487734 |  3.205 % |
c |      907      3666      628 |    6222   216898  1557105 |    19    95760     2582   487734 |  3.205 % |
c |      913      3690      635 |    6220   216898  1557105 |    20    55892     2613   538951 |  3.236 % |
c empty clause found by core 2 at conflict 585314
*
c checking the resolution graph...OK
c All useful bySize 1037310 clauses, percentiles 0 3 7 7 8 9 13 19 22 27 61 62 (0,1,5,10,25,50,75,90,95,99,100-1,100)
c All useless bySize 3862790 clauses, percentiles 0 7 8 8 10 17 23 28 32 50 234 243 (0,1,5,10,25,50,75,90,95,99,100-1,100)
c ProofOnly useful bySize 831029 clauses, percentiles 0 4 7 8 8 10 14 20 23 28 61 62 (0,1,5,10,25,50,75,90,95,99,100-1,100)
c ProofOnly useless bySize 3851478 clauses, percentiles 1 7 8 8 10 17 23 28 32 50 234 243 (0,1,5,10,25,50,75,90,95,99,100-1,100)
c All useful byFinalLBD 1037310 clauses, percentiles 0 1 2 3 4 6 7 8 8 10 33 48 (0,1,5,10,25,50,75,90,95,99,100-1,100)
c All useless byFinalLBD 3862790 clauses, percentiles 0 2 4 5 6 8 10 12 15 23 108 109 (0,1,5,10,25,50,75,90,95,99,100-1,100)
c ProofOnly useful byFinalLBD 831029 clauses, percentiles 0 1 2 3 4 5 6 8 9 11 22 23 (0,1,5,10,25,50,75,90,95,99,100-1,100)
c ProofOnly useless byFinalLBD 3851478 clauses, percentiles 1 2 4 5 6 8 10 12 15 23 108 109 (0,1,5,10,25,50,75,90,95,99,100-1,100)
c All useful byInitialLBD 1037310 clauses, percentiles 0 2 3 4 5 6 7 8 9 11 33 48 (0,1,5,10,25,50,75,90,95,99,100-1,100)
c All useless byInitialLBD 3862790 clauses, percentiles 0 3 4 5 6 8 10 13 15 23 108 109 (0,1,5,10,25,50,75,90,95,99,100-1,100)
c ProofOnly useful byInitialLBD 831029 clauses, percentiles 0 2 3 4 5 6 7 8 9 11 22 23 (0,1,5,10,25,50,75,90,95,99,100-1,100)
c ProofOnly useless byInitialLBD 3851478 clauses, percentiles 1 3 5 5 6 8 10 13 15 23 108 109 (0,1,5,10,25,50,75,90,95,99,100-1,100)
c Literals ProofOnly useful 10051895
c Literals ProofOnly useless 70100920
c additional windowsGood 1 1 1 1 1 1 1 2 2 3 87 180 (0,1,5,10,25,50,75,90,95,99,100-1,100)
c additional windowsBad 1 1 1 1 2 4 7 7 8 47 1006 1179 (0,1,5,10,25,50,75,90,95,99,100-1,100)
c additional 1WindowNoDecision 556180 285708 0.51 116331 50558 0.43 (nbWindowsGood,nbWindowsNoDecisionGood,nbWindowsBad,nbWindowsNoDecisionBad
c additional topclausessize all (10%,5%,1%,top) 23.07 25.43 30.37 62
c additional topclausessize proofonly (10%,5%,1%,top) 23.46 25.76 30.73 62
c additional topclausesinitialLBD all (10%,5%,1%,top) 21.64 24.33 29.31 62
c additional topclausesinitialLBD proofonly (10%,5%,1%,top) 20.35 23.46 28.57 62
c additional topclausesfinalLBD all (10%,5%,1%,top) 19.01 22.52 27.80 62
c additional topclausesfinalLBD proofonly (10%,5%,1%,top) 18.12 21.81 27.32 62
c additional predictionInitialLBD 1 104 831029 0.96 0.00 0.00 4682403 3851478 0.82 4.63 1.40 0.82 (nbgoodclauses,nbtotalgood,precisionGood,recallGood,FGood,nbbadclause,nbtotalbad,precisionBad,recallBad,FBad,accuracy)
c additional predictionInitialLBD 2 20540 831029 0.63 0.02 0.03 4661967 3851478 0.82 4.63 1.40 0.82 (nbgoodclauses,nbtotalgood,precisionGood,recallGood,FGood,nbbadclause,nbtotalbad,precisionBad,recallBad,FBad,accuracy)
c additional predictionInitialLBD 3 116960 831029 0.57 0.08 0.14 4565547 3851478 0.83 4.57 1.41 0.83 (nbgoodclauses,nbtotalgood,precisionGood,recallGood,FGood,nbbadclause,nbtotalbad,precisionBad,recallBad,FBad,accuracy)
c additional predictionInitialLBD 4 380350 831029 0.50 0.23 0.31 4302157 3851478 0.85 4.41 1.43 0.82 (nbgoodclauses,nbtotalgood,precisionGood,recallGood,FGood,nbbadclause,nbtotalbad,precisionBad,recallBad,FBad,accuracy)
c additional predictionInitialLBD 5 873598 831029 0.42 0.45 0.43 3808909 3851478 0.88 4.03 1.44 0.79 (nbgoodclauses,nbtotalgood,precisionGood,recallGood,FGood,nbbadclause,nbtotalbad,precisionBad,recallBad,FBad,accuracy)
c additional predictionInitialLBD 6 1550642 831029 0.36 0.67 0.47 3131865 3851478 0.91 3.44 1.44 0.73 (nbgoodclauses,nbtotalgood,precisionGood,recallGood,FGood,nbbadclause,nbtotalbad,precisionBad,recallBad,FBad,accuracy)
c additional predictionInitialLBD 7 2285322 831029 0.31 0.84 0.45 2397185 3851478 0.94 2.72 1.40 0.63 (nbgoodclauses,nbtotalgood,precisionGood,recallGood,FGood,nbbadclause,nbtotalbad,precisionBad,recallBad,FBad,accuracy)
c additional predictionInitialLBD 8 2957902 831029 0.26 0.93 0.41 1724605 3851478 0.97 2.00 1.30 0.52 (nbgoodclauses,nbtotalgood,precisionGood,recallGood,FGood,nbbadclause,nbtotalbad,precisionBad,recallBad,FBad,accuracy)
c additional predictionInitialLBD 10 3882408 831029 0.21 0.99 0.35 800099 3851478 0.98 0.95 0.97 0.34 (nbgoodclauses,nbtotalgood,precisionGood,recallGood,FGood,nbbadclause,nbtotalbad,precisionBad,recallBad,FBad,accuracy)
c additional predictionInitialLBD 14 4462254 831029 0.19 1.00 0.31 220253 3851478 1.00 0.26 0.42 0.22 (nbgoodclauses,nbtotalgood,precisionGood,recallGood,FGood,nbbadclause,nbtotalbad,precisionBad,recallBad,FBad,accuracy)
c additional predictionInitialLBD 18 4593656 831029 0.18 1.00 0.31 88851 3851478 1.00 0.11 0.19 0.20 (nbgoodclauses,nbtotalgood,precisionGood,recallGood,FGood,nbbadclause,nbtotalbad,precisionBad,recallBad,FBad,accuracy)
c additional predictionInitialLBD 22 4641985 831029 0.18 1.00 0.30 40522 3851478 1.00 0.05 0.09 0.19 (nbgoodclauses,nbtotalgood,precisionGood,recallGood,FGood,nbbadclause,nbtotalbad,precisionBad,recallBad,FBad,accuracy)
c additional predictionInitialLBD 30 4671730 831029 0.18 1.00 0.30 10777 3851478 1.00 0.01 0.03 0.18 (nbgoodclauses,nbtotalgood,precisionGood,recallGood,FGood,nbbadclause,nbtotalbad,precisionBad,recallBad,FBad,accuracy)
c additional predictionInitialLBD 40 4679977 831029 0.18 1.00 0.30 2530 3851478 1.00 0.00 0.01 0.18 (nbgoodclauses,nbtotalgood,precisionGood,recallGood,FGood,nbbadclause,nbtotalbad,precisionBad,recallBad,FBad,accuracy)
c additional predictionFinallLBD 1 26542 831029 0.75 0.02 0.05 4655965 3851478 0.83 1.00 0.90 0.83 (nbgoodclauses,nbtotalgood,precisionGood,recallGood,FGood,nbbadclause,nbtotalbad,precisionBad,recallBad,FBad,accuracy)
c additional predictionFinallLBD 2 118024 831029 0.66 0.09 0.16 4564483 3851478 0.84 0.99 0.91 0.83 (nbgoodclauses,nbtotalgood,precisionGood,recallGood,FGood,nbbadclause,nbtotalbad,precisionBad,recallBad,FBad,accuracy)
c additional predictionFinallLBD 3 300973 831029 0.58 0.21 0.31 4381534 3851478 0.85 0.97 0.91 0.83 (nbgoodclauses,nbtotalgood,precisionGood,recallGood,FGood,nbbadclause,nbtotalbad,precisionBad,recallBad,FBad,accuracy)
c additional predictionFinallLBD 4 644770 831029 0.50 0.39 0.43 4037737 3851478 0.87 0.92 0.89 0.82 (nbgoodclauses,nbtotalgood,precisionGood,recallGood,FGood,nbbadclause,nbtotalbad,precisionBad,recallBad,FBad,accuracy)
c additional predictionFinallLBD 5 1176563 831029 0.41 0.58 0.48 3505944 3851478 0.90 0.82 0.86 0.78 (nbgoodclauses,nbtotalgood,precisionGood,recallGood,FGood,nbbadclause,nbtotalbad,precisionBad,recallBad,FBad,accuracy)
c additional predictionFinallLBD 6 1818130 831029 0.35 0.76 0.48 2864377 3851478 0.93 0.69 0.79 0.70 (nbgoodclauses,nbtotalgood,precisionGood,recallGood,FGood,nbbadclause,nbtotalbad,precisionBad,recallBad,FBad,accuracy)
c additional predictionFinallLBD 7 2479290 831029 0.29 0.88 0.44 2203217 3851478 0.95 0.55 0.69 0.60 (nbgoodclauses,nbtotalgood,precisionGood,recallGood,FGood,nbbadclause,nbtotalbad,precisionBad,recallBad,FBad,accuracy)
c additional predictionFinallLBD 8 3081927 831029 0.25 0.94 0.40 1600580 3851478 0.97 0.40 0.57 0.50 (nbgoodclauses,nbtotalgood,precisionGood,recallGood,FGood,nbbadclause,nbtotalbad,precisionBad,recallBad,FBad,accuracy)
c additional predictionFinallLBD 10 3920922 831029 0.21 0.99 0.35 761585 3851478 0.99 0.20 0.33 0.34 (nbgoodclauses,nbtotalgood,precisionGood,recallGood,FGood,nbbadclause,nbtotalbad,precisionBad,recallBad,FBad,accuracy)
c additional predictionFinallLBD 14 4467314 831029 0.19 1.00 0.31 215193 3851478 1.00 0.06 0.11 0.22 (nbgoodclauses,nbtotalgood,precisionGood,recallGood,FGood,nbbadclause,nbtotalbad,precisionBad,recallBad,FBad,accuracy)
c additional predictionFinallLBD 18 4595164 831029 0.18 1.00 0.31 87343 3851478 1.00 0.02 0.04 0.20 (nbgoodclauses,nbtotalgood,precisionGood,recallGood,FGood,nbbadclause,nbtotalbad,precisionBad,recallBad,FBad,accuracy)
c additional predictionFinallLBD 22 4642595 831029 0.18 1.00 0.30 39912 3851478 1.00 0.01 0.02 0.19 (nbgoodclauses,nbtotalgood,precisionGood,recallGood,FGood,nbbadclause,nbtotalbad,precisionBad,recallBad,FBad,accuracy)
c additional predictionFinallLBD 30 4671895 831029 0.18 1.00 0.30 10612 3851478 1.00 0.00 0.01 0.18 (nbgoodclauses,nbtotalgood,precisionGood,recallGood,FGood,nbbadclause,nbtotalbad,precisionBad,recallBad,FBad,accuracy)
c additional predictionFinallLBD 40 4680019 831029 0.18 1.00 0.30 2488 3851478 1.00 0.00 0.00 0.18 (nbgoodclauses,nbtotalgood,precisionGood,recallGood,FGood,nbbadclause,nbtotalbad,precisionBad,recallBad,FBad,accuracy)
c additional predictionSize 1 104 831029 0.96 0.00 0.00 4682403 3851478 0.82 4.63 1.40 0.82 (nbgoodclauses,nbtotalgood,precisionGood,recallGood,FGood,nbbadclause,nbtotalbad,precisionBad,recallBad,FBad,accuracy)
c additional predictionSize 2 2172 831029 0.96 0.00 0.01 4680335 3851478 0.82 4.63 1.40 0.82 (nbgoodclauses,nbtotalgood,precisionGood,recallGood,FGood,nbbadclause,nbtotalbad,precisionBad,recallBad,FBad,accuracy)
c additional predictionSize 3 6612 831029 0.86 0.01 0.01 4675895 3851478 0.82 4.63 1.40 0.82 (nbgoodclauses,nbtotalgood,precisionGood,recallGood,FGood,nbbadclause,nbtotalbad,precisionBad,recallBad,FBad,accuracy)
c additional predictionSize 4 12358 831029 0.80 0.01 0.02 4670149 3851478 0.82 4.63 1.40 0.82 (nbgoodclauses,nbtotalgood,precisionGood,recallGood,FGood,nbbadclause,nbtotalbad,precisionBad,recallBad,FBad,accuracy)
c additional predictionSize 5 20491 831029 0.77 0.02 0.04 4662016 3851478 0.83 4.63 1.40 0.82 (nbgoodclauses,nbtotalgood,precisionGood,recallGood,FGood,nbbadclause,nbtotalbad,precisionBad,recallBad,FBad,accuracy)
c additional predictionSize 6 35673 831029 0.73 0.03 0.06 4646834 3851478 0.83 4.62 1.40 0.83 (nbgoodclauses,nbtotalgood,precisionGood,recallGood,FGood,nbbadclause,nbtotalbad,precisionBad,recallBad,FBad,accuracy)
c additional predictionSize 7 163729 831029 0.49 0.10 0.16 4518778 3851478 0.83 4.53 1.41 0.82 (nbgoodclauses,nbtotalgood,precisionGood,recallGood,FGood,nbbadclause,nbtotalbad,precisionBad,recallBad,FBad,accuracy)
c additional predictionSize 8 678099 831029 0.35 0.28 0.31 4004408 3851478 0.85 4.10 1.41 0.78 (nbgoodclauses,nbtotalgood,precisionGood,recallGood,FGood,nbbadclause,nbtotalbad,precisionBad,recallBad,FBad,accuracy)
c additional predictionSize 10 1400318 831029 0.30 0.50 0.38 3282189 3851478 0.87 3.45 1.40 0.70 (nbgoodclauses,nbtotalgood,precisionGood,recallGood,FGood,nbbadclause,nbtotalbad,precisionBad,recallBad,FBad,accuracy)
c additional predictionSize 14 2173897 831029 0.29 0.76 0.42 2508610 3851478 0.92 2.78 1.38 0.63 (nbgoodclauses,nbtotalgood,precisionGood,recallGood,FGood,nbbadclause,nbtotalbad,precisionBad,recallBad,FBad,accuracy)
c additional predictionSize 18 2839603 831029 0.25 0.86 0.39 1842904 3851478 0.94 2.08 1.29 0.52 (nbgoodclauses,nbtotalgood,precisionGood,recallGood,FGood,nbbadclause,nbtotalbad,precisionBad,recallBad,FBad,accuracy)
c additional predictionSize 22 3502928 831029 0.22 0.94 0.36 1179579 3851478 0.96 1.36 1.12 0.41 (nbgoodclauses,nbtotalgood,precisionGood,recallGood,FGood,nbbadclause,nbtotalbad,precisionBad,recallBad,FBad,accuracy)
c additional predictionSize 30 4423515 831029 0.19 1.00 0.32 258992 3851478 0.99 0.31 0.47 0.23 (nbgoodclauses,nbtotalgood,precisionGood,recallGood,FGood,nbbadclause,nbtotalbad,precisionBad,recallBad,FBad,accuracy)
c additional predictionSize 40 4605478 831029 0.18 1.00 0.31 77029 3851478 1.00 0.09 0.17 0.19 (nbgoodclauses,nbtotalgood,precisionGood,recallGood,FGood,nbbadclause,nbtotalbad,precisionBad,recallBad,FBad,accuracy)
c additional predictionAge 1 849592 831029 0.24 0.24 0.24 3832915 3851478 0.84 3.86 1.37 0.73 (nbgoodclauses,nbtotalgood,precisionGood,recallGood,FGood,nbbadclause,nbtotalbad,precisionBad,recallBad,FBad,accuracy)
c additional predictionAge 10 1175482 831029 0.22 0.31 0.26 3507025 3851478 0.84 3.53 1.35 0.68 (nbgoodclauses,nbtotalgood,precisionGood,recallGood,FGood,nbbadclause,nbtotalbad,precisionBad,recallBad,FBad,accuracy)
c additional predictionAge 25 1356460 831029 0.21 0.34 0.26 3326047 3851478 0.84 3.35 1.34 0.65 (nbgoodclauses,nbtotalgood,precisionGood,recallGood,FGood,nbbadclause,nbtotalbad,precisionBad,recallBad,FBad,accuracy)
c additional predictionAge 50 1416624 831029 0.21 0.35 0.26 3265883 3851478 0.84 3.28 1.33 0.64 (nbgoodclauses,nbtotalgood,precisionGood,recallGood,FGood,nbbadclause,nbtotalbad,precisionBad,recallBad,FBad,accuracy)
c additional predictionAge 100 1461904 831029 0.20 0.36 0.26 3220603 3851478 0.83 3.23 1.33 0.64 (nbgoodclauses,nbtotalgood,precisionGood,recallGood,FGood,nbbadclause,nbtotalbad,precisionBad,recallBad,FBad,accuracy)
c additional predictionAge 250 1559675 831029 0.20 0.37 0.26 3122832 3851478 0.83 3.13 1.32 0.62 (nbgoodclauses,nbtotalgood,precisionGood,recallGood,FGood,nbbadclause,nbtotalbad,precisionBad,recallBad,FBad,accuracy)
c additional predictionAge 500 1683828 831029 0.19 0.39 0.26 2998679 3851478 0.83 3.00 1.30 0.60 (nbgoodclauses,nbtotalgood,precisionGood,recallGood,FGood,nbbadclause,nbtotalbad,precisionBad,recallBad,FBad,accuracy)
c additional predictionAge 1000 1800201 831029 0.19 0.42 0.26 2882306 3851478 0.83 2.89 1.29 0.59 (nbgoodclauses,nbtotalgood,precisionGood,recallGood,FGood,nbbadclause,nbtotalbad,precisionBad,recallBad,FBad,accuracy)
c additional predictionAge 2500 1908294 831029 0.19 0.45 0.27 2774213 3851478 0.83 2.79 1.28 0.57 (nbgoodclauses,nbtotalgood,precisionGood,recallGood,FGood,nbbadclause,nbtotalbad,precisionBad,recallBad,FBad,accuracy)
c additional predictionAge 5000 1972640 831029 0.19 0.46 0.27 2709867 3851478 0.84 2.72 1.28 0.57 (nbgoodclauses,nbtotalgood,precisionGood,recallGood,FGood,nbbadclause,nbtotalbad,precisionBad,recallBad,FBad,accuracy)
c additional predictionAge 10000 2022998 831029 0.19 0.47 0.28 2659509 3851478 0.84 2.67 1.27 0.56 (nbgoodclauses,nbtotalgood,precisionGood,recallGood,FGood,nbbadclause,nbtotalbad,precisionBad,recallBad,FBad,accuracy)
c additional predictionAge 25000 2068169 831029 0.19 0.48 0.28 2614338 3851478 0.84 2.63 1.27 0.55 (nbgoodclauses,nbtotalgood,precisionGood,recallGood,FGood,nbbadclause,nbtotalbad,precisionBad,recallBad,FBad,accuracy)
c additional predictionAge 50000 2116480 831029 0.19 0.49 0.28 2566027 3851478 0.84 2.58 1.26 0.54 (nbgoodclauses,nbtotalgood,precisionGood,recallGood,FGood,nbbadclause,nbtotalbad,precisionBad,recallBad,FBad,accuracy)
c additional predictionAge 100000 2207514 831029 0.19 0.51 0.28 2474993 3851478 0.83 2.48 1.25 0.53 (nbgoodclauses,nbtotalgood,precisionGood,recallGood,FGood,nbbadclause,nbtotalbad,precisionBad,recallBad,FBad,accuracy)
c additional predictionTicks 1 849971 831029 0.24 0.24 0.24 3832536 3851478 0.84 3.86 1.37 0.73 (nbgoodclauses,nbtotalgood,precisionGood,recallGood,FGood,nbbadclause,nbtotalbad,precisionBad,recallBad,FBad,accuracy)
c additional predictionTicks 10 1317566 831029 0.21 0.34 0.26 3364941 3851478 0.84 3.38 1.34 0.66 (nbgoodclauses,nbtotalgood,precisionGood,recallGood,FGood,nbbadclause,nbtotalbad,precisionBad,recallBad,FBad,accuracy)
c additional predictionTicks 25 1682622 831029 0.19 0.39 0.26 2999885 3851478 0.83 3.00 1.30 0.60 (nbgoodclauses,nbtotalgood,precisionGood,recallGood,FGood,nbbadclause,nbtotalbad,precisionBad,recallBad,FBad,accuracy)
c additional predictionTicks 50 1940326 831029 0.19 0.43 0.26 2742181 3851478 0.83 2.73 1.27 0.56 (nbgoodclauses,nbtotalgood,precisionGood,recallGood,FGood,nbbadclause,nbtotalbad,precisionBad,recallBad,FBad,accuracy)
c additional predictionTicks 100 2214835 831029 0.18 0.48 0.26 2467672 3851478 0.82 2.45 1.23 0.52 (nbgoodclauses,nbtotalgood,precisionGood,recallGood,FGood,nbbadclause,nbtotalbad,precisionBad,recallBad,FBad,accuracy)
c additional predictionTicks 250 2628983 831029 0.17 0.55 0.26 2053524 3851478 0.82 2.02 1.17 0.46 (nbgoodclauses,nbtotalgood,precisionGood,recallGood,FGood,nbbadclause,nbtotalbad,precisionBad,recallBad,FBad,accuracy)
c additional predictionTicks 500 2925023 831029 0.18 0.62 0.27 1757484 3851478 0.82 1.73 1.11 0.42 (nbgoodclauses,nbtotalgood,precisionGood,recallGood,FGood,nbbadclause,nbtotalbad,precisionBad,recallBad,FBad,accuracy)
c additional predictionTicks 1000 3141494 831029 0.18 0.68 0.28 1541013 3851478 0.83 1.53 1.07 0.39 (nbgoodclauses,nbtotalgood,precisionGood,recallGood,FGood,nbbadclause,nbtotalbad,precisionBad,recallBad,FBad,accuracy)
c additional predictionTicks 2500 3361667 831029 0.18 0.74 0.29 1320840 3851478 0.84 1.33 1.03 0.37 (nbgoodclauses,nbtotalgood,precisionGood,recallGood,FGood,nbbadclause,nbtotalbad,precisionBad,recallBad,FBad,accuracy)
c additional predictionTicks 5000 3512209 831029 0.18 0.78 0.30 1170298 3851478 0.84 1.19 0.99 0.35 (nbgoodclauses,nbtotalgood,precisionGood,recallGood,FGood,nbbadclause,nbtotalbad,precisionBad,recallBad,FBad,accuracy)
c additional predictionTicks 10000 3637646 831029 0.19 0.81 0.30 1044861 3851478 0.85 1.07 0.95 0.33 (nbgoodclauses,nbtotalgood,precisionGood,recallGood,FGood,nbbadclause,nbtotalbad,precisionBad,recallBad,FBad,accuracy)
c additional predictionTicks 25000 3762595 831029 0.18 0.84 0.30 919912 3851478 0.85 0.94 0.90 0.32 (nbgoodclauses,nbtotalgood,precisionGood,recallGood,FGood,nbbadclause,nbtotalbad,precisionBad,recallBad,FBad,accuracy)
c additional predictionTicks 50000 3891325 831029 0.18 0.86 0.30 791182 3851478 0.85 0.81 0.83 0.30 (nbgoodclauses,nbtotalgood,precisionGood,recallGood,FGood,nbbadclause,nbtotalbad,precisionBad,recallBad,FBad,accuracy)
c additional predictionTicks 100000 4071870 831029 0.18 0.88 0.30 610637 3851478 0.84 0.62 0.71 0.27 (nbgoodclauses,nbtotalgood,precisionGood,recallGood,FGood,nbbadclause,nbtotalbad,precisionBad,recallBad,FBad,accuracy)
c additional lifetimeGood 1 8 8 8 136 222814 1631800 3089618 3737525 4517251 4683119 4683134 (0,1,5,10,25,50,75,90,95,99,100-1,100)
c additional lifetimeBad 1 8 8 8 24 41720 897694 2376456 3143856 4146325 4683176 4683178 (0,1,5,10,25,50,75,90,95,99,100-1,100)
c additional lifetimeBadBad 1 8 8 8 8 48 4016 580647 1643037 3082035 4659055 4659095 (0,1,5,10,25,50,75,90,95,99,100-1,100)
c additional compositionBad 1 2 2 3 4 8 21 35 53 82 593 602 (0,1,5,10,25,50,75,90,95,99,100-1,100)
c additional compositionBadWithGood 0 0 0 0 0 0 2 4 6 12 103 103 (0,1,5,10,25,50,75,90,95,99,100-1,100)
c additional compositionBadWithBad 0 0 0 0 0 1 3 4 5 7 27 28 (0,1,5,10,25,50,75,90,95,99,100-1,100)
c additional compositionBadWithInitial 0 0 1 2 3 6 17 30 46 70 513 528 (0,1,5,10,25,50,75,90,95,99,100-1,100)
c additional compositionGood 1 2 2 2 3 7 20 57 65 75 211 224 (0,1,5,10,25,50,75,90,95,99,100-1,100)
c additional compositionGoodWithGood 0 0 0 0 1 2 5 8 11 15 90 90 (0,1,5,10,25,50,75,90,95,99,100-1,100)
c additional compositionGoodWithInitial 0 0 1 2 2 4 15 49 56 64 138 160 (0,1,5,10,25,50,75,90,95,99,100-1,100)
c additional propagationGood total 17320929 percentiles 0 1 1 1 1 2 4 12 23 123 41651 42903 (0,1,5,10,25,50,75,90,95,99,100-1,100)
c additional propagationBad total 8034026 percentiles 1 1 1 1 1 1 2 3 5 15 12810 16558 (0,1,5,10,25,50,75,90,95,99,100-1,100)
c additional resolutionGood total 6059787 percentiles 0 1 1 1 1 1 3 7 12 44 13062 13120 (0,1,5,10,25,50,75,90,95,99,100-1,100)
c additional resolutionBad total 6587664 percentiles 0 0 1 1 1 1 1 3 4 9 1916 1918 (0,1,5,10,25,50,75,90,95,99,100-1,100)
Computing K-Core for 4900100 clauses...
c building structure for KCore computation.
c the graph has 73900641 edges, maxdegree=602
c we start the KCore with the value 20
c Non directed graph built
K=20,3526673 nodes removed so far
K=21,3586637 nodes removed so far
K=22,3645163 nodes removed so far
K=23,3701814 nodes removed so far
K=24,3757446 nodes removed so far
K=25,3813139 nodes removed so far
K=26,3871497 nodes removed so far
K=27,3930519 nodes removed so far
K=28,3989833 nodes removed so far
K=29,4058175 nodes removed so far
K=30,4129217 nodes removed so far
K=31,4246544 nodes removed so far
K=32,4292316 nodes removed so far
K=33,4341610 nodes removed so far
K=34,4363461 nodes removed so far
K=35,4372829 nodes removed so far
K=36,4382292 nodes removed so far
K=37,4391946 nodes removed so far
K=38,4401887 nodes removed so far
K=39,4412228 nodes removed so far
K=40,4423131 nodes removed so far
K=41,4435064 nodes removed so far
K=42,4448381 nodes removed so far
K=43,4463484 nodes removed so far
K=44,4481239 nodes removed so far
K=45,4501842 nodes removed so far
K=46,4527451 nodes removed so far
K=47,4559433 nodes removed so far
K=48,4596358 nodes removed so far
K=49,4634520 nodes removed so far
K=50,4685600 nodes removed so far
K=51,4723238 nodes removed so far
K=52,4756164 nodes removed so far
K=53,4787501 nodes removed so far
K=54,4809513 nodes removed so far
K=55,4821851 nodes removed so far
K=56,4833207 nodes removed so far
K=57,4840513 nodes removed so far
K=58,4846129 nodes removed so far
K=59,4850353 nodes removed so far
K=60,4854190 nodes removed so far
K=61,4857406 nodes removed so far
K=62,4859666 nodes removed so far
K=63,4861788 nodes removed so far
K=64,4863463 nodes removed so far
K=65,4864919 nodes removed so far
K=66,4866090 nodes removed so far
K=67,4867046 nodes removed so far
K=68,4868002 nodes removed so far
K=69,4868698 nodes removed so far
K=70,4869520 nodes removed so far
K=71,4870539 nodes removed so far
K=72,4871259 nodes removed so far
K=73,4871950 nodes removed so far
K=74,4872740 nodes removed so far
K=75,4873373 nodes removed so far
K=76,4874063 nodes removed so far
K=77,4874715 nodes removed so far
K=78,4875434 nodes removed so far
K=79,4877830 nodes removed so far
K=80,4878943 nodes removed so far
K=81,4880236 nodes removed so far
K=82,4882912 nodes removed so far
K=83,4883327 nodes removed so far
K=84,4883671 nodes removed so far
K=85,4884031 nodes removed so far
K=86,4884424 nodes removed so far
K=87,4884955 nodes removed so far
K=88,4887771 nodes removed so far
K=89,4887954 nodes removed so far
K=90,4888166 nodes removed so far
K=91,4888367 nodes removed so far
K=92,4888508 nodes removed so far
K=93,4888726 nodes removed so far
K=94,4888912 nodes removed so far
K=95,4889081 nodes removed so far
K=96,4889330 nodes removed so far
K=97,4889471 nodes removed so far
K=98,4889673 nodes removed so far
K=99,4889904 nodes removed so far
K=100,4890091 nodes removed so far
K=101,4893589 nodes removed so far
KCore = 101
Building structure for PR...
Computing PR...
Pageranking 4791230 nodes done in 22 iteration. cumulError=5.39492e-11
clause level 1 (Kante=8, Kdesc=32052, core=5):-4770 
clause level 2 (Kante=4, Kdesc=26102, core=6):-4730 
clause level 1 (Kante=9, Kdesc=30102, core=3):-647 
clause level 1 (Kante=8, Kdesc=24298, core=2):-4546 
clause level 31 (Kante=18, Kdesc=3996, core=5):-5970 5056 
clause level 12 (Kante=7, Kdesc=25356, core=1):-3801 
clause level 9 (Kante=28, Kdesc=10872, core=5):-4400 
clause level 2 (Kante=5, Kdesc=22656, core=5):-4751 
clause level 11 (Kante=40, Kdesc=23520, core=2):-4137 
clause level 19 (Kante=52, Kdesc=3370, core=2):-5194 6151 
clause level 37 (Kante=11, Kdesc=3591, core=7):6150 -711 
clause level 15 (Kante=4, Kdesc=5314, core=2):-6138 721 
clause level 1 (Kante=8, Kdesc=15571, core=7):-4715 
clause level 2 (Kante=6, Kdesc=13234, core=7):-4595 
clause level 33 (Kante=6, Kdesc=4646, core=1):711 -194 
clause level 1 (Kante=8, Kdesc=12566, core=6):-4637 
clause level 11 (Kante=15, Kdesc=9994, core=7):-3646 4756 
clause level 82 (Kante=13, Kdesc=3609, core=0):664 -6066 
clause level 43 (Kante=34, Kdesc=3772, core=0):-667 6181 
clause level 8 (Kante=17, Kdesc=4150, core=4):-6207 649 
clause level 27 (Kante=33, Kdesc=4515, core=5):5209 -6414 
clause level 3 (Kante=10, Kdesc=6571, core=3):4431 -4180 
clause level 1 (Kante=6, Kdesc=8158, core=2):4382 -3876 
clause level 1 (Kante=3, Kdesc=11224, core=5):4382 -4513 
clause level 3 (Kante=5, Kdesc=14617, core=5):3855 -3853 
clause level 12 (Kante=16, Kdesc=5346, core=1):719 -203 
clause level 11 (Kante=13, Kdesc=4382, core=4):6207 -649 
clause level 11 (Kante=13, Kdesc=11485, core=3):-3128 -730 
clause level 35 (Kante=53, Kdesc=3355, core=6):5194 -652 
clause level 105 (Kante=79, Kdesc=3344, core=0):4897 -5981 
clause level 55 (Kante=2, Kdesc=3570, core=7):-721 6180 
clause level 2 (Kante=4, Kdesc=12400, core=5):4281 -4272 
clause level 65 (Kante=76, Kdesc=1739, core=1):5182 -193 
clause level 57 (Kante=18, Kdesc=3296, core=4):6183 -665 
clause level 37 (Kante=15, Kdesc=3616, core=4):650 -6205 
clause level 2 (Kante=12, Kdesc=7662, core=2):4461 -4756 3646 
clause level 1 (Kante=3, Kdesc=5177, core=3):-4636 
clause level 2 (Kante=3, Kdesc=8222, core=0):4382 -3875 
clause level 2 (Kante=8, Kdesc=8820, core=3):-4330 3964 
clause level 4 (Kante=4, Kdesc=4131, core=3):-4180 4369 
clause level 20 (Kante=10, Kdesc=4242, core=1):-719 203 
clause level 4 (Kante=6, Kdesc=7097, core=6):4431 -4182 
clause level 6 (Kante=23, Kdesc=5109, core=1):-4382 3891 
clause level 5 (Kante=3, Kdesc=3722, core=1):4368 -4431 
clause level 45 (Kante=10, Kdesc=3033, core=4):668 -5884 
clause level 3 (Kante=14, Kdesc=4487, core=3):4312 -4026 
clause level 3 (Kante=4, Kdesc=5292, core=1):-4382 4339 
clause level 102 (Kante=20, Kdesc=1183, core=6):5203 -6149 
clause level 22 (Kante=2, Kdesc=1080, core=7):-5203 6149 
clause level 10 (Kante=3, Kdesc=9438, core=2):-4398 4522 
clause level 10 (Kante=14, Kdesc=4048, core=1):-4312 670 
clause level 2 (Kante=5, Kdesc=5249, core=2):-4281 4257 
clause level 42 (Kante=19, Kdesc=2689, core=2):-5182 193 
clause level 13 (Kante=6, Kdesc=8698, core=0):4461 3648 -4522 
clause level 6 (Kante=2, Kdesc=4663, core=2):-4281 4238 
clause level 2 (Kante=8, Kdesc=6603, core=3):3961 -3964 
clause level 3 (Kante=8, Kdesc=4912, core=4):-3876 4341 
clause level 3 (Kante=12, Kdesc=4946, core=6):4281 -4099 
clause level 3 (Kante=12, Kdesc=4023, core=5):4312 -4025 
clause level 7 (Kante=6, Kdesc=3947, core=5):-4382 4371 
clause level 30 (Kante=13, Kdesc=1647, core=1):-202 5034 
clause level 4 (Kante=2, Kdesc=4235, core=3):-3961 4440 
clause level 3 (Kante=7, Kdesc=5573, core=3):-4174 4441 
clause level 2 (Kante=3, Kdesc=6976, core=3):4312 3655 -4662 4730 
clause level 2 (Kante=10, Kdesc=4219, core=0):3961 -4174 
clause level 4 (Kante=9, Kdesc=4915, core=7):-3651 4718 4297 
clause level 1 (Kante=3, Kdesc=4502, core=1):-4580 
clause level 6 (Kante=5, Kdesc=2962, core=1):4370 -4281 
clause level 5 (Kante=5, Kdesc=5323, core=6):-3677 4763 
clause level 4 (Kante=3, Kdesc=4000, core=1):-4099 4258 
clause level 5 (Kante=3, Kdesc=3261, core=5):-4182 4369 
clause level 3 (Kante=2, Kdesc=4165, core=6):4382 -4341 
clause level 4 (Kante=2, Kdesc=4543, core=0):4341 -3875 
clause level 2 (Kante=27, Kdesc=5554, core=2):4133 3557 -6028 
clause level 5 (Kante=7, Kdesc=4821, core=3):4281 -4257 3585 
clause level 84 (Kante=59, Kdesc=1594, core=0):-4822 6064 
clause level 1 (Kante=3, Kdesc=3470, core=6):-3475 4639 4330 
clause level 54 (Kante=68, Kdesc=1208, core=6):5168 -6058 
clause level 3 (Kante=6, Kdesc=4301, core=7):4312 -4721 3650 
clause level 1 (Kante=9, Kdesc=3865, core=1):-2754 4230 640 4307 4308 
clause level 93 (Kante=68, Kdesc=1136, core=0):-5211 5830 
clause level 1 (Kante=9, Kdesc=4099, core=2):-3463 3875 4751 4341 4671 
clause level 2 (Kante=4, Kdesc=2545, core=4):4432 3677 -4763 
clause level 2 (Kante=61, Kdesc=5370, core=2):2434 
clause level 1 (Kante=63, Kdesc=5370, core=5):1929 
clause level 1 (Kante=61, Kdesc=5358, core=5):2684 
clause level 1 (Kante=60, Kdesc=5322, core=2):2180 
clause level 2 (Kante=64, Kdesc=5322, core=2):1295 
clause level 1 (Kante=62, Kdesc=5322, core=2):1421 
clause level 1 (Kante=62, Kdesc=5317, core=2):1992 
clause level 1 (Kante=62, Kdesc=5317, core=2):1800 
clause level 1 (Kante=63, Kdesc=5313, core=6):1737 
clause level 1 (Kante=62, Kdesc=5311, core=3):1673 
clause level 1 (Kante=61, Kdesc=5318, core=6):1548 
clause level 1 (Kante=62, Kdesc=5310, core=1):2245 
clause level 1 (Kante=62, Kdesc=5310, core=5):2120 
clause level 1 (Kante=63, Kdesc=5307, core=0):1863 
clause level 1 (Kante=62, Kdesc=5305, core=5):2746 
clause level 1 (Kante=62, Kdesc=5295, core=4):1231 
clause level 1 (Kante=61, Kdesc=5298, core=6):2810 
clause level 1 (Kante=62, Kdesc=5297, core=7):3127 
clause level 1 (Kante=63, Kdesc=5288, core=1):2055 
clause level 3 (Kante=9, Kdesc=2448, core=0):4250 -4133 
clause level 1 (Kante=62, Kdesc=5255, core=3):2934 
clause level 1 (Kante=63, Kdesc=5254, core=3):3000 
clause level 1 (Kante=61, Kdesc=5253, core=0):2307 
clause level 1 (Kante=62, Kdesc=5251, core=5):2497 
clause level 1 (Kante=61, Kdesc=5249, core=5):1610 
clause level 1 (Kante=61, Kdesc=5248, core=0):2559 
clause level 1 (Kante=63, Kdesc=5088, core=0):3191 
clause level 1 (Kante=63, Kdesc=4987, core=2):3064 
clause level 1 (Kante=62, Kdesc=4933, core=4):2369 
clause level 2 (Kante=61, Kdesc=4923, core=5):1486 
clause level 1 (Kante=62, Kdesc=4923, core=5):2622 
clause level 1 (Kante=62, Kdesc=4903, core=7):1357 
clause level 40 (Kante=18, Kdesc=1444, core=7):-6179 5218 
clause level 1 (Kante=61, Kdesc=4742, core=1):2872 
clause level 29 (Kante=76, Kdesc=786, core=6):5212 -6056 -3126 -3063 
clause level 28 (Kante=2, Kdesc=1335, core=1):-5034 202 
clause level 3 (Kante=11, Kdesc=1269, core=6):-640 4137 -638 
clause level 12 (Kante=15, Kdesc=1152, core=3):-4743 4700 
clause level 27 (Kante=65, Kdesc=807, core=5):184 -4937 -3063 -3126 
clause level 262 (Kante=77, Kdesc=1669, core=7):3207 
clause level 23 (Kante=37, Kdesc=877, core=5):5885 -2809 -5166 
clause level 301 (Kante=22, Kdesc=1623, core=6):3200 
clause level 286 (Kante=15, Kdesc=1581, core=5):3228 
clause level 344 (Kante=40, Kdesc=1576, core=0):3221 
clause level 67 (Kante=72, Kdesc=719, core=0):6179 -5218 -3063 -3126 
clause level 12 (Kante=4, Kdesc=891, core=4):-4138 4694 
clause level 299 (Kante=17, Kdesc=1420, core=0):3270 
clause level 263 (Kante=20, Kdesc=1406, core=0):3291 
clause level 347 (Kante=8, Kdesc=1371, core=3):3249 
clause level 338 (Kante=14, Kdesc=1375, core=6):3298 
clause level 288 (Kante=28, Kdesc=1340, core=6):3284 
clause level 281 (Kante=30, Kdesc=1301, core=1):3242 
clause level 309 (Kante=62, Kdesc=1282, core=2):3193 
clause level 399 (Kante=14, Kdesc=1264, core=5):3263 
clause level 2 (Kante=9, Kdesc=1022, core=5):-3922 -4765 3912 
clause level 10 (Kante=70, Kdesc=338, core=0):4432 -5203 6149 -3063 
clause level 3 (Kante=13, Kdesc=650, core=4):-4684 -638 4135 
Found 1108 good successive clauses in order (968 originals, maxlevel=399)
c KCorePR 4900100 101 1108 968 399
c DistanceTo...Unseen 2469927
c DistanceToGoodKCore c   DIST 0: 1108 (+1108) / 1108 (+1108)
c   DIST 1: 485927 (+484819) / 127144 (+126036)
c   DIST 2: 1139622 (+653695) / 305569 (+178425)
c   DIST 3: 1423504 (+283882) / 352159 (+46590)
c   DIST 4: 1596194 (+172690) / 410383 (+58224)
c   DIST 5: 1764884 (+168690) / 504719 (+94336)
c   DIST 6: 1924658 (+159774) / 613345 (+108626)
c   DIST 7: 2064770 (+140112) / 720959 (+107614)
c   DIST 8: 2177279 (+112509) / 814338 (+93379)
c   DIST 9: 2260735 (+83456) / 886685 (+72347)
c   DIST 10: 2318445 (+57710) / 937941 (+51256)
c   DIST 11: 2357512 (+39067) / 973099 (+35158)
c   DIST 12: 2382788 (+25276) / 995940 (+22841)
c   DIST 13: 2399092 (+16304) / 1010636 (+14696)
c   DIST 14: 2409854 (+10762) / 1020246 (+9610)
c   DIST 15: 2417069 (+7215) / 1026574 (+6328)
c   DIST 16: 2421925 (+4856) / 1030709 (+4135)
c   DIST 17: 2425057 (+3132) / 1033297 (+2588)
c   DIST 18: 2427021 (+1964) / 1034883 (+1586)
c   DIST 19: 2428294 (+1273) / 1035878 (+995)
c   DIST 20: 2429154 (+860) / 1036526 (+648)
c   DIST 21: 2429672 (+518) / 1036923 (+397)
c   DIST 22: 2429958 (+286) / 1037135 (+212)
c   DIST 23: 2430106 (+148) / 1037254 (+119)
c   DIST 24: 2430161 (+55) / 1037298 (+44)
c   DIST 25: 2430172 (+11) / 1037309 (+11)
c   DIST 26: 2430173 (+1) / 1037310 (+1)
c TotalDistance=4900100
No graph is dumped
c result of core 2 is UNSAT
c One thread has finished
c Core 2 said it finished
c result of core 3 is UNKNOWN
c result of core 4 is UNKNOWN
c result of core 1 is UNKNOWN
c result of core 0 is UNKNOWN
c result of core 7 is UNKNOWN
c result of core 5 is UNKNOWN
c result of core 6 is UNKNOWN
c restarts              : 916 (638 conflicts in avg)
c blocked restarts      : 3716 (multiple: 384) 
c last block at restart : 916
c nb ReduceDB           : 20
c nb removed Clauses    : 538951
c nb learnts DL2        : 2657
c nb learnts size 2     : 265
c nb learnts size 1     : 12
c conflicts             : 585314         (432 /sec)
c decisions             : 991989         (0.00 % random) (732 /sec)
c propagations          : 24793363       (18301 /sec)
c conflict literals     : 10007718       (3.80 % deleted)
c nb reduced Clauses    : 1246
c CPU time              : 1354.76 s

s INDETERMINATE
