c
c This is glucose-proof 1.0 based on  2.1 --  (thanks to MiniSAT)
c
c EXPERIMENTAL EASY PARALLEL (ROUND ROBIN) VERSION
c
c WARNING: for repeatability, setting FPU to use double precision
c Parallel version 14 solvers created.
c ========================================[ Problem Statistics ]===========================================
c |                                                                                                       |
c |  Number of variables:          7445                                                                   |
c |  Number of clauses:           65852                                                                   |
c |  Parse time:                   0.38 s                                                                 |
c |                                                                                                       |
c ========================================[ MAGIC CONSTANTS ]==============================================
c | Constants are supposed to work well together :-)                                                      |
c | however, if you find better choices, please let us known...                                           |
c |-------------------------------------------------------------------------------------------------------|
c |                                |                                |                                     |
c | - Restarts:                    | - Reduce Clause DB:            | - Minimize Asserting:               |
c |   * LBD Queue    :     50      |   * First     :   4000         |    * size <  30                     |
c |   * Trail  Queue :   5000      |   * Inc       :    300         |    * lbd  <   6                     |
c |   * K            :   0.80      |   * Special   :   1000         |                                     |
c |   * R            :   1.40      |   * Protected :  (lbd)< 30     |                                     |
c |                                |                                |                                     |
c ==================================[ Search Statistics (every  10000 conflicts) ]=========================
c |                                                                                                       |
c |          RESTARTS           |          ORIGINAL         |              LEARNT              | Progress |
c |       NB   Blocked  Avg Cfc |    Vars  Clauses Literals |   Red   Learnts    LBD2  Removed |          |
c =========================================================================================================
c |       36         0      277 |    7436    65852   217663 |     1     8005      148     3497 |  0.121 % |
c |       64        90      312 |    7435    65852   217663 |     3     6964      221    17249 |  0.134 % |
c |       96       163      312 |    7431    65852   217663 |     3    16958      262    17249 |  0.188 % |
c |      112       243      357 |    7424    65852   217663 |     4    17675      287    27654 |  0.282 % |
c |      145       318      344 |    7423    65852   217663 |     5    15835      321    40490 |  0.296 % |
c |      175       408      342 |    7408    65852   217663 |     5    25719      357    40490 |  0.497 % |
c |      200       502      350 |    7408    65852   217663 |     6    21061      403    55454 |  0.497 % |
c |      215       585      372 |    7407    65852   217663 |     6    31061      438    55454 |  0.510 % |
c |      228       676      394 |    7406    65852   217663 |     7    24235      475    73181 |  0.524 % |
c |      251       756      398 |    7403    65852   217663 |     7    34235      516    73181 |  0.564 % |
c |      279       830      394 |    7399    65852   217663 |     8    24722      544    93565 |  0.618 % |
c |      300       923      400 |    7396    65852   217663 |     8    34705      567    93565 |  0.658 % |
c |      319      1012      407 |    7394    65852   217663 |     9    22565      594   116436 |  0.685 % |
c |      341      1098      410 |    7392    65852   217663 |     9    32565      630   116436 |  0.712 % |
c |      356      1187      421 |    7387    65852   217663 |     9    42561      651   116436 |  0.779 % |
c |      378      1263      423 |    7386    65852   217663 |    10    27801      672   141949 |  0.793 % |
c |      395      1363      430 |    7384    65852   217663 |    10    37801      700   141949 |  0.819 % |
c |      427      1424      421 |    7383    65852   217663 |    10    47794      713   141949 |  0.833 % |
c |      448      1522      424 |    7381    65852   217663 |    11    30388      730   170007 |  0.860 % |
c |      463      1612      431 |    7381    65852   217663 |    11    40388      749   170007 |  0.860 % |
c |      489      1696      429 |    7379    65852   217663 |    11    50388      768   170007 |  0.887 % |
c |      504      1795      436 |    7379    65852   217663 |    12    30403      787   200650 |  0.887 % |
c |      525      1895      438 |    7378    65852   217663 |    12    40403      805   200650 |  0.900 % |
c |      548      1976      437 |    7376    65852   217663 |    12    50400      824   200650 |  0.927 % |
c |      569      2042      439 |    7376    65852   217663 |    12    60400      845   200650 |  0.927 % |
c |      578      2135      449 |    7374    65852   217663 |    13    37810      857   233845 |  0.954 % |
c |      603      2209      447 |    7374    65852   217663 |    13    47810      874   233845 |  0.954 % |
c |      620      2306      451 |    7373    65852   217663 |    13    57810      883   233845 |  0.967 % |
c |      634      2385      457 |    7373    65852   217663 |    13    67810      897   233845 |  0.967 % |
c |      652      2461      460 |    7373    65852   217663 |    14    42616      921   269643 |  0.967 % |
c |      662      2561      468 |    7372    65852   217663 |    14    52615      934   269643 |  0.981 % |
c |      687      2646      465 |    7371    65852   217663 |    14    62615      950   269643 |  0.994 % |
c |      717      2714      460 |    7370    65852   217663 |    14    72614      962   269643 |  1.007 % |
c |      731      2810      465 |    7367    65852   217663 |    15    44812      979   308009 |  1.048 % |
c |      753      2896      464 |    7367    65852   217663 |    15    54811      999   308009 |  1.048 % |
c |      786      2980      458 |    7367    65852   217663 |    15    64811     1010   308009 |  1.048 % |
c |      830      3052      445 |    7367    65852   217663 |    15    74811     1017   308009 |  1.048 % |
c |      858      3132      442 |    7367    65852   217663 |    16    44413     1026   348973 |  1.048 % |
c |      874      3239      446 |    7367    65852   217663 |    16    54413     1033   348973 |  1.048 % |
c |      900      3326      444 |    7367    65852   217663 |    16    64413     1044   348973 |  1.048 % |
c |      933      3418      439 |    7362    65852   217663 |    16    74413     1054   348973 |  1.115 % |
c |      979      3485      429 |    7362    65852   217663 |    16    84383     1063   348973 |  1.115 % |
c |      996      3572      431 |    7362    65852   217663 |    17    51397     1075   392601 |  1.115 % |
c |     1031      3644      426 |    7362    65852   217663 |    17    61397     1085   392601 |  1.115 % |
c |     1052      3736      427 |    7362    65852   217663 |    17    71397     1100   392601 |  1.115 % |
c |     1080      3836      425 |    7362    65852   217663 |    17    81397     1111   392601 |  1.115 % |
c |     1107      3940      424 |    7362    65852   217663 |    18    45810     1121   438722 |  1.115 % |
c |     1145      4009      419 |    7362    65852   217663 |    18    55810     1136   438722 |  1.115 % |
c |     1178      4096      415 |    7362    65852   217663 |    18    65810     1151   438722 |  1.115 % |
c |     1217      4180      410 |    7362    65852   217663 |    18    75810     1165   438722 |  1.115 % |
c |     1268      4251      402 |    7361    65852   217663 |    18    85810     1178   438722 |  1.128 % |
c |     1287      4356      404 |    7361    65852   217663 |    18    95810     1191   438722 |  1.128 % |
c |     1308      4426      405 |    7361    65852   217663 |    19    57625     1204   487407 |  1.128 % |
c |     1323      4522      408 |    7361    65852   217663 |    19    67625     1219   487407 |  1.128 % |
c |     1347      4632      408 |    7361    65852   217663 |    19    77625     1230   487407 |  1.128 % |
c |     1387      4720      403 |    7361    65852   217663 |    19    87625     1238   487407 |  1.128 % |
c |     1422      4794      400 |    7361    65852   217663 |    19    97625     1249   487407 |  1.128 % |
c |     1458      4879      397 |    7360    65852   217663 |    20    56818     1259   538728 |  1.142 % |
c |     1489      4966      396 |    7360    65852   217663 |    20    66818     1269   538728 |  1.142 % |
c |     1503      5063      399 |    7360    65852   217663 |    20    76818     1280   538728 |  1.142 % |
c |     1518      5143      401 |    7360    65852   217663 |    20    86818     1295   538728 |  1.142 % |
c |     1548      5256      400 |    7360    65852   217663 |    20    96818     1310   538728 |  1.142 % |
c |     1571      5350      401 |    7360    65852   217663 |    20   106818     1318   538728 |  1.142 % |
c |     1581      5443      404 |    7360    65852   217663 |    21    63423     1329   592619 |  1.142 % |
c |     1597      5548      407 |    7360    65852   217663 |    21    73423     1336   592619 |  1.142 % |
c |     1616      5648      408 |    7360    65852   217663 |    21    83423     1350   592619 |  1.142 % |
c |     1634      5752      410 |    7360    65852   217663 |    21    93423     1358   592619 |  1.142 % |
c |     1664      5838      408 |    7360    65852   217663 |    21   103423     1367   592619 |  1.142 % |
c |     1686      5938      409 |    7358    65852   217663 |    22    57416     1378   649159 |  1.169 % |
c |     1706      6014      410 |    7358    65852   217663 |    22    67416     1389   649159 |  1.169 % |
c |     1722      6113      412 |    7358    65852   217663 |    22    77416     1399   649159 |  1.169 % |
c |     1726      6200      417 |    7358    65852   217663 |    22    87416     1410   649159 |  1.169 % |
c |     1745      6312      418 |    7358    65852   217663 |    22    97416     1420   649159 |  1.169 % |
c |     1765      6403      419 |    7358    65852   217663 |    22   107416     1434   649159 |  1.169 % |
c |     1783      6492      420 |    7358    65852   217663 |    23    58816     1445   708300 |  1.169 % |
c |     1793      6609      423 |    7356    65852   217663 |    23    68815     1449   708300 |  1.195 % |
c |     1809      6706      425 |    7349    65852   217663 |    23    77328     1455   708300 |  1.289 % |
c |     1812      6805      430 |    7349    65852   217663 |    23    87328     1465   708300 |  1.289 % |
c |     1830      6912      431 |    7349    65852   217663 |    23    97328     1478   708300 |  1.289 % |
c |     1838      7025      435 |    7349    65852   217663 |    23   107328     1492   708300 |  1.289 % |
c |     1851      7117      437 |    7348    65852   217663 |    23   117328     1515   708300 |  1.303 % |
c |     1863      7231      440 |    7348    65852   217663 |    24    66874     1523   769264 |  1.303 % |
c |     1869      7343      444 |    7348    65852   217663 |    24    76874     1537   769264 |  1.303 % |
c |     1872      7456      448 |    7348    65852   217663 |    24    86874     1549   769264 |  1.303 % |
c |     1876      7548      453 |    7348    65852   217663 |    24    96874     1567   769264 |  1.303 % |
c |     1887      7654      455 |    7348    65852   217663 |    24   106874     1579   769264 |  1.303 % |
c |     1907      7764      456 |    7348    65852   217663 |    24   116874     1589   769264 |  1.303 % |
c |     1924      7855      457 |    7348    65852   217663 |    24   126874     1602   769264 |  1.303 % |
c |     1935      7968      459 |    7348    65852   217663 |    25    73447     1611   833191 |  1.303 % |
c |     1938      8062      464 |    7348    65852   217663 |    25    83447     1622   833191 |  1.303 % |
c |     1942      8196      468 |    7348    65852   217663 |    25    93447     1629   833191 |  1.303 % |
c |     1951      8303      471 |    7348    65852   217663 |    25   103447     1643   833191 |  1.303 % |
c |     1959      8415      474 |    7342    65852   217663 |    25   100449     1662   833191 |  1.383 % |
c |     1967      8537      477 |    7338    65852   217663 |    25   110449     1679   833191 |  1.437 % |
c |     1969      8646      482 |    7326    65852   217663 |    26    57670     1693   890423 |  1.599 % |
c empty clause found by core 12 at conflict 956683
*
c checking the resolution graph...