c
c This is glucose-proof 1.0 based on  2.1 --  (thanks to MiniSAT)
c
c EXPERIMENTAL EASY PARALLEL (ROUND ROBIN) VERSION
c
c WARNING: for repeatability, setting FPU to use double precision
c Parallel version 14 solvers created.
c ========================================[ Problem Statistics ]===========================================
c |                                                                                                       |
c |  Number of variables:          1761                                                                   |
c |  Number of clauses:            6608                                                                   |
c |  Parse time:                   0.03 s                                                                 |
c |                                                                                                       |
c ========================================[ MAGIC CONSTANTS ]==============================================
c | Constants are supposed to work well together :-)                                                      |
c | however, if you find better choices, please let us known...                                           |
c |-------------------------------------------------------------------------------------------------------|
c |                                |                                |                                     |
c | - Restarts:                    | - Reduce Clause DB:            | - Minimize Asserting:               |
c |   * LBD Queue    :     50      |   * First     :   4000         |    * size <  30                     |
c |   * Trail  Queue :   5000      |   * Inc       :    300         |    * lbd  <   6                     |
c |   * K            :   0.80      |   * Special   :   1000         |                                     |
c |   * R            :   1.40      |   * Protected :  (lbd)< 30     |                                     |
c |                                |                                |                                     |
c ==================================[ Search Statistics (every  10000 conflicts) ]=========================
c |                                                                                                       |
c |          RESTARTS           |          ORIGINAL         |              LEARNT              | Progress |
c |       NB   Blocked  Avg Cfc |    Vars  Clauses Literals |   Red   Learnts    LBD2  Removed |          |
c =========================================================================================================
c empty clause found by core 13 at conflict 1474
*
c checking the resolution graph...OK
c All useful bySize 10619 clauses, percentiles 0 2 2 2 2 3 4 7 11 19 31 60 (0,1,5,10,25,50,75,90,95,99,100-1,100)
c All useless bySize 17425 clauses, percentiles 0 0 2 4 7 12 23 70 97 146 226 227 (0,1,5,10,25,50,75,90,95,99,100-1,100)
c ProofOnly useful bySize 4620 clauses, percentiles 0 1 2 2 3 4 7 11 15 23 30 31 (0,1,5,10,25,50,75,90,95,99,100-1,100)
c ProofOnly useless bySize 16016 clauses, percentiles 1 3 4 5 8 13 25 73 99 148 226 227 (0,1,5,10,25,50,75,90,95,99,100-1,100)
c All useful byFinalLBD 10619 clauses, percentiles 0 1 1 2 2 2 3 4 5 8 17 60 (0,1,5,10,25,50,75,90,95,99,100-1,100)
c All useless byFinalLBD 17425 clauses, percentiles 0 0 1 2 4 6 9 17 22 51 80 80 (0,1,5,10,25,50,75,90,95,99,100-1,100)
c ProofOnly useful byFinalLBD 4620 clauses, percentiles 0 1 1 1 2 2 3 5 6 9 15 17 (0,1,5,10,25,50,75,90,95,99,100-1,100)
c ProofOnly useless byFinalLBD 16016 clauses, percentiles 1 1 2 3 4 6 10 17 23 54 80 80 (0,1,5,10,25,50,75,90,95,99,100-1,100)
c All useful byInitialLBD 10619 clauses, percentiles 0 2 2 2 2 3 3 5 6 8 17 60 (0,1,5,10,25,50,75,90,95,99,100-1,100)
c All useless byInitialLBD 17425 clauses, percentiles 0 0 2 3 4 6 10 17 23 54 80 80 (0,1,5,10,25,50,75,90,95,99,100-1,100)
c ProofOnly useful byInitialLBD 4620 clauses, percentiles 0 1 2 2 2 3 4 5 7 10 16 17 (0,1,5,10,25,50,75,90,95,99,100-1,100)
c ProofOnly useless byInitialLBD 16016 clauses, percentiles 1 2 3 4 5 7 10 18 24 55 80 80 (0,1,5,10,25,50,75,90,95,99,100-1,100)
c Literals ProofOnly useful 25882
c Literals ProofOnly useless 407830
c additional windowsGood 1 1 1 1 1 1 1 2 3 4 7 7 (0,1,5,10,25,50,75,90,95,99,100-1,100)
c additional windowsBad 1 1 1 1 2 3 6 10 12 19 41 47 (0,1,5,10,25,50,75,90,95,99,100-1,100)
c additional 1WindowNoDecision 2784 1254 0.45 854 366 0.43 (nbWindowsGood,nbWindowsNoDecisionGood,nbWindowsBad,nbWindowsNoDecisionBad
c additional topclausessize all (10%,5%,1%,top) 12.26 15.63 23.20 60
c additional topclausessize proofonly (10%,5%,1%,top) 13.82 17.21 24.27 60
c additional topclausesinitialLBD all (10%,5%,1%,top) 11.46 14.72 22.37 60
c additional topclausesinitialLBD proofonly (10%,5%,1%,top) 10.91 14.00 21.65 60
c additional topclausesfinalLBD all (10%,5%,1%,top) 9.81 12.72 20.41 60
c additional topclausesfinalLBD proofonly (10%,5%,1%,top) 9.52 12.30 19.88 60
c additional predictionInitialLBD 1 66 4620 0.97 0.01 0.03 20570 16016 0.78 3.47 1.27 0.78 (nbgoodclauses,nbtotalgood,precisionGood,recallGood,FGood,nbbadclause,nbtotalbad,precisionBad,recallBad,FBad,accuracy)
c additional predictionInitialLBD 2 1886 4620 0.85 0.35 0.49 18750 16016 0.84 3.41 1.35 0.84 (nbgoodclauses,nbtotalgood,precisionGood,recallGood,FGood,nbbadclause,nbtotalbad,precisionBad,recallBad,FBad,accuracy)
c additional predictionInitialLBD 3 4439 4620 0.72 0.69 0.70 16197 16016 0.91 3.19 1.42 0.87 (nbgoodclauses,nbtotalgood,precisionGood,recallGood,FGood,nbbadclause,nbtotalbad,precisionBad,recallBad,FBad,accuracy)
c additional predictionInitialLBD 4 7340 4620 0.52 0.83 0.64 13296 16016 0.94 2.71 1.40 0.79 (nbgoodclauses,nbtotalgood,precisionGood,recallGood,FGood,nbbadclause,nbtotalbad,precisionBad,recallBad,FBad,accuracy)
c additional predictionInitialLBD 5 9917 4620 0.42 0.90 0.57 10719 16016 0.96 2.22 1.34 0.70 (nbgoodclauses,nbtotalgood,precisionGood,recallGood,FGood,nbbadclause,nbtotalbad,precisionBad,recallBad,FBad,accuracy)
c additional predictionInitialLBD 6 12120 4620 0.36 0.94 0.52 8516 16016 0.97 1.79 1.26 0.61 (nbgoodclauses,nbtotalgood,precisionGood,recallGood,FGood,nbbadclause,nbtotalbad,precisionBad,recallBad,FBad,accuracy)
c additional predictionInitialLBD 7 13785 4620 0.32 0.96 0.48 6851 16016 0.98 1.45 1.17 0.54 (nbgoodclauses,nbtotalgood,precisionGood,recallGood,FGood,nbbadclause,nbtotalbad,precisionBad,recallBad,FBad,accuracy)
c additional predictionInitialLBD 8 15095 4620 0.30 0.98 0.46 5541 16016 0.98 1.18 1.07 0.48 (nbgoodclauses,nbtotalgood,precisionGood,recallGood,FGood,nbbadclause,nbtotalbad,precisionBad,recallBad,FBad,accuracy)
c additional predictionInitialLBD 10 16843 4620 0.27 0.99 0.43 3793 16016 0.99 0.82 0.90 0.41 (nbgoodclauses,nbtotalgood,precisionGood,recallGood,FGood,nbbadclause,nbtotalbad,precisionBad,recallBad,FBad,accuracy)
c additional predictionInitialLBD 14 18353 4620 0.25 1.00 0.40 2283 16016 1.00 0.49 0.66 0.33 (nbgoodclauses,nbtotalgood,precisionGood,recallGood,FGood,nbbadclause,nbtotalbad,precisionBad,recallBad,FBad,accuracy)
c additional predictionInitialLBD 18 19135 4620 0.24 1.00 0.39 1501 16016 1.00 0.32 0.49 0.30 (nbgoodclauses,nbtotalgood,precisionGood,recallGood,FGood,nbbadclause,nbtotalbad,precisionBad,recallBad,FBad,accuracy)
c additional predictionInitialLBD 22 19689 4620 0.23 1.00 0.38 947 16016 1.00 0.20 0.34 0.27 (nbgoodclauses,nbtotalgood,precisionGood,recallGood,FGood,nbbadclause,nbtotalbad,precisionBad,recallBad,FBad,accuracy)
c additional predictionInitialLBD 30 20190 4620 0.23 1.00 0.37 446 16016 1.00 0.10 0.18 0.25 (nbgoodclauses,nbtotalgood,precisionGood,recallGood,FGood,nbbadclause,nbtotalbad,precisionBad,recallBad,FBad,accuracy)
c additional predictionInitialLBD 40 20386 4620 0.23 1.00 0.37 250 16016 1.00 0.05 0.10 0.24 (nbgoodclauses,nbtotalgood,precisionGood,recallGood,FGood,nbbadclause,nbtotalbad,precisionBad,recallBad,FBad,accuracy)
c additional predictionFinallLBD 1 1231 4620 0.84 0.22 0.36 19405 16016 0.82 0.99 0.89 0.82 (nbgoodclauses,nbtotalgood,precisionGood,recallGood,FGood,nbbadclause,nbtotalbad,precisionBad,recallBad,FBad,accuracy)
c additional predictionFinallLBD 2 3962 4620 0.75 0.64 0.69 16674 16016 0.90 0.94 0.92 0.87 (nbgoodclauses,nbtotalgood,precisionGood,recallGood,FGood,nbbadclause,nbtotalbad,precisionBad,recallBad,FBad,accuracy)
c additional predictionFinallLBD 3 5779 4620 0.64 0.80 0.71 14857 16016 0.94 0.87 0.90 0.85 (nbgoodclauses,nbtotalgood,precisionGood,recallGood,FGood,nbbadclause,nbtotalbad,precisionBad,recallBad,FBad,accuracy)
c additional predictionFinallLBD 4 8603 4620 0.48 0.90 0.63 12033 16016 0.96 0.72 0.82 0.76 (nbgoodclauses,nbtotalgood,precisionGood,recallGood,FGood,nbbadclause,nbtotalbad,precisionBad,recallBad,FBad,accuracy)
c additional predictionFinallLBD 5 10925 4620 0.40 0.94 0.56 9711 16016 0.97 0.59 0.73 0.67 (nbgoodclauses,nbtotalgood,precisionGood,recallGood,FGood,nbbadclause,nbtotalbad,precisionBad,recallBad,FBad,accuracy)
c additional predictionFinallLBD 6 12882 4620 0.35 0.96 0.51 7754 16016 0.98 0.47 0.64 0.58 (nbgoodclauses,nbtotalgood,precisionGood,recallGood,FGood,nbbadclause,nbtotalbad,precisionBad,recallBad,FBad,accuracy)
c additional predictionFinallLBD 7 14344 4620 0.31 0.97 0.47 6292 16016 0.98 0.39 0.55 0.52 (nbgoodclauses,nbtotalgood,precisionGood,recallGood,FGood,nbbadclause,nbtotalbad,precisionBad,recallBad,FBad,accuracy)
c additional predictionFinallLBD 8 15493 4620 0.29 0.99 0.45 5143 16016 0.99 0.32 0.48 0.47 (nbgoodclauses,nbtotalgood,precisionGood,recallGood,FGood,nbbadclause,nbtotalbad,precisionBad,recallBad,FBad,accuracy)
c additional predictionFinallLBD 10 17043 4620 0.27 1.00 0.42 3593 16016 1.00 0.22 0.36 0.40 (nbgoodclauses,nbtotalgood,precisionGood,recallGood,FGood,nbbadclause,nbtotalbad,precisionBad,recallBad,FBad,accuracy)
c additional predictionFinallLBD 14 18485 4620 0.25 1.00 0.40 2151 16016 1.00 0.13 0.24 0.33 (nbgoodclauses,nbtotalgood,precisionGood,recallGood,FGood,nbbadclause,nbtotalbad,precisionBad,recallBad,FBad,accuracy)
c additional predictionFinallLBD 18 19245 4620 0.24 1.00 0.39 1391 16016 1.00 0.09 0.16 0.29 (nbgoodclauses,nbtotalgood,precisionGood,recallGood,FGood,nbbadclause,nbtotalbad,precisionBad,recallBad,FBad,accuracy)
c additional predictionFinallLBD 22 19768 4620 0.23 1.00 0.38 868 16016 1.00 0.05 0.10 0.27 (nbgoodclauses,nbtotalgood,precisionGood,recallGood,FGood,nbbadclause,nbtotalbad,precisionBad,recallBad,FBad,accuracy)
c additional predictionFinallLBD 30 20224 4620 0.23 1.00 0.37 412 16016 1.00 0.03 0.05 0.24 (nbgoodclauses,nbtotalgood,precisionGood,recallGood,FGood,nbbadclause,nbtotalbad,precisionBad,recallBad,FBad,accuracy)
c additional predictionFinallLBD 40 20406 4620 0.23 1.00 0.37 230 16016 1.00 0.01 0.03 0.24 (nbgoodclauses,nbtotalgood,precisionGood,recallGood,FGood,nbbadclause,nbtotalbad,precisionBad,recallBad,FBad,accuracy)
c additional predictionSize 1 66 4620 0.97 0.01 0.03 20570 16016 0.78 3.47 1.27 0.78 (nbgoodclauses,nbtotalgood,precisionGood,recallGood,FGood,nbbadclause,nbtotalbad,precisionBad,recallBad,FBad,accuracy)
c additional predictionSize 2 1135 4620 0.92 0.23 0.36 19501 16016 0.82 3.45 1.32 0.82 (nbgoodclauses,nbtotalgood,precisionGood,recallGood,FGood,nbbadclause,nbtotalbad,precisionBad,recallBad,FBad,accuracy)
c additional predictionSize 3 2242 4620 0.85 0.41 0.56 18394 16016 0.85 3.39 1.36 0.85 (nbgoodclauses,nbtotalgood,precisionGood,recallGood,FGood,nbbadclause,nbtotalbad,precisionBad,recallBad,FBad,accuracy)
c additional predictionSize 4 3581 4620 0.72 0.56 0.63 17055 16016 0.88 3.25 1.39 0.85 (nbgoodclauses,nbtotalgood,precisionGood,recallGood,FGood,nbbadclause,nbtotalbad,precisionBad,recallBad,FBad,accuracy)
c additional predictionSize 5 4729 4620 0.63 0.65 0.64 15907 16016 0.90 3.09 1.39 0.84 (nbgoodclauses,nbtotalgood,precisionGood,recallGood,FGood,nbbadclause,nbtotalbad,precisionBad,recallBad,FBad,accuracy)
c additional predictionSize 6 6056 4620 0.55 0.73 0.63 14580 16016 0.91 2.88 1.39 0.81 (nbgoodclauses,nbtotalgood,precisionGood,recallGood,FGood,nbbadclause,nbtotalbad,precisionBad,recallBad,FBad,accuracy)
c additional predictionSize 7 7185 4620 0.50 0.78 0.61 13451 16016 0.92 2.69 1.38 0.78 (nbgoodclauses,nbtotalgood,precisionGood,recallGood,FGood,nbbadclause,nbtotalbad,precisionBad,recallBad,FBad,accuracy)
c additional predictionSize 8 8342 4620 0.46 0.82 0.59 12294 16016 0.93 2.48 1.36 0.74 (nbgoodclauses,nbtotalgood,precisionGood,recallGood,FGood,nbbadclause,nbtotalbad,precisionBad,recallBad,FBad,accuracy)
c additional predictionSize 10 10272 4620 0.40 0.88 0.55 10364 16016 0.95 2.12 1.31 0.67 (nbgoodclauses,nbtotalgood,precisionGood,recallGood,FGood,nbbadclause,nbtotalbad,precisionBad,recallBad,FBad,accuracy)
c additional predictionSize 14 13071 4620 0.33 0.95 0.49 7565 16016 0.97 1.58 1.20 0.57 (nbgoodclauses,nbtotalgood,precisionGood,recallGood,FGood,nbbadclause,nbtotalbad,precisionBad,recallBad,FBad,accuracy)
c additional predictionSize 18 14947 4620 0.30 0.97 0.46 5689 16016 0.98 1.21 1.08 0.49 (nbgoodclauses,nbtotalgood,precisionGood,recallGood,FGood,nbbadclause,nbtotalbad,precisionBad,recallBad,FBad,accuracy)
c additional predictionSize 22 16137 4620 0.28 0.99 0.44 4499 16016 0.99 0.96 0.98 0.44 (nbgoodclauses,nbtotalgood,precisionGood,recallGood,FGood,nbbadclause,nbtotalbad,precisionBad,recallBad,FBad,accuracy)
c additional predictionSize 30 17421 4620 0.27 1.00 0.42 3215 16016 1.00 0.70 0.82 0.38 (nbgoodclauses,nbtotalgood,precisionGood,recallGood,FGood,nbbadclause,nbtotalbad,precisionBad,recallBad,FBad,accuracy)
c additional predictionSize 40 18046 4620 0.26 1.00 0.41 2590 16016 1.00 0.56 0.72 0.35 (nbgoodclauses,nbtotalgood,precisionGood,recallGood,FGood,nbbadclause,nbtotalbad,precisionBad,recallBad,FBad,accuracy)
c additional predictionAge 1 1579 4620 0.28 0.09 0.14 19057 16016 0.78 3.22 1.26 0.74 (nbgoodclauses,nbtotalgood,precisionGood,recallGood,FGood,nbbadclause,nbtotalbad,precisionBad,recallBad,FBad,accuracy)
c additional predictionAge 10 1607 4620 0.28 0.10 0.14 19029 16016 0.78 3.21 1.26 0.74 (nbgoodclauses,nbtotalgood,precisionGood,recallGood,FGood,nbbadclause,nbtotalbad,precisionBad,recallBad,FBad,accuracy)
c additional predictionAge 25 1840 4620 0.25 0.10 0.14 18796 16016 0.78 3.17 1.25 0.73 (nbgoodclauses,nbtotalgood,precisionGood,recallGood,FGood,nbbadclause,nbtotalbad,precisionBad,recallBad,FBad,accuracy)
c additional predictionAge 50 2100 4620 0.23 0.10 0.14 18536 16016 0.78 3.12 1.24 0.72 (nbgoodclauses,nbtotalgood,precisionGood,recallGood,FGood,nbbadclause,nbtotalbad,precisionBad,recallBad,FBad,accuracy)
c additional predictionAge 100 2356 4620 0.23 0.12 0.15 18280 16016 0.78 3.07 1.24 0.71 (nbgoodclauses,nbtotalgood,precisionGood,recallGood,FGood,nbbadclause,nbtotalbad,precisionBad,recallBad,FBad,accuracy)
c additional predictionAge 250 2773 4620 0.22 0.13 0.17 17863 16016 0.78 3.00 1.23 0.70 (nbgoodclauses,nbtotalgood,precisionGood,recallGood,FGood,nbbadclause,nbtotalbad,precisionBad,recallBad,FBad,accuracy)
c additional predictionAge 500 3294 4620 0.21 0.15 0.18 17342 16016 0.77 2.91 1.22 0.68 (nbgoodclauses,nbtotalgood,precisionGood,recallGood,FGood,nbbadclause,nbtotalbad,precisionBad,recallBad,FBad,accuracy)
c additional predictionAge 1000 4151 4620 0.21 0.19 0.20 16485 16016 0.77 2.75 1.21 0.66 (nbgoodclauses,nbtotalgood,precisionGood,recallGood,FGood,nbbadclause,nbtotalbad,precisionBad,recallBad,FBad,accuracy)
c additional predictionAge 2500 6436 4620 0.22 0.30 0.25 14200 16016 0.77 2.37 1.17 0.60 (nbgoodclauses,nbtotalgood,precisionGood,recallGood,FGood,nbbadclause,nbtotalbad,precisionBad,recallBad,FBad,accuracy)
c additional predictionAge 5000 9686 4620 0.22 0.45 0.29 10950 16016 0.77 1.82 1.08 0.51 (nbgoodclauses,nbtotalgood,precisionGood,recallGood,FGood,nbbadclause,nbtotalbad,precisionBad,recallBad,FBad,accuracy)
c additional predictionAge 10000 14698 4620 0.22 0.70 0.33 5938 16016 0.76 0.98 0.86 0.38 (nbgoodclauses,nbtotalgood,precisionGood,recallGood,FGood,nbbadclause,nbtotalbad,precisionBad,recallBad,FBad,accuracy)
c additional predictionAge 25000 20636 4620 0.22 1.00 0.37 0 16016 -nan 0.00 -nan 0.22 (nbgoodclauses,nbtotalgood,precisionGood,recallGood,FGood,nbbadclause,nbtotalbad,precisionBad,recallBad,FBad,accuracy)
c additional predictionAge 50000 20636 4620 0.22 1.00 0.37 0 16016 -nan 0.00 -nan 0.22 (nbgoodclauses,nbtotalgood,precisionGood,recallGood,FGood,nbbadclause,nbtotalbad,precisionBad,recallBad,FBad,accuracy)
c additional predictionAge 100000 20636 4620 0.22 1.00 0.37 0 16016 -nan 0.00 -nan 0.22 (nbgoodclauses,nbtotalgood,precisionGood,recallGood,FGood,nbbadclause,nbtotalbad,precisionBad,recallBad,FBad,accuracy)
c additional predictionTicks 1 1602 4620 0.27 0.10 0.14 19034 16016 0.78 3.21 1.26 0.74 (nbgoodclauses,nbtotalgood,precisionGood,recallGood,FGood,nbbadclause,nbtotalbad,precisionBad,recallBad,FBad,accuracy)
c additional predictionTicks 10 1803 4620 0.28 0.11 0.16 18833 16016 0.78 3.18 1.25 0.74 (nbgoodclauses,nbtotalgood,precisionGood,recallGood,FGood,nbbadclause,nbtotalbad,precisionBad,recallBad,FBad,accuracy)
c additional predictionTicks 25 3278 4620 0.26 0.18 0.22 17358 16016 0.78 2.94 1.24 0.70 (nbgoodclauses,nbtotalgood,precisionGood,recallGood,FGood,nbbadclause,nbtotalbad,precisionBad,recallBad,FBad,accuracy)
c additional predictionTicks 50 5048 4620 0.26 0.29 0.28 15588 16016 0.79 2.66 1.22 0.66 (nbgoodclauses,nbtotalgood,precisionGood,recallGood,FGood,nbbadclause,nbtotalbad,precisionBad,recallBad,FBad,accuracy)
c additional predictionTicks 100 7177 4620 0.26 0.41 0.32 13459 16016 0.80 2.32 1.19 0.61 (nbgoodclauses,nbtotalgood,precisionGood,recallGood,FGood,nbbadclause,nbtotalbad,precisionBad,recallBad,FBad,accuracy)
c additional predictionTicks 250 10471 4620 0.26 0.59 0.36 10165 16016 0.81 1.79 1.12 0.53 (nbgoodclauses,nbtotalgood,precisionGood,recallGood,FGood,nbbadclause,nbtotalbad,precisionBad,recallBad,FBad,accuracy)
c additional predictionTicks 500 13252 4620 0.25 0.72 0.37 7384 16016 0.82 1.32 1.01 0.46 (nbgoodclauses,nbtotalgood,precisionGood,recallGood,FGood,nbbadclause,nbtotalbad,precisionBad,recallBad,FBad,accuracy)
c additional predictionTicks 1000 16050 4620 0.24 0.85 0.38 4586 16016 0.85 0.84 0.84 0.38 (nbgoodclauses,nbtotalgood,precisionGood,recallGood,FGood,nbbadclause,nbtotalbad,precisionBad,recallBad,FBad,accuracy)
c additional predictionTicks 2500 18643 4620 0.23 0.95 0.38 1993 16016 0.88 0.38 0.53 0.30 (nbgoodclauses,nbtotalgood,precisionGood,recallGood,FGood,nbbadclause,nbtotalbad,precisionBad,recallBad,FBad,accuracy)
c additional predictionTicks 5000 19770 4620 0.23 0.98 0.37 866 16016 0.90 0.17 0.28 0.26 (nbgoodclauses,nbtotalgood,precisionGood,recallGood,FGood,nbbadclause,nbtotalbad,precisionBad,recallBad,FBad,accuracy)
c additional predictionTicks 10000 20416 4620 0.23 1.00 0.37 220 16016 0.91 0.04 0.08 0.23 (nbgoodclauses,nbtotalgood,precisionGood,recallGood,FGood,nbbadclause,nbtotalbad,precisionBad,recallBad,FBad,accuracy)
c additional predictionTicks 25000 20636 4620 0.22 1.00 0.37 0 16016 -nan 0.00 -nan 0.22 (nbgoodclauses,nbtotalgood,precisionGood,recallGood,FGood,nbbadclause,nbtotalbad,precisionBad,recallBad,FBad,accuracy)
c additional predictionTicks 50000 20636 4620 0.22 1.00 0.37 0 16016 -nan 0.00 -nan 0.22 (nbgoodclauses,nbtotalgood,precisionGood,recallGood,FGood,nbbadclause,nbtotalbad,precisionBad,recallBad,FBad,accuracy)
c additional predictionTicks 100000 20636 4620 0.22 1.00 0.37 0 16016 -nan 0.00 -nan 0.22 (nbgoodclauses,nbtotalgood,precisionGood,recallGood,FGood,nbbadclause,nbtotalbad,precisionBad,recallBad,FBad,accuracy)
c additional lifetimeGood 1 14 28 70 725 3611 8428 13570 15823 18994 21405 21407 (0,1,5,10,25,50,75,90,95,99,100-1,100)
c additional lifetimeBad 1 14 14 42 462 2617 6890 11560 14150 18034 21380 21402 (0,1,5,10,25,50,75,90,95,99,100-1,100)
c additional lifetimeBadBad 1 14 14 14 28 112 1107 5828 9583 15675 20538 20953 (0,1,5,10,25,50,75,90,95,99,100-1,100)
c additional compositionBad 1 2 4 5 9 17 35 62 86 155 570 599 (0,1,5,10,25,50,75,90,95,99,100-1,100)
c additional compositionBadWithGood 0 0 0 0 1 2 5 11 16 35 86 95 (0,1,5,10,25,50,75,90,95,99,100-1,100)
c additional compositionBadWithBad 0 0 0 0 0 1 2 4 5 8 20 23 (0,1,5,10,25,50,75,90,95,99,100-1,100)
c additional compositionBadWithInitial 0 0 2 3 7 13 27 49 69 129 561 566 (0,1,5,10,25,50,75,90,95,99,100-1,100)
c additional compositionGood 1 2 3 4 5 10 20 40 56 104 186 198 (0,1,5,10,25,50,75,90,95,99,100-1,100)
c additional compositionGoodWithGood 0 0 0 1 2 3 6 11 15 26 93 98 (0,1,5,10,25,50,75,90,95,99,100-1,100)
c additional compositionGoodWithInitial 0 0 1 2 3 7 15 29 42 77 146 164 (0,1,5,10,25,50,75,90,95,99,100-1,100)
c additional propagationGood total 477826 percentiles 0 1 1 1 3 13 95 374 547 870 1669 1863 (0,1,5,10,25,50,75,90,95,99,100-1,100)
c additional propagationBad total 68870 percentiles 1 1 1 1 1 2 3 6 12 54 607 1012 (0,1,5,10,25,50,75,90,95,99,100-1,100)
c additional resolutionGood total 72999 percentiles 0 0 1 1 2 4 17 44 75 135 250 287 (0,1,5,10,25,50,75,90,95,99,100-1,100)
c additional resolutionBad total 22929 percentiles 0 0 0 0 0 1 2 3 5 10 76 82 (0,1,5,10,25,50,75,90,95,99,100-1,100)
Computing K-Core for 28044 clauses...
c building structure for KCore computation.
c the graph has 525324 edges, maxdegree=599
c we start the KCore with the value 20
c Non directed graph built
K=20,13506 nodes removed so far
K=21,K=22,K=23,K=24,K=25,K=26,K=27,K=28,K=29,K=30,K=31,20706 nodes removed so far
K=32,K=33,K=34,K=35,K=36,K=37,K=38,K=39,K=40,K=41,K=42,K=43,K=44,K=45,K=46,KCore = 46
Building structure for PR...
Computing PR...
Pageranking 21977 nodes done in 15 iteration. cumulError=9.20634e-11
clause level 20 (Kante=25, Kdesc=1102, core=8):-1596 
clause level 29 (Kante=18, Kdesc=960, core=2):-1625 
clause level 18 (Kante=8, Kdesc=965, core=12):-1610 
clause level 26 (Kante=46, Kdesc=955, core=12):281 
clause level 22 (Kante=52, Kdesc=890, core=4):1589 
clause level 25 (Kante=43, Kdesc=715, core=3):1038 
clause level 21 (Kante=6, Kdesc=718, core=9):1626 
clause level 34 (Kante=104, Kdesc=709, core=12):241 
clause level 33 (Kante=92, Kdesc=643, core=10):-1616 
clause level 18 (Kante=31, Kdesc=542, core=6):1606 
clause level 28 (Kante=29, Kdesc=558, core=11):1627 
clause level 31 (Kante=142, Kdesc=501, core=3):508 
clause level 13 (Kante=20, Kdesc=410, core=4):-1604 
clause level 35 (Kante=76, Kdesc=426, core=5):1611 
clause level 25 (Kante=78, Kdesc=265, core=9):1614 
clause level 23 (Kante=20, Kdesc=276, core=8):1601 
clause level 31 (Kante=42, Kdesc=318, core=2):-234 
clause level 46 (Kante=58, Kdesc=312, core=6):787 
clause level 24 (Kante=29, Kdesc=268, core=3):1588 
clause level 36 (Kante=84, Kdesc=278, core=12):1624 
clause level 18 (Kante=38, Kdesc=256, core=12):1488 
clause level 38 (Kante=30, Kdesc=253, core=0):629 
clause level 30 (Kante=55, Kdesc=253, core=11):-64 
clause level 24 (Kante=12, Kdesc=241, core=3):1623 
clause level 33 (Kante=79, Kdesc=183, core=10):-1602 
clause level 27 (Kante=42, Kdesc=189, core=7):864 
clause level 19 (Kante=31, Kdesc=185, core=2):-1598 
clause level 39 (Kante=3, Kdesc=153, core=8):474 
clause level 36 (Kante=78, Kdesc=163, core=3):-1600 
clause level 14 (Kante=10, Kdesc=154, core=7):1607 
clause level 33 (Kante=150, Kdesc=161, core=13):1605 
clause level 24 (Kante=30, Kdesc=152, core=2):1620 
clause level 36 (Kante=19, Kdesc=133, core=13):1590 
clause level 22 (Kante=3, Kdesc=87, core=5):-1612 
clause level 40 (Kante=14, Kdesc=80, core=3):41 
clause level 17 (Kante=4, Kdesc=77, core=7):-1603 
clause level 33 (Kante=22, Kdesc=71, core=2):403 
clause level 39 (Kante=96, Kdesc=71, core=12):-1618 
clause level 29 (Kante=52, Kdesc=69, core=10):-1617 
clause level 32 (Kante=39, Kdesc=66, core=6):-1594 
clause level 20 (Kante=53, Kdesc=64, core=13):-541 
clause level 26 (Kante=65, Kdesc=58, core=0):1622 
clause level 15 (Kante=45, Kdesc=56, core=12):1621 1609 
clause level 36 (Kante=61, Kdesc=57, core=8):-1599 
clause level 17 (Kante=115, Kdesc=54, core=4):-1609 
clause level 47 (Kante=153, Kdesc=5, core=6):967 
clause level 50 (Kante=100, Kdesc=4, core=4):-122 
Found 47 good successive clauses in order (0 originals, maxlevel=50)
c KCorePR 28044 46 47 0 50
c DistanceTo...Unseen 10180
c DistanceToGoodKCore c   DIST 0: 47 (+47) / 47 (+47)
c   DIST 1: 3541 (+3494) / 1915 (+1868)
c   DIST 2: 12605 (+9064) / 8352 (+6437)
c   DIST 3: 15395 (+2790) / 9685 (+1333)
c   DIST 4: 16517 (+1122) / 10133 (+448)
c   DIST 5: 17104 (+587) / 10340 (+207)
c   DIST 6: 17408 (+304) / 10442 (+102)
c   DIST 7: 17597 (+189) / 10506 (+64)
c   DIST 8: 17718 (+121) / 10550 (+44)
c   DIST 9: 17789 (+71) / 10578 (+28)
c   DIST 10: 17824 (+35) / 10596 (+18)
c   DIST 11: 17840 (+16) / 10605 (+9)
c   DIST 12: 17850 (+10) / 10610 (+5)
c   DIST 13: 17858 (+8) / 10614 (+4)
c   DIST 14: 17862 (+4) / 10617 (+3)
c   DIST 15: 17864 (+2) / 10619 (+2)
c TotalDistance=28044
No graph is dumped
c result of core 13 is UNSAT
c One thread has finished
c Core 13 said it finished
c result of core 1 is UNKNOWN
c result of core 2 is UNKNOWN
c result of core 3 is UNKNOWN
c result of core 5 is UNKNOWN
c result of core 0 is UNKNOWN
c result of core 7 is UNKNOWN
c result of core 9 is UNKNOWN
c result of core 10 is UNKNOWN
c result of core 11 is UNKNOWN
c result of core 6 is UNKNOWN
c result of core 12 is UNKNOWN
c result of core 4 is UNKNOWN
c result of core 8 is UNKNOWN
c restarts              : 8 (184 conflicts in avg)
c blocked restarts      : 0 (multiple: 0) 
c last block at restart : 0
c nb ReduceDB           : 0
c nb removed Clauses    : 0
c nb learnts DL2        : 145
c nb learnts size 2     : 95
c nb learnts size 1     : 4
c conflicts             : 1474           (507 /sec)
c decisions             : 5220           (0.00 % random) (1797 /sec)
c propagations          : 279357         (96146 /sec)
c conflict literals     : 27968          (4.01 % deleted)
c nb reduced Clauses    : 31
c CPU time              : 2.90556 s

s INDETERMINATE
