c
c This is glucose-proof 1.0 based on  2.1 --  (thanks to MiniSAT)
c
c EXPERIMENTAL EASY PARALLEL (ROUND ROBIN) VERSION
c
c WARNING: for repeatability, setting FPU to use double precision
c Parallel version 16 solvers created.
c ========================================[ Problem Statistics ]===========================================
c |                                                                                                       |
c |  Number of variables:          1761                                                                   |
c |  Number of clauses:            6608                                                                   |
c |  Parse time:                   0.04 s                                                                 |
c |                                                                                                       |
c ========================================[ MAGIC CONSTANTS ]==============================================
c | Constants are supposed to work well together :-)                                                      |
c | however, if you find better choices, please let us known...                                           |
c |-------------------------------------------------------------------------------------------------------|
c |                                |                                |                                     |
c | - Restarts:                    | - Reduce Clause DB:            | - Minimize Asserting:               |
c |   * LBD Queue    :     50      |   * First     :   4000         |    * size <  30                     |
c |   * Trail  Queue :   5000      |   * Inc       :    300         |    * lbd  <   6                     |
c |   * K            :   0.80      |   * Special   :   1000         |                                     |
c |   * R            :   1.40      |   * Protected :  (lbd)< 30     |                                     |
c |                                |                                |                                     |
c ==================================[ Search Statistics (every  10000 conflicts) ]=========================
c |                                                                                                       |
c |          RESTARTS           |          ORIGINAL         |              LEARNT              | Progress |
c |       NB   Blocked  Avg Cfc |    Vars  Clauses Literals |   Red   Learnts    LBD2  Removed |          |
c =========================================================================================================
c empty clause found by core 9 at conflict 1360
*
c checking the resolution graph...OK
c All useful bySize 10404 clauses, percentiles 0 2 2 2 2 3 4 7 10 20 48 60 (0,1,5,10,25,50,75,90,95,99,100-1,100)
c All useless bySize 18879 clauses, percentiles 0 0 2 4 7 13 24 62 93 150 229 235 (0,1,5,10,25,50,75,90,95,99,100-1,100)
c ProofOnly useful bySize 4439 clauses, percentiles 0 1 2 2 3 4 7 11 15 25 46 48 (0,1,5,10,25,50,75,90,95,99,100-1,100)
c ProofOnly useless bySize 17315 clauses, percentiles 1 3 4 6 8 14 26 68 96 153 229 235 (0,1,5,10,25,50,75,90,95,99,100-1,100)
c All useful byFinalLBD 10404 clauses, percentiles 0 1 1 1 2 2 3 4 5 7 11 60 (0,1,5,10,25,50,75,90,95,99,100-1,100)
c All useless byFinalLBD 18879 clauses, percentiles 0 0 1 2 4 6 10 16 22 40 97 99 (0,1,5,10,25,50,75,90,95,99,100-1,100)
c ProofOnly useful byFinalLBD 4439 clauses, percentiles 0 1 1 1 2 2 3 4 5 7 10 11 (0,1,5,10,25,50,75,90,95,99,100-1,100)
c ProofOnly useless byFinalLBD 17315 clauses, percentiles 1 1 2 3 4 6 10 17 23 41 97 99 (0,1,5,10,25,50,75,90,95,99,100-1,100)
c All useful byInitialLBD 10404 clauses, percentiles 0 2 2 2 2 3 3 4 5 7 12 60 (0,1,5,10,25,50,75,90,95,99,100-1,100)
c All useless byInitialLBD 18879 clauses, percentiles 0 0 2 3 4 7 10 17 23 42 97 99 (0,1,5,10,25,50,75,90,95,99,100-1,100)
c ProofOnly useful byInitialLBD 4439 clauses, percentiles 0 1 2 2 2 3 4 5 6 8 11 12 (0,1,5,10,25,50,75,90,95,99,100-1,100)
c ProofOnly useless byInitialLBD 17315 clauses, percentiles 1 2 3 4 5 7 10 17 23 43 97 99 (0,1,5,10,25,50,75,90,95,99,100-1,100)
c Literals ProofOnly useful 24372
c Literals ProofOnly useless 436815
c additional windowsGood 1 1 1 1 1 1 1 2 3 4 6 7 (0,1,5,10,25,50,75,90,95,99,100-1,100)
c additional windowsBad 1 1 1 1 2 3 7 11 15 23 51 54 (0,1,5,10,25,50,75,90,95,99,100-1,100)
c additional 1WindowNoDecision 2746 1279 0.47 748 297 0.4 (nbWindowsGood,nbWindowsNoDecisionGood,nbWindowsBad,nbWindowsNoDecisionBad
c additional topclausessize all (10%,5%,1%,top) 12.18 16.12 26.43 60
c additional topclausessize proofonly (10%,5%,1%,top) 14.01 18.18 28.54 60
c additional topclausesinitialLBD all (10%,5%,1%,top) 11.33 14.99 25.21 60
c additional topclausesinitialLBD proofonly (10%,5%,1%,top) 10.65 14.11 24.16 60
c additional topclausesfinalLBD all (10%,5%,1%,top) 9.52 12.60 22.35 60
c additional topclausesfinalLBD proofonly (10%,5%,1%,top) 9.16 12.07 21.61 60
c additional predictionInitialLBD 1 67 4439 0.96 0.01 0.03 21687 17315 0.80 3.90 1.33 0.80 (nbgoodclauses,nbtotalgood,precisionGood,recallGood,FGood,nbbadclause,nbtotalbad,precisionBad,recallBad,FBad,accuracy)
c additional predictionInitialLBD 2 1880 4439 0.85 0.36 0.51 19874 17315 0.86 3.84 1.40 0.86 (nbgoodclauses,nbtotalgood,precisionGood,recallGood,FGood,nbbadclause,nbtotalbad,precisionBad,recallBad,FBad,accuracy)
c additional predictionInitialLBD 3 4388 4439 0.72 0.71 0.72 17366 17315 0.93 3.62 1.48 0.88 (nbgoodclauses,nbtotalgood,precisionGood,recallGood,FGood,nbbadclause,nbtotalbad,precisionBad,recallBad,FBad,accuracy)
c additional predictionInitialLBD 4 7133 4439 0.52 0.84 0.65 14621 17315 0.95 3.14 1.46 0.81 (nbgoodclauses,nbtotalgood,precisionGood,recallGood,FGood,nbbadclause,nbtotalbad,precisionBad,recallBad,FBad,accuracy)
c additional predictionInitialLBD 5 9782 4439 0.42 0.92 0.57 11972 17315 0.97 2.62 1.42 0.72 (nbgoodclauses,nbtotalgood,precisionGood,recallGood,FGood,nbbadclause,nbtotalbad,precisionBad,recallBad,FBad,accuracy)
c additional predictionInitialLBD 6 12039 4439 0.35 0.96 0.52 9715 17315 0.98 2.14 1.35 0.63 (nbgoodclauses,nbtotalgood,precisionGood,recallGood,FGood,nbbadclause,nbtotalbad,precisionBad,recallBad,FBad,accuracy)
c additional predictionInitialLBD 7 14001 4439 0.31 0.98 0.47 7753 17315 0.99 1.73 1.26 0.55 (nbgoodclauses,nbtotalgood,precisionGood,recallGood,FGood,nbbadclause,nbtotalbad,precisionBad,recallBad,FBad,accuracy)
c additional predictionInitialLBD 8 15500 4439 0.28 0.99 0.44 6254 17315 0.99 1.40 1.16 0.49 (nbgoodclauses,nbtotalgood,precisionGood,recallGood,FGood,nbbadclause,nbtotalbad,precisionBad,recallBad,FBad,accuracy)
c additional predictionInitialLBD 10 17434 4439 0.25 1.00 0.41 4320 17315 1.00 0.97 0.99 0.40 (nbgoodclauses,nbtotalgood,precisionGood,recallGood,FGood,nbbadclause,nbtotalbad,precisionBad,recallBad,FBad,accuracy)
c additional predictionInitialLBD 14 19286 4439 0.23 1.00 0.37 2468 17315 1.00 0.56 0.71 0.32 (nbgoodclauses,nbtotalgood,precisionGood,recallGood,FGood,nbbadclause,nbtotalbad,precisionBad,recallBad,FBad,accuracy)
c additional predictionInitialLBD 18 20212 4439 0.22 1.00 0.36 1542 17315 1.00 0.35 0.52 0.27 (nbgoodclauses,nbtotalgood,precisionGood,recallGood,FGood,nbbadclause,nbtotalbad,precisionBad,recallBad,FBad,accuracy)
c additional predictionInitialLBD 22 20799 4439 0.21 1.00 0.35 955 17315 1.00 0.22 0.35 0.25 (nbgoodclauses,nbtotalgood,precisionGood,recallGood,FGood,nbbadclause,nbtotalbad,precisionBad,recallBad,FBad,accuracy)
c additional predictionInitialLBD 30 21316 4439 0.21 1.00 0.34 438 17315 1.00 0.10 0.18 0.22 (nbgoodclauses,nbtotalgood,precisionGood,recallGood,FGood,nbbadclause,nbtotalbad,precisionBad,recallBad,FBad,accuracy)
c additional predictionInitialLBD 40 21545 4439 0.21 1.00 0.34 209 17315 1.00 0.05 0.09 0.21 (nbgoodclauses,nbtotalgood,precisionGood,recallGood,FGood,nbbadclause,nbtotalbad,precisionBad,recallBad,FBad,accuracy)
c additional predictionFinallLBD 1 1305 4439 0.84 0.25 0.38 20449 17315 0.84 0.99 0.91 0.84 (nbgoodclauses,nbtotalgood,precisionGood,recallGood,FGood,nbbadclause,nbtotalbad,precisionBad,recallBad,FBad,accuracy)
c additional predictionFinallLBD 2 3975 4439 0.73 0.66 0.69 17779 17315 0.91 0.94 0.93 0.88 (nbgoodclauses,nbtotalgood,precisionGood,recallGood,FGood,nbbadclause,nbtotalbad,precisionBad,recallBad,FBad,accuracy)
c additional predictionFinallLBD 3 5800 4439 0.62 0.81 0.70 15954 17315 0.95 0.87 0.91 0.86 (nbgoodclauses,nbtotalgood,precisionGood,recallGood,FGood,nbbadclause,nbtotalbad,precisionBad,recallBad,FBad,accuracy)
c additional predictionFinallLBD 4 8496 4439 0.48 0.91 0.62 13258 17315 0.97 0.74 0.84 0.78 (nbgoodclauses,nbtotalgood,precisionGood,recallGood,FGood,nbbadclause,nbtotalbad,precisionBad,recallBad,FBad,accuracy)
c additional predictionFinallLBD 5 10955 4439 0.39 0.96 0.55 10799 17315 0.98 0.61 0.75 0.68 (nbgoodclauses,nbtotalgood,precisionGood,recallGood,FGood,nbbadclause,nbtotalbad,precisionBad,recallBad,FBad,accuracy)
c additional predictionFinallLBD 6 13001 4439 0.33 0.98 0.50 8753 17315 0.99 0.50 0.66 0.60 (nbgoodclauses,nbtotalgood,precisionGood,recallGood,FGood,nbbadclause,nbtotalbad,precisionBad,recallBad,FBad,accuracy)
c additional predictionFinallLBD 7 14684 4439 0.30 0.99 0.46 7070 17315 0.99 0.41 0.58 0.53 (nbgoodclauses,nbtotalgood,precisionGood,recallGood,FGood,nbbadclause,nbtotalbad,precisionBad,recallBad,FBad,accuracy)
c additional predictionFinallLBD 8 16006 4439 0.28 1.00 0.43 5748 17315 1.00 0.33 0.50 0.47 (nbgoodclauses,nbtotalgood,precisionGood,recallGood,FGood,nbbadclause,nbtotalbad,precisionBad,recallBad,FBad,accuracy)
c additional predictionFinallLBD 10 17694 4439 0.25 1.00 0.40 4060 17315 1.00 0.23 0.38 0.39 (nbgoodclauses,nbtotalgood,precisionGood,recallGood,FGood,nbbadclause,nbtotalbad,precisionBad,recallBad,FBad,accuracy)
c additional predictionFinallLBD 14 19426 4439 0.23 1.00 0.37 2328 17315 1.00 0.13 0.24 0.31 (nbgoodclauses,nbtotalgood,precisionGood,recallGood,FGood,nbbadclause,nbtotalbad,precisionBad,recallBad,FBad,accuracy)
c additional predictionFinallLBD 18 20303 4439 0.22 1.00 0.36 1451 17315 1.00 0.08 0.15 0.27 (nbgoodclauses,nbtotalgood,precisionGood,recallGood,FGood,nbbadclause,nbtotalbad,precisionBad,recallBad,FBad,accuracy)
c additional predictionFinallLBD 22 20857 4439 0.21 1.00 0.35 897 17315 1.00 0.05 0.10 0.25 (nbgoodclauses,nbtotalgood,precisionGood,recallGood,FGood,nbbadclause,nbtotalbad,precisionBad,recallBad,FBad,accuracy)
c additional predictionFinallLBD 30 21343 4439 0.21 1.00 0.34 411 17315 1.00 0.02 0.05 0.22 (nbgoodclauses,nbtotalgood,precisionGood,recallGood,FGood,nbbadclause,nbtotalbad,precisionBad,recallBad,FBad,accuracy)
c additional predictionFinallLBD 40 21569 4439 0.21 1.00 0.34 185 17315 1.00 0.01 0.02 0.21 (nbgoodclauses,nbtotalgood,precisionGood,recallGood,FGood,nbbadclause,nbtotalbad,precisionBad,recallBad,FBad,accuracy)
c additional predictionSize 1 67 4439 0.96 0.01 0.03 21687 17315 0.80 3.90 1.33 0.80 (nbgoodclauses,nbtotalgood,precisionGood,recallGood,FGood,nbbadclause,nbtotalbad,precisionBad,recallBad,FBad,accuracy)
c additional predictionSize 2 1149 4439 0.92 0.24 0.38 20605 17315 0.84 3.88 1.38 0.84 (nbgoodclauses,nbtotalgood,precisionGood,recallGood,FGood,nbbadclause,nbtotalbad,precisionBad,recallBad,FBad,accuracy)
c additional predictionSize 3 2295 4439 0.86 0.44 0.59 19459 17315 0.87 3.83 1.42 0.87 (nbgoodclauses,nbtotalgood,precisionGood,recallGood,FGood,nbbadclause,nbtotalbad,precisionBad,recallBad,FBad,accuracy)
c additional predictionSize 4 3537 4439 0.73 0.58 0.65 18217 17315 0.90 3.68 1.44 0.87 (nbgoodclauses,nbtotalgood,precisionGood,recallGood,FGood,nbbadclause,nbtotalbad,precisionBad,recallBad,FBad,accuracy)
c additional predictionSize 5 4703 4439 0.64 0.68 0.66 17051 17315 0.92 3.52 1.45 0.86 (nbgoodclauses,nbtotalgood,precisionGood,recallGood,FGood,nbbadclause,nbtotalbad,precisionBad,recallBad,FBad,accuracy)
c additional predictionSize 6 5984 4439 0.55 0.75 0.64 15770 17315 0.93 3.30 1.45 0.83 (nbgoodclauses,nbtotalgood,precisionGood,recallGood,FGood,nbbadclause,nbtotalbad,precisionBad,recallBad,FBad,accuracy)
c additional predictionSize 7 7163 4439 0.50 0.80 0.62 14591 17315 0.94 3.09 1.44 0.79 (nbgoodclauses,nbtotalgood,precisionGood,recallGood,FGood,nbbadclause,nbtotalbad,precisionBad,recallBad,FBad,accuracy)
c additional predictionSize 8 8319 4439 0.45 0.84 0.59 13435 17315 0.95 2.87 1.42 0.76 (nbgoodclauses,nbtotalgood,precisionGood,recallGood,FGood,nbbadclause,nbtotalbad,precisionBad,recallBad,FBad,accuracy)
c additional predictionSize 10 10313 4439 0.39 0.89 0.54 11441 17315 0.96 2.47 1.38 0.69 (nbgoodclauses,nbtotalgood,precisionGood,recallGood,FGood,nbbadclause,nbtotalbad,precisionBad,recallBad,FBad,accuracy)
c additional predictionSize 14 13299 4439 0.32 0.95 0.47 8455 17315 0.97 1.85 1.27 0.57 (nbgoodclauses,nbtotalgood,precisionGood,recallGood,FGood,nbbadclause,nbtotalbad,precisionBad,recallBad,FBad,accuracy)
c additional predictionSize 18 15304 4439 0.28 0.97 0.44 6450 17315 0.98 1.42 1.16 0.49 (nbgoodclauses,nbtotalgood,precisionGood,recallGood,FGood,nbbadclause,nbtotalbad,precisionBad,recallBad,FBad,accuracy)
c additional predictionSize 22 16638 4439 0.26 0.99 0.42 5116 17315 0.99 1.14 1.06 0.43 (nbgoodclauses,nbtotalgood,precisionGood,recallGood,FGood,nbbadclause,nbtotalbad,precisionBad,recallBad,FBad,accuracy)
c additional predictionSize 30 18220 4439 0.24 1.00 0.39 3534 17315 0.99 0.79 0.88 0.36 (nbgoodclauses,nbtotalgood,precisionGood,recallGood,FGood,nbbadclause,nbtotalbad,precisionBad,recallBad,FBad,accuracy)
c additional predictionSize 40 19074 4439 0.23 1.00 0.38 2680 17315 1.00 0.60 0.75 0.33 (nbgoodclauses,nbtotalgood,precisionGood,recallGood,FGood,nbbadclause,nbtotalbad,precisionBad,recallBad,FBad,accuracy)
c additional predictionAge 1 1624 4439 0.26 0.10 0.14 20130 17315 0.80 3.63 1.31 0.76 (nbgoodclauses,nbtotalgood,precisionGood,recallGood,FGood,nbbadclause,nbtotalbad,precisionBad,recallBad,FBad,accuracy)
c additional predictionAge 10 1664 4439 0.26 0.10 0.14 20090 17315 0.80 3.62 1.31 0.76 (nbgoodclauses,nbtotalgood,precisionGood,recallGood,FGood,nbbadclause,nbtotalbad,precisionBad,recallBad,FBad,accuracy)
c additional predictionAge 25 1925 4439 0.23 0.10 0.14 19829 17315 0.80 3.57 1.30 0.75 (nbgoodclauses,nbtotalgood,precisionGood,recallGood,FGood,nbbadclause,nbtotalbad,precisionBad,recallBad,FBad,accuracy)
c additional predictionAge 50 2197 4439 0.22 0.11 0.14 19557 17315 0.80 3.51 1.30 0.74 (nbgoodclauses,nbtotalgood,precisionGood,recallGood,FGood,nbbadclause,nbtotalbad,precisionBad,recallBad,FBad,accuracy)
c additional predictionAge 100 2421 4439 0.21 0.12 0.15 19333 17315 0.80 3.47 1.30 0.73 (nbgoodclauses,nbtotalgood,precisionGood,recallGood,FGood,nbbadclause,nbtotalbad,precisionBad,recallBad,FBad,accuracy)
c additional predictionAge 250 2829 4439 0.21 0.13 0.16 18925 17315 0.80 3.40 1.29 0.72 (nbgoodclauses,nbtotalgood,precisionGood,recallGood,FGood,nbbadclause,nbtotalbad,precisionBad,recallBad,FBad,accuracy)
c additional predictionAge 500 3375 4439 0.20 0.15 0.17 18379 17315 0.80 3.29 1.28 0.70 (nbgoodclauses,nbtotalgood,precisionGood,recallGood,FGood,nbbadclause,nbtotalbad,precisionBad,recallBad,FBad,accuracy)
c additional predictionAge 1000 4231 4439 0.19 0.18 0.19 17523 17315 0.79 3.13 1.27 0.68 (nbgoodclauses,nbtotalgood,precisionGood,recallGood,FGood,nbbadclause,nbtotalbad,precisionBad,recallBad,FBad,accuracy)
c additional predictionAge 2500 6615 4439 0.19 0.28 0.22 15139 17315 0.79 2.69 1.22 0.60 (nbgoodclauses,nbtotalgood,precisionGood,recallGood,FGood,nbbadclause,nbtotalbad,precisionBad,recallBad,FBad,accuracy)
c additional predictionAge 5000 10171 4439 0.19 0.42 0.26 11583 17315 0.78 2.03 1.13 0.50 (nbgoodclauses,nbtotalgood,precisionGood,recallGood,FGood,nbbadclause,nbtotalbad,precisionBad,recallBad,FBad,accuracy)
c additional predictionAge 10000 15585 4439 0.18 0.64 0.29 6169 17315 0.74 1.03 0.87 0.34 (nbgoodclauses,nbtotalgood,precisionGood,recallGood,FGood,nbbadclause,nbtotalbad,precisionBad,recallBad,FBad,accuracy)
c additional predictionAge 25000 21754 4439 0.20 1.00 0.34 0 17315 -nan 0.00 -nan 0.20 (nbgoodclauses,nbtotalgood,precisionGood,recallGood,FGood,nbbadclause,nbtotalbad,precisionBad,recallBad,FBad,accuracy)
c additional predictionAge 50000 21754 4439 0.20 1.00 0.34 0 17315 -nan 0.00 -nan 0.20 (nbgoodclauses,nbtotalgood,precisionGood,recallGood,FGood,nbbadclause,nbtotalbad,precisionBad,recallBad,FBad,accuracy)
c additional predictionAge 100000 21754 4439 0.20 1.00 0.34 0 17315 -nan 0.00 -nan 0.20 (nbgoodclauses,nbtotalgood,precisionGood,recallGood,FGood,nbbadclause,nbtotalbad,precisionBad,recallBad,FBad,accuracy)
c additional predictionTicks 1 1652 4439 0.26 0.10 0.14 20102 17315 0.80 3.63 1.31 0.76 (nbgoodclauses,nbtotalgood,precisionGood,recallGood,FGood,nbbadclause,nbtotalbad,precisionBad,recallBad,FBad,accuracy)
c additional predictionTicks 10 1852 4439 0.26 0.11 0.16 19902 17315 0.80 3.59 1.31 0.76 (nbgoodclauses,nbtotalgood,precisionGood,recallGood,FGood,nbbadclause,nbtotalbad,precisionBad,recallBad,FBad,accuracy)
c additional predictionTicks 25 3381 4439 0.25 0.19 0.22 18373 17315 0.80 3.33 1.30 0.72 (nbgoodclauses,nbtotalgood,precisionGood,recallGood,FGood,nbbadclause,nbtotalbad,precisionBad,recallBad,FBad,accuracy)
c additional predictionTicks 50 5096 4439 0.25 0.29 0.27 16658 17315 0.81 3.04 1.28 0.68 (nbgoodclauses,nbtotalgood,precisionGood,recallGood,FGood,nbbadclause,nbtotalbad,precisionBad,recallBad,FBad,accuracy)
c additional predictionTicks 100 7057 4439 0.24 0.39 0.30 14697 17315 0.82 2.70 1.25 0.63 (nbgoodclauses,nbtotalgood,precisionGood,recallGood,FGood,nbbadclause,nbtotalbad,precisionBad,recallBad,FBad,accuracy)
c additional predictionTicks 250 10705 4439 0.23 0.56 0.33 11049 17315 0.82 2.05 1.18 0.53 (nbgoodclauses,nbtotalgood,precisionGood,recallGood,FGood,nbbadclause,nbtotalbad,precisionBad,recallBad,FBad,accuracy)
c additional predictionTicks 500 13855 4439 0.23 0.71 0.34 7899 17315 0.83 1.49 1.07 0.45 (nbgoodclauses,nbtotalgood,precisionGood,recallGood,FGood,nbbadclause,nbtotalbad,precisionBad,recallBad,FBad,accuracy)
c additional predictionTicks 1000 16914 4439 0.22 0.84 0.35 4840 17315 0.85 0.93 0.89 0.36 (nbgoodclauses,nbtotalgood,precisionGood,recallGood,FGood,nbbadclause,nbtotalbad,precisionBad,recallBad,FBad,accuracy)
c additional predictionTicks 2500 19778 4439 0.21 0.95 0.35 1976 17315 0.89 0.40 0.55 0.28 (nbgoodclauses,nbtotalgood,precisionGood,recallGood,FGood,nbbadclause,nbtotalbad,precisionBad,recallBad,FBad,accuracy)
c additional predictionTicks 5000 20911 4439 0.21 0.98 0.34 843 17315 0.91 0.17 0.29 0.24 (nbgoodclauses,nbtotalgood,precisionGood,recallGood,FGood,nbbadclause,nbtotalbad,precisionBad,recallBad,FBad,accuracy)
c additional predictionTicks 10000 21492 4439 0.21 1.00 0.34 262 17315 0.93 0.05 0.10 0.21 (nbgoodclauses,nbtotalgood,precisionGood,recallGood,FGood,nbbadclause,nbtotalbad,precisionBad,recallBad,FBad,accuracy)
c additional predictionTicks 25000 21754 4439 0.20 1.00 0.34 0 17315 -nan 0.00 -nan 0.20 (nbgoodclauses,nbtotalgood,precisionGood,recallGood,FGood,nbbadclause,nbtotalbad,precisionBad,recallBad,FBad,accuracy)
c additional predictionTicks 50000 21754 4439 0.20 1.00 0.34 0 17315 -nan 0.00 -nan 0.20 (nbgoodclauses,nbtotalgood,precisionGood,recallGood,FGood,nbbadclause,nbtotalbad,precisionBad,recallBad,FBad,accuracy)
c additional predictionTicks 100000 21754 4439 0.20 1.00 0.34 0 17315 -nan 0.00 -nan 0.20 (nbgoodclauses,nbtotalgood,precisionGood,recallGood,FGood,nbbadclause,nbtotalbad,precisionBad,recallBad,FBad,accuracy)
c additional lifetimeGood 1 16 32 80 826 3492 8392 14011 16620 20116 22580 22611 (0,1,5,10,25,50,75,90,95,99,100-1,100)
c additional lifetimeBad 1 16 16 48 446 2246 5745 10583 13666 18656 22551 22571 (0,1,5,10,25,50,75,90,95,99,100-1,100)
c additional lifetimeBadBad 1 16 16 16 32 160 1360 4672 8311 14829 21624 22315 (0,1,5,10,25,50,75,90,95,99,100-1,100)
c additional compositionBad 1 2 4 5 9 17 36 65 88 151 555 570 (0,1,5,10,25,50,75,90,95,99,100-1,100)
c additional compositionBadWithGood 0 0 0 0 1 2 5 10 15 37 86 90 (0,1,5,10,25,50,75,90,95,99,100-1,100)
c additional compositionBadWithBad 0 0 0 0 0 1 2 4 5 9 17 17 (0,1,5,10,25,50,75,90,95,99,100-1,100)
c additional compositionBadWithInitial 0 0 2 3 7 14 28 51 71 125 489 560 (0,1,5,10,25,50,75,90,95,99,100-1,100)
c additional compositionGood 1 2 3 4 5 9 18 38 56 94 175 236 (0,1,5,10,25,50,75,90,95,99,100-1,100)
c additional compositionGoodWithGood 0 0 0 1 2 3 5 11 15 25 70 77 (0,1,5,10,25,50,75,90,95,99,100-1,100)
c additional compositionGoodWithInitial 0 0 1 2 3 7 13 27 40 69 142 189 (0,1,5,10,25,50,75,90,95,99,100-1,100)
c additional propagationGood total 484762 percentiles 0 1 1 1 3 15 117 373 561 894 1891 2090 (0,1,5,10,25,50,75,90,95,99,100-1,100)
c additional propagationBad total 77258 percentiles 1 1 1 1 1 2 3 7 12 53 582 964 (0,1,5,10,25,50,75,90,95,99,100-1,100)
c additional resolutionGood total 75731 percentiles 0 0 1 1 2 5 18 46 77 154 336 376 (0,1,5,10,25,50,75,90,95,99,100-1,100)
c additional resolutionBad total 27175 percentiles 0 0 0 0 0 1 2 3 5 12 61 65 (0,1,5,10,25,50,75,90,95,99,100-1,100)
Computing K-Core for 29283 clauses...
c building structure for KCore computation.
c the graph has 560418 edges, maxdegree=570
c we start the KCore with the value 20
c Non directed graph built
K=20,13924 nodes removed so far
K=21,K=22,K=23,K=24,K=25,K=26,K=27,K=28,K=29,K=30,20247 nodes removed so far
K=31,K=32,K=33,K=34,K=35,K=36,K=37,K=38,K=39,K=40,K=41,K=42,K=43,K=44,K=45,K=46,K=47,K=48,KCore = 48
Building structure for PR...
Computing PR...
Pageranking 23172 nodes done in 16 iteration. cumulError=2.07071e-11
clause level 25 (Kante=96, Kdesc=852, core=14):1589 
clause level 34 (Kante=111, Kdesc=602, core=5):-1600 
clause level 15 (Kante=23, Kdesc=595, core=15):-1604 
clause level 23 (Kante=65, Kdesc=548, core=8):281 
clause level 20 (Kante=55, Kdesc=527, core=7):1626 
clause level 16 (Kante=9, Kdesc=535, core=9):-1612 
clause level 16 (Kante=36, Kdesc=485, core=13):-1596 
clause level 23 (Kante=37, Kdesc=503, core=14):-1608 
clause level 22 (Kante=30, Kdesc=501, core=12):-234 
clause level 19 (Kante=19, Kdesc=484, core=5):1488 
clause level 21 (Kante=14, Kdesc=454, core=12):1622 
clause level 27 (Kante=30, Kdesc=396, core=5):1614 
clause level 12 (Kante=39, Kdesc=376, core=14):1621 
clause level 27 (Kante=87, Kdesc=353, core=15):1624 
clause level 20 (Kante=56, Kdesc=371, core=9):972 
clause level 18 (Kante=102, Kdesc=361, core=4):-1609 
clause level 27 (Kante=76, Kdesc=280, core=10):-1602 
clause level 23 (Kante=15, Kdesc=332, core=0):-319 
clause level 24 (Kante=65, Kdesc=309, core=12):1038 
clause level 30 (Kante=43, Kdesc=281, core=1):403 
clause level 22 (Kante=41, Kdesc=255, core=1):1588 
clause level 29 (Kante=59, Kdesc=275, core=10):-1618 
clause level 30 (Kante=16, Kdesc=253, core=8):41 
clause level 30 (Kante=41, Kdesc=250, core=13):-1592 
clause level 27 (Kante=61, Kdesc=238, core=5):-981 
clause level 23 (Kante=19, Kdesc=213, core=13):1611 
clause level 27 (Kante=76, Kdesc=220, core=6):474 
clause level 23 (Kante=13, Kdesc=221, core=2):1620 
clause level 27 (Kante=15, Kdesc=210, core=5):864 
clause level 21 (Kante=46, Kdesc=186, core=11):1593 
clause level 15 (Kante=9, Kdesc=170, core=2):-1603 
clause level 33 (Kante=19, Kdesc=155, core=0):787 
clause level 26 (Kante=62, Kdesc=150, core=5):-1616 
clause level 23 (Kante=36, Kdesc=143, core=3):-1613 
clause level 19 (Kante=19, Kdesc=141, core=6):-1598 
clause level 16 (Kante=11, Kdesc=138, core=12):1607 
clause level 22 (Kante=45, Kdesc=117, core=11):-541 
clause level 23 (Kante=3, Kdesc=112, core=7):1606 
clause level 27 (Kante=39, Kdesc=113, core=9):1605 
clause level 26 (Kante=61, Kdesc=111, core=1):-1594 
clause level 23 (Kante=64, Kdesc=111, core=3):1623 
clause level 20 (Kante=58, Kdesc=93, core=8):508 
clause level 28 (Kante=34, Kdesc=88, core=15):232 
clause level 34 (Kante=18, Kdesc=62, core=11):1597 
clause level 18 (Kante=4, Kdesc=75, core=13):1615 
clause level 32 (Kante=9, Kdesc=70, core=14):-64 
Found 47 good successive clauses in order (1 originals, maxlevel=34)
c KCorePR 29283 48 47 1 34
c DistanceTo...Unseen 11413
c DistanceToGoodKCore c   DIST 0: 47 (+47) / 47 (+47)
c   DIST 1: 3056 (+3009) / 1655 (+1608)
c   DIST 2: 12027 (+8971) / 8049 (+6394)
c   DIST 3: 14917 (+2890) / 9326 (+1277)
c   DIST 4: 16305 (+1388) / 9837 (+511)
c   DIST 5: 16983 (+678) / 10064 (+227)
c   DIST 6: 17332 (+349) / 10203 (+139)
c   DIST 7: 17537 (+205) / 10295 (+92)
c   DIST 8: 17665 (+128) / 10333 (+38)
c   DIST 9: 17731 (+66) / 10356 (+23)
c   DIST 10: 17774 (+43) / 10377 (+21)
c   DIST 11: 17802 (+28) / 10390 (+13)
c   DIST 12: 17829 (+27) / 10397 (+7)
c   DIST 13: 17852 (+23) / 10403 (+6)
c   DIST 14: 17869 (+17) / 10404 (+1)
c   DIST 15: 17870 (+1) / 10404 (+0)
c TotalDistance=29283
No graph is dumped
c result of core 9 is UNSAT
c One thread has finished
c Core 9 said it finished
c result of core 1 is UNKNOWN
c result of core 5 is UNKNOWN
c result of core 12 is UNKNOWN
c result of core 8 is UNKNOWN
c result of core 10 is UNKNOWN
c result of core 15 is UNKNOWN
c result of core 2 is UNKNOWN
c result of core 13 is UNKNOWN
c result of core 6 is UNKNOWN
c result of core 0 is UNKNOWN
c result of core 14 is UNKNOWN
c result of core 11 is UNKNOWN
c result of core 3 is UNKNOWN
c result of core 4 is UNKNOWN
c result of core 7 is UNKNOWN
c restarts              : 5 (272 conflicts in avg)
c blocked restarts      : 0 (multiple: 0) 
c last block at restart : 0
c nb ReduceDB           : 0
c nb removed Clauses    : 0
c nb learnts DL2        : 115
c nb learnts size 2     : 72
c nb learnts size 1     : 2
c conflicts             : 1360           (447 /sec)
c decisions             : 5141           (0.00 % random) (1690 /sec)
c propagations          : 254079         (83536 /sec)
c conflict literals     : 26203          (3.71 % deleted)
c nb reduced Clauses    : 12
c CPU time              : 3.04154 s

s INDETERMINATE
