c
c This is glucose-proof 1.0 based on  2.1 --  (thanks to MiniSAT)
c
c EXPERIMENTAL EASY PARALLEL (ROUND ROBIN) VERSION
c
c WARNING: for repeatability, setting FPU to use double precision
c Parallel version 2 solvers created.
c ========================================[ Problem Statistics ]===========================================
c |                                                                                                       |
c |  Number of variables:           643                                                                   |
c |  Number of clauses:           59080                                                                   |
c |  Parse time:                   0.05 s                                                                 |
c |                                                                                                       |
c ========================================[ MAGIC CONSTANTS ]==============================================
c | Constants are supposed to work well together :-)                                                      |
c | however, if you find better choices, please let us known...                                           |
c |-------------------------------------------------------------------------------------------------------|
c |                                |                                |                                     |
c | - Restarts:                    | - Reduce Clause DB:            | - Minimize Asserting:               |
c |   * LBD Queue    :     50      |   * First     :   4000         |    * size <  30                     |
c |   * Trail  Queue :   5000      |   * Inc       :    300         |    * lbd  <   6                     |
c |   * K            :   0.80      |   * Special   :   1000         |                                     |
c |   * R            :   1.40      |   * Protected :  (lbd)< 30     |                                     |
c |                                |                                |                                     |
c ==================================[ Search Statistics (every  10000 conflicts) ]=========================
c |                                                                                                       |
c |          RESTARTS           |          ORIGINAL         |              LEARNT              | Progress |
c |       NB   Blocked  Avg Cfc |    Vars  Clauses Literals |   Red   Learnts    LBD2  Removed |          |
c =========================================================================================================
c |        6         0     1666 |     643    59080   231842 |     1     8001       10     1998 |  0.000 % |
c |        9        53     2222 |     643    59080   231842 |     3     6957       11    13042 |  0.002 % |
c |        9       173     3333 |     643    59080   231842 |     3    16957       15    13042 |  0.002 % |
c |        9       292     4444 |     643    59080   231842 |     4    17678       21    22321 |  0.002 % |
c |       15       350     3333 |     643    59080   231842 |     5    15842       36    34157 |  0.002 % |
c |       15       443     4000 |     643    59080   231842 |     5    25842       41    34157 |  0.002 % |
c |       17       553     4117 |     643    59080   231842 |     6    21427       48    48572 |  0.002 % |
c |       19       669     4210 |     643    59080   231842 |     6    31427       54    48572 |  0.032 % |
c |       27       722     3333 |     643    59080   231842 |     7    24419       61    65580 |  0.002 % |
c |       42       840     2380 |     643    59080   231842 |     7    34419       65    65580 |  0.002 % |
c |       43       997     2558 |     643    59080   231842 |     8    24814       68    85187 |  0.002 % |
c |       44      1138     2727 |     643    59080   231842 |     8    34814       75    85187 |  0.002 % |
c |       44      1290     2954 |     643    59080   231842 |     9    22608       81   107394 |  0.003 % |
c |       55      1438     2545 |     643    59080   231842 |     9    32608       88   107394 |  0.003 % |
c |       57      1602     2631 |     643    59080   231842 |     9    42608       96   107394 |  0.003 % |
c |      150      1659     1066 |     643    59080   231842 |    10    27810      103   132192 |  0.000 % |
c |      159      1747     1069 |     643    59080   231842 |    10    37810      110   132192 |  0.002 % |
c |      180      1810     1000 |     643    59080   231842 |    10    47810      115   132192 |  0.024 % |
c |      182      1854     1043 |     643    59080   231842 |    11    30409      116   159594 |  0.000 % |
c |      218      1920      917 |     643    59080   231842 |    11    40409      119   159594 |  0.002 % |
c |      231      2043      909 |     643    59080   231842 |    11    50409      123   159594 |  0.000 % |
c |      245      2182      897 |     643    59080   231842 |    12    30408      124   189600 |  0.028 % |
c |      257      2205      894 |     643    59080   231842 |    12    40408      127   189600 |  0.024 % |
c |      298      2252      805 |     643    59080   231842 |    12    50408      130   189600 |  0.002 % |
c |      325      2366      769 |     643    59080   231842 |    12    60408      136   189600 |  0.002 % |
c |      331      2509      785 |     643    59080   231842 |    13    37809      139   222201 |  0.002 % |
c |      373      2569      723 |     643    59080   231842 |    13    47809      147   222201 |  0.024 % |
c |      390      2624      717 |     643    59080   231842 |    13    57809      149   222201 |  0.002 % |
c |      398      2780      728 |     643    59080   231842 |    13    67809      151   222201 |  0.002 % |
c |      413      2929      726 |     643    59080   231842 |    14    42604      155   257407 |  0.002 % |
c |      425      3077      729 |     643    59080   231842 |    14    52604      160   257407 |  0.002 % |
c |      439      3211      728 |     643    59080   231842 |    14    62604      167   257407 |  0.000 % |
c |      468      3276      705 |     643    59080   231842 |    14    72604      170   257407 |  0.002 % |
c |      480      3399      708 |     643    59080   231842 |    15    44808      175   295208 |  0.002 % |
c |      521      3408      671 |     643    59080   231842 |    15    54808      177   295208 |  0.030 % |
c |      540      3457      666 |     643    59080   231842 |    15    64808      182   295208 |  0.002 % |
c |      596      3508      620 |     643    59080   231842 |    15    74808      184   295208 |  0.002 % |
c |      615      3630      617 |     643    59080   231842 |    16    44406      189   335615 |  0.000 % |
c |      642      3685      607 |     643    59080   231842 |    16    54406      193   335615 |  0.002 % |
c |      653      3833      612 |     643    59080   231842 |    16    64406      195   335615 |  0.002 % |
c |      676      3977      606 |     643    59080   231842 |    16    74406      201   335615 |  0.000 % |
c |      722      4052      581 |     643    59080   231842 |    16    84406      204   335615 |  0.003 % |
c |      759      4106      566 |     643    59080   231842 |    17    51412      208   378617 |  0.002 % |
c |      770      4248      571 |     643    59080   231842 |    17    61412      212   378617 |  0.002 % |
c |      784      4400      573 |     643    59080   231842 |    17    71412      219   378617 |  0.000 % |
c |      797      4550      577 |     643    59080   231842 |    17    81412      228   378617 |  0.002 % |
c |      848      4642      554 |     643    59080   231842 |    18    45809      233   424229 |  0.000 % |
c |      866      4680      554 |     643    59080   231842 |    18    55809      236   424229 |  0.003 % |
c |      877      4820      558 |     643    59080   231842 |    18    65809      243   424229 |  0.002 % |
c |      897      4952      557 |     643    59080   231842 |    18    75809      249   424229 |  0.002 % |
c |      914      5097      557 |     643    59080   231842 |    18    85809      260   424229 |  0.002 % |
c |      947      5235      549 |     643    59080   231842 |    18    95809      263   424229 |  0.003 % |
c |      964      5369      549 |     643    59080   231842 |    19    57606      267   472442 |  0.002 % |
c |     1004      5489      537 |     643    59080   231842 |    19    67606      274   472442 |  0.003 % |
c |     1074      5578      512 |     643    59080   231842 |    19    77606      276   472442 |  0.000 % |
c |     1098      5731      510 |     643    59080   231842 |    19    87606      282   472442 |  0.002 % |
c |     1144      5856      498 |     643    59080   231842 |    19    97606      284   472442 |  0.000 % |
c |     1202      5961      482 |     643    59080   231842 |    20    56805      292   523256 |  0.002 % |
c |     1255      6059      470 |     643    59080   231842 |    20    66805      294   523256 |  0.000 % |
c |     1267      6179      473 |     643    59080   231842 |    20    76805      302   523256 |  0.005 % |
c |     1280      6338      476 |     642    59080   231842 |    20    79855      317   523256 |  0.158 % |
c |     1310      6461      473 |     641    59080   231842 |    20    89854      334   523256 |  0.311 % |
c |     1352      6594      465 |     641    59080   231842 |    20    99854      341   523256 |  0.314 % |
c |     1402      6716      456 |     640    59080   231842 |    21    54427      347   573205 |  0.469 % |
c |     1449      6841      448 |     640    59080   231842 |    21    59752      356   573205 |  0.467 % |
c |     1509      6954      437 |     640    59080   231842 |    21    69752      362   573205 |  0.468 % |
c |     1554      7087      431 |     640    59080   231842 |    21    79752      364   573205 |  0.467 % |
c |     1609      7188      422 |     640    59080   231842 |    21    89752      370   573205 |  0.469 % |
c |     1657      7297      416 |     640    59080   231842 |    22    50577      374   622432 |  0.469 % |
c |     1705      7430      410 |     640    59080   231842 |    22    60577      382   622432 |  0.467 % |
c |     1742      7572      407 |     639    59080   231842 |    22    64632      398   622432 |  0.622 % |
c empty clause found by core 1 at conflict 717491
*
c checking the resolution graph...OK
c All useful bySize 1340210 clauses, percentiles 0 3 8 9 16 27 39 54 77 123 210 230 (0,1,5,10,25,50,75,90,95,99,100-1,100)
c All useless bySize 153866 clauses, percentiles 0 3 3 3 18 31 47 78 103 138 209 210 (0,1,5,10,25,50,75,90,95,99,100-1,100)
c ProofOnly useful bySize 1299747 clauses, percentiles 0 8 8 10 17 28 39 55 79 123 210 230 (0,1,5,10,25,50,75,90,95,99,100-1,100)
c ProofOnly useless bySize 135235 clauses, percentiles 2 8 13 15 23 35 50 83 107 140 209 210 (0,1,5,10,25,50,75,90,95,99,100-1,100)
c All useful byFinalLBD 1340210 clauses, percentiles 0 2 3 5 7 9 12 16 18 23 45 46 (0,1,5,10,25,50,75,90,95,99,100-1,100)
c All useless byFinalLBD 153866 clauses, percentiles 0 3 3 3 9 12 16 20 23 29 98 102 (0,1,5,10,25,50,75,90,95,99,100-1,100)
c ProofOnly useful byFinalLBD 1299747 clauses, percentiles 0 2 4 5 7 9 13 16 18 24 45 46 (0,1,5,10,25,50,75,90,95,99,100-1,100)
c ProofOnly useless byFinalLBD 135235 clauses, percentiles 2 5 7 8 10 13 17 21 23 29 98 102 (0,1,5,10,25,50,75,90,95,99,100-1,100)
c All useful byInitialLBD 1340210 clauses, percentiles 0 3 5 6 8 10 13 17 19 24 46 47 (0,1,5,10,25,50,75,90,95,99,100-1,100)
c All useless byInitialLBD 153866 clauses, percentiles 0 3 3 3 9 13 17 21 23 29 98 102 (0,1,5,10,25,50,75,90,95,99,100-1,100)
c ProofOnly useful byInitialLBD 1299747 clauses, percentiles 0 4 5 6 8 10 13 17 19 24 46 47 (0,1,5,10,25,50,75,90,95,99,100-1,100)
c ProofOnly useless byInitialLBD 135235 clauses, percentiles 2 5 7 8 10 13 17 21 24 30 98 102 (0,1,5,10,25,50,75,90,95,99,100-1,100)
c Literals ProofOnly useful 41927418
c Literals ProofOnly useless 5722953
c additional windowsGood 1 1 1 1 1 1 1 21 69 193 810 826 (0,1,5,10,25,50,75,90,95,99,100-1,100)
c additional windowsBad 1 1 1 1 1 1 1 1 1 3 214 231 (0,1,5,10,25,50,75,90,95,99,100-1,100)
c additional 1WindowNoDecision 93066 55047 0.59 116001 65716 0.57 (nbWindowsGood,nbWindowsNoDecisionGood,nbWindowsBad,nbWindowsNoDecisionBad
c additional topclausessize all (10%,5%,1%,top) 84.85 105.97 137.34 230
c additional topclausessize proofonly (10%,5%,1%,top) 85.31 106.40 137.56 230
c additional topclausesinitialLBD all (10%,5%,1%,top) 73.31 94.04 131.42 230
c additional topclausesinitialLBD proofonly (10%,5%,1%,top) 66.04 85.31 126.79 230
c additional topclausesfinalLBD all (10%,5%,1%,top) 60.85 78.53 122.70 230
c additional topclausesfinalLBD proofonly (10%,5%,1%,top) 57.05 73.45 119.09 230
c additional predictionInitialLBD 1 14 1299747 1.00 0.00 0.00 1434968 135235 0.09 0.10 0.10 0.09 (nbgoodclauses,nbtotalgood,precisionGood,recallGood,FGood,nbbadclause,nbtotalbad,precisionBad,recallBad,FBad,accuracy)
c additional predictionInitialLBD 2 960 1299747 0.99 0.00 0.00 1434022 135235 0.09 0.10 0.10 0.09 (nbgoodclauses,nbtotalgood,precisionGood,recallGood,FGood,nbbadclause,nbtotalbad,precisionBad,recallBad,FBad,accuracy)
c additional predictionInitialLBD 3 6451 1299747 0.99 0.00 0.01 1428531 135235 0.09 0.10 0.10 0.10 (nbgoodclauses,nbtotalgood,precisionGood,recallGood,FGood,nbbadclause,nbtotalbad,precisionBad,recallBad,FBad,accuracy)
c additional predictionInitialLBD 4 23930 1299747 0.99 0.02 0.04 1411052 135235 0.10 0.10 0.10 0.11 (nbgoodclauses,nbtotalgood,precisionGood,recallGood,FGood,nbbadclause,nbtotalbad,precisionBad,recallBad,FBad,accuracy)
c additional predictionInitialLBD 5 68866 1299747 0.98 0.05 0.10 1366116 135235 0.10 0.10 0.10 0.14 (nbgoodclauses,nbtotalgood,precisionGood,recallGood,FGood,nbbadclause,nbtotalbad,precisionBad,recallBad,FBad,accuracy)
c additional predictionInitialLBD 6 159902 1299747 0.97 0.12 0.21 1275080 135235 0.10 0.10 0.10 0.20 (nbgoodclauses,nbtotalgood,precisionGood,recallGood,FGood,nbbadclause,nbtotalbad,precisionBad,recallBad,FBad,accuracy)
c additional predictionInitialLBD 7 298071 1299747 0.96 0.22 0.36 1136911 135235 0.11 0.10 0.10 0.29 (nbgoodclauses,nbtotalgood,precisionGood,recallGood,FGood,nbbadclause,nbtotalbad,precisionBad,recallBad,FBad,accuracy)
c additional predictionInitialLBD 8 445744 1299747 0.96 0.33 0.49 989238 135235 0.12 0.09 0.10 0.38 (nbgoodclauses,nbtotalgood,precisionGood,recallGood,FGood,nbbadclause,nbtotalbad,precisionBad,recallBad,FBad,accuracy)
c additional predictionInitialLBD 10 712077 1299747 0.95 0.52 0.67 722905 135235 0.14 0.08 0.10 0.54 (nbgoodclauses,nbtotalgood,precisionGood,recallGood,FGood,nbbadclause,nbtotalbad,precisionBad,recallBad,FBad,accuracy)
c additional predictionInitialLBD 14 1135758 1299747 0.93 0.81 0.87 299224 135235 0.19 0.04 0.07 0.78 (nbgoodclauses,nbtotalgood,precisionGood,recallGood,FGood,nbbadclause,nbtotalbad,precisionBad,recallBad,FBad,accuracy)
c additional predictionInitialLBD 18 1327941 1299747 0.92 0.94 0.93 107041 135235 0.24 0.02 0.04 0.87 (nbgoodclauses,nbtotalgood,precisionGood,recallGood,FGood,nbbadclause,nbtotalbad,precisionBad,recallBad,FBad,accuracy)
c additional predictionInitialLBD 22 1401365 1299747 0.91 0.98 0.94 33617 135235 0.29 0.01 0.01 0.90 (nbgoodclauses,nbtotalgood,precisionGood,recallGood,FGood,nbbadclause,nbtotalbad,precisionBad,recallBad,FBad,accuracy)
c additional predictionInitialLBD 30 1432263 1299747 0.91 1.00 0.95 2719 135235 0.39 0.00 0.00 0.91 (nbgoodclauses,nbtotalgood,precisionGood,recallGood,FGood,nbbadclause,nbtotalbad,precisionBad,recallBad,FBad,accuracy)
c additional predictionInitialLBD 40 1434822 1299747 0.91 1.00 0.95 160 135235 0.77 0.00 0.00 0.91 (nbgoodclauses,nbtotalgood,precisionGood,recallGood,FGood,nbbadclause,nbtotalbad,precisionBad,recallBad,FBad,accuracy)
c additional predictionFinallLBD 1 4407 1299747 1.00 0.00 0.01 1430575 135235 0.09 1.00 0.17 0.10 (nbgoodclauses,nbtotalgood,precisionGood,recallGood,FGood,nbbadclause,nbtotalbad,precisionBad,recallBad,FBad,accuracy)
c additional predictionFinallLBD 2 19428 1299747 1.00 0.01 0.03 1415554 135235 0.10 1.00 0.17 0.11 (nbgoodclauses,nbtotalgood,precisionGood,recallGood,FGood,nbbadclause,nbtotalbad,precisionBad,recallBad,FBad,accuracy)
c additional predictionFinallLBD 3 47230 1299747 1.00 0.04 0.07 1387752 135235 0.10 1.00 0.18 0.13 (nbgoodclauses,nbtotalgood,precisionGood,recallGood,FGood,nbbadclause,nbtotalbad,precisionBad,recallBad,FBad,accuracy)
c additional predictionFinallLBD 4 90344 1299747 0.99 0.07 0.13 1344638 135235 0.10 1.00 0.18 0.16 (nbgoodclauses,nbtotalgood,precisionGood,recallGood,FGood,nbbadclause,nbtotalbad,precisionBad,recallBad,FBad,accuracy)
c additional predictionFinallLBD 5 163112 1299747 0.99 0.12 0.22 1271870 135235 0.10 0.98 0.19 0.20 (nbgoodclauses,nbtotalgood,precisionGood,recallGood,FGood,nbbadclause,nbtotalbad,precisionBad,recallBad,FBad,accuracy)
c additional predictionFinallLBD 6 275660 1299747 0.98 0.21 0.34 1159322 135235 0.11 0.95 0.20 0.28 (nbgoodclauses,nbtotalgood,precisionGood,recallGood,FGood,nbbadclause,nbtotalbad,precisionBad,recallBad,FBad,accuracy)
c additional predictionFinallLBD 7 413683 1299747 0.97 0.31 0.47 1021299 135235 0.12 0.90 0.21 0.36 (nbgoodclauses,nbtotalgood,precisionGood,recallGood,FGood,nbbadclause,nbtotalbad,precisionBad,recallBad,FBad,accuracy)
c additional predictionFinallLBD 8 552826 1299747 0.96 0.41 0.57 882156 135235 0.13 0.84 0.22 0.45 (nbgoodclauses,nbtotalgood,precisionGood,recallGood,FGood,nbbadclause,nbtotalbad,precisionBad,recallBad,FBad,accuracy)
c additional predictionFinallLBD 10 809205 1299747 0.95 0.59 0.73 625777 135235 0.15 0.71 0.25 0.60 (nbgoodclauses,nbtotalgood,precisionGood,recallGood,FGood,nbbadclause,nbtotalbad,precisionBad,recallBad,FBad,accuracy)
c additional predictionFinallLBD 14 1187150 1299747 0.93 0.85 0.89 247832 135235 0.22 0.39 0.28 0.81 (nbgoodclauses,nbtotalgood,precisionGood,recallGood,FGood,nbbadclause,nbtotalbad,precisionBad,recallBad,FBad,accuracy)
c additional predictionFinallLBD 18 1348784 1299747 0.92 0.95 0.93 86198 135235 0.28 0.18 0.21 0.88 (nbgoodclauses,nbtotalgood,precisionGood,recallGood,FGood,nbbadclause,nbtotalbad,precisionBad,recallBad,FBad,accuracy)
c additional predictionFinallLBD 22 1408286 1299747 0.91 0.99 0.95 26696 135235 0.32 0.06 0.10 0.90 (nbgoodclauses,nbtotalgood,precisionGood,recallGood,FGood,nbbadclause,nbtotalbad,precisionBad,recallBad,FBad,accuracy)
c additional predictionFinallLBD 30 1432830 1299747 0.91 1.00 0.95 2152 135235 0.43 0.01 0.01 0.91 (nbgoodclauses,nbtotalgood,precisionGood,recallGood,FGood,nbbadclause,nbtotalbad,precisionBad,recallBad,FBad,accuracy)
c additional predictionFinallLBD 40 1434836 1299747 0.91 1.00 0.95 146 135235 0.80 0.00 0.00 0.91 (nbgoodclauses,nbtotalgood,precisionGood,recallGood,FGood,nbbadclause,nbtotalbad,precisionBad,recallBad,FBad,accuracy)
c additional predictionSize 1 14 1299747 1.00 0.00 0.00 1434968 135235 0.09 0.10 0.10 0.09 (nbgoodclauses,nbtotalgood,precisionGood,recallGood,FGood,nbbadclause,nbtotalbad,precisionBad,recallBad,FBad,accuracy)
c additional predictionSize 2 144 1299747 0.99 0.00 0.00 1434838 135235 0.09 0.10 0.10 0.09 (nbgoodclauses,nbtotalgood,precisionGood,recallGood,FGood,nbbadclause,nbtotalbad,precisionBad,recallBad,FBad,accuracy)
c additional predictionSize 3 457 1299747 0.99 0.00 0.00 1434525 135235 0.09 0.10 0.10 0.09 (nbgoodclauses,nbtotalgood,precisionGood,recallGood,FGood,nbbadclause,nbtotalbad,precisionBad,recallBad,FBad,accuracy)
c additional predictionSize 4 900 1299747 0.99 0.00 0.00 1434082 135235 0.09 0.10 0.10 0.09 (nbgoodclauses,nbtotalgood,precisionGood,recallGood,FGood,nbbadclause,nbtotalbad,precisionBad,recallBad,FBad,accuracy)
c additional predictionSize 5 1293 1299747 0.99 0.00 0.00 1433689 135235 0.09 0.10 0.10 0.10 (nbgoodclauses,nbtotalgood,precisionGood,recallGood,FGood,nbbadclause,nbtotalbad,precisionBad,recallBad,FBad,accuracy)
c additional predictionSize 6 2196 1299747 0.98 0.00 0.00 1432786 135235 0.09 0.10 0.10 0.10 (nbgoodclauses,nbtotalgood,precisionGood,recallGood,FGood,nbbadclause,nbtotalbad,precisionBad,recallBad,FBad,accuracy)
c additional predictionSize 7 12146 1299747 0.97 0.01 0.02 1422836 135235 0.09 0.10 0.10 0.10 (nbgoodclauses,nbtotalgood,precisionGood,recallGood,FGood,nbbadclause,nbtotalbad,precisionBad,recallBad,FBad,accuracy)
c additional predictionSize 8 84730 1299747 0.97 0.06 0.12 1350252 135235 0.10 0.10 0.10 0.15 (nbgoodclauses,nbtotalgood,precisionGood,recallGood,FGood,nbbadclause,nbtotalbad,precisionBad,recallBad,FBad,accuracy)
c additional predictionSize 10 140606 1299747 0.96 0.10 0.19 1294376 135235 0.10 0.10 0.10 0.19 (nbgoodclauses,nbtotalgood,precisionGood,recallGood,FGood,nbbadclause,nbtotalbad,precisionBad,recallBad,FBad,accuracy)
c additional predictionSize 14 251076 1299747 0.95 0.18 0.31 1183906 135235 0.10 0.10 0.10 0.25 (nbgoodclauses,nbtotalgood,precisionGood,recallGood,FGood,nbbadclause,nbtotalbad,precisionBad,recallBad,FBad,accuracy)
c additional predictionSize 18 374148 1299747 0.95 0.27 0.42 1060834 135235 0.11 0.09 0.10 0.33 (nbgoodclauses,nbtotalgood,precisionGood,recallGood,FGood,nbbadclause,nbtotalbad,precisionBad,recallBad,FBad,accuracy)
c additional predictionSize 22 514209 1299747 0.94 0.37 0.53 920773 135235 0.11 0.08 0.09 0.41 (nbgoodclauses,nbtotalgood,precisionGood,recallGood,FGood,nbbadclause,nbtotalbad,precisionBad,recallBad,FBad,accuracy)
c additional predictionSize 30 788070 1299747 0.93 0.56 0.70 646912 135235 0.12 0.06 0.08 0.57 (nbgoodclauses,nbtotalgood,precisionGood,recallGood,FGood,nbbadclause,nbtotalbad,precisionBad,recallBad,FBad,accuracy)
c additional predictionSize 40 1089351 1299747 0.92 0.77 0.84 345631 135235 0.15 0.04 0.06 0.74 (nbgoodclauses,nbtotalgood,precisionGood,recallGood,FGood,nbbadclause,nbtotalbad,precisionBad,recallBad,FBad,accuracy)
c additional predictionAge 1 88794 1299747 0.92 0.06 0.12 1346188 135235 0.10 0.10 0.10 0.15 (nbgoodclauses,nbtotalgood,precisionGood,recallGood,FGood,nbbadclause,nbtotalbad,precisionBad,recallBad,FBad,accuracy)
c additional predictionAge 10 143948 1299747 0.91 0.10 0.18 1291034 135235 0.09 0.09 0.09 0.18 (nbgoodclauses,nbtotalgood,precisionGood,recallGood,FGood,nbbadclause,nbtotalbad,precisionBad,recallBad,FBad,accuracy)
c additional predictionAge 25 165306 1299747 0.90 0.12 0.20 1269676 135235 0.09 0.09 0.09 0.19 (nbgoodclauses,nbtotalgood,precisionGood,recallGood,FGood,nbbadclause,nbtotalbad,precisionBad,recallBad,FBad,accuracy)
c additional predictionAge 50 181168 1299747 0.90 0.13 0.22 1253814 135235 0.09 0.09 0.09 0.20 (nbgoodclauses,nbtotalgood,precisionGood,recallGood,FGood,nbbadclause,nbtotalbad,precisionBad,recallBad,FBad,accuracy)
c additional predictionAge 100 195147 1299747 0.90 0.14 0.24 1239835 135235 0.09 0.09 0.09 0.20 (nbgoodclauses,nbtotalgood,precisionGood,recallGood,FGood,nbbadclause,nbtotalbad,precisionBad,recallBad,FBad,accuracy)
c additional predictionAge 250 215770 1299747 0.90 0.15 0.26 1219212 135235 0.09 0.09 0.09 0.21 (nbgoodclauses,nbtotalgood,precisionGood,recallGood,FGood,nbbadclause,nbtotalbad,precisionBad,recallBad,FBad,accuracy)
c additional predictionAge 500 234269 1299747 0.90 0.16 0.27 1200713 135235 0.09 0.09 0.09 0.22 (nbgoodclauses,nbtotalgood,precisionGood,recallGood,FGood,nbbadclause,nbtotalbad,precisionBad,recallBad,FBad,accuracy)
c additional predictionAge 1000 256142 1299747 0.90 0.18 0.30 1178840 135235 0.09 0.08 0.09 0.24 (nbgoodclauses,nbtotalgood,precisionGood,recallGood,FGood,nbbadclause,nbtotalbad,precisionBad,recallBad,FBad,accuracy)
c additional predictionAge 2500 290919 1299747 0.90 0.20 0.33 1144063 135235 0.09 0.08 0.09 0.25 (nbgoodclauses,nbtotalgood,precisionGood,recallGood,FGood,nbbadclause,nbtotalbad,precisionBad,recallBad,FBad,accuracy)
c additional predictionAge 5000 320374 1299747 0.89 0.22 0.35 1114608 135235 0.09 0.08 0.08 0.27 (nbgoodclauses,nbtotalgood,precisionGood,recallGood,FGood,nbbadclause,nbtotalbad,precisionBad,recallBad,FBad,accuracy)
c additional predictionAge 10000 354115 1299747 0.90 0.24 0.38 1080867 135235 0.09 0.08 0.08 0.29 (nbgoodclauses,nbtotalgood,precisionGood,recallGood,FGood,nbbadclause,nbtotalbad,precisionBad,recallBad,FBad,accuracy)
c additional predictionAge 25000 401375 1299747 0.90 0.28 0.42 1033607 135235 0.09 0.07 0.08 0.32 (nbgoodclauses,nbtotalgood,precisionGood,recallGood,FGood,nbbadclause,nbtotalbad,precisionBad,recallBad,FBad,accuracy)
c additional predictionAge 50000 444388 1299747 0.90 0.31 0.46 990594 135235 0.09 0.07 0.08 0.34 (nbgoodclauses,nbtotalgood,precisionGood,recallGood,FGood,nbbadclause,nbtotalbad,precisionBad,recallBad,FBad,accuracy)
c additional predictionAge 100000 519409 1299747 0.91 0.36 0.52 915573 135235 0.09 0.07 0.08 0.39 (nbgoodclauses,nbtotalgood,precisionGood,recallGood,FGood,nbbadclause,nbtotalbad,precisionBad,recallBad,FBad,accuracy)
c additional predictionTicks 1 89036 1299747 0.92 0.06 0.12 1345946 135235 0.10 0.10 0.10 0.15 (nbgoodclauses,nbtotalgood,precisionGood,recallGood,FGood,nbbadclause,nbtotalbad,precisionBad,recallBad,FBad,accuracy)
c additional predictionTicks 10 222611 1299747 0.90 0.15 0.26 1212371 135235 0.09 0.09 0.09 0.22 (nbgoodclauses,nbtotalgood,precisionGood,recallGood,FGood,nbbadclause,nbtotalbad,precisionBad,recallBad,FBad,accuracy)
c additional predictionTicks 25 295534 1299747 0.90 0.21 0.33 1139448 135235 0.09 0.08 0.09 0.26 (nbgoodclauses,nbtotalgood,precisionGood,recallGood,FGood,nbbadclause,nbtotalbad,precisionBad,recallBad,FBad,accuracy)
c additional predictionTicks 50 366708 1299747 0.90 0.25 0.40 1068274 135235 0.09 0.08 0.08 0.30 (nbgoodclauses,nbtotalgood,precisionGood,recallGood,FGood,nbbadclause,nbtotalbad,precisionBad,recallBad,FBad,accuracy)
c additional predictionTicks 100 443107 1299747 0.90 0.31 0.46 991875 135235 0.09 0.07 0.08 0.34 (nbgoodclauses,nbtotalgood,precisionGood,recallGood,FGood,nbbadclause,nbtotalbad,precisionBad,recallBad,FBad,accuracy)
c additional predictionTicks 250 556574 1299747 0.90 0.39 0.54 878408 135235 0.09 0.06 0.08 0.41 (nbgoodclauses,nbtotalgood,precisionGood,recallGood,FGood,nbbadclause,nbtotalbad,precisionBad,recallBad,FBad,accuracy)
c additional predictionTicks 500 646973 1299747 0.91 0.45 0.60 788009 135235 0.09 0.06 0.07 0.46 (nbgoodclauses,nbtotalgood,precisionGood,recallGood,FGood,nbbadclause,nbtotalbad,precisionBad,recallBad,FBad,accuracy)
c additional predictionTicks 1000 736005 1299747 0.91 0.51 0.66 698977 135235 0.10 0.05 0.07 0.51 (nbgoodclauses,nbtotalgood,precisionGood,recallGood,FGood,nbbadclause,nbtotalbad,precisionBad,recallBad,FBad,accuracy)
c additional predictionTicks 2500 846532 1299747 0.91 0.59 0.72 588450 135235 0.10 0.04 0.06 0.58 (nbgoodclauses,nbtotalgood,precisionGood,recallGood,FGood,nbbadclause,nbtotalbad,precisionBad,recallBad,FBad,accuracy)
c additional predictionTicks 5000 926136 1299747 0.91 0.65 0.76 508846 135235 0.10 0.04 0.06 0.62 (nbgoodclauses,nbtotalgood,precisionGood,recallGood,FGood,nbbadclause,nbtotalbad,precisionBad,recallBad,FBad,accuracy)
c additional predictionTicks 10000 1007989 1299747 0.91 0.71 0.79 426993 135235 0.10 0.03 0.05 0.67 (nbgoodclauses,nbtotalgood,precisionGood,recallGood,FGood,nbbadclause,nbtotalbad,precisionBad,recallBad,FBad,accuracy)
c additional predictionTicks 25000 1132881 1299747 0.91 0.79 0.85 302101 135235 0.11 0.02 0.04 0.74 (nbgoodclauses,nbtotalgood,precisionGood,recallGood,FGood,nbbadclause,nbtotalbad,precisionBad,recallBad,FBad,accuracy)
c additional predictionTicks 50000 1242001 1299747 0.91 0.87 0.89 192981 135235 0.11 0.02 0.03 0.80 (nbgoodclauses,nbtotalgood,precisionGood,recallGood,FGood,nbbadclause,nbtotalbad,precisionBad,recallBad,FBad,accuracy)
c additional predictionTicks 100000 1343663 1299747 0.91 0.94 0.92 91319 135235 0.11 0.01 0.01 0.86 (nbgoodclauses,nbtotalgood,precisionGood,recallGood,FGood,nbbadclause,nbtotalbad,precisionBad,recallBad,FBad,accuracy)
c additional lifetimeGood 1 2 2 4 78 68060 393334 751998 936886 1185175 1433647 1433753 (0,1,5,10,25,50,75,90,95,99,100-1,100)
c additional lifetimeBad 2 2 2 2 22 52518 341304 672233 852766 1134413 1431289 1433509 (0,1,5,10,25,50,75,90,95,99,100-1,100)
c additional lifetimeBadBad 2 2 2 2 2 4 18 158 698 4124 869410 893285 (0,1,5,10,25,50,75,90,95,99,100-1,100)
c additional compositionBad 1 2 3 4 7 13 24 39 51 85 252 268 (0,1,5,10,25,50,75,90,95,99,100-1,100)
c additional compositionBadWithGood 0 0 0 0 1 2 4 6 9 15 39 42 (0,1,5,10,25,50,75,90,95,99,100-1,100)
c additional compositionBadWithBad 0 0 0 0 0 1 2 3 4 6 16 16 (0,1,5,10,25,50,75,90,95,99,100-1,100)
c additional compositionBadWithInitial 0 0 1 2 4 9 19 33 44 76 243 249 (0,1,5,10,25,50,75,90,95,99,100-1,100)
c additional compositionGood 1 2 3 4 7 14 27 44 56 90 274 294 (0,1,5,10,25,50,75,90,95,99,100-1,100)
c additional compositionGoodWithGood 0 0 0 1 2 3 6 10 13 21 48 49 (0,1,5,10,25,50,75,90,95,99,100-1,100)
c additional compositionGoodWithInitial 0 0 1 2 4 10 21 37 48 79 260 277 (0,1,5,10,25,50,75,90,95,99,100-1,100)
c additional propagationGood total 12021307 percentiles 0 1 1 1 1 1 2 6 15 136 11433 14525 (0,1,5,10,25,50,75,90,95,99,100-1,100)
c additional propagationBad total 211860 percentiles 1 1 1 1 1 1 2 2 3 7 573 578 (0,1,5,10,25,50,75,90,95,99,100-1,100)
c additional resolutionGood total 5979044 percentiles 0 1 1 1 1 1 2 4 10 72 4356 4716 (0,1,5,10,25,50,75,90,95,99,100-1,100)
c additional resolutionBad total 142719 percentiles 0 0 0 0 1 1 1 2 2 5 157 195 (0,1,5,10,25,50,75,90,95,99,100-1,100)
Computing K-Core for 1494076 clauses...
c building structure for KCore computation.
c the graph has 28525593 edges, maxdegree=294
c we start the KCore with the value 20
c Non directed graph built
K=20,922108 nodes removed so far
K=21,955734 nodes removed so far
K=22,986265 nodes removed so far
K=23,1014629 nodes removed so far
K=24,1041368 nodes removed so far
K=25,1066377 nodes removed so far
K=26,1090297 nodes removed so far
K=27,1112804 nodes removed so far
K=28,1134692 nodes removed so far
K=29,1155282 nodes removed so far
K=30,1175300 nodes removed so far
K=31,1194742 nodes removed so far
K=32,1213394 nodes removed so far
K=33,1231347 nodes removed so far
K=34,1248519 nodes removed so far
K=35,1264192 nodes removed so far
K=36,1279353 nodes removed so far
K=37,1293460 nodes removed so far
K=38,1306937 nodes removed so far
K=39,1319238 nodes removed so far
K=40,1330765 nodes removed so far
K=41,1341264 nodes removed so far
K=42,1351138 nodes removed so far
K=43,1360632 nodes removed so far
K=44,1369550 nodes removed so far
K=45,1377831 nodes removed so far
K=46,1385229 nodes removed so far
K=47,1391966 nodes removed so far
K=48,1398351 nodes removed so far
K=49,1404324 nodes removed so far
K=50,1409689 nodes removed so far
K=51,1414754 nodes removed so far
K=52,1419319 nodes removed so far
K=53,1424116 nodes removed so far
K=54,1428830 nodes removed so far
K=55,1433308 nodes removed so far
K=56,1438083 nodes removed so far
K=57,1442447 nodes removed so far
K=58,1446965 nodes removed so far
K=59,1451111 nodes removed so far
K=60,1453601 nodes removed so far
K=61,1455807 nodes removed so far
K=62,1459438 nodes removed so far
K=63,1460623 nodes removed so far
K=64,1461612 nodes removed so far
K=65,1462726 nodes removed so far
K=66,1463645 nodes removed so far
K=67,1464589 nodes removed so far
K=68,1465536 nodes removed so far
K=69,1466306 nodes removed so far
K=70,1466992 nodes removed so far
K=71,1467597 nodes removed so far
K=72,1468269 nodes removed so far
K=73,1468920 nodes removed so far
K=74,1469512 nodes removed so far
K=75,1470014 nodes removed so far
K=76,1470515 nodes removed so far
K=77,1471207 nodes removed so far
K=78,1471691 nodes removed so far
K=79,1472353 nodes removed so far
K=80,1473828 nodes removed so far
K=81,1474165 nodes removed so far
K=82,1474776 nodes removed so far
K=83,1475297 nodes removed so far
K=84,1475600 nodes removed so far
K=85,1475734 nodes removed so far
K=86,1475930 nodes removed so far
K=87,1476140 nodes removed so far
K=88,1476416 nodes removed so far
K=89,1476451 nodes removed so far
K=90,1476480 nodes removed so far
K=91,1476657 nodes removed so far
K=92,1476670 nodes removed so far
K=93,1476678 nodes removed so far
K=94,1476703 nodes removed so far
K=95,1476716 nodes removed so far
K=96,1476743 nodes removed so far
K=97,1477103 nodes removed so far
KCore = 97
Building structure for PR...
Computing PR...
Pageranking 1453471 nodes done in 19 iteration. cumulError=7.28523e-11
clause level 1747 (Kante=259, Kdesc=477, core=0):-552 413 -409 68 88 410 408 407 369 4 561 64 106 6 78 
clause level 2772 (Kante=294, Kdesc=119, core=1):-552 267 253 270 271 531 -92 269 
clause level 2493 (Kante=272, Kdesc=516, core=1):-552 6 267 -59 8 254 251 90 527 252 253 409 331 
clause level 691 (Kante=207, Kdesc=172, core=0):-529 -270 88 11 -312 107 267 531 92 271 269 268 311 539 96 310 64 309 
clause level 17 (Kante=258, Kdesc=156, core=1):-539 333 -68 4 328 543 97 330 329 331 562 412 414 411 415 -107 
clause level 140 (Kante=261, Kdesc=166, core=1):-552 -333 88 311 64 309 96 310 539 -312 98 70 544 334 335 332 
clause level 400 (Kante=148, Kdesc=62, core=0):-552 -309 -6 253 4 330 368 366 78 367 369 102 5 2 8 7 1 311 64 269 3 
clause level 889 (Kante=226, Kdesc=118, core=0):-552 -335 332 70 334 414 333 98 544 64 410 409 106 88 561 -407 408 
clause level 1296 (Kante=162, Kdesc=68, core=1):-539 309 -253 -78 64 88 552 312 311 59 96 68 408 310 368 102 366 367 13 369 5 
clause level 2034 (Kante=240, Kdesc=52, core=1):-539 267 6 8 5 4 -410 254 -334 271 78 369 368 414 107 331 412 411 7 333 106 332 98 70 335 463 309 311 64 96 310 544 407 561 409 408 88 
clause level 381 (Kante=239, Kdesc=41, core=1):-539 -13 7 8 2 3 -6 5 4 1 410 -412 312 311 309 12 64 11 14 310 96 16 9 15 10 413 562 414 411 
clause level 884 (Kante=274, Kdesc=13, core=1):-552 78 267 269 531 -268 270 271 92 
clause level 1224 (Kante=221, Kdesc=28, core=0):96 -271 254 -3 107 369 -88 368 102 367 78 366 312 309 1 5 7 2 8 6 268 92 269 270 531 267 4 106 407 410 409 408 561 311 
clause level 1664 (Kante=128, Kdesc=71, core=1):-539 15 312 310 96 270 311 10 -407 223 -331 64 309 465 23 7 543 329 330 328 97 68 411 226 169 365 414 253 409 447 284 70 332 334 220 422 461 
clause level 1975 (Kante=211, Kdesc=36, core=1):253 334 268 271 270 92 269 531 106 335 332 70 544 333 5 -98 267 411 107 413 412 415 312 64 310 311 96 309 -329 
clause level 1380 (Kante=212, Kdesc=23, core=1):410 368 7 3 1 5 6 -330 309 64 310 96 312 311 -70 267 -252 4 413 335 253 68 329 331 328 97 543 -8 562 333 2 98 334 332 544 251 254 90 527 59 
clause level 780 (Kante=161, Kdesc=28, core=1):-539 -4 253 64 -330 413 335 309 412 96 261 312 368 311 310 329 269 331 97 328 543 68 6 
clause level 1685 (Kante=148, Kdesc=44, core=1):-539 461 -331 70 334 332 10 409 -253 411 15 414 311 312 310 64 96 448 330 97 543 329 68 328 223 220 309 270 465 7 447 23 169 226 365 422 157 
clause level 990 (Kante=248, Kdesc=13, core=1):-539 -413 -262 411 414 107 412 562 415 96 311 310 309 312 64 4 367 552 369 78 368 102 260 259 61 261 91 529 -366 
clause level 1668 (Kante=184, Kdesc=20, core=0):-539 410 409 -253 -3 7 98 64 309 312 96 310 311 271 -107 8 414 59 2 6 5 4 411 251 1 562 415 412 254 252 413 
clause level 1417 (Kante=115, Kdesc=43, core=0):-539 253 78 527 96 -409 46 346 364 261 413 368 310 360 311 64 309 312 -6 331 330 285 269 270 30 225 54 22 38 5 4 2 3 1 7 8 306 410 288 203 433 461 286 163 289 465 207 
clause level 242 (Kante=205, Kdesc=21, core=1):311 96 561 409 88 407 408 -410 309 64 312 106 310 -13 15 11 16 14 10 12 366 367 552 369 78 9 -412 -102 368 411 414 415 413 107 562 
clause level 1729 (Kante=210, Kdesc=4, core=0):-332 369 7 312 309 311 64 96 310 -107 -271 367 102 366 552 368 267 92 270 268 269 531 -78 413 415 414 412 411 
clause level 161 (Kante=229, Kdesc=5, core=0):6 -68 311 -267 415 369 368 78 552 366 -102 367 331 97 328 329 330 270 92 531 271 268 269 543 
clause level 162 (Kante=267, Kdesc=15, core=1):-539 15 252 90 253 527 59 -408 -107 -251 335 68 409 414 101 311 561 106 407 88 412 411 413 562 415 254 410 
clause level 1041 (Kante=173, Kdesc=12, core=1):-539 269 367 64 107 330 412 415 414 310 411 22 562 306 -413 462 -331 97 1 68 2 328 543 329 3 5 252 
clause level 400 (Kante=146, Kdesc=10, core=0):-552 102 -6 369 78 330 253 368 413 261 367 366 -309 4 5 2 8 7 1 311 64 269 3 
clause level 457 (Kante=203, Kdesc=16, core=1):-410 -13 309 312 311 96 310 64 2 3 5 4 7 8 -6 -412 14 12 11 16 9 15 10 411 414 415 413 107 562 1 
clause level 775 (Kante=243, Kdesc=16, core=1):309 312 333 -8 -366 311 64 310 96 -330 78 368 102 367 369 329 68 331 97 543 328 3 6 4 269 268 5 2 552 -92 7 267 270 271 531 1 
clause level 13 (Kante=219, Kdesc=17, core=1):-539 18 4 5 7 2 8 -271 72 3 -6 531 270 92 267 268 269 98 102 1 78 552 -367 
clause level 2810 (Kante=191, Kdesc=12, core=1):-539 8 15 -251 13 368 7 6 269 270 3 -410 5 328 408 88 106 407 561 312 64 96 311 309 310 252 254 59 253 90 411 414 562 527 
clause level 96 (Kante=220, Kdesc=12, core=1):-9 13 259 61 260 262 91 529 -346 552 367 70 344 72 345 347 99 547 -251 261 90 252 253 59 254 
clause level 59 (Kante=219, Kdesc=2, core=1):309 -72 271 270 -408 328 344 99 331 543 547 346 347 345 251 252 254 253 59 -90 527 561 409 88 410 106 312 407 
clause level 561 (Kante=194, Kdesc=2, core=1):-539 413 107 -5 412 90 59 253 252 254 13 68 8 4 3 1 6 78 7 16 262 61 367 369 88 410 2 561 -328 409 408 11 261 10 407 259 91 102 14 106 -260 
clause level 780 (Kante=159, Kdesc=7, core=1):287 311 253 413 -4 412 335 309 -330 310 96 64 312 329 269 331 97 328 543 284 421 68 6 226 252 251 90 59 254 527 
clause level 909 (Kante=230, Kdesc=4, core=1):-539 267 -70 252 -8 96 64 310 309 311 312 -330 7 5 4 6 3 1 331 334 2 329 68 328 543 335 332 97 333 544 98 
clause level 400 (Kante=130, Kdesc=20, core=0):-552 285 368 330 -309 78 4 253 366 367 -6 167 360 369 102 346 447 30 450 22 364 465 413 5 2 8 7 1 161 311 64 421 269 220 38 3 461 306 442 
clause level 772 (Kante=152, Kdesc=16, core=1):-539 311 -252 6 96 -330 4 412 335 310 413 309 312 368 288 22 64 269 445 203 284 346 446 14 119 274 253 256 202 285 276 68 329 331 328 97 543 275 221 261 106 407 88 408 410 409 
clause level 1040 (Kante=205, Kdesc=5, core=1):-539 10 -61 562 412 414 415 -90 411 -413 -271 15 253 261 262 269 14 107 13 1 9 
clause level 1763 (Kante=193, Kdesc=10, core=0):14 70 -253 334 335 22 24 414 369 368 78 96 102 367 285 -8 288 366 311 312 64 284 310 309 7 330 5 4 2 1 6 364 30 360 32 40 38 203 268 269 271 121 106 410 3 90 251 254 252 59 527 286 346 543 308 306 
clause level 1206 (Kante=187, Kdesc=4, core=1):413 412 -252 6 96 -330 311 335 4 368 269 253 68 329 331 328 97 543 -88 415 107 414 411 -7 251 527 59 90 254 70 332 334 3 5 1 2 8 408 92 270 267 
clause level 1395 (Kante=155, Kdesc=4, core=0):-539 163 -6 270 269 331 312 -78 4 203 289 285 410 64 96 360 22 5 527 253 309 311 284 310 465 462 261 461 413 330 433 346 364 3 1 8 2 46 7 167 30 54 368 38 306 207 423 
clause level 1297 (Kante=189, Kdesc=5, core=1):309 96 311 312 -78 88 64 552 68 408 310 368 102 366 367 369 -331 267 4 -410 97 -411 106 407 414 561 254 409 332 328 330 329 
clause level 1006 (Kante=170, Kdesc=6, core=0):-539 271 261 78 38 367 364 368 92 413 -409 411 107 267 414 415 412 269 270 121 30 14 203 225 -330 70 334 46 54 284 285 346 288 312 8 96 64 310 6 90 251 309 59 433 68 328 331 97 329 561 410 106 407 88 408 465 311 252 253 360 286 22 443 
clause level 14 (Kante=167, Kdesc=2, core=0):312 253 98 -6 252 91 413 -268 96 68 64 309 311 -369 310 -407 409 410 408 106 88 271 92 270 267 269 
clause level 1663 (Kante=172, Kdesc=2, core=1):252 270 -407 408 411 -331 7 88 561 106 409 414 543 329 330 328 97 68 311 96 64 312 2 333 410 70 334 332 251 253 254 90 59 -5 -412 
clause level 1256 (Kante=216, Kdesc=1, core=1):6 330 329 167 271 531 251 -409 92 269 267 270 3 5 4 2 7 -413 411 562 88 107 412 414 415 64 312 8 309 561 106 407 408 410 368 369 552 96 -268 
clause level 897 (Kante=160, Kdesc=2, core=1):309 328 331 330 368 15 262 5 21 -413 37 -122 78 367 16 14 72 408 7 287 364 346 22 68 102 70 407 312 96 311 38 64 310 288 6 76 1 4 286 412 562 415 411 414 107 269 306 8 13 409 29 30 74 360 369 366 334 332 23 335 -10 254 251 253 2 329 -271 12 9 121 -59 552 -3 
clause level 772 (Kante=175, Kdesc=3, core=1):96 269 -252 6 309 -330 311 335 310 413 412 312 64 4 253 68 329 331 328 97 543 334 70 98 -7 -407 
clause level 1896 (Kante=182, Kdesc=1, core=1):334 -2 309 -413 6 311 415 7 269 330 414 412 107 562 411 312 335 98 332 70 407 410 408 88 409 543 5 97 8 328 329 68 527 254 -92 268 267 531 271 270 -331 4 3 1 
clause level 1154 (Kante=122, Kdesc=3, core=0):287 1 335 106 -68 -368 6 333 96 334 331 311 29 70 330 76 312 543 61 97 72 310 64 328 329 7 37 270 309 203 80 285 78 225 163 88 5 59 45 86 83 74 53 284 289 13 433 369 463 552 465 461 423 -409 
clause level 1009 (Kante=215, Kdesc=1, core=1):284 332 -413 334 70 13 4 7 6 347 5 1 72 45 -68 23 121 -409 61 312 411 96 64 311 412 367 330 102 562 368 269 107 415 287 414 74 561 408 106 410 407 88 3 8 76 365 59 78 369 -92 31 39 -2 
clause level 1009 (Kante=187, Kdesc=1, core=1):88 14 7 6 -270 259 309 367 15 96 64 368 415 412 102 562 310 107 411 269 330 312 414 5 -413 -78 410 409 408 106 407 -252 -97 
clause level 984 (Kante=179, Kdesc=4, core=1):271 59 96 64 312 309 310 -413 311 -262 -4 7 8 6 2 5 3 412 260 259 61 261 91 529 415 414 562 411 107 1 102 -366 367 368 369 552 78 
clause level 2393 (Kante=173, Kdesc=2, core=0):310 267 268 409 269 414 561 531 335 5 309 311 367 78 369 312 64 251 332 330 329 411 6 415 412 -334 -4 270 368 271 -408 407 106 88 98 70 333 544 410 68 331 2 7 8 1 3 
clause level 772 (Kante=164, Kdesc=4, core=1):309 21 369 78 368 367 24 -7 4 -252 6 -330 96 412 335 311 413 310 312 360 364 288 46 64 269 286 346 14 253 68 329 331 328 97 543 -122 261 -92 
clause level 2168 (Kante=208, Kdesc=3, core=0):-552 5 334 -410 413 411 414 107 270 271 267 407 -311 106 88 64 408 96 312 310 539 309 76 409 561 
clause level 780 (Kante=179, Kdesc=1, core=1):309 311 23 20 347 72 21 14 -88 270 92 121 284 101 365 74 361 100 76 285 -330 413 253 -4 335 261 368 99 310 96 64 312 329 331 97 328 543 68 6 203 254 252 527 90 59 251 70 332 334 98 333 287 
clause level 1040 (Kante=169, Kdesc=4, core=1):410 88 -331 312 -413 414 107 330 562 6 309 311 64 310 412 411 415 4 5 8 7 -70 267 268 334 270 407 106 269 409 408 -90 
clause level 191 (Kante=238, Kdesc=1, core=1):-539 271 262 334 102 -408 -251 415 68 331 330 311 312 527 561 409 410 88 106 407 252 90 59 253 254 
clause level 780 (Kante=145, Kdesc=4, core=1):252 527 412 -330 285 -4 253 14 261 30 368 346 309 311 310 96 64 312 443 335 329 269 331 97 328 543 22 284 360 46 68 364 6 38 306 54 90 59 251 254 287 413 
clause level 144 (Kante=150, Kdesc=3, core=0):-552 413 5 -309 4 1 414 102 253 367 364 407 92 7 3 22 411 121 30 157 369 368 78 332 286 445 251 366 38 346 2 -6 267 269 312 310 539 96 64 311 223 330 462 306 328 8 360 
clause level 24 (Kante=181, Kdesc=2, core=1):-539 14 -78 332 -271 -90 267 -408 328 72 531 268 92 310 312 96 309 64 311 
clause level 1040 (Kante=207, Kdesc=2, core=1):-531 311 310 330 562 269 64 411 7 107 102 414 309 312 412 415 -413 -331 2 4 5 8 334 -98 
clause level 1283 (Kante=170, Kdesc=5, core=0):543 331 330 328 329 64 -268 -366 -90 97 411 4 3 2 7 5 8 253 70 332 -6 269 92 267 271 270 531 1 78 369 368 367 102 552 
clause level 400 (Kante=171, Kdesc=1, core=0):367 13 -98 -68 64 252 527 90 253 59 254 251 330 -6 413 369 368 366 102 78 4 5 2 8 7 1 269 3 -268 76 88 -415 
clause level 1369 (Kante=184, Kdesc=2, core=0):-539 309 -68 331 543 329 330 328 268 531 97 -4 7 64 3 6 5 369 8 1 2 251 410 334 70 335 311 312 310 270 -409 439 59 88 -253 -271 -332 
clause level 1484 (Kante=227, Kdesc=4, core=0):-539 5 335 2 6 4 8 7 -88 312 -271 254 64 267 409 407 269 408 410 92 561 106 268 531 270 310 309 311 96 330 -3 1 
clause level 1012 (Kante=141, Kdesc=4, core=1):78 14 64 335 161 412 253 413 285 -330 309 346 368 96 261 311 310 167 312 329 331 97 328 543 434 284 421 360 46 68 364 462 463 223 6 38 226 175 54 290 220 225 5 7 3 2 8 369 -334 366 367 102 -408 
clause level 1348 (Kante=203, Kdesc=1, core=1):68 254 6 8 7 -268 107 411 412 415 414 -409 251 -413 90 329 312 309 64 96 562 368 269 5 3 92 369 552 410 408 88 106 407 561 271 531 267 270 
clause level 1011 (Kante=174, Kdesc=1, core=1):309 332 -330 253 412 -4 368 96 312 329 331 97 328 543 68 6 -411 78 102 367 366 369 407 409 408 88 561 270 -410 -252 98 333 106 562 70 413 3 5 1 7 2 414 
clause level 1639 (Kante=181, Kdesc=1, core=1):412 311 3 4 5 -331 269 107 330 414 253 562 96 309 6 64 411 415 -410 254 59 90 251 -70 -92 362 543 68 328 329 97 332 407 408 106 409 88 561 98 267 335 334 333 270 
clause level 479 (Kante=181, Kdesc=1, core=1):252 -8 -78 -330 7 2 3 5 4 1 96 309 310 311 64 98 335 334 70 312 329 331 68 328 543 6 -332 97 333 544 
clause level 7 (Kante=179, Kdesc=1, core=0):-539 -68 415 -6 368 369 366 552 367 78 -102 311 -267 
clause level 1040 (Kante=226, Kdesc=3, core=1):-539 410 312 107 330 269 15 6 96 311 64 310 411 415 223 10 334 335 61 70 98 544 333 21 23 -271 409 407 -331 408 88 561 -332 -3 4 7 2 
clause level 2677 (Kante=177, Kdesc=1, core=0):407 59 5 4 6 3 64 251 311 253 8 310 254 2 312 96 262 -413 106 88 410 409 408 267 271 268 92 270 269 -335 329 368 366 78 102 97 369 414 415 465 107 -7 -328 98 332 333 70 544 
clause level 1468 (Kante=244, Kdesc=1, core=0):-539 332 7 -271 267 531 269 270 -78 92 268 311 310 312 309 96 64 367 102 366 368 552 414 -107 369 415 412 411 413 
clause level 780 (Kante=155, Kdesc=3, core=1):287 285 412 253 413 -330 -4 434 309 311 310 96 64 312 165 335 329 269 331 97 328 543 284 68 6 203 -409 -267 
clause level 523 (Kante=198, Kdesc=1, core=1):-539 98 -88 254 -271 -328 -368 409 407 106 410 408 64 309 312 310 311 96 331 543 330 329 68 97 367 78 369 366 102 92 269 268 267 270 
clause level 26 (Kante=244, Kdesc=1, core=1):362 101 106 407 88 409 -408 364 365 561 76 363 -251 -107 412 414 411 413 562 415 252 90 59 253 254 410 527 
clause level 7 (Kante=203, Kdesc=1, core=1):-539 309 98 333 332 334 415 413 414 262 409 561 88 106 410 311 312 96 310 64 -251 -97 -408 13 544 252 90 59 527 253 -335 
clause level 894 (Kante=159, Kdesc=2, core=1):-539 411 561 333 269 311 312 270 369 13 310 23 64 252 19 102 367 11 15 334 88 409 408 1 7 6 4 5 262 268 305 226 362 365 309 96 -3 223 2 415 562 -331 330 543 107 329 97 328 68 463 -70 
clause level 2810 (Kante=194, Kdesc=1, core=1):410 311 -78 98 253 8 -329 369 330 68 543 88 407 59 328 97 70 333 -6 312 64 310 5 4 1 3 7 2 413 414 368 102 367 366 552 268 267 270 -335 332 544 
clause level 188 (Kante=170, Kdesc=1, core=0):98 311 96 64 -6 312 310 309 -369 -407 97 68 331 268 61 260 259 529 78 102 368 366 367 8 410 552 5 2 7 4 1 409 408 106 88 3 
clause level 1539 (Kante=181, Kdesc=1, core=1):415 251 -334 90 311 310 309 64 96 552 88 -78 70 68 408 368 102 366 367 369 5 413 414 412 411 -271 -97 98 335 333 332 329 330 331 328 543 407 270 269 544 93 531 
clause level 1040 (Kante=198, Kdesc=1, core=1):106 408 411 107 415 64 253 310 562 330 311 96 312 269 412 414 6 -331 -2 409 -413 407 410 88 -92 -252 
clause level 1050 (Kante=201, Kdesc=1, core=1):-9 16 367 369 102 8 64 368 312 309 14 310 -271 -413 412 415 411 562 107 414 268 59 254 253 531 270 88 92 269 267 15 262 261 96 432 260 78 287 366 5 -61 91 529 259 -90 527 252 
clause level 159 (Kante=211, Kdesc=1, core=1):-61 364 409 414 15 101 334 310 -408 -107 -251 561 106 407 88 412 411 413 562 415 252 90 59 253 254 410 527 -335 
clause level 1540 (Kante=182, Kdesc=1, core=1):3 369 310 330 562 311 253 64 368 411 7 107 102 414 309 312 15 220 412 96 223 226 22 415 448 447 306 6 30 261 14 -413 364 169 38 463 465 461 -331 407 410 269 106 271 531 268 92 270 267 2 8 4 5 -98 
clause level 2072 (Kante=139, Kdesc=1, core=0):-539 4 331 68 328 329 330 253 90 -409 59 251 97 88 64 106 5 369 407 410 408 561 269 531 267 270 288 309 311 312 310 96 423 286 552 78 207 203 414 413 411 465 333 334 335 98 7 163 433 284 6 3 462 285 121 289 225 461 415 
clause level 1381 (Kante=197, Kdesc=1, core=1):311 259 345 107 332 335 414 562 412 411 415 333 98 268 267 92 101 -409 99 260 -413 18 94 305 19 20 304 309 368 310 312 96 64 330 253 102 7 367 6 284 434 97 329 328 35 331 36 34 -366 -90 -3 59 254 252 527 251 369 410 106 88 408 561 407 
clause level 1359 (Kante=198, Kdesc=1, core=1):-552 334 88 -330 561 409 408 410 252 251 -7 331 10 97 328 68 329 543 267 268 370 26 309 562 414 411 446 332 259 42 50 394 344 34 4 6 3 358 1 5 8 2 366 362 -407 106 403 304 
clause level 1149 (Kante=163, Kdesc=3, core=1):-411 96 -252 368 4 -330 335 6 311 413 412 310 64 269 22 445 346 446 14 119 253 256 202 68 329 331 328 97 543 221 261 106 407 410 88 409 408 -334 449 254 414 59 251 415 562 527 90 
clause level 1278 (Kante=167, Kdesc=2, core=1):312 -413 269 -331 107 330 562 367 6 14 96 309 311 64 310 412 411 415 447 5 3 43 7 19 252 251 254 90 59 -70 -410 408 106 267 407 88 409 561 -268 
clause level 2807 (Kante=180, Kdesc=1, core=1):311 367 59 253 90 330 328 527 252 329 268 267 271 270 368 78 366 68 96 64 4 254 309 310 -332 544 -413 408 414 5 6 107 88 415 333 8 70 411 562 98 335 412 7 450 410 106 -3 
clause level 780 (Kante=176, Kdesc=1, core=1):253 288 68 8 7 1 97 2 328 3 331 329 404 395 414 412 43 107 543 6 450 413 -4 309 285 261 -330 161 434 447 368 310 96 64 312 269 284 225 -270 251 90 254 252 59 -259 78 369 102 367 366 -408 
clause level 1685 (Kante=151, Kdesc=1, core=1):367 3 -331 70 334 332 10 409 461 411 15 414 311 312 310 64 96 448 330 97 543 329 68 328 223 220 309 270 465 7 447 23 169 226 365 422 157 78 368 366 -407 5 8 -253 6 412 92 413 415 267 268 259 42 261 46 344 346 335 394 403 2 26 269 30 
clause level 772 (Kante=162, Kdesc=2, core=1):309 285 4 -252 346 -330 413 6 46 335 364 360 310 287 96 311 312 288 64 269 14 253 368 68 329 331 328 97 543 -122 261 366 -409 367 369 78 -92 
clause level 1382 (Kante=211, Kdesc=1, core=1):96 259 414 562 412 98 411 415 333 267 268 363 270 269 90 251 -409 59 254 527 253 107 309 102 310 312 64 367 330 368 285 -413 284 271 305 19 18 304 329 328 35 34 -366 -4 5 8 1 2 3 106 410 408 88 407 561 78 369 -252 
clause level 772 (Kante=194, Kdesc=1, core=1):-539 366 1 3 6 368 5 4 7 -70 -252 413 96 311 309 -330 335 310 312 64 269 253 68 329 331 328 97 543 -8 -92 
clause level 772 (Kante=150, Kdesc=1, core=1):312 415 -252 -330 309 6 335 368 413 46 364 360 310 96 311 64 269 38 22 -166 486 171 165 30 346 14 464 253 468 68 329 331 328 97 543 225 463 432 261 434 431 435 78 414 4 369 268 411 161 267 270 -334 367 8 271 366 3 5 92 7 -407 
clause level 772 (Kante=156, Kdesc=2, core=1):8 412 -252 96 310 -330 309 335 4 311 413 368 6 360 364 288 46 312 64 38 175 286 284 346 14 253 285 68 329 331 328 97 543 463 261 434 230 290 462 5 7 2 3 -106 -334 
clause level 1040 (Kante=162, Kdesc=1, core=1):-539 91 -331 312 414 107 330 253 262 562 269 15 -413 6 14 364 96 309 311 64 310 226 30 38 220 22 412 411 415 463 447 223 261 461 306 448 169 2 7 5 8 10 61 259 16 13 368 254 78 251 366 369 252 333 335 334 70 544 373 23 21 370 40 37 34 -271 42 344 48 -88 -332 
Found 271 good successive clauses in order (168 originals, maxlevel=2810)
c KCorePR 1494076 97 271 168 2810
c DistanceTo...Unseen 19791
c DistanceToGoodKCore c   DIST 0: 271 (+271) / 271 (+271)
c   DIST 1: 820627 (+820356) / 753093 (+752822)
c   DIST 2: 1411404 (+590777) / 1292631 (+539538)
c   DIST 3: 1462690 (+51286) / 1334024 (+41393)
c   DIST 4: 1469550 (+6860) / 1338656 (+4632)
c   DIST 5: 1471274 (+1724) / 1339592 (+936)
c   DIST 6: 1472022 (+748) / 1339853 (+261)
c   DIST 7: 1472500 (+478) / 1339975 (+122)
c   DIST 8: 1472922 (+422) / 1340056 (+81)
c   DIST 9: 1473283 (+361) / 1340112 (+56)
c   DIST 10: 1473617 (+334) / 1340154 (+42)
c   DIST 11: 1473865 (+248) / 1340185 (+31)
c   DIST 12: 1474023 (+158) / 1340197 (+12)
c   DIST 13: 1474135 (+112) / 1340206 (+9)
c   DIST 14: 1474208 (+73) / 1340210 (+4)
c   DIST 15: 1474258 (+50) / 1340210 (+0)
c   DIST 16: 1474280 (+22) / 1340210 (+0)
c   DIST 17: 1474285 (+5) / 1340210 (+0)
c TotalDistance=1494076
No graph is dumped
c result of core 1 is UNSAT
c One thread has finished
c Core 1 said it finished
c result of core 0 is UNKNOWN
c restarts              : 1776 (403 conflicts in avg)
c blocked restarts      : 7675 (multiple: 709) 
c last block at restart : 1776
c nb ReduceDB           : 22
c nb removed Clauses    : 622432
c nb learnts DL2        : 411
c nb learnts size 2     : 58
c nb learnts size 1     : 3
c conflicts             : 717491         (741 /sec)
c decisions             : 941337         (0.00 % random) (972 /sec)
c propagations          : 61074761       (63036 /sec)
c conflict literals     : 23512370       (1.63 % deleted)
c nb reduced Clauses    : 6736
c CPU time              : 968.885 s

s INDETERMINATE
