c
c This is glucose-proof 1.0 based on  2.1 --  (thanks to MiniSAT)
c
c EXPERIMENTAL EASY PARALLEL (ROUND ROBIN) VERSION
c
c WARNING: for repeatability, setting FPU to use double precision
c Parallel version 4 solvers created.
c ========================================[ Problem Statistics ]===========================================
c |                                                                                                       |
c |  Number of variables:           643                                                                   |
c |  Number of clauses:           59080                                                                   |
c |  Parse time:                   0.05 s                                                                 |
c |                                                                                                       |
c ========================================[ MAGIC CONSTANTS ]==============================================
c | Constants are supposed to work well together :-)                                                      |
c | however, if you find better choices, please let us known...                                           |
c |-------------------------------------------------------------------------------------------------------|
c |                                |                                |                                     |
c | - Restarts:                    | - Reduce Clause DB:            | - Minimize Asserting:               |
c |   * LBD Queue    :     50      |   * First     :   4000         |    * size <  30                     |
c |   * Trail  Queue :   5000      |   * Inc       :    300         |    * lbd  <   6                     |
c |   * K            :   0.80      |   * Special   :   1000         |                                     |
c |   * R            :   1.40      |   * Protected :  (lbd)< 30     |                                     |
c |                                |                                |                                     |
c ==================================[ Search Statistics (every  10000 conflicts) ]=========================
c |                                                                                                       |
c |          RESTARTS           |          ORIGINAL         |              LEARNT              | Progress |
c |       NB   Blocked  Avg Cfc |    Vars  Clauses Literals |   Red   Learnts    LBD2  Removed |          |
c =========================================================================================================
c |        7         0     1428 |     643    59080   231842 |     1     8001       18     1998 |  0.000 % |
c |       19        90     1052 |     643    59080   231842 |     3     6956       28    13046 |  0.000 % |
c |       24       139     1250 |     643    59080   231842 |     3    16956       38    13046 |  0.002 % |
c |       24       158     1666 |     643    59080   231842 |     4    17684       40    22319 |  0.002 % |
c |       24       176     2083 |     643    59080   231842 |     5    15841       40    34163 |  0.002 % |
c |       24       218     2500 |     643    59080   231842 |     5    25841       41    34163 |  0.002 % |
c |       24       310     2916 |     643    59080   231842 |     6    21422       51    48583 |  0.002 % |
c |       24       366     3333 |     643    59080   231842 |     6    31422       57    48583 |  0.002 % |
c |       25       441     3600 |     643    59080   231842 |     7    24415       59    65592 |  0.002 % |
c |       26       532     3846 |     643    59080   231842 |     7    34415       62    65592 |  0.004 % |
c |       26       601     4230 |     642    59080   231842 |     8    10690       79    71083 |  0.156 % |
c |       41       665     2926 |     642    59080   231842 |     8    20690       89    71083 |  0.157 % |
c |       41       749     3170 |     642    59080   231842 |     9    15545       98    86235 |  0.158 % |
c |       43       857     3255 |     642    59080   231842 |     9    25545      109    86235 |  0.156 % |
c |       49       949     3061 |     642    59080   231842 |     9    35545      120    86235 |  0.158 % |
c |       49      1061     3265 |     642    59080   231842 |    10    24272      126   107518 |  0.158 % |
c |       49      1162     3469 |     642    59080   231842 |    10    34272      129   107518 |  0.159 % |
c |       52      1238     3461 |     642    59080   231842 |    10    44272      136   107518 |  0.156 % |
c |       55      1346     3454 |     642    59080   231842 |    11    28642      143   133157 |  0.156 % |
c |       56      1467     3571 |     642    59080   231842 |    11    38642      144   133157 |  0.158 % |
c |       57      1590     3684 |     642    59080   231842 |    11    48642      149   133157 |  0.158 % |
c |       59      1731     3728 |     642    59080   231842 |    12    29524      152   162291 |  0.158 % |
c |       60      1887     3833 |     642    59080   231842 |    12    39524      158   162291 |  0.159 % |
c |       64      2043     3750 |     641    59080   231842 |    12    19648      172   162291 |  0.313 % |
c |       73      2179     3424 |     641    59080   231842 |    12    29648      179   162291 |  0.313 % |
c |       90      2307     2888 |     641    59080   231842 |    13    22440      186   179508 |  0.313 % |
c |       97      2435     2783 |     641    59080   231842 |    13    32440      196   179508 |  0.313 % |
c |      110      2572     2545 |     641    59080   231842 |    13    42440      203   179508 |  0.313 % |
c |      116      2714     2500 |     641    59080   231842 |    13    52440      209   179508 |  0.313 % |
c |      125      2839     2400 |     641    59080   231842 |    14    34923      213   207043 |  0.313 % |
c |      128      2983     2421 |     641    59080   231842 |    14    44923      222   207043 |  0.313 % |
c |      136      3120     2352 |     641    59080   231842 |    14    54923      229   207043 |  0.313 % |
c |      173      3208     1907 |     641    59080   231842 |    14    64923      232   207043 |  0.313 % |
c |      184      3348     1847 |     641    59080   231842 |    15    40969      242   241022 |  0.313 % |
c |      207      3468     1690 |     641    59080   231842 |    15    50969      247   241022 |  0.313 % |
c |      223      3578     1614 |     641    59080   231842 |    15    60969      254   241022 |  0.313 % |
c |      241      3712     1535 |     641    59080   231842 |    15    70969      260   241022 |  0.313 % |
c |      253      3854     1501 |     641    59080   231842 |    16    42484      270   279558 |  0.315 % |
c |      264      4010     1477 |     641    59080   231842 |    16    52484      282   279558 |  0.311 % |
c |      282      4157     1418 |     641    59080   231842 |    16    62484      291   279558 |  0.311 % |
c |      306      4295     1339 |     641    59080   231842 |    16    72484      296   279558 |  0.314 % |
c |      345      4423     1217 |     641    59080   231842 |    16    82484      302   279558 |  0.313 % |
c |      380      4553     1131 |     639    59080   231842 |    17    49253      312   321674 |  0.624 % |
c |      410      4697     1073 |     637    59080   231842 |    17    53617      320   321674 |  0.933 % |
c |      454      4821      991 |     634    59080   231842 |    17    63617      333   321674 |  1.402 % |
c empty clause found by core 2 at conflict 457889
*
c checking the resolution graph...OK
c All useful bySize 1688647 clauses, percentiles 0 3 8 9 16 26 36 50 67 114 235 240 (0,1,5,10,25,50,75,90,95,99,100-1,100)
c All useless bySize 202059 clauses, percentiles 0 3 3 9 19 29 41 63 86 128 219 221 (0,1,5,10,25,50,75,90,95,99,100-1,100)
c ProofOnly useful bySize 1642997 clauses, percentiles 0 7 8 9 17 26 37 50 68 115 235 240 (0,1,5,10,25,50,75,90,95,99,100-1,100)
c ProofOnly useless bySize 188558 clauses, percentiles 2 8 10 14 21 31 43 65 88 129 219 221 (0,1,5,10,25,50,75,90,95,99,100-1,100)
c All useful byFinalLBD 1688647 clauses, percentiles 0 2 3 5 7 9 12 16 18 23 44 45 (0,1,5,10,25,50,75,90,95,99,100-1,100)
c All useless byFinalLBD 202059 clauses, percentiles 0 3 3 6 8 12 16 20 22 28 98 102 (0,1,5,10,25,50,75,90,95,99,100-1,100)
c ProofOnly useful byFinalLBD 1642997 clauses, percentiles 0 2 4 5 7 9 12 16 18 23 44 45 (0,1,5,10,25,50,75,90,95,99,100-1,100)
c ProofOnly useless byFinalLBD 188558 clauses, percentiles 2 4 6 7 9 12 16 20 22 28 98 102 (0,1,5,10,25,50,75,90,95,99,100-1,100)
c All useful byInitialLBD 1688647 clauses, percentiles 0 3 5 6 7 10 13 16 19 24 44 45 (0,1,5,10,25,50,75,90,95,99,100-1,100)
c All useless byInitialLBD 202059 clauses, percentiles 0 3 3 6 9 12 16 20 23 29 98 102 (0,1,5,10,25,50,75,90,95,99,100-1,100)
c ProofOnly useful byInitialLBD 1642997 clauses, percentiles 0 4 5 6 8 10 13 16 19 24 44 45 (0,1,5,10,25,50,75,90,95,99,100-1,100)
c ProofOnly useless byInitialLBD 188558 clauses, percentiles 2 5 6 7 9 13 16 20 23 29 98 102 (0,1,5,10,25,50,75,90,95,99,100-1,100)
c Literals ProofOnly useful 49316133
c Literals ProofOnly useless 6843057
c additional windowsGood 1 1 1 2 3 3 3 10 50 164 754 832 (0,1,5,10,25,50,75,90,95,99,100-1,100)
c additional windowsBad 1 1 1 1 1 1 1 2 2 3 146 147 (0,1,5,10,25,50,75,90,95,99,100-1,100)
c additional 1WindowNoDecision 12001 6518 0.54 144738 80941 0.56 (nbWindowsGood,nbWindowsNoDecisionGood,nbWindowsBad,nbWindowsNoDecisionBad
c additional topclausessize all (10%,5%,1%,top) 76.78 96.53 136.74 240
c additional topclausessize proofonly (10%,5%,1%,top) 77.15 96.92 137.05 240
c additional topclausesinitialLBD all (10%,5%,1%,top) 66.78 85.03 127.90 240
c additional topclausesinitialLBD proofonly (10%,5%,1%,top) 60.47 77.15 121.40 240
c additional topclausesfinalLBD all (10%,5%,1%,top) 55.90 71.26 115.91 240
c additional topclausesfinalLBD proofonly (10%,5%,1%,top) 52.49 66.89 111.28 240
c additional predictionInitialLBD 1 25 1642997 1.00 0.00 0.00 1831530 188558 0.10 0.11 0.11 0.10 (nbgoodclauses,nbtotalgood,precisionGood,recallGood,FGood,nbbadclause,nbtotalbad,precisionBad,recallBad,FBad,accuracy)
c additional predictionInitialLBD 2 1491 1642997 0.97 0.00 0.00 1830064 188558 0.10 0.11 0.11 0.10 (nbgoodclauses,nbtotalgood,precisionGood,recallGood,FGood,nbbadclause,nbtotalbad,precisionBad,recallBad,FBad,accuracy)
c additional predictionInitialLBD 3 9526 1642997 0.97 0.01 0.01 1822029 188558 0.10 0.11 0.11 0.11 (nbgoodclauses,nbtotalgood,precisionGood,recallGood,FGood,nbbadclause,nbtotalbad,precisionBad,recallBad,FBad,accuracy)
c additional predictionInitialLBD 4 35509 1642997 0.97 0.02 0.04 1796046 188558 0.10 0.11 0.11 0.12 (nbgoodclauses,nbtotalgood,precisionGood,recallGood,FGood,nbbadclause,nbtotalbad,precisionBad,recallBad,FBad,accuracy)
c additional predictionInitialLBD 5 101957 1642997 0.96 0.06 0.11 1729598 188558 0.11 0.11 0.11 0.15 (nbgoodclauses,nbtotalgood,precisionGood,recallGood,FGood,nbbadclause,nbtotalbad,precisionBad,recallBad,FBad,accuracy)
c additional predictionInitialLBD 6 229721 1642997 0.95 0.13 0.23 1601834 188558 0.11 0.11 0.11 0.22 (nbgoodclauses,nbtotalgood,precisionGood,recallGood,FGood,nbbadclause,nbtotalbad,precisionBad,recallBad,FBad,accuracy)
c additional predictionInitialLBD 7 412489 1642997 0.95 0.24 0.38 1419066 188558 0.12 0.10 0.11 0.30 (nbgoodclauses,nbtotalgood,precisionGood,recallGood,FGood,nbbadclause,nbtotalbad,precisionBad,recallBad,FBad,accuracy)
c additional predictionInitialLBD 8 603198 1642997 0.94 0.35 0.51 1228357 188558 0.13 0.09 0.11 0.39 (nbgoodclauses,nbtotalgood,precisionGood,recallGood,FGood,nbbadclause,nbtotalbad,precisionBad,recallBad,FBad,accuracy)
c additional predictionInitialLBD 10 948484 1642997 0.94 0.54 0.68 883071 188558 0.14 0.08 0.10 0.55 (nbgoodclauses,nbtotalgood,precisionGood,recallGood,FGood,nbbadclause,nbtotalbad,precisionBad,recallBad,FBad,accuracy)
c additional predictionInitialLBD 14 1478026 1642997 0.92 0.83 0.87 353529 188558 0.19 0.04 0.07 0.78 (nbgoodclauses,nbtotalgood,precisionGood,recallGood,FGood,nbbadclause,nbtotalbad,precisionBad,recallBad,FBad,accuracy)
c additional predictionInitialLBD 18 1710229 1642997 0.91 0.94 0.93 121326 188558 0.24 0.02 0.03 0.86 (nbgoodclauses,nbtotalgood,precisionGood,recallGood,FGood,nbbadclause,nbtotalbad,precisionBad,recallBad,FBad,accuracy)
c additional predictionInitialLBD 22 1794638 1642997 0.90 0.98 0.94 36917 188558 0.28 0.01 0.01 0.89 (nbgoodclauses,nbtotalgood,precisionGood,recallGood,FGood,nbbadclause,nbtotalbad,precisionBad,recallBad,FBad,accuracy)
c additional predictionInitialLBD 30 1828857 1642997 0.90 1.00 0.95 2698 188558 0.44 0.00 0.00 0.90 (nbgoodclauses,nbtotalgood,precisionGood,recallGood,FGood,nbbadclause,nbtotalbad,precisionBad,recallBad,FBad,accuracy)
c additional predictionInitialLBD 40 1831379 1642997 0.90 1.00 0.95 176 188558 0.86 0.00 0.00 0.90 (nbgoodclauses,nbtotalgood,precisionGood,recallGood,FGood,nbbadclause,nbtotalbad,precisionBad,recallBad,FBad,accuracy)
c additional predictionFinallLBD 1 5832 1642997 1.00 0.00 0.01 1825723 188558 0.10 1.00 0.19 0.11 (nbgoodclauses,nbtotalgood,precisionGood,recallGood,FGood,nbbadclause,nbtotalbad,precisionBad,recallBad,FBad,accuracy)
c additional predictionFinallLBD 2 26405 1642997 0.99 0.02 0.03 1805150 188558 0.10 1.00 0.19 0.12 (nbgoodclauses,nbtotalgood,precisionGood,recallGood,FGood,nbbadclause,nbtotalbad,precisionBad,recallBad,FBad,accuracy)
c additional predictionFinallLBD 3 65838 1642997 0.99 0.04 0.08 1765717 188558 0.11 1.00 0.19 0.14 (nbgoodclauses,nbtotalgood,precisionGood,recallGood,FGood,nbbadclause,nbtotalbad,precisionBad,recallBad,FBad,accuracy)
c additional predictionFinallLBD 4 128621 1642997 0.98 0.08 0.14 1702934 188558 0.11 0.99 0.20 0.17 (nbgoodclauses,nbtotalgood,precisionGood,recallGood,FGood,nbbadclause,nbtotalbad,precisionBad,recallBad,FBad,accuracy)
c additional predictionFinallLBD 5 230703 1642997 0.97 0.14 0.24 1600852 188558 0.11 0.96 0.20 0.22 (nbgoodclauses,nbtotalgood,precisionGood,recallGood,FGood,nbbadclause,nbtotalbad,precisionBad,recallBad,FBad,accuracy)
c additional predictionFinallLBD 6 380613 1642997 0.96 0.22 0.36 1450942 188558 0.12 0.92 0.21 0.29 (nbgoodclauses,nbtotalgood,precisionGood,recallGood,FGood,nbbadclause,nbtotalbad,precisionBad,recallBad,FBad,accuracy)
c additional predictionFinallLBD 7 559247 1642997 0.95 0.32 0.48 1272308 188558 0.13 0.86 0.22 0.38 (nbgoodclauses,nbtotalgood,precisionGood,recallGood,FGood,nbbadclause,nbtotalbad,precisionBad,recallBad,FBad,accuracy)
c additional predictionFinallLBD 8 737951 1642997 0.95 0.42 0.59 1093604 188558 0.14 0.79 0.23 0.46 (nbgoodclauses,nbtotalgood,precisionGood,recallGood,FGood,nbbadclause,nbtotalbad,precisionBad,recallBad,FBad,accuracy)
c additional predictionFinallLBD 10 1067201 1642997 0.94 0.61 0.74 764354 188558 0.16 0.64 0.25 0.61 (nbgoodclauses,nbtotalgood,precisionGood,recallGood,FGood,nbbadclause,nbtotalbad,precisionBad,recallBad,FBad,accuracy)
c additional predictionFinallLBD 14 1537830 1642997 0.92 0.86 0.89 293725 188558 0.21 0.33 0.26 0.81 (nbgoodclauses,nbtotalgood,precisionGood,recallGood,FGood,nbbadclause,nbtotalbad,precisionBad,recallBad,FBad,accuracy)
c additional predictionFinallLBD 18 1733336 1642997 0.91 0.96 0.93 98219 188558 0.27 0.14 0.18 0.87 (nbgoodclauses,nbtotalgood,precisionGood,recallGood,FGood,nbbadclause,nbtotalbad,precisionBad,recallBad,FBad,accuracy)
c additional predictionFinallLBD 22 1802004 1642997 0.90 0.99 0.94 29551 188558 0.30 0.05 0.08 0.89 (nbgoodclauses,nbtotalgood,precisionGood,recallGood,FGood,nbbadclause,nbtotalbad,precisionBad,recallBad,FBad,accuracy)
c additional predictionFinallLBD 30 1829468 1642997 0.90 1.00 0.95 2087 188558 0.49 0.01 0.01 0.90 (nbgoodclauses,nbtotalgood,precisionGood,recallGood,FGood,nbbadclause,nbtotalbad,precisionBad,recallBad,FBad,accuracy)
c additional predictionFinallLBD 40 1831399 1642997 0.90 1.00 0.95 156 188558 0.90 0.00 0.00 0.90 (nbgoodclauses,nbtotalgood,precisionGood,recallGood,FGood,nbbadclause,nbtotalbad,precisionBad,recallBad,FBad,accuracy)
c additional predictionSize 1 25 1642997 1.00 0.00 0.00 1831530 188558 0.10 0.11 0.11 0.10 (nbgoodclauses,nbtotalgood,precisionGood,recallGood,FGood,nbbadclause,nbtotalbad,precisionBad,recallBad,FBad,accuracy)
c additional predictionSize 2 178 1642997 0.93 0.00 0.00 1831377 188558 0.10 0.11 0.11 0.10 (nbgoodclauses,nbtotalgood,precisionGood,recallGood,FGood,nbbadclause,nbtotalbad,precisionBad,recallBad,FBad,accuracy)
c additional predictionSize 3 478 1642997 0.95 0.00 0.00 1831077 188558 0.10 0.11 0.11 0.10 (nbgoodclauses,nbtotalgood,precisionGood,recallGood,FGood,nbbadclause,nbtotalbad,precisionBad,recallBad,FBad,accuracy)
c additional predictionSize 4 1068 1642997 0.96 0.00 0.00 1830487 188558 0.10 0.11 0.11 0.10 (nbgoodclauses,nbtotalgood,precisionGood,recallGood,FGood,nbbadclause,nbtotalbad,precisionBad,recallBad,FBad,accuracy)
c additional predictionSize 5 1739 1642997 0.97 0.00 0.00 1829816 188558 0.10 0.11 0.11 0.10 (nbgoodclauses,nbtotalgood,precisionGood,recallGood,FGood,nbbadclause,nbtotalbad,precisionBad,recallBad,FBad,accuracy)
c additional predictionSize 6 3504 1642997 0.96 0.00 0.00 1828051 188558 0.10 0.11 0.11 0.10 (nbgoodclauses,nbtotalgood,precisionGood,recallGood,FGood,nbbadclause,nbtotalbad,precisionBad,recallBad,FBad,accuracy)
c additional predictionSize 7 27036 1642997 0.96 0.02 0.03 1804519 188558 0.10 0.11 0.11 0.12 (nbgoodclauses,nbtotalgood,precisionGood,recallGood,FGood,nbbadclause,nbtotalbad,precisionBad,recallBad,FBad,accuracy)
c additional predictionSize 8 117478 1642997 0.96 0.07 0.13 1714077 188558 0.11 0.11 0.11 0.16 (nbgoodclauses,nbtotalgood,precisionGood,recallGood,FGood,nbbadclause,nbtotalbad,precisionBad,recallBad,FBad,accuracy)
c additional predictionSize 10 194474 1642997 0.95 0.11 0.20 1637081 188558 0.11 0.11 0.11 0.20 (nbgoodclauses,nbtotalgood,precisionGood,recallGood,FGood,nbbadclause,nbtotalbad,precisionBad,recallBad,FBad,accuracy)
c additional predictionSize 14 347270 1642997 0.94 0.20 0.33 1484285 188558 0.11 0.10 0.11 0.27 (nbgoodclauses,nbtotalgood,precisionGood,recallGood,FGood,nbbadclause,nbtotalbad,precisionBad,recallBad,FBad,accuracy)
c additional predictionSize 18 520699 1642997 0.93 0.29 0.45 1310856 188558 0.12 0.09 0.10 0.35 (nbgoodclauses,nbtotalgood,precisionGood,recallGood,FGood,nbbadclause,nbtotalbad,precisionBad,recallBad,FBad,accuracy)
c additional predictionSize 22 721035 1642997 0.92 0.41 0.56 1110520 188558 0.12 0.08 0.10 0.44 (nbgoodclauses,nbtotalgood,precisionGood,recallGood,FGood,nbbadclause,nbtotalbad,precisionBad,recallBad,FBad,accuracy)
c additional predictionSize 30 1102935 1642997 0.92 0.61 0.74 728620 188558 0.13 0.06 0.08 0.60 (nbgoodclauses,nbtotalgood,precisionGood,recallGood,FGood,nbbadclause,nbtotalbad,precisionBad,recallBad,FBad,accuracy)
c additional predictionSize 40 1471540 1642997 0.91 0.81 0.86 360015 188558 0.15 0.03 0.05 0.76 (nbgoodclauses,nbtotalgood,precisionGood,recallGood,FGood,nbbadclause,nbtotalbad,precisionBad,recallBad,FBad,accuracy)
c additional predictionAge 1 127724 1642997 0.90 0.07 0.13 1703831 188558 0.10 0.11 0.11 0.16 (nbgoodclauses,nbtotalgood,precisionGood,recallGood,FGood,nbbadclause,nbtotalbad,precisionBad,recallBad,FBad,accuracy)
c additional predictionAge 10 175780 1642997 0.89 0.10 0.17 1655775 188558 0.10 0.10 0.10 0.18 (nbgoodclauses,nbtotalgood,precisionGood,recallGood,FGood,nbbadclause,nbtotalbad,precisionBad,recallBad,FBad,accuracy)
c additional predictionAge 25 218837 1642997 0.89 0.12 0.21 1612718 188558 0.10 0.10 0.10 0.20 (nbgoodclauses,nbtotalgood,precisionGood,recallGood,FGood,nbbadclause,nbtotalbad,precisionBad,recallBad,FBad,accuracy)
c additional predictionAge 50 243993 1642997 0.88 0.13 0.23 1587562 188558 0.10 0.10 0.10 0.21 (nbgoodclauses,nbtotalgood,precisionGood,recallGood,FGood,nbbadclause,nbtotalbad,precisionBad,recallBad,FBad,accuracy)
c additional predictionAge 100 267406 1642997 0.88 0.14 0.25 1564149 188558 0.10 0.10 0.10 0.21 (nbgoodclauses,nbtotalgood,precisionGood,recallGood,FGood,nbbadclause,nbtotalbad,precisionBad,recallBad,FBad,accuracy)
c additional predictionAge 250 294876 1642997 0.88 0.16 0.27 1536679 188558 0.10 0.09 0.10 0.23 (nbgoodclauses,nbtotalgood,precisionGood,recallGood,FGood,nbbadclause,nbtotalbad,precisionBad,recallBad,FBad,accuracy)
c additional predictionAge 500 318522 1642997 0.88 0.17 0.29 1513033 188558 0.10 0.09 0.10 0.24 (nbgoodclauses,nbtotalgood,precisionGood,recallGood,FGood,nbbadclause,nbtotalbad,precisionBad,recallBad,FBad,accuracy)
c additional predictionAge 1000 345547 1642997 0.88 0.18 0.31 1486008 188558 0.10 0.09 0.09 0.25 (nbgoodclauses,nbtotalgood,precisionGood,recallGood,FGood,nbbadclause,nbtotalbad,precisionBad,recallBad,FBad,accuracy)
c additional predictionAge 2500 389767 1642997 0.88 0.21 0.34 1441788 188558 0.10 0.09 0.09 0.26 (nbgoodclauses,nbtotalgood,precisionGood,recallGood,FGood,nbbadclause,nbtotalbad,precisionBad,recallBad,FBad,accuracy)
c additional predictionAge 5000 428479 1642997 0.88 0.23 0.36 1403076 188558 0.10 0.08 0.09 0.28 (nbgoodclauses,nbtotalgood,precisionGood,recallGood,FGood,nbbadclause,nbtotalbad,precisionBad,recallBad,FBad,accuracy)
c additional predictionAge 10000 472241 1642997 0.88 0.25 0.39 1359314 188558 0.10 0.08 0.09 0.30 (nbgoodclauses,nbtotalgood,precisionGood,recallGood,FGood,nbbadclause,nbtotalbad,precisionBad,recallBad,FBad,accuracy)
c additional predictionAge 25000 545320 1642997 0.88 0.29 0.44 1286235 188558 0.10 0.08 0.09 0.33 (nbgoodclauses,nbtotalgood,precisionGood,recallGood,FGood,nbbadclause,nbtotalbad,precisionBad,recallBad,FBad,accuracy)
c additional predictionAge 50000 611630 1642997 0.89 0.33 0.48 1219925 188558 0.10 0.07 0.08 0.36 (nbgoodclauses,nbtotalgood,precisionGood,recallGood,FGood,nbbadclause,nbtotalbad,precisionBad,recallBad,FBad,accuracy)
c additional predictionAge 100000 695317 1642997 0.89 0.38 0.53 1136238 188558 0.10 0.07 0.08 0.40 (nbgoodclauses,nbtotalgood,precisionGood,recallGood,FGood,nbbadclause,nbtotalbad,precisionBad,recallBad,FBad,accuracy)
c additional predictionTicks 1 130440 1642997 0.90 0.07 0.13 1701115 188558 0.10 0.11 0.11 0.16 (nbgoodclauses,nbtotalgood,precisionGood,recallGood,FGood,nbbadclause,nbtotalbad,precisionBad,recallBad,FBad,accuracy)
c additional predictionTicks 10 256103 1642997 0.89 0.14 0.24 1575452 188558 0.10 0.10 0.10 0.21 (nbgoodclauses,nbtotalgood,precisionGood,recallGood,FGood,nbbadclause,nbtotalbad,precisionBad,recallBad,FBad,accuracy)
c additional predictionTicks 25 369187 1642997 0.89 0.20 0.33 1462368 188558 0.10 0.09 0.10 0.26 (nbgoodclauses,nbtotalgood,precisionGood,recallGood,FGood,nbbadclause,nbtotalbad,precisionBad,recallBad,FBad,accuracy)
c additional predictionTicks 50 454016 1642997 0.89 0.25 0.39 1377539 188558 0.10 0.08 0.09 0.30 (nbgoodclauses,nbtotalgood,precisionGood,recallGood,FGood,nbbadclause,nbtotalbad,precisionBad,recallBad,FBad,accuracy)
c additional predictionTicks 100 553406 1642997 0.89 0.30 0.45 1278149 188558 0.10 0.08 0.09 0.34 (nbgoodclauses,nbtotalgood,precisionGood,recallGood,FGood,nbbadclause,nbtotalbad,precisionBad,recallBad,FBad,accuracy)
c additional predictionTicks 250 693023 1642997 0.89 0.38 0.53 1138532 188558 0.10 0.07 0.08 0.40 (nbgoodclauses,nbtotalgood,precisionGood,recallGood,FGood,nbbadclause,nbtotalbad,precisionBad,recallBad,FBad,accuracy)
c additional predictionTicks 500 812749 1642997 0.89 0.44 0.59 1018806 188558 0.10 0.06 0.08 0.45 (nbgoodclauses,nbtotalgood,precisionGood,recallGood,FGood,nbbadclause,nbtotalbad,precisionBad,recallBad,FBad,accuracy)
c additional predictionTicks 1000 934092 1642997 0.90 0.51 0.65 897463 188558 0.10 0.06 0.07 0.51 (nbgoodclauses,nbtotalgood,precisionGood,recallGood,FGood,nbbadclause,nbtotalbad,precisionBad,recallBad,FBad,accuracy)
c additional predictionTicks 2500 1092164 1642997 0.90 0.60 0.72 739391 188558 0.10 0.05 0.06 0.58 (nbgoodclauses,nbtotalgood,precisionGood,recallGood,FGood,nbbadclause,nbtotalbad,precisionBad,recallBad,FBad,accuracy)
c additional predictionTicks 5000 1202775 1642997 0.90 0.66 0.76 628780 188558 0.10 0.04 0.06 0.63 (nbgoodclauses,nbtotalgood,precisionGood,recallGood,FGood,nbbadclause,nbtotalbad,precisionBad,recallBad,FBad,accuracy)
c additional predictionTicks 10000 1308958 1642997 0.90 0.72 0.80 522597 188558 0.11 0.03 0.05 0.67 (nbgoodclauses,nbtotalgood,precisionGood,recallGood,FGood,nbbadclause,nbtotalbad,precisionBad,recallBad,FBad,accuracy)
c additional predictionTicks 25000 1449032 1642997 0.90 0.79 0.84 382523 188558 0.11 0.03 0.04 0.73 (nbgoodclauses,nbtotalgood,precisionGood,recallGood,FGood,nbbadclause,nbtotalbad,precisionBad,recallBad,FBad,accuracy)
c additional predictionTicks 50000 1561603 1642997 0.90 0.85 0.88 269952 188558 0.11 0.02 0.03 0.78 (nbgoodclauses,nbtotalgood,precisionGood,recallGood,FGood,nbbadclause,nbtotalbad,precisionBad,recallBad,FBad,accuracy)
c additional predictionTicks 100000 1673340 1642997 0.90 0.91 0.91 158215 188558 0.11 0.01 0.02 0.83 (nbgoodclauses,nbtotalgood,precisionGood,recallGood,FGood,nbbadclause,nbtotalbad,precisionBad,recallBad,FBad,accuracy)
c additional lifetimeGood 2 4 4 4 88 48192 411371 867162 1115982 1462710 1827592 1828909 (0,1,5,10,25,50,75,90,95,99,100-1,100)
c additional lifetimeBad 1 4 4 4 40 35536 365291 778179 1020938 1400063 1826319 1828143 (0,1,5,10,25,50,75,90,95,99,100-1,100)
c additional lifetimeBadBad 4 4 4 4 4 12 148 5348 29324 91596 1325442 1421450 (0,1,5,10,25,50,75,90,95,99,100-1,100)
c additional compositionBad 1 2 4 5 8 14 26 41 53 87 248 262 (0,1,5,10,25,50,75,90,95,99,100-1,100)
c additional compositionBadWithGood 0 0 0 0 1 2 3 6 8 15 48 49 (0,1,5,10,25,50,75,90,95,99,100-1,100)
c additional compositionBadWithBad 0 0 0 0 0 1 2 3 5 7 23 23 (0,1,5,10,25,50,75,90,95,99,100-1,100)
c additional compositionBadWithInitial 0 0 1 2 5 10 21 35 46 79 231 238 (0,1,5,10,25,50,75,90,95,99,100-1,100)
c additional compositionGood 1 2 3 5 7 15 28 44 56 90 286 294 (0,1,5,10,25,50,75,90,95,99,100-1,100)
c additional compositionGoodWithGood 0 0 0 1 1 3 6 9 13 20 55 58 (0,1,5,10,25,50,75,90,95,99,100-1,100)
c additional compositionGoodWithInitial 0 0 1 2 5 11 23 38 49 79 277 288 (0,1,5,10,25,50,75,90,95,99,100-1,100)
c additional propagationGood total 13268629 percentiles 0 1 1 1 1 1 2 6 16 124 12714 13518 (0,1,5,10,25,50,75,90,95,99,100-1,100)
c additional propagationBad total 362467 percentiles 1 1 1 1 1 1 2 3 4 11 1361 1564 (0,1,5,10,25,50,75,90,95,99,100-1,100)
c additional resolutionGood total 6827327 percentiles 0 1 1 1 1 1 2 4 10 60 4739 5967 (0,1,5,10,25,50,75,90,95,99,100-1,100)
c additional resolutionBad total 237631 percentiles 0 0 0 0 1 1 1 2 3 7 320 483 (0,1,5,10,25,50,75,90,95,99,100-1,100)
Computing K-Core for 1890706 clauses...
c building structure for KCore computation.
c the graph has 37713045 edges, maxdegree=294
c we start the KCore with the value 20
c Non directed graph built
K=20,1134511 nodes removed so far
K=21,1179081 nodes removed so far
K=22,1220753 nodes removed so far
K=23,1259232 nodes removed so far
K=24,1295293 nodes removed so far
K=25,1328754 nodes removed so far
K=26,1360661 nodes removed so far
K=27,1390829 nodes removed so far
K=28,1419448 nodes removed so far
K=29,1447412 nodes removed so far
K=30,1473954 nodes removed so far
K=31,1499939 nodes removed so far
K=32,1524817 nodes removed so far
K=33,1548507 nodes removed so far
K=34,1570522 nodes removed so far
K=35,1591555 nodes removed so far
K=36,1611879 nodes removed so far
K=37,1630753 nodes removed so far
K=38,1648360 nodes removed so far
K=39,1665253 nodes removed so far
K=40,1681257 nodes removed so far
K=41,1695841 nodes removed so far
K=42,1709732 nodes removed so far
K=43,1722291 nodes removed so far
K=44,1733980 nodes removed so far
K=45,1745252 nodes removed so far
K=46,1755527 nodes removed so far
K=47,1765077 nodes removed so far
K=48,1774076 nodes removed so far
K=49,1782143 nodes removed so far
K=50,1789741 nodes removed so far
K=51,1796854 nodes removed so far
K=52,1803339 nodes removed so far
K=53,1809429 nodes removed so far
K=54,1815285 nodes removed so far
K=55,1820792 nodes removed so far
K=56,1825886 nodes removed so far
K=57,1830730 nodes removed so far
K=58,1834981 nodes removed so far
K=59,1839298 nodes removed so far
K=60,1842666 nodes removed so far
K=61,1845551 nodes removed so far
K=62,1848091 nodes removed so far
K=63,1850116 nodes removed so far
K=64,1852394 nodes removed so far
K=65,1854354 nodes removed so far
K=66,1857013 nodes removed so far
K=67,1860541 nodes removed so far
K=68,1861720 nodes removed so far
K=69,1862893 nodes removed so far
K=70,1864195 nodes removed so far
K=71,1865156 nodes removed so far
K=72,1865974 nodes removed so far
K=73,1866679 nodes removed so far
K=74,1867547 nodes removed so far
K=75,1868239 nodes removed so far
K=76,1868939 nodes removed so far
K=77,1869647 nodes removed so far
K=78,1870240 nodes removed so far
K=79,1870876 nodes removed so far
K=80,1871444 nodes removed so far
K=81,1871928 nodes removed so far
K=82,1872570 nodes removed so far
K=83,1873188 nodes removed so far
K=84,1873908 nodes removed so far
K=85,1876215 nodes removed so far
K=86,1876639 nodes removed so far
K=87,1876922 nodes removed so far
K=88,1876993 nodes removed so far
K=89,1877226 nodes removed so far
K=90,1877273 nodes removed so far
K=91,1877318 nodes removed so far
K=92,1877368 nodes removed so far
K=93,1877429 nodes removed so far
K=94,1877482 nodes removed so far
K=95,1877553 nodes removed so far
K=96,1877879 nodes removed so far
K=97,1878015 nodes removed so far
K=98,1878042 nodes removed so far
K=99,1878051 nodes removed so far
K=100,1878066 nodes removed so far
K=101,1878078 nodes removed so far
K=102,1878095 nodes removed so far
K=103,1878104 nodes removed so far
K=104,1878107 nodes removed so far
K=105,1878112 nodes removed so far
K=106,1878119 nodes removed so far
K=107,1878122 nodes removed so far
K=108,1878131 nodes removed so far
K=109,1878134 nodes removed so far
K=110,1878143 nodes removed so far
K=111,1878152 nodes removed so far
K=112,1878154 nodes removed so far
K=113,1878160 nodes removed so far
K=114,1878166 nodes removed so far
K=115,1878174 nodes removed so far
K=116,1878178 nodes removed so far
K=117,1878182 nodes removed so far
K=118,1878189 nodes removed so far
K=119,1878194 nodes removed so far
K=120,1878198 nodes removed so far
K=121,1878201 nodes removed so far
K=122,1878206 nodes removed so far
K=123,1878209 nodes removed so far
K=124,1878224 nodes removed so far
K=125,1878227 nodes removed so far
K=126,1878234 nodes removed so far
K=127,1878237 nodes removed so far
K=128,1878243 nodes removed so far
K=129,1878247 nodes removed so far
K=130,1878251 nodes removed so far
K=131,1878257 nodes removed so far
K=132,1878263 nodes removed so far
K=133,1878269 nodes removed so far
K=134,1878272 nodes removed so far
K=135,1878274 nodes removed so far
K=136,1878280 nodes removed so far
K=137,1878287 nodes removed so far
K=138,1878294 nodes removed so far
K=139,1878296 nodes removed so far
K=140,1878298 nodes removed so far
K=141,1878306 nodes removed so far
K=142,1878311 nodes removed so far
K=143,1878320 nodes removed so far
K=144,1878320 nodes removed so far
K=145,1878322 nodes removed so far
K=146,1878325 nodes removed so far
K=147,1878326 nodes removed so far
K=148,1878329 nodes removed so far
K=149,1878331 nodes removed so far
K=150,1878336 nodes removed so far
K=151,1878339 nodes removed so far
K=152,1878343 nodes removed so far
K=153,1878352 nodes removed so far
K=154,1878354 nodes removed so far
K=155,1878358 nodes removed so far
K=156,1878360 nodes removed so far
K=157,1878365 nodes removed so far
K=158,1878376 nodes removed so far
K=159,1878379 nodes removed so far
K=160,1878389 nodes removed so far
K=161,1878399 nodes removed so far
K=162,1878405 nodes removed so far
K=163,1878416 nodes removed so far
K=164,1878420 nodes removed so far
K=165,1878430 nodes removed so far
K=166,1878447 nodes removed so far
K=167,1878453 nodes removed so far
K=168,1878472 nodes removed so far
K=169,1878483 nodes removed so far
K=170,1878495 nodes removed so far
K=171,1878506 nodes removed so far
K=172,1878547 nodes removed so far
K=173,1878996 nodes removed so far
KCore = 173
Building structure for PR...
Computing PR...
Pageranking 1849158 nodes done in 19 iteration. cumulError=5.17474e-11
clause level 376 (Kante=186, Kdesc=160, core=2):-539 309 -4 411 412 562 14 414 107 415 261 6 253 311 310 -413 312 96 64 
clause level 1796 (Kante=286, Kdesc=208, core=2):-539 335 98 -410 347 70 106 407 408 561 88 252 251 90 254 11 -253 527 59 
clause level 2091 (Kante=282, Kdesc=80, core=2):-539 254 5 311 251 -334 312 413 412 70 544 332 98 333 335 
clause level 380 (Kante=294, Kdesc=45, core=2):-539 261 3 -413 271 11 14 562 414 411 412 107 415 -12 16 13 10 9 15 
clause level 2687 (Kante=284, Kdesc=6, core=2):-539 107 -8 6 5 7 57 4 2 3 
clause level 191 (Kante=188, Kdesc=27, core=2):11 14 6 13 12 3 8 4 10 2 5 280 96 64 309 310 311 121 -262 -7 15 
clause level 191 (Kante=183, Kdesc=44, core=2):3 6 14 12 2 5 11 13 4 10 16 225 96 64 309 310 -166 311 463 464 465 165 -262 -15 7 
clause level 191 (Kante=177, Kdesc=30, core=2):5 3 13 14 6 12 4 16 8 10 11 2 274 284 275 96 312 64 309 310 256 311 119 203 281 465 283 -15 
clause level 2137 (Kante=268, Kdesc=27, core=2):70 98 5 562 411 107 412 414 -413 335 332 334 333 415 347 254 64 262 96 311 310 -251 312 99 547 72 344 59 252 527 -345 309 253 330 90 
clause level 194 (Kante=255, Kdesc=9, core=2):-539 311 253 64 96 312 309 310 14 98 333 414 335 332 7 5 334 -70 -262 -99 -407 
clause level 2279 (Kante=264, Kdesc=8, core=2):-539 252 59 90 527 312 70 96 347 64 310 311 309 269 -335 7 333 88 544 332 98 334 -344 345 99 72 547 
clause level 2295 (Kante=259, Kdesc=14, core=2):97 335 344 99 329 331 90 59 312 96 309 311 64 310 261 -408 7 561 88 106 410 407 334 333 98 332 70 347 -72 -411 414 413 107 412 415 345 547 562 
clause level 191 (Kante=213, Kdesc=12, core=2):260 64 14 2 6 10 5 13 96 312 -409 309 464 15 -252 -72 -107 262 7 365 39 558 361 83 104 395 396 397 405 55 
clause level 490 (Kante=249, Kdesc=4, core=2):254 309 106 107 -13 97 330 68 16 335 333 11 10 332 12 9 98 6 251 -334 14 15 312 331 310 311 345 347 547 -328 -99 544 70 344 72 
clause level 164 (Kante=185, Kdesc=7, core=2):14 16 -262 10 13 12 6 3 8 2 4 5 347 547 96 64 310 311 281 15 -408 -7 -251 
clause level 314 (Kante=196, Kdesc=4, core=2):-539 309 11 10 14 15 259 261 412 411 -413 335 6 462 96 312 64 12 310 311 253 107 415 562 414 -262 -5 
clause level 191 (Kante=186, Kdesc=1, core=2):311 284 10 4 14 5 13 16 12 3 11 6 229 2 96 312 64 309 310 -262 -15 7 -413 
clause level 333 (Kante=198, Kdesc=1, core=2):13 4 14 6 12 -72 3 10 11 5 225 96 312 64 309 310 437 464 -331 -262 259 547 91 261 529 99 260 344 61 7 347 -253 -333 -106 15 
clause level 191 (Kante=189, Kdesc=1, core=2):-539 96 2 6 14 8 16 -61 312 64 309 311 288 121 287 165 286 -106 -252 -267 
clause level 1780 (Kante=206, Kdesc=1, core=2):4 2 269 92 344 347 99 72 345 270 5 14 6 8 225 96 312 64 310 311 465 104 52 105 -414 -329 7 -90 -332 68 331 97 330 328 
clause level 191 (Kante=204, Kdesc=1, core=2):-539 311 312 64 310 2 -335 -346 -61 -106 -252 -267 
clause level 2737 (Kante=245, Kdesc=5, core=2):-539 310 267 331 330 329 328 68 97 344 72 99 7 311 309 312 -88 96 64 347 561 408 407 410 106 -345 -98 333 
clause level 314 (Kante=186, Kdesc=5, core=2):-539 225 6 412 335 14 261 30 -413 96 312 64 309 310 311 411 269 253 306 22 368 107 415 562 414 38 364 330 13 16 15 -332 -90 -3 
clause level 2597 (Kante=232, Kdesc=3, core=2):-539 330 64 334 333 335 10 15 312 -7 413 5 59 309 4 8 6 96 3 310 345 262 1 99 344 347 2 97 68 408 92 311 547 72 261 270 331 90 203 285 280 284 255 115 415 414 410 199 
clause level 1062 (Kante=202, Kdesc=3, core=2):-539 107 -335 13 14 413 331 10 2 8 3 6 259 262 261 5 96 312 64 309 310 311 410 106 407 88 408 561 -345 -251 -4 
clause level 2374 (Kante=233, Kdesc=1, core=2):96 312 -331 262 70 332 98 334 333 335 252 310 90 311 5 527 254 261 8 4 253 64 6 59 7 2 -251 -415 270 271 414 412 107 411 408 407 410 413 562 329 330 68 328 97 
clause level 2717 (Kante=248, Kdesc=11, core=2):345 344 310 99 333 334 -253 270 -88 268 415 269 14 311 64 312 72 347 7 5 96 309 -329 411 267 97 331 330 68 543 328 408 410 106 407 561 59 252 
clause level 2431 (Kante=218, Kdesc=6, core=2):-15 561 88 410 415 414 334 98 335 -72 544 331 329 330 68 328 97 6 2 -333 96 312 64 309 310 311 -90 
clause level 314 (Kante=203, Kdesc=3, core=2):-539 311 12 11 15 259 261 412 411 -413 96 309 310 14 253 107 415 562 414 -262 -72 -2 
clause level 1063 (Kante=205, Kdesc=2, core=2):6 261 3 7 5 8 13 35 14 12 16 15 11 367 -72 -413 412 4 462 96 312 64 309 310 311 411 253 107 415 562 414 330 -254 70 98 333 43 51 395 -97 262 260 -408 251 527 252 59 90 410 
clause level 191 (Kante=210, Kdesc=1, core=2):463 253 15 331 70 371 333 334 5 4 3 8 6 252 90 12 2 411 412 107 414 415 10 -7 280 96 64 309 310 311 121 -262 -368 -106 -345 335 
clause level 377 (Kante=203, Kdesc=1, core=2):329 226 -410 365 270 13 14 12 16 10 11 -72 96 309 310 311 249 330 345 97 328 344 547 99 347 331 -260 -413 412 411 414 107 415 261 253 562 -15 333 98 332 334 
clause level 700 (Kante=260, Kdesc=1, core=2):-410 5 96 312 64 309 310 311 -332 -412 -261 70 333 335 334 98 414 411 415 107 413 262 61 91 259 260 529 562 
clause level 2184 (Kante=245, Kdesc=5, core=2):261 61 90 259 4 310 334 262 70 312 335 344 99 547 347 64 311 309 96 -251 -345 72 59 252 254 253 527 415 412 107 411 562 414 -413 
clause level 1558 (Kante=217, Kdesc=3, core=2):411 414 12 11 270 92 268 10 267 335 98 334 70 333 61 91 259 261 262 260 309 311 96 310 64 312 412 6 462 263 253 107 415 -5 330 99 344 72 -332 -345 -90 19 305 106 408 88 68 329 3 2 4 8 1 7 
clause level 191 (Kante=206, Kdesc=1, core=2):106 330 331 13 14 12 16 10 11 96 64 309 310 464 9 268 92 271 269 531 410 408 -253 407 409 260 254 -15 59 252 90 251 -412 270 -99 -332 47 396 405 23 307 55 
clause level 2431 (Kante=191, Kdesc=4, core=2):-539 463 103 335 333 80 334 28 29 332 4 413 259 411 99 414 347 91 529 107 547 6 1 344 2 415 285 280 72 345 3 10 12 14 8 5 13 255 199 284 96 312 64 309 310 115 311 98 203 -7 
clause level 361 (Kante=228, Kdesc=4, core=2):-539 96 331 7 6 8 4 5 3 260 -334 262 -413 412 335 328 312 64 309 411 253 107 415 562 414 -72 -90 
clause level 330 (Kante=193, Kdesc=1, core=2):311 14 -262 407 409 3 5 6 261 61 4 259 260 91 10 13 -413 16 12 96 312 64 309 310 201 -70 -99 -251 7 529 412 415 414 562 411 107 347 547 344 345 72 
clause level 191 (Kante=187, Kdesc=2, core=2):96 461 5 14 12 2 6 11 13 10 16 -262 312 64 309 310 311 463 165 -333 -15 -106 
clause level 191 (Kante=205, Kdesc=3, core=2):-539 334 544 411 415 -72 562 414 4 13 16 14 3 12 96 312 309 310 311 -409 -262 15 -328 -412 413 107 
clause level 2703 (Kante=180, Kdesc=1, core=2):96 312 4 408 410 106 88 561 12 332 5 407 10 8 466 424 434 98 64 309 310 167 311 423 13 16 14 334 7 6 3 -251 261 259 61 -107 15 347 345 72 99 344 -68 270 
clause level 191 (Kante=201, Kdesc=1, core=2):96 3 7 2 6 312 64 309 310 311 -335 -61 367 -330 -107 -251 
clause level 191 (Kante=199, Kdesc=1, core=2):-539 12 78 368 -70 7 -254 97 2 5 6 330 329 4 59 252 253 90 251 527 16 14 13 369 8 96 312 64 309 310 311 229 -174 435 173 469 -261 -412 
clause level 2411 (Kante=224, Kdesc=1, core=2):8 97 -415 263 331 527 90 252 311 64 312 3 6 332 333 544 408 -99 16 260 259 262 261 61 91 310 96 309 72 344 345 347 413 411 414 107 412 562 547 
clause level 314 (Kante=191, Kdesc=2, core=2):-539 64 13 12 14 259 261 412 411 -413 30 6 312 15 309 311 269 253 306 22 368 107 415 562 414 38 364 330 -262 -345 -2 252 59 90 251 254 
clause level 191 (Kante=207, Kdesc=3, core=2):13 2 332 414 5 4 14 3 16 12 10 333 96 312 64 310 311 -270 -254 15 -408 -344 -91 
clause level 1062 (Kante=195, Kdesc=1, core=2):98 121 4 8 2 5 96 312 64 310 311 3 -61 -90 -407 -7 333 332 335 -330 70 -415 -345 334 410 106 88 408 561 
clause level 1077 (Kante=195, Kdesc=1, core=2):10 412 331 -335 330 97 413 328 414 15 14 2 8 3 13 6 262 261 5 96 312 64 309 310 311 -345 -251 -4 7 410 106 407 408 88 561 98 334 344 72 99 347 547 1 254 
clause level 191 (Kante=195, Kdesc=2, core=2):-539 10 12 14 6 5 96 312 64 309 310 311 -254 -61 -345 -98 -411 
clause level 293 (Kante=210, Kdesc=1, core=2):464 414 -261 412 4 12 10 13 14 96 312 64 309 311 -334 -410 -344 -252 99 72 347 547 
clause level 377 (Kante=188, Kdesc=2, core=2):312 5 13 14 -410 12 16 10 11 226 96 64 309 310 311 249 165 -329 -332 -413 412 411 414 107 415 261 253 562 -15 
clause level 191 (Kante=188, Kdesc=3, core=2):-539 13 6 10 11 12 3 8 4 2 5 280 96 64 309 310 311 463 121 -262 -368 
clause level 314 (Kante=217, Kdesc=3, core=2):-106 332 334 395 281 397 -413 269 270 31 30 23 22 306 307 15 252 464 90 -347 59 -262 259 261 412 411 6 225 96 312 64 310 311 368 107 415 562 414 360 38 54 46 364 330 -3 331 406 404 4 5 7 
clause level 191 (Kante=211, Kdesc=3, core=2):-539 3 411 414 415 412 107 413 12 13 15 10 4 8 6 5 -253 312 64 309 310 311 -335 -408 -99 
clause level 1758 (Kante=204, Kdesc=1, core=2):96 3 345 344 347 4 6 5 99 312 64 309 310 311 -98 -251 7 -412 -88 68 329 328 331 -330 261 
clause level 294 (Kante=230, Kdesc=2, core=2):311 345 7 6 405 47 396 14 15 72 -410 334 347 -331 261 91 464 61 262 -251 411 415 414 107 412 413 96 312 64 309 310 55 
clause level 191 (Kante=198, Kdesc=2, core=2):104 4 5 14 12 13 16 6 10 8 11 64 309 310 311 249 -411 -15 -98 7 251 -261 23 31 -410 83 -72 396 
clause level 191 (Kante=198, Kdesc=3, core=2):-539 309 6 12 3 16 8 4 2 5 13 96 64 10 310 311 281 121 165 -262 68 21 -7 -333 -106 -251 
clause level 2816 (Kante=225, Kdesc=1, core=2):309 410 4 8 5 -333 96 312 64 310 311 92 72 347 344 99 345 7 59 -414 106 6 88 561 408 253 407 331 98 544 332 
clause level 333 (Kante=184, Kdesc=1, core=2):10 309 261 412 335 411 -413 14 30 6 96 312 64 259 310 -166 311 464 165 269 253 306 22 368 107 415 562 414 38 364 330 -262 547 12 11 -72 91 529 99 260 344 61 7 347 70 333 406 463 271 252 59 251 254 68 90 -407 -3 13 15 
clause level 191 (Kante=204, Kdesc=2, core=2):-539 -397 68 5 6 4 2 21 3 8 96 312 64 309 311 161 -72 -7 -98 -408 -259 
clause level 331 (Kante=227, Kdesc=2, core=2):309 332 251 -409 253 5 414 107 415 4 8 412 2 562 411 7 1 15 13 6 259 261 -413 96 312 64 310 311 -262 -99 -3 333 252 98 91 529 260 61 347 547 344 345 72 
clause level 192 (Kante=214, Kdesc=3, core=2):310 309 92 105 104 5 3 6 12 14 13 16 225 96 64 52 311 -410 -414 -328 -90 
clause level 191 (Kante=203, Kdesc=1, core=2):309 397 -259 83 404 395 43 6 5 8 4 2 3 11 462 96 312 64 310 311 -72 -254 -7 -98 -408 
Found 249 good successive clauses in order (184 originals, maxlevel=2816)
c KCorePR 1890706 173 249 184 2816
c DistanceTo...Unseen 14886
c DistanceToGoodKCore c   DIST 0: 249 (+249) / 249 (+249)
c   DIST 1: 1155347 (+1155098) / 1046422 (+1046173)
c   DIST 2: 1824583 (+669236) / 1650651 (+604229)
c   DIST 3: 1866440 (+41857) / 1684623 (+33972)
c   DIST 4: 1871325 (+4885) / 1687820 (+3197)
c   DIST 5: 1872709 (+1384) / 1688424 (+604)
c   DIST 6: 1873491 (+782) / 1688589 (+165)
c   DIST 7: 1874006 (+515) / 1688624 (+35)
c   DIST 8: 1874451 (+445) / 1688636 (+12)
c   DIST 9: 1874833 (+382) / 1688645 (+9)
c   DIST 10: 1875166 (+333) / 1688647 (+2)
c   DIST 11: 1875413 (+247) / 1688647 (+0)
c   DIST 12: 1875571 (+158) / 1688647 (+0)
c   DIST 13: 1875675 (+104) / 1688647 (+0)
c   DIST 14: 1875743 (+68) / 1688647 (+0)
c   DIST 15: 1875793 (+50) / 1688647 (+0)
c   DIST 16: 1875815 (+22) / 1688647 (+0)
c   DIST 17: 1875820 (+5) / 1688647 (+0)
c TotalDistance=1890706
No graph is dumped
c result of core 2 is UNSAT
c One thread has finished
c Core 2 said it finished
c result of core 0 is UNKNOWN
c result of core 1 is UNKNOWN
c result of core 3 is UNKNOWN
c restarts              : 473 (968 conflicts in avg)
c blocked restarts      : 4937 (multiple: 260) 
c last block at restart : 473
c nb ReduceDB           : 17
c nb removed Clauses    : 321674
c nb learnts DL2        : 354
c nb learnts size 2     : 29
c nb learnts size 1     : 4
c conflicts             : 457889         (275 /sec)
c decisions             : 603711         (0.00 % random) (363 /sec)
c propagations          : 43634405       (26209 /sec)
c conflict literals     : 12757261       (0.88 % deleted)
c nb reduced Clauses    : 4824
c CPU time              : 1664.89 s

s INDETERMINATE
