c
c This is glucose-proof 1.0 based on  2.1 --  (thanks to MiniSAT)
c
c EXPERIMENTAL EASY PARALLEL (ROUND ROBIN) VERSION
c
c WARNING: for repeatability, setting FPU to use double precision
c Parallel version 16 solvers created.
c ========================================[ Problem Statistics ]===========================================
c |                                                                                                       |
c |  Number of variables:         18813                                                                   |
c |  Number of clauses:          124625                                                                   |
c |  Parse time:                   0.78 s                                                                 |
c |                                                                                                       |
c ========================================[ MAGIC CONSTANTS ]==============================================
c | Constants are supposed to work well together :-)                                                      |
c | however, if you find better choices, please let us known...                                           |
c |-------------------------------------------------------------------------------------------------------|
c |                                |                                |                                     |
c | - Restarts:                    | - Reduce Clause DB:            | - Minimize Asserting:               |
c |   * LBD Queue    :     50      |   * First     :   4000         |    * size <  30                     |
c |   * Trail  Queue :   5000      |   * Inc       :    300         |    * lbd  <   6                     |
c |   * K            :   0.80      |   * Special   :   1000         |                                     |
c |   * R            :   1.40      |   * Protected :  (lbd)< 30     |                                     |
c |                                |                                |                                     |
c ==================================[ Search Statistics (every  10000 conflicts) ]=========================
c |                                                                                                       |
c |          RESTARTS           |          ORIGINAL         |              LEARNT              | Progress |
c |       NB   Blocked  Avg Cfc |    Vars  Clauses Literals |   Red   Learnts    LBD2  Removed |          |
c =========================================================================================================
c |       60         0      166 |   18529   124625   436498 |     1     8001      408     4903 |  1.510 % |
c |       90        59      222 |   18526   124625   436498 |     3     6967      756    32394 |  1.526 % |
c |      171        89      175 |   18520   124625   436498 |     3    16967     1031    32394 |  1.557 % |
c |      231       116      173 |   18516   124625   436498 |     4    17682     1219    52532 |  1.579 % |
c |      290       139      172 |   18514   124625   436498 |     5    15844     1390    75520 |  1.589 % |
c |      334       159      179 |   18514   124625   436498 |     5    25844     1462    75520 |  1.589 % |
c |      396       198      176 |   18514   124625   436498 |     6    21433     1571    96947 |  1.589 % |
c |      429       229      186 |   18514   124625   436498 |     6    31433     1624    96947 |  1.589 % |
c |      456       277      197 |   18514   124625   436498 |     7    24428     1657   119585 |  1.589 % |
c |      483       330      207 |   18514   124625   436498 |     7    34428     1717   119585 |  1.589 % |
c |      506       381      217 |   18514   124625   436498 |     8    24820     1779   144314 |  1.589 % |
c |      518       389      231 |   18514   124625   436498 |     8    34820     1805   144314 |  1.589 % |
c |      535       443      242 |   18514   124625   436498 |     9    22622     1821   171911 |  1.589 % |
c |      555       543      252 |   18514   124625   436498 |     9    32622     1890   171911 |  1.589 % |
c |      584       580      256 |   18514   124625   436498 |     9    42622     1919   171911 |  1.589 % |
c |      611       616      261 |   18514   124625   436498 |    10    27826     1958   200613 |  1.589 % |
c |      615       619      276 |   18514   124625   436498 |    10    37826     1981   200613 |  1.589 % |
c |      627       683      287 |   18514   124625   436498 |    10    47826     2004   200613 |  1.589 % |
c |      633       728      300 |   18514   124625   436498 |    11    30417     2021   231533 |  1.589 % |
c empty clause found by core 6 at conflict 197534
*
c checking the resolution graph...OK
c All useful bySize 370025 clauses, percentiles 0 2 2 3 5 7 11 16 19 28 77 78 (0,1,5,10,25,50,75,90,95,99,100-1,100)
c All useless bySize 2915663 clauses, percentiles 0 3 6 8 12 19 32 55 79 174 1151 1167 (0,1,5,10,25,50,75,90,95,99,100-1,100)
c ProofOnly useful bySize 317339 clauses, percentiles 0 2 3 4 6 8 12 16 20 29 77 78 (0,1,5,10,25,50,75,90,95,99,100-1,100)
c ProofOnly useless bySize 2843196 clauses, percentiles 1 5 7 8 12 19 33 55 80 176 1151 1167 (0,1,5,10,25,50,75,90,95,99,100-1,100)
c All useful byFinalLBD 370025 clauses, percentiles 0 1 1 2 2 4 5 7 9 11 37 37 (0,1,5,10,25,50,75,90,95,99,100-1,100)
c All useless byFinalLBD 2915663 clauses, percentiles 0 2 3 4 6 9 14 21 28 51 184 301 (0,1,5,10,25,50,75,90,95,99,100-1,100)
c ProofOnly useful byFinalLBD 317339 clauses, percentiles 0 1 1 2 2 4 6 7 9 11 26 27 (0,1,5,10,25,50,75,90,95,99,100-1,100)
c ProofOnly useless byFinalLBD 2843196 clauses, percentiles 1 2 3 4 6 9 14 21 28 52 184 301 (0,1,5,10,25,50,75,90,95,99,100-1,100)
c All useful byInitialLBD 370025 clauses, percentiles 0 2 2 2 3 4 6 8 9 11 37 37 (0,1,5,10,25,50,75,90,95,99,100-1,100)
c All useless byInitialLBD 2915663 clauses, percentiles 0 2 4 5 7 9 14 21 28 51 184 301 (0,1,5,10,25,50,75,90,95,99,100-1,100)
c ProofOnly useful byInitialLBD 317339 clauses, percentiles 0 2 2 3 4 5 6 8 9 11 26 27 (0,1,5,10,25,50,75,90,95,99,100-1,100)
c ProofOnly useless byInitialLBD 2843196 clauses, percentiles 1 3 4 5 7 10 14 21 28 52 184 301 (0,1,5,10,25,50,75,90,95,99,100-1,100)
c Literals ProofOnly useful 3012000
c Literals ProofOnly useless 82678498
c additional windowsGood 1 1 1 1 1 1 1 2 2 3 7 7 (0,1,5,10,25,50,75,90,95,99,100-1,100)
c additional windowsBad 1 1 1 1 3 6 13 15 31 81 543 779 (0,1,5,10,25,50,75,90,95,99,100-1,100)
c additional 1WindowNoDecision 245986 124486 0.51 32869 13074 0.4 (nbWindowsGood,nbWindowsNoDecisionGood,nbWindowsBad,nbWindowsNoDecisionBad
c additional topclausessize all (10%,5%,1%,top) 20.92 24.63 33.26 78
c additional topclausessize proofonly (10%,5%,1%,top) 21.29 25.04 33.58 78
c additional topclausesinitialLBD all (10%,5%,1%,top) 19.04 22.72 31.47 78
c additional topclausesinitialLBD proofonly (10%,5%,1%,top) 17.71 21.31 30.08 78
c additional topclausesfinalLBD all (10%,5%,1%,top) 16.50 20.07 28.80 78
c additional topclausesfinalLBD proofonly (10%,5%,1%,top) 15.68 19.21 27.88 78
c additional predictionInitialLBD 1 40 317339 0.75 0.00 0.00 3160495 2843196 0.90 8.96 1.64 0.90 (nbgoodclauses,nbtotalgood,precisionGood,recallGood,FGood,nbbadclause,nbtotalbad,precisionBad,recallBad,FBad,accuracy)
c additional predictionInitialLBD 2 29996 317339 0.70 0.07 0.12 3130539 2843196 0.91 8.93 1.64 0.90 (nbgoodclauses,nbtotalgood,precisionGood,recallGood,FGood,nbbadclause,nbtotalbad,precisionBad,recallBad,FBad,accuracy)
c additional predictionInitialLBD 3 127547 317339 0.60 0.24 0.34 3032988 2843196 0.92 8.80 1.67 0.91 (nbgoodclauses,nbtotalgood,precisionGood,recallGood,FGood,nbbadclause,nbtotalbad,precisionBad,recallBad,FBad,accuracy)
c additional predictionInitialLBD 4 317319 317339 0.44 0.44 0.44 2843216 2843196 0.94 8.40 1.69 0.89 (nbgoodclauses,nbtotalgood,precisionGood,recallGood,FGood,nbbadclause,nbtotalbad,precisionBad,recallBad,FBad,accuracy)
c additional predictionInitialLBD 5 587116 317339 0.34 0.63 0.44 2573419 2843196 0.95 7.74 1.70 0.84 (nbgoodclauses,nbtotalgood,precisionGood,recallGood,FGood,nbbadclause,nbtotalbad,precisionBad,recallBad,FBad,accuracy)
c additional predictionInitialLBD 6 893711 317339 0.28 0.79 0.41 2266824 2843196 0.97 6.93 1.70 0.77 (nbgoodclauses,nbtotalgood,precisionGood,recallGood,FGood,nbbadclause,nbtotalbad,precisionBad,recallBad,FBad,accuracy)
c additional predictionInitialLBD 7 1194446 317339 0.23 0.88 0.37 1966089 2843196 0.98 6.08 1.69 0.70 (nbgoodclauses,nbtotalgood,precisionGood,recallGood,FGood,nbbadclause,nbtotalbad,precisionBad,recallBad,FBad,accuracy)
c additional predictionInitialLBD 8 1467870 317339 0.20 0.94 0.33 1692665 2843196 0.99 5.27 1.67 0.62 (nbgoodclauses,nbtotalgood,precisionGood,recallGood,FGood,nbbadclause,nbtotalbad,precisionBad,recallBad,FBad,accuracy)
c additional predictionInitialLBD 10 1917827 317339 0.16 0.98 0.28 1242708 2843196 1.00 3.90 1.59 0.49 (nbgoodclauses,nbtotalgood,precisionGood,recallGood,FGood,nbbadclause,nbtotalbad,precisionBad,recallBad,FBad,accuracy)
c additional predictionInitialLBD 14 2487218 317339 0.13 1.00 0.23 673317 2843196 1.00 2.12 1.36 0.31 (nbgoodclauses,nbtotalgood,precisionGood,recallGood,FGood,nbbadclause,nbtotalbad,precisionBad,recallBad,FBad,accuracy)
c additional predictionInitialLBD 18 2772131 317339 0.11 1.00 0.21 388404 2843196 1.00 1.22 1.10 0.22 (nbgoodclauses,nbtotalgood,precisionGood,recallGood,FGood,nbbadclause,nbtotalbad,precisionBad,recallBad,FBad,accuracy)
c additional predictionInitialLBD 22 2913131 317339 0.11 1.00 0.20 247404 2843196 1.00 0.78 0.88 0.18 (nbgoodclauses,nbtotalgood,precisionGood,recallGood,FGood,nbbadclause,nbtotalbad,precisionBad,recallBad,FBad,accuracy)
c additional predictionInitialLBD 30 3040910 317339 0.10 1.00 0.19 119625 2843196 1.00 0.38 0.55 0.14 (nbgoodclauses,nbtotalgood,precisionGood,recallGood,FGood,nbbadclause,nbtotalbad,precisionBad,recallBad,FBad,accuracy)
c additional predictionInitialLBD 40 3101738 317339 0.10 1.00 0.19 58797 2843196 1.00 0.19 0.31 0.12 (nbgoodclauses,nbtotalgood,precisionGood,recallGood,FGood,nbbadclause,nbtotalbad,precisionBad,recallBad,FBad,accuracy)
c additional predictionFinallLBD 1 42948 317339 0.64 0.09 0.15 3117587 2843196 0.91 0.99 0.95 0.90 (nbgoodclauses,nbtotalgood,precisionGood,recallGood,FGood,nbbadclause,nbtotalbad,precisionBad,recallBad,FBad,accuracy)
c additional predictionFinallLBD 2 159540 317339 0.52 0.26 0.35 3000995 2843196 0.92 0.97 0.95 0.90 (nbgoodclauses,nbtotalgood,precisionGood,recallGood,FGood,nbbadclause,nbtotalbad,precisionBad,recallBad,FBad,accuracy)
c additional predictionFinallLBD 3 301306 317339 0.45 0.42 0.43 2859229 2843196 0.94 0.94 0.94 0.89 (nbgoodclauses,nbtotalgood,precisionGood,recallGood,FGood,nbbadclause,nbtotalbad,precisionBad,recallBad,FBad,accuracy)
c additional predictionFinallLBD 4 514968 317339 0.37 0.60 0.46 2645567 2843196 0.95 0.89 0.92 0.86 (nbgoodclauses,nbtotalgood,precisionGood,recallGood,FGood,nbbadclause,nbtotalbad,precisionBad,recallBad,FBad,accuracy)
c additional predictionFinallLBD 5 772377 317339 0.30 0.74 0.43 2388158 2843196 0.97 0.81 0.88 0.80 (nbgoodclauses,nbtotalgood,precisionGood,recallGood,FGood,nbbadclause,nbtotalbad,precisionBad,recallBad,FBad,accuracy)
c additional predictionFinallLBD 6 1045384 317339 0.26 0.84 0.39 2115151 2843196 0.98 0.73 0.83 0.74 (nbgoodclauses,nbtotalgood,precisionGood,recallGood,FGood,nbbadclause,nbtotalbad,precisionBad,recallBad,FBad,accuracy)
c additional predictionFinallLBD 7 1311107 317339 0.22 0.91 0.35 1849428 2843196 0.98 0.64 0.78 0.67 (nbgoodclauses,nbtotalgood,precisionGood,recallGood,FGood,nbbadclause,nbtotalbad,precisionBad,recallBad,FBad,accuracy)
c additional predictionFinallLBD 8 1556082 317339 0.19 0.95 0.32 1604453 2843196 0.99 0.56 0.71 0.60 (nbgoodclauses,nbtotalgood,precisionGood,recallGood,FGood,nbbadclause,nbtotalbad,precisionBad,recallBad,FBad,accuracy)
c additional predictionFinallLBD 10 1965522 317339 0.16 0.99 0.27 1195013 2843196 1.00 0.42 0.59 0.48 (nbgoodclauses,nbtotalgood,precisionGood,recallGood,FGood,nbbadclause,nbtotalbad,precisionBad,recallBad,FBad,accuracy)
c additional predictionFinallLBD 14 2501363 317339 0.13 1.00 0.22 659172 2843196 1.00 0.23 0.38 0.31 (nbgoodclauses,nbtotalgood,precisionGood,recallGood,FGood,nbbadclause,nbtotalbad,precisionBad,recallBad,FBad,accuracy)
c additional predictionFinallLBD 18 2777516 317339 0.11 1.00 0.21 383019 2843196 1.00 0.13 0.24 0.22 (nbgoodclauses,nbtotalgood,precisionGood,recallGood,FGood,nbbadclause,nbtotalbad,precisionBad,recallBad,FBad,accuracy)
c additional predictionFinallLBD 22 2915970 317339 0.11 1.00 0.20 244565 2843196 1.00 0.09 0.16 0.18 (nbgoodclauses,nbtotalgood,precisionGood,recallGood,FGood,nbbadclause,nbtotalbad,precisionBad,recallBad,FBad,accuracy)
c additional predictionFinallLBD 30 3041796 317339 0.10 1.00 0.19 118739 2843196 1.00 0.04 0.08 0.14 (nbgoodclauses,nbtotalgood,precisionGood,recallGood,FGood,nbbadclause,nbtotalbad,precisionBad,recallBad,FBad,accuracy)
c additional predictionFinallLBD 40 3102079 317339 0.10 1.00 0.19 58456 2843196 1.00 0.02 0.04 0.12 (nbgoodclauses,nbtotalgood,precisionGood,recallGood,FGood,nbbadclause,nbtotalbad,precisionBad,recallBad,FBad,accuracy)
c additional predictionSize 1 40 317339 0.75 0.00 0.00 3160495 2843196 0.90 8.96 1.64 0.90 (nbgoodclauses,nbtotalgood,precisionGood,recallGood,FGood,nbbadclause,nbtotalbad,precisionBad,recallBad,FBad,accuracy)
c additional predictionSize 2 8117 317339 0.76 0.02 0.04 3152418 2843196 0.90 8.95 1.64 0.90 (nbgoodclauses,nbtotalgood,precisionGood,recallGood,FGood,nbbadclause,nbtotalbad,precisionBad,recallBad,FBad,accuracy)
c additional predictionSize 3 23933 317339 0.74 0.06 0.10 3136602 2843196 0.90 8.94 1.64 0.90 (nbgoodclauses,nbtotalgood,precisionGood,recallGood,FGood,nbbadclause,nbtotalbad,precisionBad,recallBad,FBad,accuracy)
c additional predictionSize 4 57903 317339 0.65 0.12 0.20 3102632 2843196 0.91 8.90 1.65 0.91 (nbgoodclauses,nbtotalgood,precisionGood,recallGood,FGood,nbbadclause,nbtotalbad,precisionBad,recallBad,FBad,accuracy)
c additional predictionSize 5 113408 317339 0.57 0.20 0.30 3047127 2843196 0.92 8.81 1.66 0.90 (nbgoodclauses,nbtotalgood,precisionGood,recallGood,FGood,nbbadclause,nbtotalbad,precisionBad,recallBad,FBad,accuracy)
c additional predictionSize 6 197943 317339 0.50 0.31 0.38 2962592 2843196 0.93 8.65 1.67 0.90 (nbgoodclauses,nbtotalgood,precisionGood,recallGood,FGood,nbbadclause,nbtotalbad,precisionBad,recallBad,FBad,accuracy)
c additional predictionSize 7 318162 317339 0.43 0.43 0.43 2842373 2843196 0.94 8.39 1.69 0.89 (nbgoodclauses,nbtotalgood,precisionGood,recallGood,FGood,nbbadclause,nbtotalbad,precisionBad,recallBad,FBad,accuracy)
c additional predictionSize 8 454952 317339 0.37 0.54 0.44 2705583 2843196 0.95 8.06 1.69 0.86 (nbgoodclauses,nbtotalgood,precisionGood,recallGood,FGood,nbbadclause,nbtotalbad,precisionBad,recallBad,FBad,accuracy)
c additional predictionSize 10 739690 317339 0.30 0.69 0.41 2420845 2843196 0.96 7.32 1.70 0.80 (nbgoodclauses,nbtotalgood,precisionGood,recallGood,FGood,nbbadclause,nbtotalbad,precisionBad,recallBad,FBad,accuracy)
c additional predictionSize 14 1247280 317339 0.22 0.86 0.35 1913255 2843196 0.98 5.88 1.67 0.68 (nbgoodclauses,nbtotalgood,precisionGood,recallGood,FGood,nbbadclause,nbtotalbad,precisionBad,recallBad,FBad,accuracy)
c additional predictionSize 18 1639528 317339 0.18 0.93 0.30 1521007 2843196 0.99 4.73 1.63 0.57 (nbgoodclauses,nbtotalgood,precisionGood,recallGood,FGood,nbbadclause,nbtotalbad,precisionBad,recallBad,FBad,accuracy)
c additional predictionSize 22 1941630 317339 0.16 0.97 0.27 1218905 2843196 0.99 3.81 1.57 0.48 (nbgoodclauses,nbtotalgood,precisionGood,recallGood,FGood,nbbadclause,nbtotalbad,precisionBad,recallBad,FBad,accuracy)
c additional predictionSize 30 2357474 317339 0.13 0.99 0.24 803061 2843196 1.00 2.52 1.43 0.35 (nbgoodclauses,nbtotalgood,precisionGood,recallGood,FGood,nbbadclause,nbtotalbad,precisionBad,recallBad,FBad,accuracy)
c additional predictionSize 40 2657368 317339 0.12 1.00 0.21 503167 2843196 1.00 1.58 1.23 0.26 (nbgoodclauses,nbtotalgood,precisionGood,recallGood,FGood,nbbadclause,nbtotalbad,precisionBad,recallBad,FBad,accuracy)
c additional predictionAge 1 160824 317339 0.18 0.09 0.12 2999711 2843196 0.90 8.54 1.63 0.87 (nbgoodclauses,nbtotalgood,precisionGood,recallGood,FGood,nbbadclause,nbtotalbad,precisionBad,recallBad,FBad,accuracy)
c additional predictionAge 10 160874 317339 0.18 0.09 0.12 2999661 2843196 0.90 8.54 1.63 0.87 (nbgoodclauses,nbtotalgood,precisionGood,recallGood,FGood,nbbadclause,nbtotalbad,precisionBad,recallBad,FBad,accuracy)
c additional predictionAge 25 215121 317339 0.18 0.12 0.15 2945414 2843196 0.91 8.41 1.63 0.86 (nbgoodclauses,nbtotalgood,precisionGood,recallGood,FGood,nbbadclause,nbtotalbad,precisionBad,recallBad,FBad,accuracy)
c additional predictionAge 50 237683 317339 0.18 0.14 0.16 2922852 2843196 0.91 8.35 1.64 0.85 (nbgoodclauses,nbtotalgood,precisionGood,recallGood,FGood,nbbadclause,nbtotalbad,precisionBad,recallBad,FBad,accuracy)
c additional predictionAge 100 251831 317339 0.18 0.15 0.16 2908704 2843196 0.91 8.31 1.64 0.85 (nbgoodclauses,nbtotalgood,precisionGood,recallGood,FGood,nbbadclause,nbtotalbad,precisionBad,recallBad,FBad,accuracy)
c additional predictionAge 250 274799 317339 0.18 0.16 0.17 2885736 2843196 0.91 8.25 1.64 0.84 (nbgoodclauses,nbtotalgood,precisionGood,recallGood,FGood,nbbadclause,nbtotalbad,precisionBad,recallBad,FBad,accuracy)
c additional predictionAge 500 301353 317339 0.19 0.18 0.18 2859182 2843196 0.91 8.19 1.64 0.84 (nbgoodclauses,nbtotalgood,precisionGood,recallGood,FGood,nbbadclause,nbtotalbad,precisionBad,recallBad,FBad,accuracy)
c additional predictionAge 1000 333037 317339 0.19 0.20 0.20 2827498 2843196 0.91 8.11 1.64 0.83 (nbgoodclauses,nbtotalgood,precisionGood,recallGood,FGood,nbbadclause,nbtotalbad,precisionBad,recallBad,FBad,accuracy)
c additional predictionAge 2500 380371 317339 0.20 0.23 0.21 2780164 2843196 0.91 7.99 1.64 0.83 (nbgoodclauses,nbtotalgood,precisionGood,recallGood,FGood,nbbadclause,nbtotalbad,precisionBad,recallBad,FBad,accuracy)
c additional predictionAge 5000 414892 317339 0.20 0.26 0.22 2745643 2843196 0.91 7.91 1.64 0.82 (nbgoodclauses,nbtotalgood,precisionGood,recallGood,FGood,nbbadclause,nbtotalbad,precisionBad,recallBad,FBad,accuracy)
c additional predictionAge 10000 447828 317339 0.20 0.28 0.23 2712707 2843196 0.92 7.83 1.64 0.81 (nbgoodclauses,nbtotalgood,precisionGood,recallGood,FGood,nbbadclause,nbtotalbad,precisionBad,recallBad,FBad,accuracy)
c additional predictionAge 25000 493285 317339 0.20 0.30 0.24 2667250 2843196 0.92 7.71 1.64 0.80 (nbgoodclauses,nbtotalgood,precisionGood,recallGood,FGood,nbbadclause,nbtotalbad,precisionBad,recallBad,FBad,accuracy)
c additional predictionAge 50000 541534 317339 0.20 0.33 0.25 2619001 2843196 0.92 7.59 1.64 0.80 (nbgoodclauses,nbtotalgood,precisionGood,recallGood,FGood,nbbadclause,nbtotalbad,precisionBad,recallBad,FBad,accuracy)
c additional predictionAge 100000 612474 317339 0.19 0.37 0.25 2548061 2843196 0.92 7.40 1.64 0.78 (nbgoodclauses,nbtotalgood,precisionGood,recallGood,FGood,nbbadclause,nbtotalbad,precisionBad,recallBad,FBad,accuracy)
c additional predictionTicks 1 160921 317339 0.18 0.09 0.12 2999614 2843196 0.90 8.54 1.63 0.87 (nbgoodclauses,nbtotalgood,precisionGood,recallGood,FGood,nbbadclause,nbtotalbad,precisionBad,recallBad,FBad,accuracy)
c additional predictionTicks 10 161871 317339 0.18 0.09 0.12 2998664 2843196 0.90 8.54 1.63 0.87 (nbgoodclauses,nbtotalgood,precisionGood,recallGood,FGood,nbbadclause,nbtotalbad,precisionBad,recallBad,FBad,accuracy)
c additional predictionTicks 25 295701 317339 0.17 0.16 0.17 2864834 2843196 0.91 8.19 1.63 0.84 (nbgoodclauses,nbtotalgood,precisionGood,recallGood,FGood,nbbadclause,nbtotalbad,precisionBad,recallBad,FBad,accuracy)
c additional predictionTicks 50 437694 317339 0.16 0.22 0.18 2722841 2843196 0.91 7.80 1.63 0.80 (nbgoodclauses,nbtotalgood,precisionGood,recallGood,FGood,nbbadclause,nbtotalbad,precisionBad,recallBad,FBad,accuracy)
c additional predictionTicks 100 602088 317339 0.15 0.28 0.19 2558447 2843196 0.91 7.34 1.62 0.76 (nbgoodclauses,nbtotalgood,precisionGood,recallGood,FGood,nbbadclause,nbtotalbad,precisionBad,recallBad,FBad,accuracy)
c additional predictionTicks 250 907666 317339 0.13 0.38 0.20 2252869 2843196 0.91 6.48 1.60 0.69 (nbgoodclauses,nbtotalgood,precisionGood,recallGood,FGood,nbbadclause,nbtotalbad,precisionBad,recallBad,FBad,accuracy)
c additional predictionTicks 500 1214312 317339 0.12 0.48 0.20 1946223 2843196 0.91 5.61 1.57 0.61 (nbgoodclauses,nbtotalgood,precisionGood,recallGood,FGood,nbbadclause,nbtotalbad,precisionBad,recallBad,FBad,accuracy)
c additional predictionTicks 1000 1531651 317339 0.12 0.57 0.20 1628884 2843196 0.92 4.71 1.53 0.53 (nbgoodclauses,nbtotalgood,precisionGood,recallGood,FGood,nbbadclause,nbtotalbad,precisionBad,recallBad,FBad,accuracy)
c additional predictionTicks 2500 1940507 317339 0.11 0.69 0.19 1220028 2843196 0.92 3.54 1.46 0.42 (nbgoodclauses,nbtotalgood,precisionGood,recallGood,FGood,nbbadclause,nbtotalbad,precisionBad,recallBad,FBad,accuracy)
c additional predictionTicks 5000 2206436 317339 0.11 0.77 0.19 954099 2843196 0.92 2.77 1.38 0.36 (nbgoodclauses,nbtotalgood,precisionGood,recallGood,FGood,nbbadclause,nbtotalbad,precisionBad,recallBad,FBad,accuracy)
c additional predictionTicks 10000 2422471 317339 0.11 0.83 0.19 738064 2843196 0.92 2.15 1.29 0.30 (nbgoodclauses,nbtotalgood,precisionGood,recallGood,FGood,nbbadclause,nbtotalbad,precisionBad,recallBad,FBad,accuracy)
c additional predictionTicks 25000 2642065 317339 0.11 0.89 0.19 518470 2843196 0.93 1.52 1.15 0.24 (nbgoodclauses,nbtotalgood,precisionGood,recallGood,FGood,nbbadclause,nbtotalbad,precisionBad,recallBad,FBad,accuracy)
c additional predictionTicks 50000 2773427 317339 0.11 0.92 0.19 387108 2843196 0.94 1.14 1.03 0.21 (nbgoodclauses,nbtotalgood,precisionGood,recallGood,FGood,nbbadclause,nbtotalbad,precisionBad,recallBad,FBad,accuracy)
c additional predictionTicks 100000 2887817 317339 0.10 0.95 0.19 272718 2843196 0.94 0.81 0.87 0.18 (nbgoodclauses,nbtotalgood,precisionGood,recallGood,FGood,nbbadclause,nbtotalbad,precisionBad,recallBad,FBad,accuracy)
c additional lifetimeGood 1 16 16 32 2784 249749 1253607 2078333 2422228 2857887 3153449 3153497 (0,1,5,10,25,50,75,90,95,99,100-1,100)
c additional lifetimeBad 1 16 16 64 14192 416937 1140279 1882263 2248219 2726987 3153419 3153533 (0,1,5,10,25,50,75,90,95,99,100-1,100)
c additional lifetimeBadBad 1 16 16 16 32 784 25728 379040 727168 1484256 3145305 3146065 (0,1,5,10,25,50,75,90,95,99,100-1,100)
c additional compositionBad 1 2 3 4 7 13 24 46 68 150 2516 3913 (0,1,5,10,25,50,75,90,95,99,100-1,100)
c additional compositionBadWithGood 0 0 0 0 1 4 8 14 18 34 317 335 (0,1,5,10,25,50,75,90,95,99,100-1,100)
c additional compositionBadWithBad 0 0 0 0 1 2 4 6 7 11 108 119 (0,1,5,10,25,50,75,90,95,99,100-1,100)
c additional compositionBadWithInitial 0 0 0 1 3 6 14 31 50 116 2419 3853 (0,1,5,10,25,50,75,90,95,99,100-1,100)
c additional compositionGood 1 2 2 3 4 7 11 17 22 34 833 903 (0,1,5,10,25,50,75,90,95,99,100-1,100)
c additional compositionGoodWithGood 0 0 0 1 2 3 6 11 15 23 69 70 (0,1,5,10,25,50,75,90,95,99,100-1,100)
c additional compositionGoodWithInitial 0 0 0 0 1 3 6 9 12 20 813 880 (0,1,5,10,25,50,75,90,95,99,100-1,100)
c additional propagationGood total 135348064 percentiles 0 1 1 1 1 4 17 147 678 13561 71356 78870 (0,1,5,10,25,50,75,90,95,99,100-1,100)
c additional propagationBad total 28109055 percentiles 1 1 1 1 1 1 2 6 13 77 48293 49584 (0,1,5,10,25,50,75,90,95,99,100-1,100)
c additional resolutionGood total 15752009 percentiles 0 1 1 1 1 3 8 32 99 1039 17492 18854 (0,1,5,10,25,50,75,90,95,99,100-1,100)
c additional resolutionBad total 7141006 percentiles 0 0 1 1 1 1 2 4 8 23 1310 1468 (0,1,5,10,25,50,75,90,95,99,100-1,100)
Computing K-Core for 3285688 clauses...
c building structure for KCore computation.
c the graph has 65419841 edges, maxdegree=3913
c we start the KCore with the value 20
c Non directed graph built
K=20,2287842 nodes removed so far
K=21,2353584 nodes removed so far
K=22,2411957 nodes removed so far
K=23,2464227 nodes removed so far
K=24,2511794 nodes removed so far
K=25,2553639 nodes removed so far
K=26,2591906 nodes removed so far
K=27,2626945 nodes removed so far
K=28,2659089 nodes removed so far
K=29,2687895 nodes removed so far
K=30,2714479 nodes removed so far
K=31,2739035 nodes removed so far
K=32,2761868 nodes removed so far
K=33,2783118 nodes removed so far
K=34,2802381 nodes removed so far
K=35,2820512 nodes removed so far
K=36,2837531 nodes removed so far
K=37,2853278 nodes removed so far
K=38,2868238 nodes removed so far
K=39,2882175 nodes removed so far
K=40,2895465 nodes removed so far
K=41,2907843 nodes removed so far
K=42,2919510 nodes removed so far
K=43,2930444 nodes removed so far
K=44,2941131 nodes removed so far
K=45,2951123 nodes removed so far
K=46,2960548 nodes removed so far
K=47,2969460 nodes removed so far
K=48,2977929 nodes removed so far
K=49,2986182 nodes removed so far
K=50,2993964 nodes removed so far
K=51,3001505 nodes removed so far
K=52,3008404 nodes removed so far
K=53,3015370 nodes removed so far
K=54,3022208 nodes removed so far
K=55,3028697 nodes removed so far
K=56,3034930 nodes removed so far
K=57,3041155 nodes removed so far
K=58,3047112 nodes removed so far
K=59,3052590 nodes removed so far
K=60,3057837 nodes removed so far
K=61,3062884 nodes removed so far
K=62,3067710 nodes removed so far
K=63,3072363 nodes removed so far
K=64,3077013 nodes removed so far
K=65,3081424 nodes removed so far
K=66,3085792 nodes removed so far
K=67,3090042 nodes removed so far
K=68,3094195 nodes removed so far
K=69,3098268 nodes removed so far
K=70,3102007 nodes removed so far
K=71,3105600 nodes removed so far
K=72,3109055 nodes removed so far
K=73,3112269 nodes removed so far
K=74,3115351 nodes removed so far
K=75,3118376 nodes removed so far
K=76,3121057 nodes removed so far
K=77,3123691 nodes removed so far
K=78,3126348 nodes removed so far
K=79,3128781 nodes removed so far
K=80,3131256 nodes removed so far
K=81,3133455 nodes removed so far
K=82,3135828 nodes removed so far
K=83,3137961 nodes removed so far
K=84,3140217 nodes removed so far
K=85,3142277 nodes removed so far
K=86,3144375 nodes removed so far
K=87,3146315 nodes removed so far
K=88,3148312 nodes removed so far
K=89,3150287 nodes removed so far
K=90,3152347 nodes removed so far
K=91,3154312 nodes removed so far
K=92,3156262 nodes removed so far
K=93,3158109 nodes removed so far
K=94,3160038 nodes removed so far
K=95,3162176 nodes removed so far
K=96,3164122 nodes removed so far
K=97,3166227 nodes removed so far
K=98,3168378 nodes removed so far
K=99,3170440 nodes removed so far
K=100,3172875 nodes removed so far
K=101,3175203 nodes removed so far
K=102,3177390 nodes removed so far
K=103,3179793 nodes removed so far
K=104,3181998 nodes removed so far
K=105,3184481 nodes removed so far
K=106,3187074 nodes removed so far
K=107,3189986 nodes removed so far
K=108,3192656 nodes removed so far
K=109,3211102 nodes removed so far
K=110,3214579 nodes removed so far
K=111,3242105 nodes removed so far
K=112,3242705 nodes removed so far
K=113,3243793 nodes removed so far
K=114,3250454 nodes removed so far
K=115,3250456 nodes removed so far
K=116,3250461 nodes removed so far
K=117,3250461 nodes removed so far
K=118,3250462 nodes removed so far
K=119,3250464 nodes removed so far
K=120,3250466 nodes removed so far
K=121,3250466 nodes removed so far
K=122,3250466 nodes removed so far
K=123,3250467 nodes removed so far
K=124,3250469 nodes removed so far
K=125,3250469 nodes removed so far
K=126,3250471 nodes removed so far
K=127,3250471 nodes removed so far
K=128,3250472 nodes removed so far
K=129,3250472 nodes removed so far
K=130,3250474 nodes removed so far
K=131,3250475 nodes removed so far
K=132,3250476 nodes removed so far
K=133,3250477 nodes removed so far
K=134,3250477 nodes removed so far
K=135,3250477 nodes removed so far
K=136,3250477 nodes removed so far
K=137,3250478 nodes removed so far
K=138,3250481 nodes removed so far
K=139,3250481 nodes removed so far
K=140,3250482 nodes removed so far
K=141,3250482 nodes removed so far
K=142,3250482 nodes removed so far
K=143,3250483 nodes removed so far
K=144,3250484 nodes removed so far
K=145,3250484 nodes removed so far
K=146,3250484 nodes removed so far
K=147,3250484 nodes removed so far
K=148,3250485 nodes removed so far
K=149,3250486 nodes removed so far
K=150,3250487 nodes removed so far
K=151,3250487 nodes removed so far
K=152,3250489 nodes removed so far
K=153,3250489 nodes removed so far
K=154,3250489 nodes removed so far
K=155,3250490 nodes removed so far
K=156,3250490 nodes removed so far
K=157,3250491 nodes removed so far
K=158,3250492 nodes removed so far
K=159,3250492 nodes removed so far
K=160,3250493 nodes removed so far
K=161,3250493 nodes removed so far
K=162,3250493 nodes removed so far
K=163,3250494 nodes removed so far
K=164,3250494 nodes removed so far
K=165,3250494 nodes removed so far
K=166,3250495 nodes removed so far
K=167,3250496 nodes removed so far
K=168,3250496 nodes removed so far
K=169,3250496 nodes removed so far
K=170,3250496 nodes removed so far
K=171,3250496 nodes removed so far
K=172,3250496 nodes removed so far
K=173,3250496 nodes removed so far
K=174,3250496 nodes removed so far
K=175,3250496 nodes removed so far
K=176,3250496 nodes removed so far
K=177,3250497 nodes removed so far
K=178,3250498 nodes removed so far
K=179,3250499 nodes removed so far
K=180,3250499 nodes removed so far
K=181,3250499 nodes removed so far
K=182,3250500 nodes removed so far
K=183,3250500 nodes removed so far
K=184,3250501 nodes removed so far
K=185,3250501 nodes removed so far
K=186,3250501 nodes removed so far
K=187,3250501 nodes removed so far
K=188,3250501 nodes removed so far
K=189,3250505 nodes removed so far
K=190,3250507 nodes removed so far
K=191,3250544 nodes removed so far
K=192,3250585 nodes removed so far
K=193,3250643 nodes removed so far
K=194,3250711 nodes removed so far
K=195,3250825 nodes removed so far
K=196,3251021 nodes removed so far
K=197,3251247 nodes removed so far
K=198,3251383 nodes removed so far
K=199,3251763 nodes removed so far
K=200,3251770 nodes removed so far
K=201,3251774 nodes removed so far
K=202,3251778 nodes removed so far
K=203,3251778 nodes removed so far
K=204,3251781 nodes removed so far
K=205,3251781 nodes removed so far
K=206,3251781 nodes removed so far
K=207,3251781 nodes removed so far
K=208,3251781 nodes removed so far
K=209,3251781 nodes removed so far
K=210,3251781 nodes removed so far
K=211,3251781 nodes removed so far
K=212,3251783 nodes removed so far
K=213,3251783 nodes removed so far
K=214,3251787 nodes removed so far
K=215,3251787 nodes removed so far
K=216,3251787 nodes removed so far
K=217,3251787 nodes removed so far
K=218,3251788 nodes removed so far
K=219,3251788 nodes removed so far
K=220,3251788 nodes removed so far
K=221,3251788 nodes removed so far
K=222,3251788 nodes removed so far
K=223,3251788 nodes removed so far
K=224,3251788 nodes removed so far
K=225,3251788 nodes removed so far
K=226,3251788 nodes removed so far
K=227,3251788 nodes removed so far
K=228,3251788 nodes removed so far
K=229,3252301 nodes removed so far
K=230,3252301 nodes removed so far
K=231,3252301 nodes removed so far
K=232,3252301 nodes removed so far
K=233,3252301 nodes removed so far
K=234,3252301 nodes removed so far
K=235,3252301 nodes removed so far
K=236,3252301 nodes removed so far
K=237,3252301 nodes removed so far
K=238,3252301 nodes removed so far
K=239,3252302 nodes removed so far
K=240,3252302 nodes removed so far
K=241,3252302 nodes removed so far
K=242,3252302 nodes removed so far
K=243,3252302 nodes removed so far
K=244,3252302 nodes removed so far
K=245,3252302 nodes removed so far
K=246,3252302 nodes removed so far
K=247,3252302 nodes removed so far
K=248,3252302 nodes removed so far
K=249,3252302 nodes removed so far
K=250,3252302 nodes removed so far
K=251,3252303 nodes removed so far
K=252,3252304 nodes removed so far
K=253,3252304 nodes removed so far
K=254,3252304 nodes removed so far
K=255,3252304 nodes removed so far
K=256,3252304 nodes removed so far
K=257,3252304 nodes removed so far
K=258,3252304 nodes removed so far
K=259,3252304 nodes removed so far
K=260,3252304 nodes removed so far
K=261,3252304 nodes removed so far
K=262,3252304 nodes removed so far
K=263,3252304 nodes removed so far
K=264,3252304 nodes removed so far
K=265,3252304 nodes removed so far
K=266,3252304 nodes removed so far
K=267,3252304 nodes removed so far
K=268,3252304 nodes removed so far
K=269,3252304 nodes removed so far
K=270,3252304 nodes removed so far
K=271,3252304 nodes removed so far
K=272,3252304 nodes removed so far
K=273,3252304 nodes removed so far
K=274,3252304 nodes removed so far
K=275,3252304 nodes removed so far
K=276,3252304 nodes removed so far
K=277,3252304 nodes removed so far
K=278,3252304 nodes removed so far
K=279,3252304 nodes removed so far
K=280,3252304 nodes removed so far
K=281,3252304 nodes removed so far
K=282,3252304 nodes removed so far
K=283,3252304 nodes removed so far
K=284,3252304 nodes removed so far
K=285,3252349 nodes removed so far
K=286,3252384 nodes removed so far
K=287,3252990 nodes removed so far
KCore = 287
Building structure for PR...
Computing PR...
Pageranking 3127659 nodes done in 29 iteration. cumulError=3.98649e-11
clause level 27 (Kante=344, Kdesc=294, core=13):-11446 
clause level 34 (Kante=321, Kdesc=1177, core=4):14462 14724 14467 -14313 
clause level 36 (Kante=303, Kdesc=11, core=12):-13285 -11851 
clause level 30 (Kante=546, Kdesc=6, core=9):6214 9953 -9959 -7673 -9575 -5823 
clause level 33 (Kante=435, Kdesc=108, core=15):-7673 -68 
Found 8 good successive clauses in order (3 originals, maxlevel=36)
c KCorePR 3285688 287 8 3 36
c DistanceTo...Unseen 167400
c DistanceToGoodKCore c   DIST 0: 8 (+8) / 8 (+8)
c   DIST 1: 5442 (+5434) / 1337 (+1329)
c   DIST 2: 211619 (+206177) / 50114 (+48777)
c   DIST 3: 976766 (+765147) / 137091 (+86977)
c   DIST 4: 2118464 (+1141698) / 255826 (+118735)
c   DIST 5: 2786937 (+668473) / 328200 (+72374)
c   DIST 6: 2983185 (+196248) / 350991 (+22791)
c   DIST 7: 3043144 (+59959) / 359207 (+8216)
c   DIST 8: 3072302 (+29158) / 363167 (+3960)
c   DIST 9: 3087841 (+15539) / 365450 (+2283)
c   DIST 10: 3097507 (+9666) / 366878 (+1428)
c   DIST 11: 3103754 (+6247) / 367834 (+956)
c   DIST 12: 3107817 (+4063) / 368447 (+613)
c   DIST 13: 3110591 (+2774) / 368834 (+387)
c   DIST 14: 3112515 (+1924) / 369130 (+296)
c   DIST 15: 3113850 (+1335) / 369338 (+208)
c   DIST 16: 3114732 (+882) / 369485 (+147)
c   DIST 17: 3115303 (+571) / 369611 (+126)
c   DIST 18: 3115769 (+466) / 369720 (+109)
c   DIST 19: 3116186 (+417) / 369808 (+88)
c   DIST 20: 3116553 (+367) / 369877 (+69)
c   DIST 21: 3116919 (+366) / 369925 (+48)
c   DIST 22: 3117213 (+294) / 369947 (+22)
c   DIST 23: 3117508 (+295) / 369967 (+20)
c   DIST 24: 3117745 (+237) / 369988 (+21)
c   DIST 25: 3117918 (+173) / 370000 (+12)
c   DIST 26: 3118036 (+118) / 370007 (+7)
c   DIST 27: 3118112 (+76) / 370011 (+4)
c   DIST 28: 3118174 (+62) / 370015 (+4)
c   DIST 29: 3118216 (+42) / 370019 (+4)
c   DIST 30: 3118248 (+32) / 370024 (+5)
c   DIST 31: 3118269 (+21) / 370025 (+1)
c   DIST 32: 3118280 (+11) / 370025 (+0)
c   DIST 33: 3118284 (+4) / 370025 (+0)
c   DIST 34: 3118287 (+3) / 370025 (+0)
c   DIST 35: 3118288 (+1) / 370025 (+0)
c TotalDistance=3285688
No graph is dumped
c result of core 6 is UNSAT
c One thread has finished
c Core 6 said it finished
c result of core 0 is UNKNOWN
c result of core 4 is UNKNOWN
c result of core 13 is UNKNOWN
c result of core 3 is UNKNOWN
c result of core 7 is UNKNOWN
c result of core 14 is UNKNOWN
c result of core 1 is UNKNOWN
c result of core 11 is UNKNOWN
c result of core 12 is UNKNOWN
c result of core 2 is UNKNOWN
c result of core 5 is UNKNOWN
c result of core 15 is UNKNOWN
c result of core 10 is UNKNOWN
c result of core 9 is UNKNOWN
c result of core 8 is UNKNOWN
c restarts              : 639 (309 conflicts in avg)
c blocked restarts      : 782 (multiple: 197) 
c last block at restart : 638
c nb ReduceDB           : 11
c nb removed Clauses    : 231533
c nb learnts DL2        : 2040
c nb learnts size 2     : 530
c nb learnts size 1     : 2
c conflicts             : 197534         (136 /sec)
c decisions             : 467954         (0.00 % random) (322 /sec)
c propagations          : 41236084       (28391 /sec)
c conflict literals     : 5371033        (5.85 % deleted)
c nb reduced Clauses    : 239
c CPU time              : 1452.43 s

s INDETERMINATE
