c
c This is glucose-proof 1.0 based on  2.1 --  (thanks to MiniSAT)
c
c EXPERIMENTAL EASY PARALLEL (ROUND ROBIN) VERSION
c
c WARNING: for repeatability, setting FPU to use double precision
c Parallel version 6 solvers created.
c ========================================[ Problem Statistics ]===========================================
c |                                                                                                       |
c |  Number of variables:         18813                                                                   |
c |  Number of clauses:          124625                                                                   |
c |  Parse time:                   0.31 s                                                                 |
c |                                                                                                       |
c ========================================[ MAGIC CONSTANTS ]==============================================
c | Constants are supposed to work well together :-)                                                      |
c | however, if you find better choices, please let us known...                                           |
c |-------------------------------------------------------------------------------------------------------|
c |                                |                                |                                     |
c | - Restarts:                    | - Reduce Clause DB:            | - Minimize Asserting:               |
c |   * LBD Queue    :     50      |   * First     :   4000         |    * size <  30                     |
c |   * Trail  Queue :   5000      |   * Inc       :    300         |    * lbd  <   6                     |
c |   * K            :   0.80      |   * Special   :   1000         |                                     |
c |   * R            :   1.40      |   * Protected :  (lbd)< 30     |                                     |
c |                                |                                |                                     |
c ==================================[ Search Statistics (every  10000 conflicts) ]=========================
c |                                                                                                       |
c |          RESTARTS           |          ORIGINAL         |              LEARNT              | Progress |
c |       NB   Blocked  Avg Cfc |    Vars  Clauses Literals |   Red   Learnts    LBD2  Removed |          |
c =========================================================================================================
c |       52         0      192 |   18540   124625   436498 |     1     8005      329     3052 |  1.451 % |
c |       85        43      235 |   18540   124625   436498 |     3     6956      613    19471 |  1.451 % |
c |      130       107      230 |   18539   124625   436498 |     3    16951      900    19471 |  1.456 % |
c |      171       171      233 |   18538   124625   436498 |     4    17678     1178    33260 |  1.462 % |
c |      219       204      228 |   18534   124625   436498 |     5    15851     1452    50555 |  1.483 % |
c |      241       237      248 |   18533   124625   436498 |     5    25850     1617    50555 |  1.488 % |
c |      280       286      250 |   18532   124625   436498 |     6    21436     1903    71180 |  1.494 % |
c |      315       334      253 |   18532   124625   436498 |     6    31436     2147    71180 |  1.494 % |
c |      376       360      239 |   18532   124625   436498 |     7    24436     2369    93627 |  1.494 % |
c |      427       401      234 |   18531   124625   436498 |     7    34429     2498    93627 |  1.499 % |
c |      470       433      234 |   18530   124625   436498 |     8    24837     2707   118352 |  1.504 % |
c |      518       462      231 |   18530   124625   436498 |     8    34837     2810   118352 |  1.504 % |
c |      568       513      228 |   18530   124625   436498 |     9    22642     2943   144679 |  1.504 % |
c |      614       551      228 |   18530   124625   436498 |     9    32642     3058   144679 |  1.504 % |
c |      665       582      225 |   18529   124625   436498 |     9    42642     3145   144679 |  1.510 % |
c |      691       585      231 |   18529   124625   436498 |    10    27837     3201   173284 |  1.510 % |
c |      749       620      226 |   18529   124625   436498 |    10    37837     3330   173284 |  1.510 % |
c |      793       640      226 |   18528   124625   436498 |    10    47836     3396   173284 |  1.515 % |
c |      838       688      226 |   18526   124625   436498 |    11    30429     3444   203150 |  1.526 % |
c |      908       731      220 |   18525   124625   436498 |    11    40429     3502   203150 |  1.531 % |
c |      952       769      220 |   18525   124625   436498 |    11    50429     3537   203150 |  1.531 % |
c |      982       800      224 |   18525   124625   436498 |    12    30434     3575   235544 |  1.531 % |
c |     1042       813      220 |   18525   124625   436498 |    12    40434     3606   235544 |  1.531 % |
c |     1071       862      224 |   18525   124625   436498 |    12    50434     3677   235544 |  1.531 % |
c |     1082       893      231 |   18525   124625   436498 |    12    60434     3717   235544 |  1.531 % |
c |     1105       985      235 |   18525   124625   436498 |    13    37825     3766   270473 |  1.531 % |
c |     1121       998      240 |   18525   124625   436498 |    13    47825     3778   270473 |  1.531 % |
c |     1132      1029      247 |   18525   124625   436498 |    13    57825     3791   270473 |  1.531 % |
c |     1150      1071      252 |   18525   124625   436498 |    13    67825     3820   270473 |  1.531 % |
c |     1184      1132      253 |   18525   124625   436498 |    14    42628     3850   307950 |  1.531 % |
c |     1201      1154      258 |   18525   124625   436498 |    14    52628     3904   307950 |  1.531 % |
c |     1214      1209      263 |   18525   124625   436498 |    14    62628     3934   307950 |  1.531 % |
c |     1220      1292      270 |   18524   124625   436498 |    14    72628     3978   307950 |  1.536 % |
c |     1227      1353      277 |   18524   124625   436498 |    15    44819     4022   348061 |  1.536 % |
c |     1233      1417      283 |   18448   124625   436498 |    15    54457     4043   348061 |  1.940 % |
c |     1242      1483      289 |   18372   124625   436498 |    15    64456     4068   348061 |  2.344 % |
c |     1260      1511      293 |   18296   124625   436498 |    15    74428     4105   348061 |  2.748 % |
c |     1267      1573      299 |   18296   124625   436498 |    16    44228     4131   390036 |  2.748 % |
c |     1268      1587      307 |   18296   124625   436498 |    16    54228     4149   390036 |  2.748 % |
c |     1284      1693      311 |   18296   124625   436498 |    16    64228     4176   390036 |  2.748 % |
c empty clause found by core 1 at conflict 408202
*
c checking the resolution graph...OK
c All useful bySize 356237 clauses, percentiles 0 2 2 3 5 7 11 17 21 33 67 68 (0,1,5,10,25,50,75,90,95,99,100-1,100)
c All useless bySize 2217776 clauses, percentiles 0 2 6 8 12 20 35 61 87 195 1138 1247 (0,1,5,10,25,50,75,90,95,99,100-1,100)
c ProofOnly useful bySize 304948 clauses, percentiles 0 2 3 4 6 8 12 18 22 34 67 68 (0,1,5,10,25,50,75,90,95,99,100-1,100)
c ProofOnly useless bySize 2144260 clauses, percentiles 1 5 7 9 13 21 36 62 89 198 1138 1247 (0,1,5,10,25,50,75,90,95,99,100-1,100)
c All useful byFinalLBD 356237 clauses, percentiles 0 1 1 2 2 4 5 8 9 12 37 37 (0,1,5,10,25,50,75,90,95,99,100-1,100)
c All useless byFinalLBD 2217776 clauses, percentiles 0 2 3 4 6 9 14 22 29 53 164 194 (0,1,5,10,25,50,75,90,95,99,100-1,100)
c ProofOnly useful byFinalLBD 304948 clauses, percentiles 0 1 1 2 2 4 6 8 9 13 22 22 (0,1,5,10,25,50,75,90,95,99,100-1,100)
c ProofOnly useless byFinalLBD 2144260 clauses, percentiles 1 2 3 4 6 10 15 22 30 53 164 194 (0,1,5,10,25,50,75,90,95,99,100-1,100)
c All useful byInitialLBD 356237 clauses, percentiles 0 2 2 2 3 4 6 8 9 12 37 37 (0,1,5,10,25,50,75,90,95,99,100-1,100)
c All useless byInitialLBD 2217776 clauses, percentiles 0 2 4 5 7 10 15 22 29 53 164 194 (0,1,5,10,25,50,75,90,95,99,100-1,100)
c ProofOnly useful byInitialLBD 304948 clauses, percentiles 0 2 2 3 4 5 6 8 9 13 24 30 (0,1,5,10,25,50,75,90,95,99,100-1,100)
c ProofOnly useless byInitialLBD 2144260 clauses, percentiles 1 3 4 5 7 10 15 22 30 53 164 194 (0,1,5,10,25,50,75,90,95,99,100-1,100)
c Literals ProofOnly useful 3037718
c Literals ProofOnly useless 68410229
c additional windowsGood 1 1 1 1 1 1 1 2 2 3 9 9 (0,1,5,10,25,50,75,90,95,99,100-1,100)
c additional windowsBad 1 1 1 1 2 5 5 17 30 89 816 1374 (0,1,5,10,25,50,75,90,95,99,100-1,100)
c additional 1WindowNoDecision 221228 112391 0.51 43774 17869 0.41 (nbWindowsGood,nbWindowsNoDecisionGood,nbWindowsBad,nbWindowsNoDecisionBad
c additional topclausessize all (10%,5%,1%,top) 23.50 28.20 39.53 68
c additional topclausessize proofonly (10%,5%,1%,top) 24.00 28.70 40.02 68
c additional topclausesinitialLBD all (10%,5%,1%,top) 21.17 25.76 37.08 68
c additional topclausesinitialLBD proofonly (10%,5%,1%,top) 19.52 24.01 35.23 68
c additional topclausesfinalLBD all (10%,5%,1%,top) 18.08 22.44 33.55 68
c additional topclausesfinalLBD proofonly (10%,5%,1%,top) 17.15 21.38 32.34 68
c additional predictionInitialLBD 1 38 304948 0.84 0.00 0.00 2449170 2144260 0.88 7.03 1.56 0.88 (nbgoodclauses,nbtotalgood,precisionGood,recallGood,FGood,nbbadclause,nbtotalbad,precisionBad,recallBad,FBad,accuracy)
c additional predictionInitialLBD 2 27428 304948 0.75 0.07 0.12 2421780 2144260 0.88 7.01 1.57 0.88 (nbgoodclauses,nbtotalgood,precisionGood,recallGood,FGood,nbbadclause,nbtotalbad,precisionBad,recallBad,FBad,accuracy)
c additional predictionInitialLBD 3 109142 304948 0.66 0.24 0.35 2340066 2144260 0.90 6.91 1.59 0.89 (nbgoodclauses,nbtotalgood,precisionGood,recallGood,FGood,nbbadclause,nbtotalbad,precisionBad,recallBad,FBad,accuracy)
c additional predictionInitialLBD 4 258959 304948 0.50 0.43 0.46 2190249 2144260 0.92 6.61 1.62 0.88 (nbgoodclauses,nbtotalgood,precisionGood,recallGood,FGood,nbbadclause,nbtotalbad,precisionBad,recallBad,FBad,accuracy)
c additional predictionInitialLBD 5 463914 304948 0.40 0.61 0.49 1985294 2144260 0.94 6.12 1.63 0.84 (nbgoodclauses,nbtotalgood,precisionGood,recallGood,FGood,nbbadclause,nbtotalbad,precisionBad,recallBad,FBad,accuracy)
c additional predictionInitialLBD 6 693624 304948 0.33 0.76 0.46 1755584 2144260 0.96 5.52 1.63 0.78 (nbgoodclauses,nbtotalgood,precisionGood,recallGood,FGood,nbbadclause,nbtotalbad,precisionBad,recallBad,FBad,accuracy)
c additional predictionInitialLBD 7 917016 304948 0.29 0.86 0.43 1532192 2144260 0.97 4.88 1.62 0.71 (nbgoodclauses,nbtotalgood,precisionGood,recallGood,FGood,nbbadclause,nbtotalbad,precisionBad,recallBad,FBad,accuracy)
c additional predictionInitialLBD 8 1119066 304948 0.25 0.92 0.39 1330142 2144260 0.98 4.28 1.60 0.65 (nbgoodclauses,nbtotalgood,precisionGood,recallGood,FGood,nbbadclause,nbtotalbad,precisionBad,recallBad,FBad,accuracy)
c additional predictionInitialLBD 10 1449705 304948 0.20 0.97 0.34 999503 2144260 0.99 3.25 1.52 0.53 (nbgoodclauses,nbtotalgood,precisionGood,recallGood,FGood,nbbadclause,nbtotalbad,precisionBad,recallBad,FBad,accuracy)
c additional predictionInitialLBD 14 1888687 304948 0.16 1.00 0.28 560521 2144260 1.00 1.83 1.29 0.35 (nbgoodclauses,nbtotalgood,precisionGood,recallGood,FGood,nbbadclause,nbtotalbad,precisionBad,recallBad,FBad,accuracy)
c additional predictionInitialLBD 18 2118971 304948 0.14 1.00 0.25 330237 2144260 1.00 1.08 1.04 0.26 (nbgoodclauses,nbtotalgood,precisionGood,recallGood,FGood,nbbadclause,nbtotalbad,precisionBad,recallBad,FBad,accuracy)
c additional predictionInitialLBD 22 2237216 304948 0.14 1.00 0.24 211992 2144260 1.00 0.70 0.82 0.21 (nbgoodclauses,nbtotalgood,precisionGood,recallGood,FGood,nbbadclause,nbtotalbad,precisionBad,recallBad,FBad,accuracy)
c additional predictionInitialLBD 30 2348371 304948 0.13 1.00 0.23 100837 2144260 1.00 0.33 0.50 0.17 (nbgoodclauses,nbtotalgood,precisionGood,recallGood,FGood,nbbadclause,nbtotalbad,precisionBad,recallBad,FBad,accuracy)
c additional predictionInitialLBD 40 2400598 304948 0.13 1.00 0.23 48610 2144260 1.00 0.16 0.27 0.14 (nbgoodclauses,nbtotalgood,precisionGood,recallGood,FGood,nbbadclause,nbtotalbad,precisionBad,recallBad,FBad,accuracy)
c additional predictionFinallLBD 1 39453 304948 0.70 0.09 0.16 2409755 2144260 0.88 0.99 0.94 0.88 (nbgoodclauses,nbtotalgood,precisionGood,recallGood,FGood,nbbadclause,nbtotalbad,precisionBad,recallBad,FBad,accuracy)
c additional predictionFinallLBD 2 131506 304948 0.61 0.26 0.37 2317702 2144260 0.90 0.98 0.94 0.89 (nbgoodclauses,nbtotalgood,precisionGood,recallGood,FGood,nbbadclause,nbtotalbad,precisionBad,recallBad,FBad,accuracy)
c additional predictionFinallLBD 3 243599 304948 0.53 0.42 0.47 2205609 2144260 0.92 0.95 0.93 0.88 (nbgoodclauses,nbtotalgood,precisionGood,recallGood,FGood,nbbadclause,nbtotalbad,precisionBad,recallBad,FBad,accuracy)
c additional predictionFinallLBD 4 413355 304948 0.44 0.59 0.50 2035853 2144260 0.94 0.89 0.91 0.85 (nbgoodclauses,nbtotalgood,precisionGood,recallGood,FGood,nbbadclause,nbtotalbad,precisionBad,recallBad,FBad,accuracy)
c additional predictionFinallLBD 5 609280 304948 0.36 0.72 0.48 1839928 2144260 0.95 0.82 0.88 0.81 (nbgoodclauses,nbtotalgood,precisionGood,recallGood,FGood,nbbadclause,nbtotalbad,precisionBad,recallBad,FBad,accuracy)
c additional predictionFinallLBD 6 811804 304948 0.31 0.82 0.45 1637404 2144260 0.97 0.74 0.84 0.75 (nbgoodclauses,nbtotalgood,precisionGood,recallGood,FGood,nbbadclause,nbtotalbad,precisionBad,recallBad,FBad,accuracy)
c additional predictionFinallLBD 7 1006899 304948 0.27 0.89 0.41 1442309 2144260 0.98 0.66 0.79 0.69 (nbgoodclauses,nbtotalgood,precisionGood,recallGood,FGood,nbbadclause,nbtotalbad,precisionBad,recallBad,FBad,accuracy)
c additional predictionFinallLBD 8 1186384 304948 0.24 0.93 0.38 1262824 2144260 0.98 0.58 0.73 0.62 (nbgoodclauses,nbtotalgood,precisionGood,recallGood,FGood,nbbadclause,nbtotalbad,precisionBad,recallBad,FBad,accuracy)
c additional predictionFinallLBD 10 1488486 304948 0.20 0.97 0.33 960722 2144260 0.99 0.44 0.61 0.51 (nbgoodclauses,nbtotalgood,precisionGood,recallGood,FGood,nbbadclause,nbtotalbad,precisionBad,recallBad,FBad,accuracy)
c additional predictionFinallLBD 14 1901048 304948 0.16 1.00 0.28 548160 2144260 1.00 0.26 0.41 0.35 (nbgoodclauses,nbtotalgood,precisionGood,recallGood,FGood,nbbadclause,nbtotalbad,precisionBad,recallBad,FBad,accuracy)
c additional predictionFinallLBD 18 2123630 304948 0.14 1.00 0.25 325578 2144260 1.00 0.15 0.26 0.26 (nbgoodclauses,nbtotalgood,precisionGood,recallGood,FGood,nbbadclause,nbtotalbad,precisionBad,recallBad,FBad,accuracy)
c additional predictionFinallLBD 22 2239800 304948 0.14 1.00 0.24 209408 2144260 1.00 0.10 0.18 0.21 (nbgoodclauses,nbtotalgood,precisionGood,recallGood,FGood,nbbadclause,nbtotalbad,precisionBad,recallBad,FBad,accuracy)
c additional predictionFinallLBD 30 2349179 304948 0.13 1.00 0.23 100029 2144260 1.00 0.05 0.09 0.17 (nbgoodclauses,nbtotalgood,precisionGood,recallGood,FGood,nbbadclause,nbtotalbad,precisionBad,recallBad,FBad,accuracy)
c additional predictionFinallLBD 40 2400896 304948 0.13 1.00 0.23 48312 2144260 1.00 0.02 0.04 0.14 (nbgoodclauses,nbtotalgood,precisionGood,recallGood,FGood,nbbadclause,nbtotalbad,precisionBad,recallBad,FBad,accuracy)
c additional predictionSize 1 38 304948 0.84 0.00 0.00 2449170 2144260 0.88 7.03 1.56 0.88 (nbgoodclauses,nbtotalgood,precisionGood,recallGood,FGood,nbbadclause,nbtotalbad,precisionBad,recallBad,FBad,accuracy)
c additional predictionSize 2 8053 304948 0.81 0.02 0.04 2441155 2144260 0.88 7.03 1.56 0.88 (nbgoodclauses,nbtotalgood,precisionGood,recallGood,FGood,nbbadclause,nbtotalbad,precisionBad,recallBad,FBad,accuracy)
c additional predictionSize 3 22441 304948 0.79 0.06 0.11 2426767 2144260 0.88 7.02 1.57 0.88 (nbgoodclauses,nbtotalgood,precisionGood,recallGood,FGood,nbbadclause,nbtotalbad,precisionBad,recallBad,FBad,accuracy)
c additional predictionSize 4 53010 304948 0.71 0.12 0.21 2396198 2144260 0.89 6.98 1.58 0.88 (nbgoodclauses,nbtotalgood,precisionGood,recallGood,FGood,nbbadclause,nbtotalbad,precisionBad,recallBad,FBad,accuracy)
c additional predictionSize 5 100715 304948 0.63 0.21 0.31 2348493 2144260 0.90 6.91 1.59 0.89 (nbgoodclauses,nbtotalgood,precisionGood,recallGood,FGood,nbbadclause,nbtotalbad,precisionBad,recallBad,FBad,accuracy)
c additional predictionSize 6 170469 304948 0.56 0.31 0.40 2278739 2144260 0.91 6.78 1.60 0.88 (nbgoodclauses,nbtotalgood,precisionGood,recallGood,FGood,nbbadclause,nbtotalbad,precisionBad,recallBad,FBad,accuracy)
c additional predictionSize 7 264225 304948 0.49 0.43 0.46 2184983 2144260 0.92 6.59 1.61 0.87 (nbgoodclauses,nbtotalgood,precisionGood,recallGood,FGood,nbbadclause,nbtotalbad,precisionBad,recallBad,FBad,accuracy)
c additional predictionSize 8 366593 304948 0.44 0.52 0.48 2082615 2144260 0.93 6.35 1.62 0.86 (nbgoodclauses,nbtotalgood,precisionGood,recallGood,FGood,nbbadclause,nbtotalbad,precisionBad,recallBad,FBad,accuracy)
c additional predictionSize 10 571534 304948 0.36 0.67 0.47 1877674 2144260 0.95 5.83 1.63 0.81 (nbgoodclauses,nbtotalgood,precisionGood,recallGood,FGood,nbbadclause,nbtotalbad,precisionBad,recallBad,FBad,accuracy)
c additional predictionSize 14 932091 304948 0.27 0.83 0.41 1517117 2144260 0.97 4.80 1.61 0.70 (nbgoodclauses,nbtotalgood,precisionGood,recallGood,FGood,nbbadclause,nbtotalbad,precisionBad,recallBad,FBad,accuracy)
c additional predictionSize 18 1221415 304948 0.23 0.91 0.36 1227793 2144260 0.98 3.94 1.57 0.60 (nbgoodclauses,nbtotalgood,precisionGood,recallGood,FGood,nbbadclause,nbtotalbad,precisionBad,recallBad,FBad,accuracy)
c additional predictionSize 22 1447118 304948 0.20 0.95 0.33 1002090 2144260 0.99 3.24 1.51 0.52 (nbgoodclauses,nbtotalgood,precisionGood,recallGood,FGood,nbbadclause,nbtotalbad,precisionBad,recallBad,FBad,accuracy)
c additional predictionSize 30 1761250 304948 0.17 0.98 0.29 687958 2144260 0.99 2.24 1.38 0.40 (nbgoodclauses,nbtotalgood,precisionGood,recallGood,FGood,nbbadclause,nbtotalbad,precisionBad,recallBad,FBad,accuracy)
c additional predictionSize 40 2000898 304948 0.15 1.00 0.26 448310 2144260 1.00 1.47 1.19 0.31 (nbgoodclauses,nbtotalgood,precisionGood,recallGood,FGood,nbbadclause,nbtotalbad,precisionBad,recallBad,FBad,accuracy)
c additional predictionAge 1 139508 304948 0.21 0.10 0.13 2309700 2144260 0.88 6.67 1.56 0.84 (nbgoodclauses,nbtotalgood,precisionGood,recallGood,FGood,nbbadclause,nbtotalbad,precisionBad,recallBad,FBad,accuracy)
c additional predictionAge 10 187831 304948 0.21 0.13 0.16 2261377 2144260 0.88 6.54 1.56 0.83 (nbgoodclauses,nbtotalgood,precisionGood,recallGood,FGood,nbbadclause,nbtotalbad,precisionBad,recallBad,FBad,accuracy)
c additional predictionAge 25 214163 304948 0.21 0.15 0.17 2235045 2144260 0.88 6.48 1.55 0.82 (nbgoodclauses,nbtotalgood,precisionGood,recallGood,FGood,nbbadclause,nbtotalbad,precisionBad,recallBad,FBad,accuracy)
c additional predictionAge 50 226242 304948 0.21 0.15 0.18 2222966 2144260 0.88 6.44 1.55 0.82 (nbgoodclauses,nbtotalgood,precisionGood,recallGood,FGood,nbbadclause,nbtotalbad,precisionBad,recallBad,FBad,accuracy)
c additional predictionAge 100 242637 304948 0.21 0.17 0.19 2206571 2144260 0.88 6.40 1.55 0.82 (nbgoodclauses,nbtotalgood,precisionGood,recallGood,FGood,nbbadclause,nbtotalbad,precisionBad,recallBad,FBad,accuracy)
c additional predictionAge 250 275397 304948 0.21 0.19 0.20 2173811 2144260 0.89 6.32 1.56 0.81 (nbgoodclauses,nbtotalgood,precisionGood,recallGood,FGood,nbbadclause,nbtotalbad,precisionBad,recallBad,FBad,accuracy)
c additional predictionAge 500 306584 304948 0.22 0.22 0.22 2142624 2144260 0.89 6.24 1.56 0.80 (nbgoodclauses,nbtotalgood,precisionGood,recallGood,FGood,nbbadclause,nbtotalbad,precisionBad,recallBad,FBad,accuracy)
c additional predictionAge 1000 337823 304948 0.22 0.24 0.23 2111385 2144260 0.89 6.17 1.56 0.80 (nbgoodclauses,nbtotalgood,precisionGood,recallGood,FGood,nbbadclause,nbtotalbad,precisionBad,recallBad,FBad,accuracy)
c additional predictionAge 2500 374890 304948 0.22 0.27 0.24 2074318 2144260 0.89 6.07 1.56 0.79 (nbgoodclauses,nbtotalgood,precisionGood,recallGood,FGood,nbbadclause,nbtotalbad,precisionBad,recallBad,FBad,accuracy)
c additional predictionAge 5000 398099 304948 0.22 0.28 0.25 2051109 2144260 0.89 6.01 1.56 0.78 (nbgoodclauses,nbtotalgood,precisionGood,recallGood,FGood,nbbadclause,nbtotalbad,precisionBad,recallBad,FBad,accuracy)
c additional predictionAge 10000 419325 304948 0.22 0.30 0.25 2029883 2144260 0.89 5.96 1.56 0.78 (nbgoodclauses,nbtotalgood,precisionGood,recallGood,FGood,nbbadclause,nbtotalbad,precisionBad,recallBad,FBad,accuracy)
c additional predictionAge 25000 454435 304948 0.22 0.32 0.26 1994773 2144260 0.90 5.87 1.56 0.77 (nbgoodclauses,nbtotalgood,precisionGood,recallGood,FGood,nbbadclause,nbtotalbad,precisionBad,recallBad,FBad,accuracy)
c additional predictionAge 50000 496417 304948 0.22 0.36 0.27 1952791 2144260 0.90 5.76 1.56 0.76 (nbgoodclauses,nbtotalgood,precisionGood,recallGood,FGood,nbbadclause,nbtotalbad,precisionBad,recallBad,FBad,accuracy)
c additional predictionAge 100000 565008 304948 0.22 0.40 0.28 1884200 2144260 0.90 5.58 1.55 0.74 (nbgoodclauses,nbtotalgood,precisionGood,recallGood,FGood,nbbadclause,nbtotalbad,precisionBad,recallBad,FBad,accuracy)
c additional predictionTicks 1 139560 304948 0.21 0.10 0.13 2309648 2144260 0.88 6.67 1.56 0.84 (nbgoodclauses,nbtotalgood,precisionGood,recallGood,FGood,nbbadclause,nbtotalbad,precisionBad,recallBad,FBad,accuracy)
c additional predictionTicks 10 252370 304948 0.20 0.17 0.18 2196838 2144260 0.88 6.37 1.55 0.81 (nbgoodclauses,nbtotalgood,precisionGood,recallGood,FGood,nbbadclause,nbtotalbad,precisionBad,recallBad,FBad,accuracy)
c additional predictionTicks 25 409377 304948 0.18 0.24 0.21 2039831 2144260 0.89 5.93 1.54 0.77 (nbgoodclauses,nbtotalgood,precisionGood,recallGood,FGood,nbbadclause,nbtotalbad,precisionBad,recallBad,FBad,accuracy)
c additional predictionTicks 50 544590 304948 0.17 0.30 0.22 1904618 2144260 0.89 5.55 1.53 0.73 (nbgoodclauses,nbtotalgood,precisionGood,recallGood,FGood,nbbadclause,nbtotalbad,precisionBad,recallBad,FBad,accuracy)
c additional predictionTicks 100 717456 304948 0.16 0.38 0.23 1731752 2144260 0.89 5.06 1.51 0.68 (nbgoodclauses,nbtotalgood,precisionGood,recallGood,FGood,nbbadclause,nbtotalbad,precisionBad,recallBad,FBad,accuracy)
c additional predictionTicks 250 998375 304948 0.15 0.50 0.23 1450833 2144260 0.89 4.25 1.48 0.59 (nbgoodclauses,nbtotalgood,precisionGood,recallGood,FGood,nbbadclause,nbtotalbad,precisionBad,recallBad,FBad,accuracy)
c additional predictionTicks 500 1216196 304948 0.15 0.59 0.24 1233012 2144260 0.90 3.63 1.44 0.53 (nbgoodclauses,nbtotalgood,precisionGood,recallGood,FGood,nbbadclause,nbtotalbad,precisionBad,recallBad,FBad,accuracy)
c additional predictionTicks 1000 1413823 304948 0.14 0.67 0.24 1035385 2144260 0.90 3.06 1.39 0.46 (nbgoodclauses,nbtotalgood,precisionGood,recallGood,FGood,nbbadclause,nbtotalbad,precisionBad,recallBad,FBad,accuracy)
c additional predictionTicks 2500 1627529 304948 0.14 0.75 0.24 821679 2144260 0.91 2.45 1.33 0.40 (nbgoodclauses,nbtotalgood,precisionGood,recallGood,FGood,nbbadclause,nbtotalbad,precisionBad,recallBad,FBad,accuracy)
c additional predictionTicks 5000 1756594 304948 0.14 0.81 0.24 692614 2144260 0.91 2.08 1.27 0.36 (nbgoodclauses,nbtotalgood,precisionGood,recallGood,FGood,nbbadclause,nbtotalbad,precisionBad,recallBad,FBad,accuracy)
c additional predictionTicks 10000 1874029 304948 0.14 0.85 0.24 575179 2144260 0.92 1.73 1.20 0.32 (nbgoodclauses,nbtotalgood,precisionGood,recallGood,FGood,nbbadclause,nbtotalbad,precisionBad,recallBad,FBad,accuracy)
c additional predictionTicks 25000 2023858 304948 0.14 0.90 0.24 425350 2144260 0.93 1.29 1.08 0.27 (nbgoodclauses,nbtotalgood,precisionGood,recallGood,FGood,nbbadclause,nbtotalbad,precisionBad,recallBad,FBad,accuracy)
c additional predictionTicks 50000 2140254 304948 0.13 0.94 0.23 308954 2144260 0.94 0.95 0.94 0.23 (nbgoodclauses,nbtotalgood,precisionGood,recallGood,FGood,nbbadclause,nbtotalbad,precisionBad,recallBad,FBad,accuracy)
c additional predictionTicks 100000 2253210 304948 0.13 0.97 0.23 195998 2144260 0.95 0.61 0.74 0.20 (nbgoodclauses,nbtotalgood,precisionGood,recallGood,FGood,nbbadclause,nbtotalbad,precisionBad,recallBad,FBad,accuracy)
c additional lifetimeGood 1 6 6 12 942 129105 854347 1664090 1930446 2257376 2441379 2447147 (0,1,5,10,25,50,75,90,95,99,100-1,100)
c additional lifetimeBad 1 6 6 24 5904 302605 869569 1407899 1683344 2075854 2446319 2447964 (0,1,5,10,25,50,75,90,95,99,100-1,100)
c additional lifetimeBadBad 2 6 6 6 12 396 44352 343221 633845 1218469 2412614 2425524 (0,1,5,10,25,50,75,90,95,99,100-1,100)
c additional compositionBad 1 2 3 4 7 14 25 48 70 166 3135 3153 (0,1,5,10,25,50,75,90,95,99,100-1,100)
c additional compositionBadWithGood 0 0 0 0 1 3 7 13 17 33 264 291 (0,1,5,10,25,50,75,90,95,99,100-1,100)
c additional compositionBadWithBad 0 0 0 0 1 2 4 6 7 11 90 90 (0,1,5,10,25,50,75,90,95,99,100-1,100)
c additional compositionBadWithInitial 0 0 0 1 3 7 15 34 54 129 2991 3040 (0,1,5,10,25,50,75,90,95,99,100-1,100)
c additional compositionGood 1 2 2 3 5 7 12 18 23 35 1116 1287 (0,1,5,10,25,50,75,90,95,99,100-1,100)
c additional compositionGoodWithGood 0 0 0 1 2 3 6 11 15 23 61 61 (0,1,5,10,25,50,75,90,95,99,100-1,100)
c additional compositionGoodWithInitial 0 0 0 0 1 4 6 10 13 21 1069 1254 (0,1,5,10,25,50,75,90,95,99,100-1,100)
c additional propagationGood total 100126892 percentiles 0 1 1 1 1 3 18 153 634 10090 51907 59757 (0,1,5,10,25,50,75,90,95,99,100-1,100)
c additional propagationBad total 20516830 percentiles 1 1 1 1 1 1 2 7 14 103 37129 42857 (0,1,5,10,25,50,75,90,95,99,100-1,100)
c additional resolutionGood total 11412479 percentiles 0 1 1 1 1 3 8 31 82 771 13244 13639 (0,1,5,10,25,50,75,90,95,99,100-1,100)
c additional resolutionBad total 5513741 percentiles 0 0 0 1 1 1 2 4 8 25 1113 1618 (0,1,5,10,25,50,75,90,95,99,100-1,100)
Computing K-Core for 2574013 clauses...
c building structure for KCore computation.
c the graph has 52642322 edges, maxdegree=3153
c we start the KCore with the value 20
c Non directed graph built
K=20,1748627 nodes removed so far
K=21,1801703 nodes removed so far
K=22,1849353 nodes removed so far
K=23,1891759 nodes removed so far
K=24,1929313 nodes removed so far
K=25,1962942 nodes removed so far
K=26,1993691 nodes removed so far
K=27,2021270 nodes removed so far
K=28,2046321 nodes removed so far
K=29,2069266 nodes removed so far
K=30,2090466 nodes removed so far
K=31,2109951 nodes removed so far
K=32,2127980 nodes removed so far
K=33,2144398 nodes removed so far
K=34,2159616 nodes removed so far
K=35,2173662 nodes removed so far
K=36,2186865 nodes removed so far
K=37,2199018 nodes removed so far
K=38,2210690 nodes removed so far
K=39,2221473 nodes removed so far
K=40,2231874 nodes removed so far
K=41,2241480 nodes removed so far
K=42,2250585 nodes removed so far
K=43,2259363 nodes removed so far
K=44,2267696 nodes removed so far
K=45,2275784 nodes removed so far
K=46,2283298 nodes removed so far
K=47,2290255 nodes removed so far
K=48,2297032 nodes removed so far
K=49,2303772 nodes removed so far
K=50,2310156 nodes removed so far
K=51,2316392 nodes removed so far
K=52,2322317 nodes removed so far
K=53,2328064 nodes removed so far
K=54,2333608 nodes removed so far
K=55,2339073 nodes removed so far
K=56,2344329 nodes removed so far
K=57,2349472 nodes removed so far
K=58,2354272 nodes removed so far
K=59,2358825 nodes removed so far
K=60,2363447 nodes removed so far
K=61,2367664 nodes removed so far
K=62,2371744 nodes removed so far
K=63,2375556 nodes removed so far
K=64,2379054 nodes removed so far
K=65,2382549 nodes removed so far
K=66,2386035 nodes removed so far
K=67,2389286 nodes removed so far
K=68,2392348 nodes removed so far
K=69,2395292 nodes removed so far
K=70,2398162 nodes removed so far
K=71,2400757 nodes removed so far
K=72,2403437 nodes removed so far
K=73,2405913 nodes removed so far
K=74,2408220 nodes removed so far
K=75,2410465 nodes removed so far
K=76,2412781 nodes removed so far
K=77,2414911 nodes removed so far
K=78,2416954 nodes removed so far
K=79,2418924 nodes removed so far
K=80,2420789 nodes removed so far
K=81,2422617 nodes removed so far
K=82,2424537 nodes removed so far
K=83,2426290 nodes removed so far
K=84,2428088 nodes removed so far
K=85,2429822 nodes removed so far
K=86,2431536 nodes removed so far
K=87,2433450 nodes removed so far
K=88,2435174 nodes removed so far
K=89,2437082 nodes removed so far
K=90,2438724 nodes removed so far
K=91,2440766 nodes removed so far
K=92,2442412 nodes removed so far
K=93,2444344 nodes removed so far
K=94,2446168 nodes removed so far
K=95,2447820 nodes removed so far
K=96,2449580 nodes removed so far
K=97,2451389 nodes removed so far
K=98,2453486 nodes removed so far
K=99,2455339 nodes removed so far
K=100,2457457 nodes removed so far
K=101,2459339 nodes removed so far
K=102,2461364 nodes removed so far
K=103,2463729 nodes removed so far
K=104,2466379 nodes removed so far
K=105,2469083 nodes removed so far
K=106,2472132 nodes removed so far
K=107,2511615 nodes removed so far
K=108,2512141 nodes removed so far
K=109,2512574 nodes removed so far
K=110,2512895 nodes removed so far
K=111,2513169 nodes removed so far
K=112,2513525 nodes removed so far
K=113,2513823 nodes removed so far
K=114,2514058 nodes removed so far
K=115,2514293 nodes removed so far
K=116,2514576 nodes removed so far
K=117,2514848 nodes removed so far
K=118,2515096 nodes removed so far
K=119,2515347 nodes removed so far
K=120,2515583 nodes removed so far
K=121,2515795 nodes removed so far
K=122,2516235 nodes removed so far
K=123,2516808 nodes removed so far
K=124,2521963 nodes removed so far
K=125,2521965 nodes removed so far
K=126,2521972 nodes removed so far
K=127,2521975 nodes removed so far
K=128,2521987 nodes removed so far
K=129,2522027 nodes removed so far
K=130,2522032 nodes removed so far
K=131,2522039 nodes removed so far
K=132,2522045 nodes removed so far
K=133,2522048 nodes removed so far
K=134,2522051 nodes removed so far
K=135,2522065 nodes removed so far
K=136,2522073 nodes removed so far
K=137,2522082 nodes removed so far
K=138,2522093 nodes removed so far
K=139,2522094 nodes removed so far
K=140,2522097 nodes removed so far
K=141,2522103 nodes removed so far
K=142,2522104 nodes removed so far
K=143,2522108 nodes removed so far
K=144,2522112 nodes removed so far
K=145,2522113 nodes removed so far
K=146,2522116 nodes removed so far
K=147,2522117 nodes removed so far
K=148,2522118 nodes removed so far
K=149,2522119 nodes removed so far
K=150,2522119 nodes removed so far
K=151,2522119 nodes removed so far
K=152,2522121 nodes removed so far
K=153,2522123 nodes removed so far
K=154,2522123 nodes removed so far
K=155,2522123 nodes removed so far
K=156,2522232 nodes removed so far
K=157,2522232 nodes removed so far
K=158,2522233 nodes removed so far
K=159,2522237 nodes removed so far
K=160,2522237 nodes removed so far
K=161,2522238 nodes removed so far
K=162,2522239 nodes removed so far
K=163,2522246 nodes removed so far
K=164,2522247 nodes removed so far
K=165,2522252 nodes removed so far
K=166,2522253 nodes removed so far
K=167,2522255 nodes removed so far
K=168,2522257 nodes removed so far
K=169,2522258 nodes removed so far
K=170,2522262 nodes removed so far
K=171,2522264 nodes removed so far
K=172,2522264 nodes removed so far
K=173,2522264 nodes removed so far
K=174,2522265 nodes removed so far
K=175,2522266 nodes removed so far
K=176,2522268 nodes removed so far
K=177,2522269 nodes removed so far
K=178,2522269 nodes removed so far
K=179,2522271 nodes removed so far
K=180,2522273 nodes removed so far
K=181,2522274 nodes removed so far
K=182,2522274 nodes removed so far
K=183,2522275 nodes removed so far
K=184,2522278 nodes removed so far
K=185,2522278 nodes removed so far
K=186,2522279 nodes removed so far
K=187,2522280 nodes removed so far
K=188,2522281 nodes removed so far
K=189,2522284 nodes removed so far
K=190,2522292 nodes removed so far
K=191,2522356 nodes removed so far
K=192,2522438 nodes removed so far
K=193,2522530 nodes removed so far
K=194,2522613 nodes removed so far
K=195,2522680 nodes removed so far
K=196,2522762 nodes removed so far
K=197,2523083 nodes removed so far
K=198,2523203 nodes removed so far
K=199,2523361 nodes removed so far
K=200,2523557 nodes removed so far
K=201,2523766 nodes removed so far
K=202,2523962 nodes removed so far
K=203,2523973 nodes removed so far
K=204,2523984 nodes removed so far
K=205,2523995 nodes removed so far
K=206,2523999 nodes removed so far
K=207,2524001 nodes removed so far
K=208,2524009 nodes removed so far
K=209,2524018 nodes removed so far
K=210,2524126 nodes removed so far
K=211,2524126 nodes removed so far
K=212,2524127 nodes removed so far
K=213,2524128 nodes removed so far
K=214,2524128 nodes removed so far
K=215,2524128 nodes removed so far
K=216,2524129 nodes removed so far
K=217,2524129 nodes removed so far
K=218,2524129 nodes removed so far
K=219,2524129 nodes removed so far
K=220,2524129 nodes removed so far
K=221,2524130 nodes removed so far
K=222,2524130 nodes removed so far
K=223,2524130 nodes removed so far
K=224,2524168 nodes removed so far
K=225,2524168 nodes removed so far
K=226,2524168 nodes removed so far
K=227,2524170 nodes removed so far
K=228,2524170 nodes removed so far
K=229,2524439 nodes removed so far
K=230,2524439 nodes removed so far
K=231,2524439 nodes removed so far
K=232,2524439 nodes removed so far
K=233,2524439 nodes removed so far
K=234,2524439 nodes removed so far
K=235,2524439 nodes removed so far
K=236,2524439 nodes removed so far
K=237,2524439 nodes removed so far
K=238,2524439 nodes removed so far
K=239,2524439 nodes removed so far
K=240,2524440 nodes removed so far
K=241,2524441 nodes removed so far
K=242,2524442 nodes removed so far
K=243,2524442 nodes removed so far
K=244,2524442 nodes removed so far
K=245,2524442 nodes removed so far
K=246,2524442 nodes removed so far
K=247,2524443 nodes removed so far
K=248,2524443 nodes removed so far
K=249,2524443 nodes removed so far
K=250,2524443 nodes removed so far
K=251,2524443 nodes removed so far
K=252,2524443 nodes removed so far
K=253,2524443 nodes removed so far
K=254,2524443 nodes removed so far
K=255,2524443 nodes removed so far
K=256,2524443 nodes removed so far
K=257,2524443 nodes removed so far
K=258,2524443 nodes removed so far
K=259,2524443 nodes removed so far
K=260,2524443 nodes removed so far
K=261,2524443 nodes removed so far
K=262,2524443 nodes removed so far
K=263,2524443 nodes removed so far
K=264,2524443 nodes removed so far
K=265,2524444 nodes removed so far
K=266,2524444 nodes removed so far
K=267,2524444 nodes removed so far
K=268,2524444 nodes removed so far
K=269,2524444 nodes removed so far
K=270,2524444 nodes removed so far
K=271,2524444 nodes removed so far
K=272,K=273,K=274,K=275,K=276,K=277,K=278,K=279,K=280,K=281,K=282,K=283,K=284,K=285,K=286,K=287,K=288,K=289,K=290,K=291,K=292,KCore = 292
Building structure for PR...
Computing PR...
Pageranking 2417586 nodes done in 29 iteration. cumulError=6.31916e-11
clause level 28 (Kante=1116, Kdesc=260, core=3):-15051 -11840 -6206 
clause level 32 (Kante=329, Kdesc=5, core=3):6207 -13277 9556 -9568 11428 13265 7654 -7666 
clause level 29 (Kante=385, Kdesc=17, core=5):14805 -15065 -6210 -11440 15053 
clause level 35 (Kante=305, Kdesc=4, core=3):-11216 -9952 11214 
clause level 32 (Kante=945, Kdesc=354, core=3):8983 8111 9263 -8791 
clause level 26 (Kante=336, Kdesc=10, core=2):10977 -5368 7303 
clause level 5 (Kante=4, Kdesc=1484, core=1):-188 -55 
clause level 7 (Kante=3, Kdesc=1013, core=4):-188 -58 
clause level 28 (Kante=483, Kdesc=4, core=1):11428 9949 8064 -9948 6207 -8063 -6206 -4313 -11844 5442 -4311 -9952 -4317 
clause level 25 (Kante=840, Kdesc=13, core=1):6214 15063 13278 11441 -8074 13275 9566 9556 11438 11428 5804 7654 15053 13265 -15072 -13284 -11447 -9575 
clause level 7 (Kante=334, Kdesc=28, core=4):-8063 -8067 9217 -8061 
clause level 7 (Kante=332, Kdesc=13, core=4):-8063 7301 -8067 9224 8061 
Found 303 good successive clauses in order (291 originals, maxlevel=35)
c KCorePR 2574013 292 303 291 35
c DistanceTo...Unseen 167984
c DistanceToGoodKCore c   DIST 0: 303 (+303) / 303 (+303)
c   DIST 1: 12323 (+12020) / 3536 (+3233)
c   DIST 2: 455026 (+442703) / 81964 (+78428)
c   DIST 3: 1447444 (+992418) / 215380 (+133416)
c   DIST 4: 2037584 (+590140) / 298252 (+82872)
c   DIST 5: 2244030 (+206446) / 326811 (+28559)
c   DIST 6: 2322045 (+78015) / 339984 (+13173)
c   DIST 7: 2355573 (+33528) / 346938 (+6954)
c   DIST 8: 2373309 (+17736) / 350643 (+3705)
c   DIST 9: 2383937 (+10628) / 352791 (+2148)
c   DIST 10: 2390722 (+6785) / 354053 (+1262)
c   DIST 11: 2395191 (+4469) / 354804 (+751)
c   DIST 12: 2398433 (+3242) / 355272 (+468)
c   DIST 13: 2400705 (+2272) / 355587 (+315)
c   DIST 14: 2402292 (+1587) / 355812 (+225)
c   DIST 15: 2403462 (+1170) / 355978 (+166)
c   DIST 16: 2404264 (+802) / 356089 (+111)
c   DIST 17: 2404739 (+475) / 356146 (+57)
c   DIST 18: 2405063 (+324) / 356172 (+26)
c   DIST 19: 2405318 (+255) / 356193 (+21)
c   DIST 20: 2405525 (+207) / 356207 (+14)
c   DIST 21: 2405673 (+148) / 356217 (+10)
c   DIST 22: 2405770 (+97) / 356229 (+12)
c   DIST 23: 2405839 (+69) / 356236 (+7)
c   DIST 24: 2405889 (+50) / 356237 (+1)
c   DIST 25: 2405925 (+36) / 356237 (+0)
c   DIST 26: 2405949 (+24) / 356237 (+0)
c   DIST 27: 2405964 (+15) / 356237 (+0)
c   DIST 28: 2405977 (+13) / 356237 (+0)
c   DIST 29: 2405991 (+14) / 356237 (+0)
c   DIST 30: 2405997 (+6) / 356237 (+0)
c   DIST 31: 2406003 (+6) / 356237 (+0)
c   DIST 32: 2406011 (+8) / 356237 (+0)
c   DIST 33: 2406019 (+8) / 356237 (+0)
c   DIST 34: 2406025 (+6) / 356237 (+0)
c   DIST 35: 2406028 (+3) / 356237 (+0)
c   DIST 36: 2406029 (+1) / 356237 (+0)
c TotalDistance=2574013
No graph is dumped
c result of core 1 is UNSAT
c One thread has finished
c Core 1 said it finished
c result of core 0 is UNKNOWN
c result of core 3 is UNKNOWN
c result of core 4 is UNKNOWN
c result of core 5 is UNKNOWN
c result of core 2 is UNKNOWN
c restarts              : 1292 (315 conflicts in avg)
c blocked restarts      : 1707 (multiple: 473) 
c last block at restart : 1292
c nb ReduceDB           : 16
c nb removed Clauses    : 390036
c nb learnts DL2        : 4228
c nb learnts size 2     : 1284
c nb learnts size 1     : 6
c conflicts             : 408202         (410 /sec)
c decisions             : 1025021        (0.00 % random) (1029 /sec)
c propagations          : 101142545      (101570 /sec)
c conflict literals     : 12028799       (6.29 % deleted)
c nb reduced Clauses    : 731
c CPU time              : 995.794 s

s INDETERMINATE
