c
c This is glucose-proof 1.0 based on  2.1 --  (thanks to MiniSAT)
c
c EXPERIMENTAL EASY PARALLEL (ROUND ROBIN) VERSION
c
c WARNING: for repeatability, setting FPU to use double precision
c Parallel version 16 solvers created.
c ========================================[ Problem Statistics ]===========================================
c |                                                                                                       |
c |  Number of variables:         35876                                                                   |
c |  Number of clauses:          487093                                                                   |
c |  Parse time:                   1.97 s                                                                 |
c |                                                                                                       |
c ========================================[ MAGIC CONSTANTS ]==============================================
c | Constants are supposed to work well together :-)                                                      |
c | however, if you find better choices, please let us known...                                           |
c |-------------------------------------------------------------------------------------------------------|
c |                                |                                |                                     |
c | - Restarts:                    | - Reduce Clause DB:            | - Minimize Asserting:               |
c |   * LBD Queue    :     50      |   * First     :   4000         |    * size <  30                     |
c |   * Trail  Queue :   5000      |   * Inc       :    300         |    * lbd  <   6                     |
c |   * K            :   0.80      |   * Special   :   1000         |                                     |
c |   * R            :   1.40      |   * Protected :  (lbd)< 30     |                                     |
c |                                |                                |                                     |
c ==================================[ Search Statistics (every  10000 conflicts) ]=========================
c |                                                                                                       |
c |          RESTARTS           |          ORIGINAL         |              LEARNT              | Progress |
c |       NB   Blocked  Avg Cfc |    Vars  Clauses Literals |   Red   Learnts    LBD2  Removed |          |
c =========================================================================================================
c |       93         0      107 |   31049   487093  1134983 |     1     7934      281     3218 | 13.455 % |
c empty clause found by core 6 at conflict 18397
*
c checking the resolution graph...OK
c All useful bySize 267609 clauses, percentiles 0 2 2 2 2 2 4 93 570 2663 9890 9955 (0,1,5,10,25,50,75,90,95,99,100-1,100)
c All useless bySize 530497 clauses, percentiles 0 0 2 2 2 2 592 2399 3346 5398 10696 10754 (0,1,5,10,25,50,75,90,95,99,100-1,100)
c ProofOnly useful bySize 61971 clauses, percentiles 0 1 2 3 8 58 391 1852 2543 4239 9890 9955 (0,1,5,10,25,50,75,90,95,99,100-1,100)
c ProofOnly useless bySize 232372 clauses, percentiles 1 5 18 44 193 860 2268 3531 4476 6186 10696 10754 (0,1,5,10,25,50,75,90,95,99,100-1,100)
c All useful byFinalLBD 267609 clauses, percentiles 0 1 2 2 2 2 2 5 12 96 1684 1686 (0,1,5,10,25,50,75,90,95,99,100-1,100)
c All useless byFinalLBD 530497 clauses, percentiles 0 0 2 2 2 2 18 95 207 647 3450 3451 (0,1,5,10,25,50,75,90,95,99,100-1,100)
c ProofOnly useful byFinalLBD 61971 clauses, percentiles 0 1 1 1 2 3 7 28 80 405 1684 1686 (0,1,5,10,25,50,75,90,95,99,100-1,100)
c ProofOnly useless byFinalLBD 232372 clauses, percentiles 1 1 3 4 9 24 84 235 412 922 3450 3451 (0,1,5,10,25,50,75,90,95,99,100-1,100)
c All useful byInitialLBD 267609 clauses, percentiles 0 2 2 2 2 2 3 11 31 238 1694 1697 (0,1,5,10,25,50,75,90,95,99,100-1,100)
c All useless byInitialLBD 530497 clauses, percentiles 0 0 2 2 2 2 23 111 236 692 3450 3451 (0,1,5,10,25,50,75,90,95,99,100-1,100)
c ProofOnly useful byInitialLBD 61971 clauses, percentiles 0 1 2 2 3 7 22 86 202 618 1694 1697 (0,1,5,10,25,50,75,90,95,99,100-1,100)
c ProofOnly useless byInitialLBD 232372 clauses, percentiles 1 3 4 6 11 30 98 267 459 970 3450 3451 (0,1,5,10,25,50,75,90,95,99,100-1,100)
c Literals ProofOnly useful 30003212
c Literals ProofOnly useless 327358138
c additional windowsGood 1 1 1 1 1 1 1 2 2 3 7 8 (0,1,5,10,25,50,75,90,95,99,100-1,100)
c additional windowsBad 1 1 1 1 2 3 6 10 13 20 94 105 (0,1,5,10,25,50,75,90,95,99,100-1,100)
c additional 1WindowNoDecision 39254 23084 0.59 10420 5709 0.55 (nbWindowsGood,nbWindowsNoDecisionGood,nbWindowsBad,nbWindowsNoDecisionBad
c additional topclausessize all (10%,5%,1%,top) 1091.50 1943.49 3741.41 9955
c additional topclausessize proofonly (10%,5%,1%,top) 1660.39 2571.54 4281.83 9955
c additional topclausesinitialLBD all (10%,5%,1%,top) 1008.59 1802.86 3624.78 9955
c additional topclausesinitialLBD proofonly (10%,5%,1%,top) 941.26 1684.09 3522.08 9955
c additional topclausesfinalLBD all (10%,5%,1%,top) 694.65 1288.67 3179.66 9955
c additional topclausesfinalLBD proofonly (10%,5%,1%,top) 661.16 1227.55 3115.07 9955
c additional predictionInitialLBD 1 1117 61971 1.00 0.02 0.04 293226 232372 0.79 3.75 1.31 0.79 (nbgoodclauses,nbtotalgood,precisionGood,recallGood,FGood,nbbadclause,nbtotalbad,precisionBad,recallBad,FBad,accuracy)
c additional predictionInitialLBD 2 8658 61971 0.86 0.12 0.21 285685 232372 0.81 3.73 1.33 0.81 (nbgoodclauses,nbtotalgood,precisionGood,recallGood,FGood,nbbadclause,nbtotalbad,precisionBad,recallBad,FBad,accuracy)
c additional predictionInitialLBD 3 21141 61971 0.75 0.26 0.38 273202 232372 0.83 3.66 1.35 0.83 (nbgoodclauses,nbtotalgood,precisionGood,recallGood,FGood,nbbadclause,nbtotalbad,precisionBad,recallBad,FBad,accuracy)
c additional predictionInitialLBD 4 33069 61971 0.63 0.33 0.44 261274 232372 0.84 3.55 1.36 0.82 (nbgoodclauses,nbtotalgood,precisionGood,recallGood,FGood,nbbadclause,nbtotalbad,precisionBad,recallBad,FBad,accuracy)
c additional predictionInitialLBD 5 44523 61971 0.56 0.40 0.47 249820 232372 0.85 3.43 1.36 0.81 (nbgoodclauses,nbtotalgood,precisionGood,recallGood,FGood,nbbadclause,nbtotalbad,precisionBad,recallBad,FBad,accuracy)
c additional predictionInitialLBD 6 55409 61971 0.51 0.46 0.48 238934 232372 0.86 3.31 1.37 0.79 (nbgoodclauses,nbtotalgood,precisionGood,recallGood,FGood,nbbadclause,nbtotalbad,precisionBad,recallBad,FBad,accuracy)
c additional predictionInitialLBD 7 65614 61971 0.48 0.50 0.49 228729 232372 0.87 3.20 1.36 0.78 (nbgoodclauses,nbtotalgood,precisionGood,recallGood,FGood,nbbadclause,nbtotalbad,precisionBad,recallBad,FBad,accuracy)
c additional predictionInitialLBD 8 74815 61971 0.45 0.54 0.49 219528 232372 0.87 3.09 1.36 0.76 (nbgoodclauses,nbtotalgood,precisionGood,recallGood,FGood,nbbadclause,nbtotalbad,precisionBad,recallBad,FBad,accuracy)
c additional predictionInitialLBD 10 90588 61971 0.41 0.60 0.49 203755 232372 0.88 2.89 1.35 0.73 (nbgoodclauses,nbtotalgood,precisionGood,recallGood,FGood,nbbadclause,nbtotalbad,precisionBad,recallBad,FBad,accuracy)
c additional predictionInitialLBD 14 114955 61971 0.36 0.67 0.47 179388 232372 0.89 2.57 1.32 0.68 (nbgoodclauses,nbtotalgood,precisionGood,recallGood,FGood,nbbadclause,nbtotalbad,precisionBad,recallBad,FBad,accuracy)
c additional predictionInitialLBD 18 132843 61971 0.34 0.72 0.46 161500 232372 0.89 2.33 1.29 0.64 (nbgoodclauses,nbtotalgood,precisionGood,recallGood,FGood,nbbadclause,nbtotalbad,precisionBad,recallBad,FBad,accuracy)
c additional predictionInitialLBD 22 146628 61971 0.32 0.76 0.45 147715 232372 0.90 2.14 1.26 0.61 (nbgoodclauses,nbtotalgood,precisionGood,recallGood,FGood,nbbadclause,nbtotalbad,precisionBad,recallBad,FBad,accuracy)
c additional predictionInitialLBD 30 166344 61971 0.30 0.80 0.43 127999 232372 0.90 1.87 1.22 0.56 (nbgoodclauses,nbtotalgood,precisionGood,recallGood,FGood,nbbadclause,nbtotalbad,precisionBad,recallBad,FBad,accuracy)
c additional predictionInitialLBD 40 183469 61971 0.28 0.83 0.42 110874 232372 0.91 1.62 1.16 0.52 (nbgoodclauses,nbtotalgood,precisionGood,recallGood,FGood,nbbadclause,nbtotalbad,precisionBad,recallBad,FBad,accuracy)
c additional predictionFinallLBD 1 15373 61971 0.81 0.20 0.32 278970 232372 0.82 0.99 0.90 0.82 (nbgoodclauses,nbtotalgood,precisionGood,recallGood,FGood,nbbadclause,nbtotalbad,precisionBad,recallBad,FBad,accuracy)
c additional predictionFinallLBD 2 37429 61971 0.73 0.44 0.55 256914 232372 0.87 0.96 0.91 0.85 (nbgoodclauses,nbtotalgood,precisionGood,recallGood,FGood,nbbadclause,nbtotalbad,precisionBad,recallBad,FBad,accuracy)
c additional predictionFinallLBD 3 54855 61971 0.66 0.58 0.62 239488 232372 0.89 0.92 0.90 0.85 (nbgoodclauses,nbtotalgood,precisionGood,recallGood,FGood,nbbadclause,nbtotalbad,precisionBad,recallBad,FBad,accuracy)
c additional predictionFinallLBD 4 69268 61971 0.59 0.66 0.63 225075 232372 0.91 0.88 0.89 0.83 (nbgoodclauses,nbtotalgood,precisionGood,recallGood,FGood,nbbadclause,nbtotalbad,precisionBad,recallBad,FBad,accuracy)
c additional predictionFinallLBD 5 80510 61971 0.55 0.71 0.62 213833 232372 0.92 0.84 0.88 0.82 (nbgoodclauses,nbtotalgood,precisionGood,recallGood,FGood,nbbadclause,nbtotalbad,precisionBad,recallBad,FBad,accuracy)
c additional predictionFinallLBD 6 90135 61971 0.51 0.75 0.61 204208 232372 0.92 0.81 0.86 0.80 (nbgoodclauses,nbtotalgood,precisionGood,recallGood,FGood,nbbadclause,nbtotalbad,precisionBad,recallBad,FBad,accuracy)
c additional predictionFinallLBD 7 98635 61971 0.48 0.77 0.59 195708 232372 0.93 0.78 0.85 0.78 (nbgoodclauses,nbtotalgood,precisionGood,recallGood,FGood,nbbadclause,nbtotalbad,precisionBad,recallBad,FBad,accuracy)
c additional predictionFinallLBD 8 106303 61971 0.46 0.79 0.58 188040 232372 0.93 0.75 0.83 0.76 (nbgoodclauses,nbtotalgood,precisionGood,recallGood,FGood,nbbadclause,nbtotalbad,precisionBad,recallBad,FBad,accuracy)
c additional predictionFinallLBD 10 120019 61971 0.42 0.82 0.56 174324 232372 0.93 0.70 0.80 0.73 (nbgoodclauses,nbtotalgood,precisionGood,recallGood,FGood,nbbadclause,nbtotalbad,precisionBad,recallBad,FBad,accuracy)
c additional predictionFinallLBD 14 140975 61971 0.37 0.85 0.52 153368 232372 0.94 0.62 0.75 0.67 (nbgoodclauses,nbtotalgood,precisionGood,recallGood,FGood,nbbadclause,nbtotalbad,precisionBad,recallBad,FBad,accuracy)
c additional predictionFinallLBD 18 156056 61971 0.35 0.87 0.49 138287 232372 0.94 0.56 0.70 0.63 (nbgoodclauses,nbtotalgood,precisionGood,recallGood,FGood,nbbadclause,nbtotalbad,precisionBad,recallBad,FBad,accuracy)
c additional predictionFinallLBD 22 167579 61971 0.33 0.88 0.48 126764 232372 0.94 0.51 0.67 0.59 (nbgoodclauses,nbtotalgood,precisionGood,recallGood,FGood,nbbadclause,nbtotalbad,precisionBad,recallBad,FBad,accuracy)
c additional predictionFinallLBD 30 184572 61971 0.30 0.91 0.46 109771 232372 0.95 0.45 0.61 0.54 (nbgoodclauses,nbtotalgood,precisionGood,recallGood,FGood,nbbadclause,nbtotalbad,precisionBad,recallBad,FBad,accuracy)
c additional predictionFinallLBD 40 199290 61971 0.29 0.92 0.44 95053 232372 0.95 0.39 0.55 0.50 (nbgoodclauses,nbtotalgood,precisionGood,recallGood,FGood,nbbadclause,nbtotalbad,precisionBad,recallBad,FBad,accuracy)
c additional predictionSize 1 1117 61971 1.00 0.02 0.04 293226 232372 0.79 3.75 1.31 0.79 (nbgoodclauses,nbtotalgood,precisionGood,recallGood,FGood,nbbadclause,nbtotalbad,precisionBad,recallBad,FBad,accuracy)
c additional predictionSize 2 3927 61971 0.97 0.06 0.12 290416 232372 0.80 3.75 1.32 0.80 (nbgoodclauses,nbtotalgood,precisionGood,recallGood,FGood,nbbadclause,nbtotalbad,precisionBad,recallBad,FBad,accuracy)
c additional predictionSize 3 8220 61971 0.91 0.12 0.21 286123 232372 0.81 3.74 1.33 0.81 (nbgoodclauses,nbtotalgood,precisionGood,recallGood,FGood,nbbadclause,nbtotalbad,precisionBad,recallBad,FBad,accuracy)
c additional predictionSize 4 12409 61971 0.87 0.17 0.29 281934 232372 0.82 3.72 1.34 0.82 (nbgoodclauses,nbtotalgood,precisionGood,recallGood,FGood,nbbadclause,nbtotalbad,precisionBad,recallBad,FBad,accuracy)
c additional predictionSize 5 15657 61971 0.82 0.21 0.33 278686 232372 0.82 3.71 1.35 0.82 (nbgoodclauses,nbtotalgood,precisionGood,recallGood,FGood,nbbadclause,nbtotalbad,precisionBad,recallBad,FBad,accuracy)
c additional predictionSize 6 17647 61971 0.80 0.23 0.35 276696 232372 0.83 3.69 1.35 0.83 (nbgoodclauses,nbtotalgood,precisionGood,recallGood,FGood,nbbadclause,nbtotalbad,precisionBad,recallBad,FBad,accuracy)
c additional predictionSize 7 19417 61971 0.77 0.24 0.37 274926 232372 0.83 3.68 1.35 0.83 (nbgoodclauses,nbtotalgood,precisionGood,recallGood,FGood,nbbadclause,nbtotalbad,precisionBad,recallBad,FBad,accuracy)
c additional predictionSize 8 21003 61971 0.75 0.25 0.38 273340 232372 0.83 3.66 1.35 0.83 (nbgoodclauses,nbtotalgood,precisionGood,recallGood,FGood,nbbadclause,nbtotalbad,precisionBad,recallBad,FBad,accuracy)
c additional predictionSize 10 23919 61971 0.71 0.28 0.40 270424 232372 0.83 3.64 1.36 0.82 (nbgoodclauses,nbtotalgood,precisionGood,recallGood,FGood,nbbadclause,nbtotalbad,precisionBad,recallBad,FBad,accuracy)
c additional predictionSize 14 28451 61971 0.67 0.31 0.42 265892 232372 0.84 3.60 1.36 0.82 (nbgoodclauses,nbtotalgood,precisionGood,recallGood,FGood,nbbadclause,nbtotalbad,precisionBad,recallBad,FBad,accuracy)
c additional predictionSize 18 32996 61971 0.64 0.34 0.44 261347 232372 0.84 3.56 1.36 0.82 (nbgoodclauses,nbtotalgood,precisionGood,recallGood,FGood,nbbadclause,nbtotalbad,precisionBad,recallBad,FBad,accuracy)
c additional predictionSize 22 36702 61971 0.62 0.37 0.46 257641 232372 0.85 3.52 1.37 0.82 (nbgoodclauses,nbtotalgood,precisionGood,recallGood,FGood,nbbadclause,nbtotalbad,precisionBad,recallBad,FBad,accuracy)
c additional predictionSize 30 43383 61971 0.59 0.41 0.48 250960 232372 0.85 3.46 1.37 0.81 (nbgoodclauses,nbtotalgood,precisionGood,recallGood,FGood,nbbadclause,nbtotalbad,precisionBad,recallBad,FBad,accuracy)
c additional predictionSize 40 49673 61971 0.56 0.45 0.49 244670 232372 0.86 3.39 1.37 0.81 (nbgoodclauses,nbtotalgood,precisionGood,recallGood,FGood,nbbadclause,nbtotalbad,precisionBad,recallBad,FBad,accuracy)
c additional predictionAge 1 13724 61971 0.62 0.14 0.22 280619 232372 0.81 3.67 1.33 0.80 (nbgoodclauses,nbtotalgood,precisionGood,recallGood,FGood,nbbadclause,nbtotalbad,precisionBad,recallBad,FBad,accuracy)
c additional predictionAge 10 13733 61971 0.62 0.14 0.22 280610 232372 0.81 3.67 1.33 0.80 (nbgoodclauses,nbtotalgood,precisionGood,recallGood,FGood,nbbadclause,nbtotalbad,precisionBad,recallBad,FBad,accuracy)
c additional predictionAge 25 14053 61971 0.61 0.14 0.22 280290 232372 0.81 3.66 1.33 0.80 (nbgoodclauses,nbtotalgood,precisionGood,recallGood,FGood,nbbadclause,nbtotalbad,precisionBad,recallBad,FBad,accuracy)
c additional predictionAge 50 16373 61971 0.54 0.14 0.23 277970 232372 0.81 3.63 1.32 0.79 (nbgoodclauses,nbtotalgood,precisionGood,recallGood,FGood,nbbadclause,nbtotalbad,precisionBad,recallBad,FBad,accuracy)
c additional predictionAge 100 17702 61971 0.51 0.15 0.23 276641 232372 0.81 3.61 1.32 0.79 (nbgoodclauses,nbtotalgood,precisionGood,recallGood,FGood,nbbadclause,nbtotalbad,precisionBad,recallBad,FBad,accuracy)
c additional predictionAge 250 19179 61971 0.49 0.15 0.23 275164 232372 0.81 3.59 1.32 0.79 (nbgoodclauses,nbtotalgood,precisionGood,recallGood,FGood,nbbadclause,nbtotalbad,precisionBad,recallBad,FBad,accuracy)
c additional predictionAge 500 20103 61971 0.48 0.15 0.23 274240 232372 0.81 3.58 1.32 0.79 (nbgoodclauses,nbtotalgood,precisionGood,recallGood,FGood,nbbadclause,nbtotalbad,precisionBad,recallBad,FBad,accuracy)
c additional predictionAge 1000 20868 61971 0.47 0.16 0.24 273475 232372 0.81 3.57 1.32 0.79 (nbgoodclauses,nbtotalgood,precisionGood,recallGood,FGood,nbbadclause,nbtotalbad,precisionBad,recallBad,FBad,accuracy)
c additional predictionAge 2500 22400 61971 0.46 0.17 0.24 271943 232372 0.81 3.55 1.32 0.78 (nbgoodclauses,nbtotalgood,precisionGood,recallGood,FGood,nbbadclause,nbtotalbad,precisionBad,recallBad,FBad,accuracy)
c additional predictionAge 5000 24757 61971 0.44 0.18 0.25 269586 232372 0.81 3.53 1.32 0.78 (nbgoodclauses,nbtotalgood,precisionGood,recallGood,FGood,nbbadclause,nbtotalbad,precisionBad,recallBad,FBad,accuracy)
c additional predictionAge 10000 29516 61971 0.41 0.20 0.27 264827 232372 0.81 3.47 1.32 0.77 (nbgoodclauses,nbtotalgood,precisionGood,recallGood,FGood,nbbadclause,nbtotalbad,precisionBad,recallBad,FBad,accuracy)
c additional predictionAge 25000 43523 61971 0.36 0.25 0.30 250820 232372 0.81 3.30 1.31 0.75 (nbgoodclauses,nbtotalgood,precisionGood,recallGood,FGood,nbbadclause,nbtotalbad,precisionBad,recallBad,FBad,accuracy)
c additional predictionAge 50000 66645 61971 0.31 0.33 0.32 227698 232372 0.82 3.01 1.29 0.70 (nbgoodclauses,nbtotalgood,precisionGood,recallGood,FGood,nbbadclause,nbtotalbad,precisionBad,recallBad,FBad,accuracy)
c additional predictionAge 100000 111052 61971 0.27 0.48 0.35 183291 232372 0.83 2.44 1.23 0.62 (nbgoodclauses,nbtotalgood,precisionGood,recallGood,FGood,nbbadclause,nbtotalbad,precisionBad,recallBad,FBad,accuracy)
c additional predictionTicks 1 14492 61971 0.62 0.14 0.23 279851 232372 0.81 3.66 1.33 0.80 (nbgoodclauses,nbtotalgood,precisionGood,recallGood,FGood,nbbadclause,nbtotalbad,precisionBad,recallBad,FBad,accuracy)
c additional predictionTicks 10 19157 61971 0.61 0.19 0.29 275186 232372 0.82 3.63 1.33 0.80 (nbgoodclauses,nbtotalgood,precisionGood,recallGood,FGood,nbbadclause,nbtotalbad,precisionBad,recallBad,FBad,accuracy)
c additional predictionTicks 25 31927 61971 0.50 0.26 0.34 262416 232372 0.82 3.49 1.33 0.79 (nbgoodclauses,nbtotalgood,precisionGood,recallGood,FGood,nbbadclause,nbtotalbad,precisionBad,recallBad,FBad,accuracy)
c additional predictionTicks 50 53228 61971 0.39 0.34 0.36 241115 232372 0.83 3.23 1.32 0.75 (nbgoodclauses,nbtotalgood,precisionGood,recallGood,FGood,nbbadclause,nbtotalbad,precisionBad,recallBad,FBad,accuracy)
c additional predictionTicks 100 70987 61971 0.35 0.40 0.38 223356 232372 0.83 3.01 1.31 0.72 (nbgoodclauses,nbtotalgood,precisionGood,recallGood,FGood,nbbadclause,nbtotalbad,precisionBad,recallBad,FBad,accuracy)
c additional predictionTicks 250 97104 61971 0.32 0.50 0.39 197239 232372 0.84 2.68 1.28 0.67 (nbgoodclauses,nbtotalgood,precisionGood,recallGood,FGood,nbbadclause,nbtotalbad,precisionBad,recallBad,FBad,accuracy)
c additional predictionTicks 500 116024 61971 0.30 0.56 0.39 178319 232372 0.85 2.44 1.26 0.63 (nbgoodclauses,nbtotalgood,precisionGood,recallGood,FGood,nbbadclause,nbtotalbad,precisionBad,recallBad,FBad,accuracy)
c additional predictionTicks 1000 132057 61971 0.29 0.61 0.39 162286 232372 0.85 2.23 1.23 0.60 (nbgoodclauses,nbtotalgood,precisionGood,recallGood,FGood,nbbadclause,nbtotalbad,precisionBad,recallBad,FBad,accuracy)
c additional predictionTicks 2500 153465 61971 0.28 0.68 0.39 140878 232372 0.86 1.96 1.20 0.56 (nbgoodclauses,nbtotalgood,precisionGood,recallGood,FGood,nbbadclause,nbtotalbad,precisionBad,recallBad,FBad,accuracy)
c additional predictionTicks 5000 174626 61971 0.26 0.74 0.39 119717 232372 0.87 1.68 1.14 0.51 (nbgoodclauses,nbtotalgood,precisionGood,recallGood,FGood,nbbadclause,nbtotalbad,precisionBad,recallBad,FBad,accuracy)
c additional predictionTicks 10000 201708 61971 0.25 0.81 0.38 92635 232372 0.88 1.31 1.05 0.45 (nbgoodclauses,nbtotalgood,precisionGood,recallGood,FGood,nbbadclause,nbtotalbad,precisionBad,recallBad,FBad,accuracy)
c additional predictionTicks 25000 242496 61971 0.23 0.91 0.37 51847 232372 0.89 0.74 0.81 0.35 (nbgoodclauses,nbtotalgood,precisionGood,recallGood,FGood,nbbadclause,nbtotalbad,precisionBad,recallBad,FBad,accuracy)
c additional predictionTicks 50000 270168 61971 0.22 0.96 0.36 24175 232372 0.90 0.35 0.50 0.28 (nbgoodclauses,nbtotalgood,precisionGood,recallGood,FGood,nbbadclause,nbtotalbad,precisionBad,recallBad,FBad,accuracy)
c additional predictionTicks 100000 287532 61971 0.21 0.99 0.35 6811 232372 0.90 0.10 0.18 0.23 (nbgoodclauses,nbtotalgood,precisionGood,recallGood,FGood,nbbadclause,nbtotalbad,precisionBad,recallBad,FBad,accuracy)
c additional lifetimeGood 2 1264 10615 22779 61659 127716 196157 244104 265264 292516 310987 310995 (0,1,5,10,25,50,75,90,95,99,100-1,100)
c additional lifetimeBad 1 998 9630 20714 55762 117964 187663 241603 267148 295816 310978 310997 (0,1,5,10,25,50,75,90,95,99,100-1,100)
c additional lifetimeBadBad 1 16 16 16 80 19513 76512 148114 190871 256797 310122 310154 (0,1,5,10,25,50,75,90,95,99,100-1,100)
c additional compositionBad 1 5 12 31 268 1150 2643 4746 7070 13285 24589 25402 (0,1,5,10,25,50,75,90,95,99,100-1,100)
c additional compositionBadWithGood 0 0 1 2 19 96 253 472 662 1200 2870 2895 (0,1,5,10,25,50,75,90,95,99,100-1,100)
c additional compositionBadWithBad 0 0 0 0 0 1 3 6 9 23 120 141 (0,1,5,10,25,50,75,90,95,99,100-1,100)
c additional compositionBadWithInitial 0 3 9 27 240 1037 2373 4286 6445 12246 24362 24965 (0,1,5,10,25,50,75,90,95,99,100-1,100)
c additional compositionGood 1 3 4 5 10 118 900 2636 4232 12755 21832 22089 (0,1,5,10,25,50,75,90,95,99,100-1,100)
c additional compositionGoodWithGood 0 0 0 0 1 14 95 293 481 1147 2672 2824 (0,1,5,10,25,50,75,90,95,99,100-1,100)
c additional compositionGoodWithInitial 0 1 3 4 8 101 800 2332 3761 11746 20917 20966 (0,1,5,10,25,50,75,90,95,99,100-1,100)
c additional propagationGood total 48668813 percentiles 0 1 1 2 5 37 248 1231 5000 14775 37926 38730 (0,1,5,10,25,50,75,90,95,99,100-1,100)
c additional propagationBad total 2064127 percentiles 1 1 1 1 1 2 3 12 31 144 5117 5526 (0,1,5,10,25,50,75,90,95,99,100-1,100)
c additional resolutionGood total 7919732 percentiles 0 0 1 1 3 12 57 223 744 2202 6508 6552 (0,1,5,10,25,50,75,90,95,99,100-1,100)
c additional resolutionBad total 590689 percentiles 0 0 0 0 0 1 2 4 8 31 344 406 (0,1,5,10,25,50,75,90,95,99,100-1,100)
Computing K-Core for 798106 clauses...
c building structure for KCore computation.
c the graph has 522272410 edges, maxdegree=25402
c we start the KCore with the value 20
c Non directed graph built
K=20,152106 nodes removed so far
K=21,154585 nodes removed so far
K=22,157046 nodes removed so far
K=23,159448 nodes removed so far
K=24,161612 nodes removed so far
K=25,163792 nodes removed so far
K=26,165803 nodes removed so far
K=27,167775 nodes removed so far
K=28,169703 nodes removed so far
K=29,171538 nodes removed so far
K=30,173376 nodes removed so far
K=31,175179 nodes removed so far
K=32,176970 nodes removed so far
K=33,178631 nodes removed so far
K=34,180283 nodes removed so far
K=35,181904 nodes removed so far
K=36,183503 nodes removed so far
K=37,185044 nodes removed so far
K=38,K=39,K=40,K=41,190969 nodes removed so far
K=42,K=43,K=44,K=45,K=46,K=47,K=48,K=49,200943 nodes removed so far
K=50,K=51,K=52,K=53,K=54,K=55,K=56,K=57,K=58,210576 nodes removed so far
K=59,K=60,K=61,K=62,K=63,K=64,K=65,K=66,K=67,K=68,K=69,220369 nodes removed so far
K=70,K=71,K=72,K=73,K=74,K=75,K=76,K=77,K=78,K=79,K=80,K=81,K=82,K=83,230661 nodes removed so far
K=84,K=85,K=86,K=87,K=88,K=89,K=90,K=91,K=92,K=93,K=94,K=95,K=96,K=97,K=98,240089 nodes removed so far
K=99,K=100,K=101,K=102,K=103,K=104,K=105,K=106,K=107,K=108,K=109,K=110,K=111,K=112,K=113,K=114,K=115,K=116,K=117,250226 nodes removed so far
K=118,K=119,K=120,K=121,K=122,K=123,K=124,K=125,K=126,K=127,K=128,K=129,K=130,K=131,K=132,K=133,K=134,K=135,K=136,K=137,K=138,K=139,260094 nodes removed so far
K=140,K=141,K=142,K=143,K=144,K=145,K=146,K=147,K=148,K=149,K=150,K=151,K=152,K=153,K=154,K=155,K=156,K=157,K=158,K=159,K=160,K=161,K=162,K=163,K=164,K=165,270142 nodes removed so far
K=166,K=167,K=168,K=169,K=170,K=171,K=172,K=173,K=174,K=175,K=176,K=177,K=178,K=179,K=180,K=181,K=182,K=183,K=184,K=185,K=186,K=187,K=188,K=189,K=190,K=191,K=192,K=193,K=194,280048 nodes removed so far
K=195,K=196,K=197,K=198,K=199,K=200,K=201,K=202,K=203,K=204,K=205,K=206,K=207,K=208,K=209,K=210,K=211,K=212,K=213,K=214,K=215,K=216,K=217,K=218,K=219,K=220,K=221,K=222,K=223,K=224,K=225,K=226,K=227,290197 nodes removed so far
K=228,K=229,K=230,K=231,K=232,K=233,K=234,K=235,K=236,K=237,K=238,K=239,K=240,K=241,K=242,K=243,K=244,K=245,K=246,K=247,K=248,K=249,K=250,K=251,K=252,K=253,K=254,K=255,K=256,K=257,K=258,K=259,K=260,K=261,K=262,K=263,K=264,K=265,300069 nodes removed so far
K=266,K=267,K=268,K=269,K=270,K=271,K=272,K=273,K=274,K=275,K=276,K=277,K=278,K=279,K=280,K=281,K=282,K=283,K=284,K=285,K=286,K=287,K=288,K=289,K=290,K=291,K=292,K=293,K=294,K=295,K=296,K=297,K=298,K=299,K=300,K=301,K=302,K=303,K=304,K=305,K=306,K=307,K=308,310142 nodes removed so far
K=309,K=310,K=311,K=312,K=313,K=314,K=315,K=316,K=317,K=318,K=319,K=320,K=321,K=322,K=323,K=324,K=325,K=326,K=327,K=328,K=329,K=330,K=331,K=332,K=333,K=334,K=335,K=336,K=337,K=338,K=339,K=340,K=341,K=342,K=343,K=344,K=345,K=346,K=347,K=348,K=349,K=350,K=351,K=352,K=353,K=354,K=355,K=356,K=357,320168 nodes removed so far
K=358,K=359,K=360,K=361,K=362,K=363,K=364,K=365,K=366,K=367,K=368,K=369,K=370,K=371,K=372,K=373,K=374,K=375,K=376,K=377,K=378,K=379,K=380,K=381,K=382,K=383,K=384,K=385,K=386,K=387,K=388,K=389,K=390,K=391,K=392,K=393,K=394,K=395,K=396,K=397,K=398,K=399,K=400,K=401,K=402,K=403,K=404,K=405,K=406,K=407,K=408,K=409,K=410,K=411,K=412,330162 nodes removed so far
K=413,K=414,K=415,K=416,K=417,K=418,K=419,K=420,K=421,K=422,K=423,K=424,K=425,K=426,K=427,K=428,K=429,K=430,K=431,K=432,K=433,K=434,K=435,K=436,K=437,K=438,K=439,K=440,K=441,K=442,K=443,K=444,K=445,K=446,K=447,K=448,K=449,K=450,K=451,K=452,K=453,K=454,K=455,K=456,K=457,K=458,K=459,K=460,K=461,K=462,K=463,K=464,K=465,K=466,K=467,K=468,K=469,K=470,K=471,K=472,K=473,K=474,K=475,340059 nodes removed so far
K=476,K=477,K=478,K=479,K=480,K=481,K=482,K=483,K=484,K=485,K=486,K=487,K=488,K=489,K=490,K=491,K=492,K=493,K=494,K=495,K=496,K=497,K=498,K=499,K=500,K=501,K=502,K=503,K=504,K=505,K=506,K=507,K=508,K=509,K=510,K=511,K=512,K=513,K=514,K=515,K=516,K=517,K=518,K=519,K=520,K=521,K=522,K=523,K=524,K=525,K=526,K=527,K=528,K=529,K=530,K=531,K=532,K=533,K=534,K=535,K=536,K=537,K=538,K=539,K=540,K=541,K=542,K=543,K=544,K=545,350145 nodes removed so far
K=546,K=547,K=548,K=549,K=550,K=551,K=552,K=553,K=554,K=555,K=556,K=557,K=558,K=559,K=560,K=561,K=562,K=563,K=564,K=565,K=566,K=567,K=568,K=569,K=570,K=571,K=572,K=573,K=574,K=575,K=576,K=577,K=578,K=579,K=580,K=581,K=582,K=583,K=584,K=585,K=586,K=587,K=588,K=589,K=590,K=591,K=592,K=593,K=594,K=595,K=596,K=597,K=598,K=599,K=600,K=601,K=602,K=603,K=604,K=605,K=606,K=607,K=608,K=609,K=610,K=611,K=612,K=613,K=614,K=615,K=616,K=617,K=618,K=619,K=620,K=621,360033 nodes removed so far
K=622,K=623,K=624,K=625,K=626,K=627,K=628,K=629,K=630,K=631,K=632,K=633,K=634,K=635,K=636,K=637,K=638,K=639,K=640,K=641,K=642,K=643,K=644,K=645,K=646,K=647,K=648,K=649,K=650,K=651,K=652,K=653,K=654,K=655,K=656,K=657,K=658,K=659,K=660,K=661,K=662,K=663,K=664,K=665,K=666,K=667,K=668,K=669,K=670,K=671,K=672,K=673,K=674,K=675,K=676,K=677,K=678,K=679,K=680,K=681,K=682,K=683,K=684,K=685,K=686,K=687,K=688,K=689,K=690,K=691,K=692,K=693,K=694,K=695,K=696,K=697,K=698,K=699,K=700,K=701,K=702,K=703,370031 nodes removed so far
K=704,K=705,K=706,K=707,K=708,K=709,K=710,K=711,K=712,K=713,K=714,K=715,K=716,K=717,K=718,K=719,K=720,K=721,K=722,K=723,K=724,K=725,K=726,K=727,K=728,K=729,K=730,K=731,K=732,K=733,K=734,K=735,K=736,K=737,K=738,K=739,K=740,K=741,K=742,K=743,K=744,K=745,K=746,K=747,K=748,K=749,K=750,K=751,K=752,K=753,K=754,K=755,K=756,K=757,K=758,K=759,K=760,K=761,K=762,K=763,K=764,K=765,K=766,K=767,K=768,K=769,K=770,K=771,K=772,K=773,K=774,K=775,K=776,K=777,K=778,K=779,K=780,K=781,K=782,K=783,K=784,K=785,K=786,K=787,K=788,K=789,K=790,K=791,380077 nodes removed so far
K=792,K=793,K=794,K=795,K=796,K=797,K=798,K=799,K=800,K=801,K=802,K=803,K=804,K=805,K=806,K=807,K=808,K=809,K=810,K=811,K=812,K=813,K=814,K=815,K=816,K=817,K=818,K=819,K=820,K=821,K=822,K=823,K=824,K=825,K=826,K=827,K=828,K=829,K=830,K=831,K=832,K=833,K=834,K=835,K=836,K=837,K=838,K=839,K=840,K=841,K=842,K=843,K=844,K=845,K=846,K=847,K=848,K=849,K=850,K=851,K=852,K=853,K=854,K=855,K=856,K=857,K=858,K=859,K=860,K=861,K=862,K=863,K=864,K=865,K=866,K=867,K=868,K=869,K=870,K=871,K=872,K=873,K=874,K=875,K=876,K=877,K=878,K=879,K=880,K=881,K=882,K=883,K=884,K=885,K=886,K=887,K=888,K=889,K=890,K=891,K=892,390001 nodes removed so far
K=893,K=894,K=895,K=896,K=897,K=898,K=899,K=900,K=901,K=902,K=903,K=904,K=905,K=906,K=907,K=908,K=909,K=910,K=911,K=912,K=913,K=914,K=915,K=916,K=917,K=918,K=919,K=920,K=921,K=922,K=923,K=924,K=925,K=926,K=927,K=928,K=929,K=930,K=931,K=932,K=933,K=934,K=935,K=936,K=937,K=938,K=939,K=940,K=941,K=942,K=943,K=944,K=945,K=946,K=947,K=948,K=949,K=950,K=951,K=952,K=953,K=954,K=955,K=956,K=957,K=958,K=959,K=960,K=961,K=962,K=963,K=964,K=965,K=966,K=967,K=968,K=969,K=970,K=971,K=972,K=973,K=974,K=975,K=976,K=977,K=978,K=979,K=980,K=981,K=982,K=983,K=984,K=985,K=986,K=987,K=988,K=989,K=990,K=991,K=992,K=993,K=994,K=995,K=996,K=997,K=998,K=999,400027 nodes removed so far
K=1000,K=1001,K=1002,K=1003,K=1004,K=1005,K=1006,K=1007,K=1008,K=1009,K=1010,K=1011,K=1012,K=1013,K=1014,K=1015,K=1016,K=1017,K=1018,K=1019,K=1020,K=1021,K=1022,K=1023,K=1024,K=1025,K=1026,K=1027,K=1028,K=1029,K=1030,K=1031,K=1032,K=1033,K=1034,K=1035,K=1036,K=1037,K=1038,K=1039,K=1040,K=1041,K=1042,K=1043,K=1044,K=1045,K=1046,K=1047,K=1048,K=1049,K=1050,K=1051,K=1052,K=1053,K=1054,K=1055,K=1056,K=1057,K=1058,K=1059,K=1060,K=1061,K=1062,K=1063,K=1064,K=1065,K=1066,K=1067,K=1068,K=1069,K=1070,K=1071,K=1072,K=1073,K=1074,K=1075,K=1076,K=1077,K=1078,K=1079,K=1080,K=1081,K=1082,K=1083,K=1084,K=1085,K=1086,K=1087,K=1088,K=1089,K=1090,K=1091,K=1092,K=1093,K=1094,K=1095,K=1096,K=1097,K=1098,K=1099,K=1100,K=1101,K=1102,K=1103,K=1104,K=1105,K=1106,K=1107,K=1108,K=1109,K=1110,K=1111,K=1112,K=1113,K=1114,410074 nodes removed so far
K=1115,K=1116,K=1117,K=1118,K=1119,K=1120,K=1121,K=1122,K=1123,K=1124,K=1125,K=1126,K=1127,K=1128,K=1129,K=1130,K=1131,K=1132,K=1133,K=1134,K=1135,K=1136,K=1137,K=1138,K=1139,K=1140,K=1141,K=1142,K=1143,K=1144,K=1145,K=1146,K=1147,K=1148,K=1149,K=1150,K=1151,K=1152,K=1153,K=1154,K=1155,K=1156,K=1157,K=1158,K=1159,K=1160,K=1161,K=1162,K=1163,K=1164,K=1165,K=1166,K=1167,K=1168,K=1169,K=1170,K=1171,K=1172,K=1173,K=1174,K=1175,K=1176,K=1177,K=1178,K=1179,K=1180,K=1181,K=1182,K=1183,K=1184,K=1185,K=1186,K=1187,K=1188,K=1189,K=1190,K=1191,K=1192,K=1193,K=1194,K=1195,K=1196,K=1197,K=1198,K=1199,K=1200,K=1201,K=1202,K=1203,K=1204,K=1205,K=1206,K=1207,K=1208,K=1209,K=1210,K=1211,K=1212,K=1213,K=1214,K=1215,K=1216,K=1217,K=1218,K=1219,K=1220,K=1221,K=1222,K=1223,K=1224,K=1225,K=1226,K=1227,420054 nodes removed so far
K=1228,K=1229,K=1230,K=1231,K=1232,K=1233,K=1234,K=1235,K=1236,K=1237,K=1238,K=1239,K=1240,K=1241,K=1242,K=1243,K=1244,K=1245,K=1246,K=1247,K=1248,K=1249,K=1250,K=1251,K=1252,K=1253,K=1254,K=1255,K=1256,K=1257,K=1258,K=1259,K=1260,K=1261,K=1262,K=1263,K=1264,K=1265,K=1266,K=1267,K=1268,K=1269,K=1270,K=1271,K=1272,K=1273,K=1274,K=1275,K=1276,K=1277,K=1278,K=1279,K=1280,K=1281,K=1282,K=1283,K=1284,K=1285,K=1286,K=1287,K=1288,K=1289,K=1290,K=1291,K=1292,K=1293,K=1294,K=1295,K=1296,K=1297,K=1298,K=1299,K=1300,K=1301,K=1302,K=1303,K=1304,K=1305,K=1306,K=1307,K=1308,K=1309,K=1310,K=1311,K=1312,K=1313,K=1314,K=1315,K=1316,K=1317,K=1318,K=1319,K=1320,K=1321,K=1322,K=1323,K=1324,K=1325,K=1326,K=1327,K=1328,K=1329,K=1330,K=1331,K=1332,K=1333,K=1334,K=1335,K=1336,430007 nodes removed so far
K=1337,K=1338,K=1339,K=1340,K=1341,K=1342,K=1343,K=1344,K=1345,K=1346,K=1347,K=1348,K=1349,K=1350,K=1351,K=1352,K=1353,K=1354,K=1355,K=1356,K=1357,K=1358,K=1359,K=1360,K=1361,K=1362,K=1363,K=1364,K=1365,K=1366,K=1367,K=1368,K=1369,K=1370,K=1371,K=1372,K=1373,K=1374,K=1375,K=1376,K=1377,K=1378,K=1379,K=1380,K=1381,K=1382,K=1383,K=1384,K=1385,K=1386,K=1387,K=1388,K=1389,K=1390,K=1391,K=1392,K=1393,K=1394,K=1395,K=1396,K=1397,K=1398,K=1399,K=1400,K=1401,K=1402,K=1403,K=1404,K=1405,K=1406,K=1407,K=1408,K=1409,K=1410,K=1411,K=1412,K=1413,K=1414,K=1415,K=1416,K=1417,K=1418,K=1419,K=1420,K=1421,K=1422,K=1423,K=1424,K=1425,K=1426,K=1427,K=1428,K=1429,K=1430,K=1431,K=1432,K=1433,K=1434,K=1435,K=1436,K=1437,K=1438,K=1439,K=1440,K=1441,K=1442,K=1443,K=1444,K=1445,K=1446,K=1447,K=1448,K=1449,K=1450,K=1451,440037 nodes removed so far
K=1452,K=1453,K=1454,K=1455,K=1456,K=1457,K=1458,K=1459,K=1460,K=1461,K=1462,K=1463,K=1464,K=1465,K=1466,K=1467,K=1468,K=1469,K=1470,K=1471,K=1472,K=1473,K=1474,K=1475,K=1476,K=1477,K=1478,K=1479,K=1480,K=1481,K=1482,K=1483,K=1484,K=1485,K=1486,K=1487,K=1488,K=1489,K=1490,K=1491,K=1492,K=1493,K=1494,K=1495,K=1496,K=1497,K=1498,K=1499,K=1500,K=1501,K=1502,K=1503,K=1504,K=1505,K=1506,K=1507,K=1508,K=1509,K=1510,K=1511,K=1512,K=1513,K=1514,K=1515,K=1516,K=1517,K=1518,K=1519,K=1520,K=1521,K=1522,K=1523,K=1524,K=1525,K=1526,K=1527,K=1528,K=1529,K=1530,K=1531,K=1532,K=1533,K=1534,K=1535,K=1536,K=1537,K=1538,K=1539,K=1540,K=1541,K=1542,K=1543,K=1544,K=1545,K=1546,K=1547,K=1548,K=1549,K=1550,K=1551,K=1552,K=1553,K=1554,K=1555,K=1556,K=1557,K=1558,K=1559,K=1560,K=1561,K=1562,K=1563,K=1564,K=1565,K=1566,450063 nodes removed so far
K=1567,K=1568,K=1569,K=1570,K=1571,K=1572,K=1573,K=1574,K=1575,K=1576,K=1577,K=1578,K=1579,K=1580,K=1581,K=1582,K=1583,K=1584,K=1585,K=1586,K=1587,K=1588,K=1589,K=1590,K=1591,K=1592,K=1593,K=1594,K=1595,K=1596,K=1597,K=1598,K=1599,K=1600,K=1601,K=1602,K=1603,K=1604,K=1605,K=1606,K=1607,K=1608,K=1609,K=1610,K=1611,K=1612,K=1613,K=1614,K=1615,K=1616,K=1617,K=1618,K=1619,K=1620,K=1621,K=1622,K=1623,K=1624,K=1625,K=1626,K=1627,K=1628,K=1629,K=1630,K=1631,K=1632,K=1633,K=1634,K=1635,K=1636,K=1637,K=1638,K=1639,K=1640,K=1641,K=1642,K=1643,K=1644,K=1645,K=1646,K=1647,K=1648,K=1649,K=1650,K=1651,K=1652,K=1653,K=1654,K=1655,K=1656,K=1657,K=1658,K=1659,K=1660,K=1661,K=1662,K=1663,K=1664,K=1665,K=1666,K=1667,K=1668,K=1669,K=1670,K=1671,K=1672,K=1673,K=1674,K=1675,K=1676,K=1677,K=1678,K=1679,K=1680,K=1681,K=1682,K=1683,K=1684,K=1685,K=1686,K=1687,K=1688,K=1689,K=1690,K=1691,460005 nodes removed so far
K=1692,K=1693,K=1694,K=1695,K=1696,K=1697,K=1698,K=1699,K=1700,K=1701,K=1702,K=1703,K=1704,K=1705,K=1706,K=1707,K=1708,K=1709,K=1710,K=1711,K=1712,K=1713,K=1714,K=1715,K=1716,K=1717,K=1718,K=1719,K=1720,K=1721,K=1722,K=1723,K=1724,K=1725,K=1726,K=1727,K=1728,K=1729,K=1730,K=1731,K=1732,K=1733,K=1734,K=1735,K=1736,K=1737,K=1738,K=1739,K=1740,K=1741,K=1742,K=1743,K=1744,K=1745,K=1746,K=1747,K=1748,K=1749,K=1750,K=1751,K=1752,K=1753,K=1754,K=1755,K=1756,K=1757,K=1758,K=1759,K=1760,K=1761,K=1762,K=1763,K=1764,K=1765,K=1766,K=1767,K=1768,K=1769,K=1770,K=1771,K=1772,K=1773,K=1774,K=1775,K=1776,K=1777,K=1778,K=1779,K=1780,K=1781,K=1782,K=1783,K=1784,K=1785,K=1786,K=1787,K=1788,K=1789,K=1790,K=1791,K=1792,K=1793,K=1794,K=1795,K=1796,K=1797,K=1798,K=1799,K=1800,K=1801,K=1802,K=1803,K=1804,K=1805,K=1806,K=1807,K=1808,K=1809,K=1810,K=1811,K=1812,K=1813,K=1814,K=1815,K=1816,K=1817,K=1818,K=1819,K=1820,K=1821,K=1822,K=1823,K=1824,K=1825,K=1826,470074 nodes removed so far
K=1827,K=1828,K=1829,K=1830,K=1831,K=1832,K=1833,K=1834,K=1835,K=1836,K=1837,K=1838,K=1839,K=1840,K=1841,K=1842,K=1843,K=1844,K=1845,K=1846,K=1847,K=1848,K=1849,K=1850,K=1851,K=1852,K=1853,K=1854,K=1855,K=1856,K=1857,K=1858,K=1859,K=1860,K=1861,K=1862,K=1863,K=1864,K=1865,K=1866,K=1867,K=1868,K=1869,K=1870,K=1871,K=1872,K=1873,K=1874,K=1875,K=1876,K=1877,K=1878,K=1879,K=1880,K=1881,K=1882,K=1883,K=1884,K=1885,K=1886,K=1887,K=1888,K=1889,K=1890,K=1891,K=1892,K=1893,K=1894,K=1895,K=1896,K=1897,K=1898,K=1899,K=1900,K=1901,K=1902,K=1903,K=1904,K=1905,K=1906,K=1907,K=1908,K=1909,K=1910,K=1911,K=1912,K=1913,K=1914,K=1915,K=1916,K=1917,K=1918,K=1919,K=1920,K=1921,K=1922,K=1923,K=1924,K=1925,K=1926,K=1927,K=1928,K=1929,K=1930,K=1931,K=1932,K=1933,K=1934,K=1935,K=1936,K=1937,K=1938,K=1939,K=1940,K=1941,K=1942,K=1943,K=1944,K=1945,K=1946,K=1947,K=1948,K=1949,K=1950,K=1951,K=1952,K=1953,K=1954,K=1955,K=1956,K=1957,K=1958,K=1959,K=1960,K=1961,K=1962,K=1963,K=1964,480072 nodes removed so far
K=1965,K=1966,K=1967,K=1968,K=1969,K=1970,K=1971,K=1972,K=1973,K=1974,K=1975,K=1976,K=1977,K=1978,K=1979,K=1980,K=1981,K=1982,K=1983,K=1984,K=1985,K=1986,K=1987,K=1988,K=1989,K=1990,K=1991,K=1992,K=1993,K=1994,K=1995,K=1996,K=1997,K=1998,K=1999,K=2000,K=2001,K=2002,K=2003,K=2004,K=2005,K=2006,K=2007,K=2008,K=2009,K=2010,K=2011,K=2012,K=2013,K=2014,K=2015,K=2016,K=2017,K=2018,K=2019,K=2020,K=2021,K=2022,K=2023,K=2024,K=2025,K=2026,K=2027,K=2028,K=2029,K=2030,K=2031,K=2032,K=2033,K=2034,K=2035,K=2036,K=2037,K=2038,K=2039,K=2040,K=2041,K=2042,K=2043,K=2044,K=2045,K=2046,K=2047,K=2048,K=2049,K=2050,K=2051,K=2052,K=2053,K=2054,K=2055,K=2056,K=2057,K=2058,K=2059,K=2060,K=2061,K=2062,K=2063,K=2064,K=2065,K=2066,K=2067,K=2068,K=2069,K=2070,K=2071,K=2072,K=2073,K=2074,K=2075,K=2076,K=2077,K=2078,K=2079,K=2080,K=2081,K=2082,K=2083,K=2084,K=2085,K=2086,K=2087,K=2088,K=2089,K=2090,K=2091,K=2092,K=2093,K=2094,K=2095,K=2096,K=2097,K=2098,K=2099,K=2100,K=2101,K=2102,K=2103,K=2104,K=2105,K=2106,K=2107,490010 nodes removed so far
K=2108,K=2109,K=2110,K=2111,K=2112,K=2113,K=2114,K=2115,K=2116,K=2117,K=2118,K=2119,K=2120,K=2121,K=2122,K=2123,K=2124,K=2125,K=2126,K=2127,K=2128,K=2129,K=2130,K=2131,K=2132,K=2133,K=2134,K=2135,K=2136,K=2137,K=2138,K=2139,K=2140,K=2141,K=2142,K=2143,K=2144,K=2145,K=2146,K=2147,K=2148,K=2149,K=2150,K=2151,K=2152,K=2153,K=2154,K=2155,K=2156,K=2157,K=2158,K=2159,K=2160,K=2161,K=2162,K=2163,K=2164,K=2165,K=2166,K=2167,K=2168,K=2169,K=2170,K=2171,K=2172,K=2173,K=2174,K=2175,K=2176,K=2177,K=2178,K=2179,K=2180,K=2181,K=2182,K=2183,K=2184,K=2185,K=2186,K=2187,K=2188,K=2189,K=2190,K=2191,K=2192,K=2193,K=2194,K=2195,K=2196,K=2197,K=2198,K=2199,K=2200,K=2201,K=2202,K=2203,K=2204,K=2205,K=2206,K=2207,K=2208,K=2209,K=2210,K=2211,K=2212,K=2213,K=2214,K=2215,K=2216,K=2217,K=2218,K=2219,K=2220,K=2221,K=2222,K=2223,K=2224,K=2225,K=2226,K=2227,K=2228,K=2229,K=2230,K=2231,K=2232,K=2233,K=2234,K=2235,K=2236,K=2237,K=2238,K=2239,K=2240,K=2241,K=2242,K=2243,K=2244,K=2245,K=2246,K=2247,K=2248,K=2249,K=2250,K=2251,K=2252,K=2253,K=2254,K=2255,K=2256,K=2257,K=2258,K=2259,K=2260,K=2261,500039 nodes removed so far
K=2262,K=2263,K=2264,K=2265,K=2266,K=2267,K=2268,K=2269,K=2270,K=2271,K=2272,K=2273,K=2274,K=2275,K=2276,K=2277,K=2278,K=2279,K=2280,K=2281,K=2282,K=2283,K=2284,K=2285,K=2286,K=2287,K=2288,K=2289,K=2290,K=2291,K=2292,K=2293,K=2294,K=2295,K=2296,K=2297,K=2298,K=2299,K=2300,K=2301,K=2302,K=2303,K=2304,K=2305,K=2306,K=2307,K=2308,K=2309,K=2310,K=2311,K=2312,K=2313,K=2314,K=2315,K=2316,K=2317,K=2318,K=2319,K=2320,K=2321,K=2322,K=2323,K=2324,K=2325,K=2326,K=2327,K=2328,K=2329,K=2330,K=2331,K=2332,K=2333,K=2334,K=2335,K=2336,K=2337,K=2338,K=2339,K=2340,K=2341,K=2342,K=2343,K=2344,K=2345,K=2346,K=2347,K=2348,K=2349,K=2350,K=2351,K=2352,K=2353,K=2354,K=2355,K=2356,K=2357,K=2358,K=2359,K=2360,K=2361,K=2362,K=2363,K=2364,K=2365,K=2366,K=2367,K=2368,K=2369,K=2370,K=2371,K=2372,K=2373,K=2374,K=2375,K=2376,K=2377,K=2378,K=2379,K=2380,K=2381,K=2382,K=2383,K=2384,K=2385,K=2386,K=2387,K=2388,K=2389,K=2390,K=2391,K=2392,K=2393,K=2394,K=2395,K=2396,K=2397,K=2398,K=2399,K=2400,K=2401,K=2402,K=2403,K=2404,K=2405,K=2406,K=2407,K=2408,K=2409,K=2410,K=2411,K=2412,K=2413,K=2414,K=2415,K=2416,K=2417,K=2418,K=2419,510008 nodes removed so far
K=2420,K=2421,K=2422,K=2423,K=2424,K=2425,K=2426,K=2427,K=2428,K=2429,K=2430,K=2431,K=2432,K=2433,K=2434,K=2435,K=2436,K=2437,K=2438,K=2439,K=2440,K=2441,K=2442,K=2443,K=2444,K=2445,K=2446,K=2447,K=2448,K=2449,K=2450,K=2451,K=2452,K=2453,K=2454,K=2455,K=2456,K=2457,K=2458,K=2459,K=2460,K=2461,K=2462,K=2463,K=2464,K=2465,K=2466,K=2467,K=2468,K=2469,K=2470,K=2471,K=2472,K=2473,K=2474,K=2475,K=2476,K=2477,K=2478,K=2479,K=2480,K=2481,K=2482,K=2483,K=2484,K=2485,K=2486,K=2487,K=2488,K=2489,K=2490,K=2491,K=2492,K=2493,K=2494,K=2495,K=2496,K=2497,K=2498,K=2499,K=2500,K=2501,K=2502,K=2503,K=2504,K=2505,K=2506,K=2507,K=2508,K=2509,K=2510,K=2511,K=2512,K=2513,K=2514,K=2515,K=2516,K=2517,K=2518,K=2519,K=2520,K=2521,K=2522,K=2523,K=2524,K=2525,K=2526,K=2527,K=2528,K=2529,K=2530,K=2531,K=2532,K=2533,K=2534,K=2535,K=2536,K=2537,K=2538,K=2539,K=2540,K=2541,K=2542,K=2543,K=2544,K=2545,K=2546,K=2547,K=2548,K=2549,K=2550,K=2551,K=2552,K=2553,K=2554,K=2555,K=2556,K=2557,K=2558,K=2559,K=2560,K=2561,K=2562,K=2563,K=2564,K=2565,K=2566,K=2567,K=2568,K=2569,520022 nodes removed so far
K=2570,K=2571,K=2572,K=2573,K=2574,K=2575,K=2576,K=2577,K=2578,K=2579,K=2580,K=2581,K=2582,K=2583,K=2584,K=2585,K=2586,K=2587,K=2588,K=2589,K=2590,K=2591,K=2592,K=2593,K=2594,K=2595,K=2596,K=2597,K=2598,K=2599,K=2600,K=2601,K=2602,K=2603,K=2604,K=2605,K=2606,K=2607,K=2608,K=2609,K=2610,K=2611,K=2612,K=2613,K=2614,K=2615,K=2616,K=2617,K=2618,K=2619,K=2620,K=2621,K=2622,K=2623,K=2624,K=2625,K=2626,K=2627,K=2628,K=2629,K=2630,K=2631,K=2632,K=2633,K=2634,K=2635,K=2636,K=2637,K=2638,K=2639,K=2640,K=2641,K=2642,K=2643,K=2644,K=2645,K=2646,K=2647,K=2648,K=2649,K=2650,K=2651,K=2652,K=2653,K=2654,K=2655,K=2656,K=2657,K=2658,K=2659,K=2660,K=2661,K=2662,K=2663,K=2664,K=2665,K=2666,K=2667,K=2668,K=2669,K=2670,K=2671,K=2672,K=2673,K=2674,K=2675,K=2676,K=2677,K=2678,K=2679,K=2680,K=2681,K=2682,K=2683,K=2684,K=2685,K=2686,K=2687,K=2688,K=2689,K=2690,K=2691,K=2692,K=2693,K=2694,K=2695,K=2696,K=2697,K=2698,K=2699,K=2700,K=2701,K=2702,K=2703,K=2704,K=2705,K=2706,K=2707,K=2708,K=2709,K=2710,K=2711,K=2712,K=2713,K=2714,K=2715,K=2716,K=2717,K=2718,K=2719,K=2720,K=2721,K=2722,K=2723,K=2724,K=2725,K=2726,K=2727,K=2728,K=2729,K=2730,K=2731,K=2732,530084 nodes removed so far
K=2733,K=2734,K=2735,K=2736,K=2737,K=2738,K=2739,K=2740,K=2741,K=2742,K=2743,K=2744,K=2745,K=2746,K=2747,K=2748,K=2749,K=2750,K=2751,K=2752,K=2753,K=2754,K=2755,K=2756,K=2757,K=2758,K=2759,K=2760,K=2761,K=2762,K=2763,K=2764,K=2765,K=2766,K=2767,K=2768,K=2769,K=2770,K=2771,K=2772,K=2773,K=2774,K=2775,K=2776,K=2777,K=2778,K=2779,K=2780,K=2781,K=2782,K=2783,K=2784,K=2785,K=2786,K=2787,K=2788,K=2789,K=2790,K=2791,K=2792,K=2793,K=2794,K=2795,K=2796,K=2797,K=2798,K=2799,K=2800,K=2801,K=2802,K=2803,K=2804,K=2805,K=2806,K=2807,K=2808,K=2809,K=2810,K=2811,K=2812,K=2813,K=2814,K=2815,K=2816,K=2817,K=2818,K=2819,K=2820,K=2821,K=2822,K=2823,K=2824,K=2825,K=2826,K=2827,K=2828,K=2829,K=2830,K=2831,K=2832,K=2833,K=2834,K=2835,K=2836,K=2837,K=2838,K=2839,K=2840,K=2841,K=2842,K=2843,K=2844,K=2845,K=2846,K=2847,K=2848,K=2849,K=2850,K=2851,K=2852,K=2853,K=2854,K=2855,K=2856,K=2857,K=2858,K=2859,K=2860,K=2861,K=2862,K=2863,K=2864,K=2865,K=2866,K=2867,K=2868,K=2869,K=2870,K=2871,K=2872,K=2873,K=2874,K=2875,K=2876,K=2877,K=2878,K=2879,K=2880,K=2881,K=2882,K=2883,K=2884,540013 nodes removed so far
K=2885,K=2886,K=2887,K=2888,K=2889,K=2890,K=2891,K=2892,K=2893,K=2894,K=2895,K=2896,K=2897,K=2898,K=2899,K=2900,K=2901,K=2902,K=2903,K=2904,K=2905,K=2906,K=2907,K=2908,K=2909,K=2910,K=2911,K=2912,K=2913,K=2914,K=2915,K=2916,K=2917,K=2918,K=2919,K=2920,K=2921,K=2922,K=2923,K=2924,K=2925,K=2926,K=2927,K=2928,K=2929,K=2930,K=2931,K=2932,K=2933,K=2934,K=2935,K=2936,K=2937,K=2938,K=2939,K=2940,K=2941,K=2942,K=2943,K=2944,K=2945,K=2946,K=2947,K=2948,K=2949,K=2950,K=2951,K=2952,K=2953,K=2954,K=2955,K=2956,K=2957,K=2958,K=2959,K=2960,K=2961,K=2962,K=2963,K=2964,K=2965,K=2966,K=2967,K=2968,K=2969,K=2970,K=2971,K=2972,K=2973,K=2974,K=2975,K=2976,K=2977,K=2978,K=2979,K=2980,K=2981,K=2982,K=2983,K=2984,K=2985,K=2986,K=2987,K=2988,K=2989,K=2990,K=2991,K=2992,K=2993,K=2994,K=2995,K=2996,K=2997,K=2998,K=2999,K=3000,K=3001,K=3002,K=3003,K=3004,K=3005,K=3006,K=3007,K=3008,K=3009,K=3010,K=3011,K=3012,K=3013,K=3014,K=3015,K=3016,K=3017,K=3018,K=3019,K=3020,K=3021,K=3022,550064 nodes removed so far
K=3023,K=3024,K=3025,K=3026,K=3027,K=3028,K=3029,K=3030,K=3031,K=3032,K=3033,K=3034,K=3035,K=3036,K=3037,K=3038,K=3039,K=3040,K=3041,K=3042,K=3043,K=3044,K=3045,K=3046,K=3047,K=3048,K=3049,K=3050,K=3051,K=3052,K=3053,K=3054,K=3055,K=3056,K=3057,K=3058,K=3059,K=3060,K=3061,K=3062,K=3063,K=3064,K=3065,K=3066,K=3067,K=3068,K=3069,K=3070,K=3071,K=3072,K=3073,K=3074,K=3075,K=3076,K=3077,K=3078,K=3079,K=3080,K=3081,K=3082,K=3083,K=3084,K=3085,K=3086,K=3087,K=3088,K=3089,K=3090,K=3091,K=3092,K=3093,K=3094,K=3095,K=3096,K=3097,K=3098,K=3099,K=3100,K=3101,K=3102,K=3103,K=3104,K=3105,K=3106,K=3107,K=3108,K=3109,K=3110,K=3111,K=3112,K=3113,K=3114,K=3115,K=3116,K=3117,K=3118,K=3119,K=3120,K=3121,K=3122,K=3123,K=3124,K=3125,K=3126,K=3127,K=3128,K=3129,K=3130,K=3131,K=3132,K=3133,K=3134,K=3135,K=3136,K=3137,K=3138,K=3139,K=3140,K=3141,K=3142,K=3143,K=3144,K=3145,K=3146,K=3147,K=3148,K=3149,K=3150,K=3151,K=3152,K=3153,K=3154,K=3155,K=3156,K=3157,K=3158,K=3159,K=3160,K=3161,K=3162,K=3163,K=3164,560053 nodes removed so far
K=3165,K=3166,K=3167,K=3168,K=3169,K=3170,K=3171,K=3172,K=3173,K=3174,K=3175,K=3176,K=3177,K=3178,K=3179,K=3180,K=3181,K=3182,K=3183,K=3184,K=3185,K=3186,K=3187,K=3188,K=3189,K=3190,K=3191,K=3192,K=3193,K=3194,K=3195,K=3196,K=3197,K=3198,K=3199,K=3200,K=3201,K=3202,K=3203,K=3204,K=3205,K=3206,K=3207,K=3208,K=3209,K=3210,K=3211,K=3212,K=3213,K=3214,K=3215,K=3216,K=3217,K=3218,K=3219,K=3220,K=3221,K=3222,K=3223,K=3224,K=3225,K=3226,K=3227,K=3228,K=3229,K=3230,K=3231,K=3232,K=3233,K=3234,K=3235,K=3236,K=3237,K=3238,K=3239,K=3240,K=3241,K=3242,K=3243,K=3244,K=3245,K=3246,K=3247,K=3248,K=3249,K=3250,K=3251,K=3252,K=3253,K=3254,K=3255,K=3256,K=3257,K=3258,K=3259,K=3260,K=3261,K=3262,K=3263,K=3264,K=3265,K=3266,K=3267,K=3268,K=3269,K=3270,K=3271,K=3272,K=3273,K=3274,K=3275,K=3276,K=3277,K=3278,K=3279,K=3280,K=3281,K=3282,K=3283,K=3284,K=3285,K=3286,K=3287,K=3288,K=3289,K=3290,K=3291,K=3292,K=3293,K=3294,K=3295,K=3296,K=3297,K=3298,K=3299,K=3300,K=3301,K=3302,K=3303,K=3304,K=3305,K=3306,K=3307,K=3308,K=3309,K=3310,K=3311,K=3312,K=3313,K=3314,K=3315,K=3316,K=3317,K=3318,K=3319,K=3320,K=3321,K=3322,K=3323,K=3324,K=3325,K=3326,K=3327,K=3328,K=3329,K=3330,K=3331,K=3332,K=3333,K=3334,K=3335,K=3336,K=3337,K=3338,K=3339,K=3340,K=3341,K=3342,K=3343,K=3344,K=3345,K=3346,K=3347,K=3348,K=3349,K=3350,K=3351,K=3352,K=3353,K=3354,K=3355,K=3356,K=3357,K=3358,K=3359,K=3360,K=3361,K=3362,K=3363,K=3364,K=3365,K=3366,K=3367,K=3368,K=3369,K=3370,K=3371,K=3372,K=3373,K=3374,K=3375,K=3376,K=3377,K=3378,K=3379,K=3380,K=3381,K=3382,K=3383,K=3384,K=3385,K=3386,K=3387,K=3388,K=3389,K=3390,K=3391,K=3392,K=3393,K=3394,K=3395,K=3396,K=3397,K=3398,K=3399,K=3400,K=3401,K=3402,K=3403,K=3404,K=3405,K=3406,K=3407,K=3408,K=3409,K=3410,K=3411,K=3412,K=3413,K=3414,K=3415,K=3416,K=3417,K=3418,K=3419,570011 nodes removed so far
K=3420,K=3421,K=3422,K=3423,K=3424,K=3425,K=3426,K=3427,K=3428,K=3429,K=3430,K=3431,K=3432,K=3433,K=3434,K=3435,K=3436,K=3437,K=3438,K=3439,K=3440,K=3441,K=3442,K=3443,K=3444,K=3445,K=3446,K=3447,K=3448,K=3449,K=3450,K=3451,K=3452,K=3453,K=3454,K=3455,K=3456,K=3457,K=3458,K=3459,K=3460,K=3461,K=3462,K=3463,K=3464,K=3465,K=3466,K=3467,K=3468,K=3469,K=3470,K=3471,K=3472,K=3473,K=3474,K=3475,K=3476,K=3477,K=3478,K=3479,K=3480,K=3481,K=3482,K=3483,K=3484,K=3485,K=3486,K=3487,K=3488,K=3489,K=3490,K=3491,K=3492,K=3493,K=3494,K=3495,K=3496,K=3497,K=3498,K=3499,K=3500,K=3501,K=3502,K=3503,K=3504,K=3505,K=3506,K=3507,K=3508,K=3509,K=3510,K=3511,K=3512,K=3513,K=3514,K=3515,K=3516,K=3517,K=3518,K=3519,K=3520,K=3521,K=3522,K=3523,K=3524,K=3525,K=3526,K=3527,K=3528,K=3529,K=3530,K=3531,K=3532,K=3533,K=3534,K=3535,K=3536,K=3537,K=3538,K=3539,K=3540,K=3541,K=3542,K=3543,K=3544,K=3545,K=3546,K=3547,K=3548,K=3549,K=3550,K=3551,K=3552,K=3553,K=3554,K=3555,K=3556,K=3557,K=3558,K=3559,K=3560,K=3561,K=3562,K=3563,K=3564,K=3565,K=3566,K=3567,K=3568,K=3569,K=3570,K=3571,K=3572,K=3573,K=3574,K=3575,K=3576,K=3577,K=3578,K=3579,K=3580,K=3581,K=3582,K=3583,K=3584,K=3585,K=3586,K=3587,K=3588,K=3589,K=3590,K=3591,K=3592,K=3593,K=3594,K=3595,K=3596,K=3597,K=3598,K=3599,K=3600,K=3601,K=3602,K=3603,K=3604,K=3605,K=3606,K=3607,K=3608,K=3609,K=3610,K=3611,K=3612,K=3613,K=3614,K=3615,K=3616,K=3617,K=3618,K=3619,K=3620,K=3621,K=3622,K=3623,K=3624,K=3625,K=3626,K=3627,K=3628,K=3629,K=3630,K=3631,K=3632,K=3633,K=3634,K=3635,K=3636,K=3637,K=3638,K=3639,K=3640,K=3641,K=3642,K=3643,K=3644,K=3645,K=3646,K=3647,K=3648,K=3649,K=3650,K=3651,K=3652,K=3653,K=3654,K=3655,K=3656,K=3657,K=3658,K=3659,K=3660,K=3661,K=3662,K=3663,K=3664,K=3665,K=3666,K=3667,K=3668,K=3669,K=3670,K=3671,K=3672,K=3673,K=3674,K=3675,K=3676,K=3677,K=3678,K=3679,580009 nodes removed so far
K=3680,K=3681,K=3682,K=3683,K=3684,K=3685,K=3686,K=3687,K=3688,K=3689,K=3690,K=3691,K=3692,K=3693,K=3694,K=3695,K=3696,K=3697,K=3698,K=3699,K=3700,K=3701,K=3702,K=3703,K=3704,K=3705,K=3706,K=3707,K=3708,K=3709,K=3710,K=3711,K=3712,K=3713,K=3714,K=3715,K=3716,K=3717,K=3718,K=3719,K=3720,K=3721,K=3722,K=3723,K=3724,K=3725,K=3726,K=3727,K=3728,K=3729,K=3730,K=3731,K=3732,K=3733,K=3734,K=3735,K=3736,K=3737,K=3738,K=3739,K=3740,K=3741,K=3742,K=3743,K=3744,K=3745,K=3746,K=3747,K=3748,K=3749,K=3750,K=3751,K=3752,K=3753,K=3754,K=3755,K=3756,K=3757,K=3758,K=3759,K=3760,K=3761,K=3762,K=3763,K=3764,K=3765,K=3766,K=3767,K=3768,K=3769,K=3770,K=3771,K=3772,K=3773,K=3774,K=3775,K=3776,K=3777,K=3778,K=3779,K=3780,599767 nodes removed so far
KCore = 3780
Building structure for PR...
Computing PR...
Pageranking 536690 nodes done in 13 iteration. cumulError=4.59997e-11
clause level 1 (Kante=3, Kdesc=172456, core=3):-441 
clause level 1 (Kante=3, Kdesc=172678, core=14):-492 
clause level 2 (Kante=10, Kdesc=182359, core=10):-535 
clause level 2 (Kante=10, Kdesc=174609, core=4):-516 
clause level 3 (Kante=3, Kdesc=186315, core=8):-1153 
clause level 1 (Kante=3, Kdesc=175236, core=14):-1189 
clause level 2 (Kante=8, Kdesc=176759, core=14):-538 
clause level 3 (Kante=9, Kdesc=175251, core=9):-832 
clause level 2 (Kante=10, Kdesc=166673, core=8):-519 
clause level 5 (Kante=3, Kdesc=179043, core=7):-1248 
clause level 2 (Kante=8, Kdesc=172760, core=11):-1263 
clause level 2 (Kante=10, Kdesc=177309, core=3):-1246 1245 1766 
clause level 1 (Kante=8, Kdesc=170841, core=14):-1219 
clause level 3 (Kante=41, Kdesc=152295, core=8):-856 
clause level 3 (Kante=48, Kdesc=149660, core=1):-838 
clause level 2 (Kante=10, Kdesc=165762, core=11):-1251 
clause level 1 (Kante=5, Kdesc=163533, core=14):-1575 
clause level 1 (Kante=11, Kdesc=163595, core=11):-1264 
clause level 5 (Kante=4, Kdesc=158141, core=7):-1314 
clause level 1 (Kante=5, Kdesc=158763, core=14):-1583 1227 
clause level 4 (Kante=14, Kdesc=152953, core=15):-1345 
clause level 5 (Kante=3, Kdesc=154689, core=11):-899 
clause level 6 (Kante=6, Kdesc=131555, core=14):-1342 
clause level 5 (Kante=11, Kdesc=156341, core=4):-1904 1246 1903 2652 
clause level 5 (Kante=4, Kdesc=150649, core=6):-1908 
clause level 1 (Kante=5, Kdesc=149659, core=14):-2396 
clause level 4 (Kante=4, Kdesc=141358, core=10):-871 
clause level 3 (Kante=58, Kdesc=148587, core=0):-1920 
clause level 1 (Kante=14, Kdesc=139570, core=4):-1367 
clause level 4 (Kante=7, Kdesc=139566, core=9):-1578 
clause level 1 (Kante=5, Kdesc=121160, core=12):-1892 
clause level 2 (Kante=10, Kdesc=128954, core=10):-1870 
clause level 6 (Kante=13, Kdesc=138832, core=10):-1369 
clause level 3 (Kante=28, Kdesc=138705, core=2):-2412 
clause level 7 (Kante=3, Kdesc=121481, core=14):-1309 
clause level 4 (Kante=11, Kdesc=136199, core=8):-2398 
clause level 4 (Kante=13, Kdesc=146881, core=7):-1605 
clause level 4 (Kante=13, Kdesc=141833, core=3):-1634 
clause level 6 (Kante=35, Kdesc=121513, core=14):-2015 
clause level 5 (Kante=26, Kdesc=141670, core=5):-2449 
clause level 11 (Kante=4, Kdesc=98419, core=2):-1983 
clause level 7 (Kante=6, Kdesc=116755, core=15):-1985 
clause level 6 (Kante=38, Kdesc=126586, core=6):-1396 
clause level 6 (Kante=39, Kdesc=135583, core=14):-2139 
clause level 2 (Kante=16, Kdesc=138985, core=2):-3543 
clause level 4 (Kante=14, Kdesc=128227, core=13):-2985 
clause level 4 (Kante=20, Kdesc=128011, core=2):-3504 
clause level 3 (Kante=12, Kdesc=115121, core=14):-1994 
clause level 19 (Kante=12937, Kdesc=106808, core=2):-2014 
clause level 11 (Kante=10, Kdesc=118704, core=14):-2818 
clause level 7 (Kante=4, Kdesc=96172, core=4):-1290 
clause level 3 (Kante=21, Kdesc=130842, core=4):-2462 
clause level 4 (Kante=8, Kdesc=107936, core=15):-2004 
clause level 21 (Kante=7, Kdesc=114795, core=10):-2908 
clause level 8 (Kante=12, Kdesc=110929, core=0):-2839 
clause level 1 (Kante=5, Kdesc=113206, core=10):-2413 
clause level 6 (Kante=19, Kdesc=120819, core=0):-2856 
clause level 3 (Kante=4, Kdesc=100488, core=11):-1940 
clause level 9 (Kante=4, Kdesc=104486, core=0):-2415 
clause level 9 (Kante=21, Kdesc=100387, core=3):-2867 
clause level 4 (Kante=24, Kdesc=119461, core=10):-3540 1366 
clause level 6 (Kante=88, Kdesc=119204, core=4):-4872 
clause level 1 (Kante=5, Kdesc=113914, core=10):-4090 1965 
clause level 8 (Kante=22, Kdesc=102999, core=0):-2797 
clause level 3 (Kante=12, Kdesc=115776, core=10):-4879 2085 
clause level 3 (Kante=16, Kdesc=106317, core=13):-4203 3504 2023 
clause level 1 (Kante=5, Kdesc=98242, core=13):-5379 
clause level 6 (Kante=14, Kdesc=110181, core=10):-4756 
clause level 6 (Kante=38, Kdesc=112639, core=7):-4954 2131 
clause level 6 (Kante=32, Kdesc=112507, core=7):-4947 3602 2479 
clause level 6 (Kante=30, Kdesc=72464, core=8):-2444 
clause level 8 (Kante=21, Kdesc=66983, core=10):-1949 
clause level 1 (Kante=5, Kdesc=52868, core=13):-1523 
clause level 3 (Kante=20, Kdesc=102806, core=13):-5471 
clause level 1 (Kante=5, Kdesc=93530, core=14):-5542 
clause level 2 (Kante=11, Kdesc=92337, core=11):-7051 
clause level 2 (Kante=9, Kdesc=88459, core=13):-5305 
clause level 1 (Kante=5, Kdesc=91990, core=13):-4119 
clause level 12 (Kante=59, Kdesc=97991, core=14):-4204 
clause level 1 (Kante=5, Kdesc=57509, core=4):-1978 
clause level 3 (Kante=9, Kdesc=93437, core=14):-6207 3975 
clause level 6 (Kante=41, Kdesc=102040, core=1):-5915 
clause level 6 (Kante=44, Kdesc=95700, core=9):-5387 
clause level 9 (Kante=43, Kdesc=84436, core=5):-3000 
clause level 5 (Kante=27, Kdesc=98564, core=7):-6226 2809 
clause level 7 (Kante=22, Kdesc=92686, core=9):-6196 
clause level 6 (Kante=47, Kdesc=95560, core=1):-6239 
clause level 3 (Kante=30, Kdesc=96545, core=12):-5860 
clause level 2 (Kante=4, Kdesc=90752, core=14):-5541 
clause level 6 (Kante=27, Kdesc=93124, core=1):-6271 
clause level 3 (Kante=18, Kdesc=88005, core=11):-5749 3007 
clause level 7 (Kante=13, Kdesc=43314, core=8):-2059 
clause level 3 (Kante=9, Kdesc=90019, core=5):-3473 
clause level 6 (Kante=35, Kdesc=89150, core=6):-7032 
clause level 4 (Kante=35, Kdesc=89961, core=1):-5773 
clause level 6 (Kante=37, Kdesc=95232, core=6):-4418 3601 
clause level 1 (Kante=5, Kdesc=72420, core=4):-3452 
clause level 3 (Kante=17, Kdesc=85723, core=1):-5587 2919 
clause level 2 (Kante=11, Kdesc=43333, core=3):-612 
clause level 1 (Kante=5, Kdesc=89646, core=12):-4792 
clause level 7 (Kante=79, Kdesc=85946, core=4):-5445 
clause level 8 (Kante=3, Kdesc=54947, core=12):-1273 
clause level 4 (Kante=19, Kdesc=89366, core=2):-7347 
clause level 6 (Kante=29, Kdesc=85863, core=11):-5323 2797 
clause level 10 (Kante=9, Kdesc=75701, core=0):-2915 
clause level 7 (Kante=12, Kdesc=50193, core=4):-2145 
clause level 3 (Kante=13, Kdesc=84153, core=0):-5560 
clause level 6 (Kante=47, Kdesc=83644, core=11):-6229 
clause level 1 (Kante=5, Kdesc=43181, core=9):-220 
clause level 12 (Kante=4, Kdesc=65928, core=3):-4731 
clause level 6 (Kante=20, Kdesc=80812, core=8):-4698 
clause level 8 (Kante=41, Kdesc=74701, core=6):-3004 
clause level 10 (Kante=15, Kdesc=70121, core=2):-4037 
clause level 1 (Kante=5, Kdesc=83139, core=5):-6319 
clause level 12 (Kante=4, Kdesc=71549, core=14):-6232 
clause level 13 (Kante=4, Kdesc=56166, core=4):-2974 
clause level 5 (Kante=7, Kdesc=69399, core=10):-3462 
clause level 6 (Kante=30, Kdesc=76396, core=4):-6881 
clause level 6 (Kante=95, Kdesc=88207, core=6):-7549 
clause level 6 (Kante=30, Kdesc=78175, core=0):-6851 
clause level 9 (Kante=33, Kdesc=80427, core=0):-3947 
clause level 4 (Kante=21, Kdesc=74999, core=10):-4144 
clause level 3 (Kante=32, Kdesc=77804, core=4):-8826 
clause level 3 (Kante=19, Kdesc=74996, core=13):-4038 
clause level 1 (Kante=5, Kdesc=43032, core=12):-2082 
clause level 1 (Kante=5, Kdesc=78264, core=14):-7193 
clause level 12 (Kante=34, Kdesc=75657, core=8):-6236 
clause level 10 (Kante=36, Kdesc=37544, core=11):-3489 
clause level 6 (Kante=33, Kdesc=80849, core=4):-7884 
clause level 2 (Kante=6, Kdesc=76642, core=1):-4779 
clause level 7 (Kante=130, Kdesc=73112, core=4):-9263 
clause level 11 (Kante=5, Kdesc=51480, core=12):-3537 
clause level 1 (Kante=7, Kdesc=75496, core=8):-9142 5685 
clause level 7 (Kante=52, Kdesc=76460, core=15):-9129 
clause level 3 (Kante=23, Kdesc=74039, core=5):-7118 
clause level 13 (Kante=11, Kdesc=47278, core=13):-2955 
clause level 6 (Kante=48, Kdesc=76663, core=3):-9101 
clause level 9 (Kante=89, Kdesc=38610, core=0):-3027 1983 
clause level 4 (Kante=34, Kdesc=76686, core=14):-9105 5661 
clause level 12 (Kante=204, Kdesc=72101, core=7):-5555 
clause level 21 (Kante=526, Kdesc=77261, core=14):-7314 
clause level 7 (Kante=4, Kdesc=72434, core=0):-8555 
clause level 20 (Kante=109, Kdesc=77507, core=10):-7321 
clause level 1 (Kante=5, Kdesc=40510, core=10):-440 
clause level 4 (Kante=29, Kdesc=74074, core=12):-8953 
clause level 1 (Kante=5, Kdesc=71532, core=11):-8542 5243 6851 6814 
clause level 6 (Kante=33, Kdesc=71817, core=1):-6917 
clause level 6 (Kante=33, Kdesc=76306, core=10):-7867 
clause level 93 (Kante=16983, Kdesc=17265, core=7):-23404 
clause level 6 (Kante=56, Kdesc=71632, core=2):-8742 
clause level 4 (Kante=21, Kdesc=73095, core=1):-4802 
clause level 3 (Kante=19, Kdesc=65580, core=14):-4763 
clause level 1 (Kante=5, Kdesc=40760, core=4):-2221 
clause level 7 (Kante=77, Kdesc=70957, core=1):-9328 
clause level 6 (Kante=39, Kdesc=67900, core=2):-8583 5251 
clause level 6 (Kante=44, Kdesc=72257, core=2):-7574 
clause level 4 (Kante=33, Kdesc=70348, core=12):-7217 
clause level 1 (Kante=5, Kdesc=66971, core=1):-5513 
clause level 6 (Kante=57, Kdesc=67940, core=13):-9073 
clause level 6 (Kante=37, Kdesc=69605, core=4):-7278 
clause level 2 (Kante=8, Kdesc=69759, core=0):-8938 
clause level 1 (Kante=5, Kdesc=33775, core=1):-1466 
clause level 1 (Kante=5, Kdesc=70253, core=1):-10494 6965 8708 8691 
clause level 23 (Kante=41, Kdesc=70771, core=9):-6289 
clause level 6 (Kante=35, Kdesc=61893, core=9):-7005 4005 6229 
clause level 6 (Kante=21, Kdesc=70235, core=11):-6210 4698 
clause level 10 (Kante=41, Kdesc=66866, core=15):-7421 
clause level 1 (Kante=5, Kdesc=54978, core=3):-2399 
clause level 13 (Kante=79, Kdesc=70197, core=10):-7580 
clause level 1 (Kante=9, Kdesc=37331, core=9):-400 
clause level 3 (Kante=16, Kdesc=65795, core=10):-10579 7048 8777 
clause level 8 (Kante=51, Kdesc=64266, core=5):-10460 
clause level 1 (Kante=64, Kdesc=65601, core=1):-8850 4039 5473 5483 7113 7118 
clause level 7 (Kante=113, Kdesc=66669, core=15):-9209 
clause level 2 (Kante=10, Kdesc=62639, core=8):-5438 2860 
clause level 1 (Kante=7, Kdesc=55611, core=5):-4080 
clause level 2 (Kante=16, Kdesc=38039, core=13):-3082 
clause level 15 (Kante=4, Kdesc=49594, core=7):-4022 
clause level 3 (Kante=32, Kdesc=69017, core=1):-9719 
clause level 2 (Kante=7, Kdesc=38128, core=7):-3347 
clause level 3 (Kante=35, Kdesc=61659, core=10):-10598 
clause level 2 (Kante=11, Kdesc=63150, core=6):-7939 
clause level 9 (Kante=4, Kdesc=47130, core=10):-4172 
clause level 22 (Kante=27, Kdesc=59232, core=4):-7136 
clause level 1 (Kante=5, Kdesc=65718, core=5):-6344 3474 4807 4802 
clause level 4 (Kante=33, Kdesc=66470, core=13):-8027 
clause level 6 (Kante=29, Kdesc=36589, core=1):-706 
clause level 6 (Kante=44, Kdesc=63893, core=11):-8624 5313 
clause level 119 (Kante=15297, Kdesc=36441, core=11):-13902 
clause level 20 (Kante=49, Kdesc=49248, core=9):-4206 
clause level 1 (Kante=5, Kdesc=62956, core=11):-6907 3947 6181 6197 6210 
clause level 5 (Kante=28, Kdesc=62381, core=9):-7183 
clause level 6 (Kante=26, Kdesc=57987, core=12):-6249 
clause level 14 (Kante=79, Kdesc=58086, core=7):-5891 
clause level 12 (Kante=30, Kdesc=61207, core=7):-6355 
clause level 10 (Kante=36, Kdesc=60175, core=11):-6438 3004 
clause level 7 (Kante=63, Kdesc=59648, core=3):-10499 
clause level 6 (Kante=58, Kdesc=58521, core=1):-9100 
clause level 5 (Kante=54, Kdesc=61863, core=4):-8113 
clause level 10 (Kante=44, Kdesc=56559, core=6):-7948 
clause level 14 (Kante=26, Kdesc=56514, core=4):-7243 
clause level 7 (Kante=9, Kdesc=37843, core=14):-2774 
clause level 7 (Kante=52, Kdesc=57148, core=9):-7971 
clause level 5 (Kante=35, Kdesc=57116, core=13):-10731 
clause level 2 (Kante=11, Kdesc=48043, core=12):-6839 
clause level 8 (Kante=213, Kdesc=54015, core=13):-12853 
clause level 138 (Kante=12626, Kdesc=21902, core=11):-19452 
clause level 20 (Kante=45, Kdesc=56038, core=4):-7297 
clause level 132 (Kante=14063, Kdesc=11360, core=0):-23398 
clause level 7 (Kante=63, Kdesc=55013, core=13):-10869 
clause level 8 (Kante=89, Kdesc=57768, core=10):-9089 
clause level 1 (Kante=5, Kdesc=58266, core=15):-11151 7545 9338 9308 
clause level 8 (Kante=46, Kdesc=57530, core=1):-10755 
clause level 126 (Kante=15871, Kdesc=10339, core=10):-25194 
clause level 12 (Kante=88, Kdesc=50218, core=9):-10557 
clause level 4 (Kante=6, Kdesc=56154, core=15):-12414 8811 11538 11524 
clause level 21 (Kante=114, Kdesc=55491, core=8):-12697 
clause level 12 (Kante=7, Kdesc=43732, core=8):-3542 
clause level 3 (Kante=9, Kdesc=30566, core=2):-2259 
clause level 13 (Kante=111, Kdesc=52451, core=14):-8734 
clause level 6 (Kante=50, Kdesc=58108, core=8):-8085 
clause level 8 (Kante=253, Kdesc=48026, core=13):-14649 
clause level 9 (Kante=94, Kdesc=40334, core=5):-4878 
clause level 7 (Kante=134, Kdesc=55009, core=7):-11108 
clause level 22 (Kante=129, Kdesc=53519, core=11):-12693 
clause level 1 (Kante=5, Kdesc=29295, core=10):-2363 
clause level 9 (Kante=100, Kdesc=49639, core=13):-12164 
clause level 1 (Kante=5, Kdesc=48918, core=6):-7955 4022 5441 5426 
clause level 4 (Kante=33, Kdesc=53484, core=0):-10749 7195 
clause level 10 (Kante=49, Kdesc=48192, core=11):-7965 
clause level 3 (Kante=32, Kdesc=46305, core=15):-11508 
clause level 7 (Kante=66, Kdesc=48645, core=8):-12357 10558 
clause level 7 (Kante=91, Kdesc=54296, core=2):-10919 
clause level 1 (Kante=5, Kdesc=48113, core=7):-6432 3523 4864 4870 
clause level 5 (Kante=28, Kdesc=54961, core=7):-8005 
clause level 3 (Kante=37, Kdesc=56038, core=10):-9726 
clause level 5 (Kante=48, Kdesc=51189, core=12):-10750 9000 
clause level 1 (Kante=5, Kdesc=48850, core=15):-9721 5428 7070 7059 
clause level 2 (Kante=37, Kdesc=51391, core=6):-9293 7534 5854 
clause level 22 (Kante=47, Kdesc=48291, core=13):-8907 
clause level 16 (Kante=504, Kdesc=48699, core=13):-10528 7926 8887 
clause level 8 (Kante=97, Kdesc=49647, core=13):-12734 
clause level 26 (Kante=878, Kdesc=40803, core=12):-6875 
clause level 7 (Kante=109, Kdesc=53269, core=10):-8206 
clause level 99 (Kante=15117, Kdesc=13536, core=12):-21595 
clause level 1 (Kante=5, Kdesc=45829, core=14):-6287 2895 4118 4080 
clause level 1 (Kante=5, Kdesc=46821, core=12):-9122 
clause level 3 (Kante=19, Kdesc=48121, core=0):-12373 
clause level 9 (Kante=66, Kdesc=49915, core=7):-10327 6816 
clause level 12 (Kante=15, Kdesc=35812, core=0):-4815 
clause level 6 (Kante=50, Kdesc=50434, core=6):-8093 
clause level 11 (Kante=14849, Kdesc=19908, core=10):-7123 
clause level 1 (Kante=5, Kdesc=27236, core=1):-3202 
clause level 12 (Kante=69, Kdesc=36969, core=14):-4255 
clause level 3 (Kante=28, Kdesc=52753, core=1):-8853 
clause level 13 (Kante=40, Kdesc=46809, core=5):-10811 7212 
clause level 9 (Kante=116, Kdesc=44531, core=6):-14031 
clause level 5 (Kante=47, Kdesc=42102, core=0):-10952 
clause level 9 (Kante=154, Kdesc=46015, core=5):-12329 
clause level 1 (Kante=5, Kdesc=51034, core=15):-11545 7089 9726 9745 9752 
clause level 10 (Kante=118, Kdesc=41456, core=2):-13960 
clause level 14 (Kante=108, Kdesc=39740, core=1):-12353 
clause level 13 (Kante=174, Kdesc=41224, core=15):-12331 
clause level 7 (Kante=32, Kdesc=42710, core=12):-6356 4172 2956 
clause level 22 (Kante=13468, Kdesc=19043, core=10):-19277 
clause level 10 (Kante=40, Kdesc=33697, core=8):-5443 
clause level 14 (Kante=98, Kdesc=45792, core=9):-7464 
clause level 8 (Kante=47, Kdesc=40236, core=9):-7095 
clause level 6 (Kante=25, Kdesc=30904, core=2):-4830 
clause level 4 (Kante=921, Kdesc=37730, core=12):-12873 
clause level 10 (Kante=147, Kdesc=42264, core=7):-14190 
clause level 5 (Kante=13, Kdesc=47917, core=5):-7184 
clause level 3 (Kante=7, Kdesc=31477, core=9):-4710 
clause level 2 (Kante=6, Kdesc=24942, core=1):-3282 
clause level 24 (Kante=134, Kdesc=38348, core=15):-14149 
clause level 8 (Kante=216, Kdesc=44548, core=12):-12835 
clause level 8 (Kante=17, Kdesc=28581, core=4):-4437 
clause level 8 (Kante=7, Kdesc=28607, core=11):-4150 
clause level 4 (Kante=13, Kdesc=43894, core=12):-13304 
clause level 21 (Kante=128, Kdesc=41632, core=9):-12665 
clause level 7 (Kante=42, Kdesc=32561, core=9):-4416 
clause level 7 (Kante=54, Kdesc=44005, core=8):-7381 
clause level 7 (Kante=67, Kdesc=26849, core=1):-5771 
clause level 7 (Kante=84, Kdesc=38652, core=12):-9143 
clause level 1 (Kante=5, Kdesc=41660, core=10):-14105 12290 12282 10487 
clause level 23 (Kante=226, Kdesc=39127, core=7):-14086 
clause level 24 (Kante=89, Kdesc=41108, core=14):-14309 
clause level 2 (Kante=9, Kdesc=41986, core=14):-10732 
clause level 27 (Kante=5866, Kdesc=27697, core=10):-16524 
clause level 20 (Kante=556, Kdesc=41587, core=12):-8229 6432 
clause level 6 (Kante=56, Kdesc=44755, core=1):-9705 
clause level 3 (Kante=11, Kdesc=24764, core=4):-2067 
clause level 7 (Kante=207, Kdesc=42984, core=12):-11055 
clause level 2 (Kante=6, Kdesc=41281, core=8):-7988 4109 6287 6304 
clause level 8 (Kante=11, Kdesc=26035, core=6):-4436 
clause level 9 (Kante=15, Kdesc=20736, core=13):-4104 
clause level 10 (Kante=46, Kdesc=39478, core=10):-8619 
clause level 22 (Kante=162, Kdesc=40345, core=5):-10885 
clause level 13 (Kante=52, Kdesc=40396, core=5):-8060 6356 
clause level 7 (Kante=132, Kdesc=42229, core=9):-11005 7447 
clause level 14 (Kante=217, Kdesc=41015, core=8):-12886 
clause level 7 (Kante=210, Kdesc=36850, core=1):-12885 
clause level 1 (Kante=5, Kdesc=42018, core=7):-10010 8229 8203 8216 5891 
clause level 10 (Kante=129, Kdesc=39297, core=2):-12210 
clause level 8 (Kante=33, Kdesc=28580, core=0):-5760 
clause level 3 (Kante=54, Kdesc=40235, core=11):-8173 6476 
clause level 1 (Kante=5, Kdesc=31293, core=12):-6315 
clause level 124 (Kante=17483, Kdesc=14892, core=1):-15685 
clause level 1 (Kante=5, Kdesc=32812, core=2):-6185 2797 4695 4708 4717 
clause level 4 (Kante=17, Kdesc=32766, core=1):-5343 
clause level 6 (Kante=45, Kdesc=35342, core=13):-9185 5700 
clause level 1 (Kante=5, Kdesc=40538, core=11):-12136 8533 10316 10336 
clause level 5 (Kante=35, Kdesc=33071, core=12):-7404 
clause level 11 (Kante=94, Kdesc=35646, core=10):-12375 
clause level 8 (Kante=12, Kdesc=27497, core=9):-5598 4161 
clause level 95 (Kante=15909, Kdesc=12201, core=9):-17336 
clause level 1 (Kante=5, Kdesc=38822, core=15):-11518 7071 9709 9725 9721 
clause level 7 (Kante=50, Kdesc=38654, core=1):-9888 
clause level 12 (Kante=102, Kdesc=23991, core=0):-4955 
clause level 10 (Kante=154, Kdesc=41467, core=1):-8731 
clause level 1 (Kante=5, Kdesc=38404, core=0):-14716 12886 12918 11091 
clause level 6 (Kante=30, Kdesc=34136, core=12):-7858 
clause level 48 (Kante=20639, Kdesc=19528, core=0):-14216 
clause level 10 (Kante=39, Kdesc=34965, core=8):-7861 
clause level 8 (Kante=89, Kdesc=38687, core=0):-9870 
clause level 23 (Kante=141, Kdesc=34753, core=14):-14461 
clause level 11 (Kante=90, Kdesc=33370, core=0):-14171 10568 
clause level 1 (Kante=5, Kdesc=37138, core=8):-12523 8909 10729 10734 
clause level 3 (Kante=13, Kdesc=30807, core=2):-6321 
clause level 14 (Kante=4, Kdesc=18370, core=12):-4572 
clause level 12 (Kante=78, Kdesc=35238, core=9):-12551 
clause level 8 (Kante=72, Kdesc=35153, core=7):-12256 8621 
clause level 22 (Kante=56, Kdesc=34448, core=8):-10699 7137 
clause level 11 (Kante=77, Kdesc=20274, core=6):-17493 
clause level 7 (Kante=101, Kdesc=35724, core=8):-10620 
clause level 21 (Kante=75, Kdesc=35048, core=8):-10835 
clause level 11 (Kante=60, Kdesc=33518, core=3):-12748 
clause level 10 (Kante=187, Kdesc=25479, core=7):-7598 
clause level 85 (Kante=19677, Kdesc=15926, core=9):-12035 
clause level 94 (Kante=11099, Kdesc=16333, core=6):-17836 
clause level 8 (Kante=175, Kdesc=34115, core=0):-14631 11006 
clause level 8 (Kante=69, Kdesc=32785, core=14):-14068 
clause level 8 (Kante=127, Kdesc=33888, core=8):-12442 
clause level 6 (Kante=80, Kdesc=36377, core=7):-11501 7011 
clause level 7 (Kante=84, Kdesc=34729, core=10):-9898 
clause level 7 (Kante=93, Kdesc=32070, core=4):-12716 9126 
clause level 11 (Kante=24, Kdesc=24224, core=6):-7080 4022 
clause level 5 (Kante=39, Kdesc=34912, core=10):-9782 5533 
clause level 6 (Kante=117, Kdesc=34351, core=13):-8179 
clause level 6 (Kante=68, Kdesc=32329, core=7):-5779 
clause level 10 (Kante=44, Kdesc=28684, core=6):-7067 
clause level 1 (Kante=5, Kdesc=27747, core=14):-7998 4091 5528 5541 
clause level 8 (Kante=126, Kdesc=29863, core=13):-12428 
clause level 8 (Kante=43, Kdesc=27431, core=3):-8650 
clause level 22 (Kante=49, Kdesc=32695, core=1):-8923 
clause level 11 (Kante=1736, Kdesc=25465, core=11):-12410 
clause level 7 (Kante=128, Kdesc=28370, core=14):-12812 
clause level 6 (Kante=39, Kdesc=24833, core=11):-4942 
clause level 11 (Kante=52, Kdesc=29652, core=1):-10642 
clause level 7 (Kante=252, Kdesc=30026, core=10):-8096 5892 5893 
clause level 12 (Kante=30, Kdesc=22699, core=5):-5585 
clause level 13 (Kante=111, Kdesc=30443, core=15):-8736 
clause level 8 (Kante=214, Kdesc=31645, core=11):-12863 
clause level 8 (Kante=94, Kdesc=32338, core=1):-12721 9119 10914 
clause level 9 (Kante=55, Kdesc=28612, core=1):-12550 
clause level 10 (Kante=91, Kdesc=32323, core=7):-10409 
clause level 9 (Kante=79, Kdesc=33691, core=7):-11427 6889 
clause level 11 (Kante=166, Kdesc=22904, core=0):-6369 
clause level 5 (Kante=9, Kdesc=22009, core=10):-4785 2400 
clause level 8 (Kante=89, Kdesc=18205, core=6):-3335 
clause level 13 (Kante=60, Kdesc=24959, core=9):-7932 
clause level 10 (Kante=64, Kdesc=27480, core=14):-7081 
clause level 4 (Kante=17, Kdesc=22184, core=11):-5352 
clause level 10 (Kante=41, Kdesc=23800, core=0):-8128 
clause level 12 (Kante=185, Kdesc=18603, core=13):-7260 
clause level 5 (Kante=28, Kdesc=31502, core=2):-11591 
clause level 26 (Kante=3, Kdesc=22807, core=2):-9139 
clause level 8 (Kante=37, Kdesc=32984, core=11):-8976 
clause level 7 (Kante=54, Kdesc=25351, core=9):-8110 
clause level 92 (Kante=19454, Kdesc=17048, core=6):-16040 
clause level 6 (Kante=32, Kdesc=25518, core=13):-6935 3934 
clause level 22 (Kante=66, Kdesc=30257, core=11):-12527 8914 
clause level 7 (Kante=169, Kdesc=24772, core=15):-11745 
clause level 11 (Kante=54, Kdesc=31279, core=10):-9810 
clause level 1 (Kante=5, Kdesc=29242, core=1):-12578 8968 
clause level 7 (Kante=95, Kdesc=29361, core=5):-10939 9901 7380 
clause level 7 (Kante=98, Kdesc=32812, core=15):-13311 8811 11524 
clause level 11 (Kante=90, Kdesc=23688, core=4):-10934 
clause level 7 (Kante=134, Kdesc=27162, core=0):-11093 
clause level 4 (Kante=33, Kdesc=26569, core=6):-8020 
clause level 5 (Kante=16, Kdesc=23838, core=3):-7179 
clause level 1 (Kante=5, Kdesc=25501, core=14):-9817 5549 7225 7200 
clause level 13 (Kante=84, Kdesc=28067, core=12):-14360 
clause level 8 (Kante=37, Kdesc=29122, core=13):-9807 
clause level 1 (Kante=5, Kdesc=21116, core=0):-4945 2479 3596 3602 
clause level 23 (Kante=57, Kdesc=29125, core=9):-10712 
clause level 23 (Kante=182, Kdesc=24384, core=2):-16275 
clause level 7 (Kante=91, Kdesc=29021, core=13):-11681 
clause level 103 (Kante=13744, Kdesc=12559, core=15):-20708 
clause level 20 (Kante=442, Kdesc=30079, core=13):-9903 
clause level 8 (Kante=89, Kdesc=28408, core=6):-9878 
clause level 12 (Kante=23, Kdesc=22205, core=5):-7264 
clause level 15 (Kante=80, Kdesc=25907, core=14):-14376 
clause level 4 (Kante=39, Kdesc=25926, core=1):-8969 
clause level 7 (Kante=105, Kdesc=24719, core=10):-9299 
clause level 1 (Kante=5, Kdesc=26652, core=1):-10644 7100 8854 8858 
clause level 9 (Kante=6, Kdesc=20523, core=13):-15358 
clause level 5 (Kante=21, Kdesc=22182, core=0):-7145 
clause level 8 (Kante=49, Kdesc=24989, core=10):-12444 
clause level 9 (Kante=393, Kdesc=25199, core=0):-9773 8027 
clause level 9 (Kante=39, Kdesc=23471, core=9):-7872 4699 
clause level 20 (Kante=42, Kdesc=22146, core=1):-6370 
clause level 220 (Kante=17399, Kdesc=8645, core=1):-7427 
clause level 6 (Kante=119, Kdesc=23769, core=4):-11076 
clause level 1 (Kante=5, Kdesc=29604, core=7):-12919 11800 11769 11781 9314 
clause level 25 (Kante=185, Kdesc=19252, core=15):-17731 
clause level 12 (Kante=213, Kdesc=22148, core=1):-7250 
clause level 10 (Kante=91, Kdesc=19995, core=13):-17660 
clause level 4 (Kante=34, Kdesc=26761, core=7):-9884 5661 
clause level 8 (Kante=216, Kdesc=25940, core=11):-12847 
clause level 7 (Kante=109, Kdesc=25720, core=9):-7551 
clause level 8 (Kante=214, Kdesc=22853, core=5):-13562 
clause level 24 (Kante=132, Kdesc=24314, core=4):-16105 
clause level 4 (Kante=29, Kdesc=26648, core=15):-9797 
clause level 12 (Kante=13, Kdesc=17701, core=13):-5594 
clause level 5 (Kante=26, Kdesc=28952, core=15):-8924 
clause level 1 (Kante=5, Kdesc=26755, core=6):-11691 7382 9888 9904 9899 
clause level 15 (Kante=230, Kdesc=22746, core=8):-14696 
clause level 10 (Kante=7, Kdesc=20589, core=3):-6430 3523 4870 
clause level 24 (Kante=89, Kdesc=26213, core=14):-14320 
clause level 1 (Kante=5, Kdesc=28823, core=5):-11578 7170 9781 9787 9794 
clause level 9 (Kante=99, Kdesc=22069, core=6):-16305 
clause level 6 (Kante=117, Kdesc=24209, core=6):-8184 
clause level 12 (Kante=2455, Kdesc=20671, core=2):-9929 
clause level 11 (Kante=121, Kdesc=26209, core=3):-13932 
clause level 6 (Kante=38, Kdesc=27214, core=6):-9654 
clause level 5 (Kante=54, Kdesc=21659, core=14):-9138 
clause level 5 (Kante=24, Kdesc=22074, core=0):-8068 4187 
clause level 7 (Kante=86, Kdesc=25084, core=7):-11701 7360 
clause level 5 (Kante=48, Kdesc=25342, core=10):-10764 7201 
clause level 11 (Kante=196, Kdesc=18353, core=9):-17758 
clause level 14 (Kante=131, Kdesc=24644, core=5):-9157 
clause level 6 (Kante=8, Kdesc=22716, core=2):-5523 4783 
clause level 3 (Kante=30, Kdesc=20338, core=1):-4931 2471 
clause level 5 (Kante=34, Kdesc=22945, core=7):-8919 5503 
clause level 6 (Kante=43, Kdesc=22658, core=8):-9048 
clause level 6 (Kante=51, Kdesc=23995, core=10):-11657 7279 9100 
clause level 9 (Kante=154, Kdesc=27676, core=2):-13267 
clause level 22 (Kante=21, Kdesc=20672, core=1):-6297 
clause level 9 (Kante=99, Kdesc=22936, core=13):-16306 
clause level 9 (Kante=133, Kdesc=19701, core=8):-18259 
clause level 1 (Kante=5, Kdesc=20924, core=1):-4948 2139 3586 3603 3599 
clause level 7 (Kante=63, Kdesc=24329, core=8):-10881 
clause level 8 (Kante=170, Kdesc=21318, core=6):-16039 
clause level 14 (Kante=388, Kdesc=24159, core=12):-12560 
clause level 12 (Kante=46, Kdesc=18628, core=4):-10964 
clause level 4 (Kante=19, Kdesc=27520, core=2):-7306 
clause level 8 (Kante=214, Kdesc=17949, core=0):-13559 
clause level 13 (Kante=7, Kdesc=21606, core=11):-12777 9139 
clause level 6 (Kante=117, Kdesc=25170, core=5):-7496 
clause level 107 (Kante=16101, Kdesc=10528, core=12):-23990 
clause level 6 (Kante=10, Kdesc=25311, core=12):-7142 
clause level 14 (Kante=5, Kdesc=24357, core=10):-12123 
clause level 14 (Kante=575, Kdesc=22454, core=14):-9702 
clause level 6 (Kante=78, Kdesc=19790, core=12):-6475 
clause level 21 (Kante=1088, Kdesc=15989, core=1):-7593 
clause level 9 (Kante=99, Kdesc=19891, core=15):-16299 
clause level 8 (Kante=288, Kdesc=21208, core=5):-12750 7360 10920 
clause level 139 (Kante=13235, Kdesc=9913, core=1):-18171 
clause level 9 (Kante=110, Kdesc=24392, core=9):-12677 9040 
clause level 14 (Kante=223, Kdesc=21883, core=7):-14691 
clause level 9 (Kante=181, Kdesc=22371, core=13):-15877 
clause level 11 (Kante=155, Kdesc=24403, core=3):-14530 
clause level 8 (Kante=220, Kdesc=22158, core=12):-14666 
clause level 15 (Kante=64, Kdesc=20094, core=1):-9696 
clause level 7 (Kante=134, Kdesc=23431, core=13):-11770 
clause level 8 (Kante=217, Kdesc=22392, core=15):-14641 
clause level 1 (Kante=5, Kdesc=21352, core=0):-8198 4390 6500 6505 6489 
clause level 5 (Kante=29, Kdesc=19667, core=1):-8040 
clause level 23 (Kante=4, Kdesc=25821, core=2):-13341 
clause level 9 (Kante=19, Kdesc=20002, core=1):-11544 
clause level 179 (Kante=14186, Kdesc=7602, core=14):-19970 
clause level 6 (Kante=39, Kdesc=21645, core=5):-9706 5390 
clause level 9 (Kante=116, Kdesc=21790, core=8):-15051 
clause level 8 (Kante=55, Kdesc=21901, core=0):-14340 
clause level 23 (Kante=141, Kdesc=18049, core=1):-14473 
clause level 6 (Kante=32, Kdesc=19474, core=10):-6952 3934 
clause level 7 (Kante=44, Kdesc=21021, core=8):-8115 
clause level 15 (Kante=234, Kdesc=17986, core=4):-18306 
clause level 8 (Kante=69, Kdesc=24025, core=8):-14496 10884 
clause level 1 (Kante=5, Kdesc=25833, core=1):-7172 
clause level 8 (Kante=51, Kdesc=22661, core=9):-11458 
clause level 24 (Kante=680, Kdesc=21268, core=15):-8873 
clause level 20 (Kante=591, Kdesc=19302, core=9):-11764 
clause level 7 (Kante=99, Kdesc=20516, core=15):-8157 
clause level 8 (Kante=334, Kdesc=20207, core=4):-11659 
clause level 7 (Kante=208, Kdesc=23443, core=0):-12904 9286 
clause level 23 (Kante=182, Kdesc=18430, core=13):-16286 
clause level 10 (Kante=35, Kdesc=18053, core=13):-6427 
clause level 5 (Kante=35, Kdesc=18683, core=6):-11588 
clause level 7 (Kante=111, Kdesc=21116, core=3):-11084 
clause level 9 (Kante=416, Kdesc=17311, core=1):-6518 
clause level 6 (Kante=113, Kdesc=21802, core=11):-9972 
clause level 8 (Kante=88, Kdesc=20685, core=12):-14242 
clause level 13 (Kante=60, Kdesc=22173, core=1):-12555 
clause level 8 (Kante=48, Kdesc=17581, core=1):-9880 
clause level 6 (Kante=53, Kdesc=18387, core=1):-9862 5616 
clause level 3 (Kante=16, Kdesc=22527, core=12):-11505 7048 8777 
clause level 9 (Kante=37, Kdesc=21213, core=5):-10649 
clause level 7 (Kante=75, Kdesc=21930, core=7):-9895 5708 
clause level 10 (Kante=39, Kdesc=20160, core=15):-6885 
clause level 9 (Kante=522, Kdesc=18000, core=8):-9715 
clause level 12 (Kante=88, Kdesc=18704, core=10):-11499 
clause level 22 (Kante=56, Kdesc=22794, core=3):-13387 10731 
clause level 22 (Kante=57, Kdesc=18686, core=13):-11675 
clause level 11 (Kante=74, Kdesc=26087, core=8):-12356 
clause level 7 (Kante=119, Kdesc=20739, core=1):-11014 
clause level 10 (Kante=76, Kdesc=19439, core=11):-12097 
clause level 15 (Kante=104, Kdesc=21052, core=5):-12715 
clause level 9 (Kante=95, Kdesc=18950, core=9):-11461 
clause level 10 (Kante=682, Kdesc=22001, core=8):-12889 11691 
clause level 22 (Kante=222, Kdesc=20838, core=13):-14489 
clause level 22 (Kante=49, Kdesc=21474, core=4):-10726 
clause level 8 (Kante=51, Kdesc=19035, core=7):-11455 
clause level 5 (Kante=39, Kdesc=21766, core=0):-11577 8887 7151 
clause level 5 (Kante=35, Kdesc=21425, core=10):-11592 
clause level 10 (Kante=3, Kdesc=18947, core=14):-8882 7150 
clause level 21 (Kante=122, Kdesc=22558, core=4):-11672 
clause level 13 (Kante=70, Kdesc=19084, core=10):-7410 
clause level 1 (Kante=5, Kdesc=17579, core=0):-19542 15936 
clause level 11 (Kante=133, Kdesc=18324, core=10):-15851 
clause level 8 (Kante=217, Kdesc=21457, core=11):-13549 
clause level 22 (Kante=162, Kdesc=22029, core=4):-11666 
clause level 3 (Kante=7, Kdesc=19580, core=12):-8009 
clause level 7 (Kante=105, Kdesc=18433, core=5):-9976 
clause level 8 (Kante=98, Kdesc=21619, core=6):-14506 10916 
clause level 13 (Kante=111, Kdesc=20800, core=15):-13299 
clause level 24 (Kante=91, Kdesc=20129, core=15):-10715 
clause level 11 (Kante=32, Kdesc=16704, core=11):-8029 
clause level 1 (Kante=5, Kdesc=20634, core=12):-16267 14438 12643 
clause level 7 (Kante=194, Kdesc=22101, core=6):-11773 
clause level 9 (Kante=107, Kdesc=21363, core=14):-13908 
clause level 1 (Kante=5, Kdesc=20950, core=1):-14387 10763 
clause level 7 (Kante=61, Kdesc=16941, core=8):-9995 5868 
clause level 13 (Kante=591, Kdesc=17493, core=5):-9907 
clause level 7 (Kante=84, Kdesc=19778, core=6):-9889 
clause level 8 (Kante=43, Kdesc=19464, core=8):-9658 
clause level 8 (Kante=417, Kdesc=19466, core=15):-9983 7087 
clause level 24 (Kante=290, Kdesc=18066, core=4):-16006 
clause level 13 (Kante=111, Kdesc=20342, core=14):-12355 
clause level 7 (Kante=113, Kdesc=16200, core=2):-9950 
clause level 9 (Kante=117, Kdesc=20040, core=1):-15052 
clause level 21 (Kante=114, Kdesc=17707, core=9):-13472 
clause level 10 (Kante=183, Kdesc=20317, core=9):-15888 14090 
clause level 11 (Kante=54, Kdesc=19719, core=2):-9801 
clause level 7 (Kante=83, Kdesc=20027, core=10):-12703 
clause level 7 (Kante=137, Kdesc=18669, core=9):-11095 7525 
clause level 8 (Kante=34, Kdesc=15752, core=3):-9747 
clause level 9 (Kante=95, Kdesc=17391, core=4):-11467 
clause level 13 (Kante=141, Kdesc=19787, core=15):-15188 
clause level 13 (Kante=175, Kdesc=20581, core=14):-9964 
clause level 14 (Kante=130, Kdesc=17274, core=5):-11791 
clause level 13 (Kante=168, Kdesc=19710, core=5):-15954 14154 
clause level 10 (Kante=448, Kdesc=17236, core=7):-11423 
clause level 5 (Kante=45, Kdesc=16674, core=11):-9819 5555 
clause level 8 (Kante=126, Kdesc=18795, core=3):-13343 
clause level 22 (Kante=53, Kdesc=17262, core=11):-11587 
clause level 7 (Kante=143, Kdesc=16137, core=2):-9960 
clause level 120 (Kante=15870, Kdesc=13448, core=1):-12649 
clause level 8 (Kante=135, Kdesc=19337, core=14):-14238 12439 
clause level 15 (Kante=182, Kdesc=15680, core=15):-15949 
clause level 8 (Kante=213, Kdesc=18066, core=13):-12864 
clause level 5 (Kante=39, Kdesc=17169, core=14):-11571 8887 7151 
clause level 24 (Kante=566, Kdesc=18338, core=9):-13497 
clause level 10 (Kante=129, Kdesc=21377, core=13):-13253 
clause level 5 (Kante=48, Kdesc=17444, core=4):-11614 9000 
clause level 15 (Kante=236, Kdesc=17343, core=1):-15337 
clause level 7 (Kante=207, Kdesc=20129, core=0):-11762 
clause level 12 (Kante=342, Kdesc=13926, core=3):-7064 
clause level 8 (Kante=65, Kdesc=17653, core=7):-13471 9075 10904 
clause level 9 (Kante=114, Kdesc=18253, core=13):-9941 
clause level 11 (Kante=62, Kdesc=16828, core=13):-12533 
clause level 8 (Kante=89, Kdesc=18454, core=10):-14236 10634 12442 
clause level 21 (Kante=129, Kdesc=20344, core=6):-13461 
clause level 1 (Kante=5, Kdesc=17487, core=3):-17966 14355 
clause level 9 (Kante=5, Kdesc=18474, core=13):-9260 
clause level 7 (Kante=61, Kdesc=17309, core=0):-11658 7280 
clause level 13 (Kante=84, Kdesc=18447, core=15):-15186 
clause level 7 (Kante=208, Kdesc=19617, core=5):-13565 11094 
clause level 1 (Kante=5, Kdesc=20536, core=11):-11699 7382 9899 9904 9888 
clause level 1 (Kante=5, Kdesc=21599, core=1):-8901 
clause level 8 (Kante=12, Kdesc=13490, core=3):-6867 
clause level 11 (Kante=155, Kdesc=19123, core=5):-15274 
clause level 7 (Kante=95, Kdesc=19544, core=10):-11694 7380 9901 
clause level 10 (Kante=68, Kdesc=18711, core=15):-12363 
clause level 26 (Kante=4, Kdesc=17353, core=8):-10967 
clause level 13 (Kante=42, Kdesc=15394, core=2):-8069 
clause level 7 (Kante=132, Kdesc=16247, core=11):-11746 7447 
clause level 8 (Kante=70, Kdesc=18923, core=8):-14065 10433 
clause level 21 (Kante=122, Kdesc=18429, core=1):-11677 
clause level 8 (Kante=94, Kdesc=19220, core=1):-13480 9119 10914 
clause level 5 (Kante=22, Kdesc=16394, core=12):-8007 4774 
clause level 6 (Kante=45, Kdesc=15031, core=0):-9913 5700 
clause level 1 (Kante=5, Kdesc=15990, core=8):-8723 7926 5382 7896 7912 
clause level 13 (Kante=111, Kdesc=17192, core=8):-9669 
clause level 10 (Kante=188, Kdesc=19200, core=4):-15973 14175 
clause level 9 (Kante=528, Kdesc=17281, core=9):-9942 7070 6885 7942 7861 
clause level 24 (Kante=79, Kdesc=18521, core=4):-13386 
clause level 7 (Kante=70, Kdesc=13587, core=1):-6503 
clause level 10 (Kante=49, Kdesc=14874, core=13):-7951 
clause level 22 (Kante=27, Kdesc=15248, core=8):-7990 
clause level 13 (Kante=79, Kdesc=15757, core=7):-8217 
clause level 22 (Kante=162, Kdesc=18204, core=9):-11674 
clause level 14 (Kante=231, Kdesc=18702, core=10):-16487 12896 
clause level 7 (Kante=242, Kdesc=19118, core=8):-13569 9314 11800 
clause level 16 (Kante=252, Kdesc=15030, core=12):-17782 
clause level 8 (Kante=34, Kdesc=15358, core=14):-9750 
clause level 9 (Kante=175, Kdesc=18589, core=15):-15056 
clause level 23 (Kante=142, Kdesc=16922, core=11):-15257 
clause level 1 (Kante=5, Kdesc=15714, core=5):-11543 7082 8852 8857 
clause level 23 (Kante=142, Kdesc=12534, core=4):-15251 
clause level 12 (Kante=181, Kdesc=19147, core=4):-15070 
clause level 12 (Kante=94, Kdesc=17508, core=5):-12360 
clause level 23 (Kante=142, Kdesc=15263, core=10):-14488 
clause level 13 (Kante=47, Kdesc=17524, core=0):-12590 8967 
clause level 11 (Kante=121, Kdesc=16557, core=15):-15012 
clause level 23 (Kante=4, Kdesc=16819, core=6):-10711 
clause level 13 (Kante=164, Kdesc=18218, core=1):-15096 12354 
clause level 2 (Kante=4, Kdesc=14521, core=15):-10422 6869 
clause level 15 (Kante=55, Kdesc=15854, core=10):-11615 
clause level 15 (Kante=142, Kdesc=15850, core=2):-12810 
clause level 7 (Kante=207, Kdesc=17191, core=2):-11754 
clause level 8 (Kante=94, Kdesc=15903, core=7):-13485 9119 10914 
clause level 1 (Kante=5, Kdesc=16043, core=8):-13251 8621 10463 10473 
clause level 12 (Kante=1690, Kdesc=10527, core=6):-9247 
clause level 22 (Kante=4, Kdesc=16137, core=4):-14526 12716 9125 10920 
clause level 10 (Kante=177, Kdesc=16920, core=8):-14006 10417 
clause level 8 (Kante=98, Kdesc=17404, core=4):-14499 10909 
clause level 13 (Kante=320, Kdesc=14422, core=12):-8041 6435 
clause level 7 (Kante=208, Kdesc=16646, core=2):-13566 9286 
clause level 10 (Kante=51, Kdesc=15598, core=9):-9637 
clause level 21 (Kante=114, Kdesc=16044, core=13):-13476 
clause level 1 (Kante=5, Kdesc=14944, core=9):-13295 8737 10559 10564 
clause level 24 (Kante=51, Kdesc=14256, core=0):-11712 
clause level 7 (Kante=208, Kdesc=14125, core=0):-13571 11094 
clause level 21 (Kante=101, Kdesc=17808, core=11):-10890 
clause level 9 (Kante=6, Kdesc=14052, core=15):-10429 6875 8637 
clause level 22 (Kante=180, Kdesc=14913, core=7):-15267 10871 
clause level 8 (Kante=65, Kdesc=17498, core=9):-13467 11672 9871 
clause level 1 (Kante=5, Kdesc=16508, core=8):-11586 7170 9794 9787 9781 
clause level 13 (Kante=185, Kdesc=15676, core=0):-12872 
clause level 20 (Kante=343, Kdesc=14251, core=12):-8117 
clause level 9 (Kante=48, Kdesc=15387, core=12):-11546 7082 
clause level 25 (Kante=66, Kdesc=14073, core=4):-12495 
clause level 22 (Kante=189, Kdesc=16324, core=5):-13462 9076 
clause level 21 (Kante=786, Kdesc=14519, core=9):-9854 
clause level 1 (Kante=5, Kdesc=16186, core=0):-16317 12726 14557 
clause level 10 (Kante=150, Kdesc=17548, core=8):-14004 
clause level 21 (Kante=161, Kdesc=16353, core=10):-13493 
clause level 12 (Kante=101, Kdesc=13144, core=14):-18102 
clause level 27 (Kante=99, Kdesc=13699, core=13):-9625 
clause level 11 (Kante=198, Kdesc=14832, core=9):-15107 
clause level 7 (Kante=109, Kdesc=13494, core=13):-9329 5891 
clause level 24 (Kante=4, Kdesc=13565, core=14):-13454 
clause level 15 (Kante=258, Kdesc=15142, core=2):-13578 
clause level 23 (Kante=55, Kdesc=13419, core=15):-14268 
clause level 15 (Kante=55, Kdesc=12903, core=3):-11621 
clause level 23 (Kante=141, Kdesc=12584, core=7):-15249 
clause level 8 (Kante=100, Kdesc=14016, core=2):-13483 9112 
clause level 11 (Kante=91, Kdesc=12907, core=13):-11702 
clause level 20 (Kante=154, Kdesc=13967, core=0):-9874 6367 
clause level 23 (Kante=495, Kdesc=13258, core=6):-10674 
clause level 16 (Kante=16, Kdesc=12054, core=1):-10625 
clause level 13 (Kante=975, Kdesc=14663, core=7):-16125 12719 14346 
clause level 25 (Kante=70, Kdesc=13759, core=1):-12522 
clause level 13 (Kante=108, Kdesc=14978, core=2):-13399 
clause level 21 (Kante=72, Kdesc=13393, core=11):-12640 
clause level 16 (Kante=107, Kdesc=12552, core=9):-13542 
clause level 28 (Kante=55, Kdesc=12316, core=3):-11703 
clause level 13 (Kante=54, Kdesc=14062, core=3):-11605 
clause level 1 (Kante=5, Kdesc=15572, core=6):-16896 14210 14166 12371 
clause level 9 (Kante=90, Kdesc=12818, core=5):-15139 10634 
clause level 21 (Kante=101, Kdesc=15022, core=8):-10900 
clause level 219 (Kante=14580, Kdesc=1156, core=13):-5617 2968 
clause level 11 (Kante=56, Kdesc=12846, core=2):-11593 
clause level 13 (Kante=179, Kdesc=11459, core=7):-11768 
clause level 15 (Kante=230, Kdesc=11685, core=11):-15381 
clause level 11 (Kante=149, Kdesc=13605, core=10):-15042 
clause level 1 (Kante=5, Kdesc=14789, core=3):-16903 12398 15130 15116 15100 
clause level 10 (Kante=197, Kdesc=13781, core=8):-18692 14167 
clause level 7 (Kante=124, Kdesc=13977, core=7):-9248 
clause level 13 (Kante=141, Kdesc=12038, core=12):-14347 
clause level 11 (Kante=94, Kdesc=12484, core=11):-18690 14164 
clause level 8 (Kante=130, Kdesc=12744, core=4):-14661 12867 11059 
clause level 7 (Kante=60, Kdesc=12579, core=15):-11668 8061 9878 
clause level 13 (Kante=175, Kdesc=11850, core=9):-9969 
clause level 23 (Kante=60, Kdesc=11359, core=0):-11569 
clause level 1 (Kante=5, Kdesc=13704, core=4):-13385 8915 11592 11581 11585 
clause level 22 (Kante=347, Kdesc=11426, core=10):-9914 4255 6432 8115 8128 8225 
clause level 9 (Kante=132, Kdesc=13407, core=8):-16462 12850 
clause level 23 (Kante=45, Kdesc=11176, core=12):-10002 
clause level 25 (Kante=3365, Kdesc=12601, core=13):-15174 
clause level 87 (Kante=15775, Kdesc=3838, core=5):-21257 16869 
clause level 21 (Kante=122, Kdesc=11816, core=6):-10886 
clause level 12 (Kante=4, Kdesc=10817, core=2):-9872 
clause level 7 (Kante=190, Kdesc=12573, core=13):-11784 8193 
clause level 24 (Kante=85, Kdesc=10894, core=0):-14326 
clause level 11 (Kante=83, Kdesc=12194, core=7):-13305 8809 
clause level 10 (Kante=150, Kdesc=13594, core=0):-14043 
clause level 267 (Kante=15192, Kdesc=2928, core=6):-15863 
clause level 1 (Kante=5, Kdesc=11985, core=8):-16477 12874 14686 14669 
clause level 20 (Kante=108, Kdesc=13124, core=8):-12696 9066 
clause level 15 (Kante=265, Kdesc=9911, core=12):-15373 
clause level 1 (Kante=5, Kdesc=12470, core=8):-12526 8900 10725 10716 
clause level 11 (Kante=78, Kdesc=11221, core=12):-17500 13913 
clause level 1 (Kante=5, Kdesc=11208, core=11):-13490 9144 11693 11697 11681 
clause level 7 (Kante=101, Kdesc=11086, core=4):-11540 
clause level 10 (Kante=150, Kdesc=10478, core=8):-12205 8591 
clause level 10 (Kante=177, Kdesc=10641, core=5):-15049 10417 
clause level 347 (Kante=6823, Kdesc=451, core=4):-7414 
clause level 23 (Kante=689, Kdesc=9473, core=14):-16326 14511 
clause level 1 (Kante=5, Kdesc=9541, core=15):-17646 14034 15848 15864 
clause level 253 (Kante=16532, Kdesc=2976, core=1):-9350 
clause level 112 (Kante=19733, Kdesc=720, core=15):-14421 18015 
clause level 1 (Kante=5, Kdesc=8771, core=12):-17081 14558 12718 14521 
clause level 279 (Kante=19252, Kdesc=1018, core=0):-12628 
clause level 175 (Kante=2895, Kdesc=6468, core=2):-14023 
clause level 28 (Kante=3603, Kdesc=7217, core=12):-14536 
clause level 12 (Kante=219, Kdesc=8540, core=9):-15063 10517 
clause level 10 (Kante=171, Kdesc=7924, core=3):-15124 
clause level 235 (Kante=15834, Kdesc=1706, core=10):-21015 
clause level 312 (Kante=15598, Kdesc=1046, core=9):-10987 
clause level 134 (Kante=4933, Kdesc=4798, core=8):-11193 9055 
clause level 11 (Kante=151, Kdesc=8711, core=8):-15077 
clause level 231 (Kante=16202, Kdesc=1, core=1):-12786 12784 
clause level 207 (Kante=14081, Kdesc=32, core=9):-12769 22478 21696 23560 12628 24254 21717 22467 22475 21715 22470 20671 20665 14462 16360 12768 16375 18157 18156 14580 19967 19968 21763 
clause level 108 (Kante=13331, Kdesc=84, core=12):-12768 14575 18157 
clause level 171 (Kante=17208, Kdesc=55, core=9):-3990 12302 12336 10540 10527 8717 
clause level 227 (Kante=19251, Kdesc=6, core=0):-7296 5399 6985 15135 2813 6910 3991 
clause level 273 (Kante=14628, Kdesc=936, core=3):-12942 
clause level 280 (Kante=15613, Kdesc=909, core=11):-16378 
clause level 105 (Kante=15655, Kdesc=1500, core=2):-5400 10367 15740 12163 15814 
clause level 131 (Kante=21799, Kdesc=1364, core=8):-14096 18118 19744 
Found 5142 good successive clauses in order (4399 originals, maxlevel=347)
c KCorePR 798106 3780 5142 4399 347
c DistanceTo...Unseen 213929
c DistanceToGoodKCore c   DIST 0: 5142 (+5142) / 5142 (+5142)
c   DIST 1: 307472 (+302330) / 122244 (+117102)
c   DIST 2: 570281 (+262809) / 265527 (+143283)
c   DIST 3: 579032 (+8751) / 267158 (+1631)
c   DIST 4: 581589 (+2557) / 267526 (+368)
c   DIST 5: 582861 (+1272) / 267576 (+50)
c   DIST 6: 583534 (+673) / 267595 (+19)
c   DIST 7: 583870 (+336) / 267606 (+11)
c   DIST 8: 584015 (+145) / 267609 (+3)
c   DIST 9: 584071 (+56) / 267609 (+0)
c   DIST 10: 584139 (+68) / 267609 (+0)
c   DIST 11: 584168 (+29) / 267609 (+0)
c   DIST 12: 584176 (+8) / 267609 (+0)
c   DIST 13: 584177 (+1) / 267609 (+0)
c TotalDistance=798106
No graph is dumped
c result of core 6 is UNSAT
c One thread has finished
c Core 6 said it finished
c result of core 3 is UNKNOWN
c result of core 1 is UNKNOWN
c result of core 7 is UNKNOWN
c result of core 5 is UNKNOWN
c result of core 8 is UNKNOWN
c result of core 13 is UNKNOWN
c result of core 9 is UNKNOWN
c result of core 2 is UNKNOWN
c result of core 11 is UNKNOWN
c result of core 4 is UNKNOWN
c result of core 15 is UNKNOWN
c result of core 12 is UNKNOWN
c result of core 14 is UNKNOWN
c result of core 10 is UNKNOWN
c result of core 0 is UNKNOWN
c restarts              : 133 (138 conflicts in avg)
c blocked restarts      : 15 (multiple: 5) 
c last block at restart : 133
c nb ReduceDB           : 2
c nb removed Clauses    : 8748
c nb learnts DL2        : 466
c nb learnts size 2     : 187
c nb learnts size 1     : 62
c conflicts             : 18397          (0 /sec)
c decisions             : 600719         (0.00 % random) (15 /sec)
c propagations          : 73962368       (1838 /sec)
c conflict literals     : 22438688       (7.64 % deleted)
c nb reduced Clauses    : 84
c CPU time              : 40248.9 s

s INDETERMINATE
