c
c This is glucose-proof 1.0 based on  2.1 --  (thanks to MiniSAT)
c
c EXPERIMENTAL EASY PARALLEL (ROUND ROBIN) VERSION
c
c WARNING: for repeatability, setting FPU to use double precision
c Parallel version 10 solvers created.
c ========================================[ Problem Statistics ]===========================================
c |                                                                                                       |
c |  Number of variables:         31269                                                                   |
c |  Number of clauses:          635766                                                                   |
c |  Parse time:                   1.55 s                                                                 |
c |                                                                                                       |
c ========================================[ MAGIC CONSTANTS ]==============================================
c | Constants are supposed to work well together :-)                                                      |
c | however, if you find better choices, please let us known...                                           |
c |-------------------------------------------------------------------------------------------------------|
c |                                |                                |                                     |
c | - Restarts:                    | - Reduce Clause DB:            | - Minimize Asserting:               |
c |   * LBD Queue    :     50      |   * First     :   4000         |    * size <  30                     |
c |   * Trail  Queue :   5000      |   * Inc       :    300         |    * lbd  <   6                     |
c |   * K            :   0.80      |   * Special   :   1000         |                                     |
c |   * R            :   1.40      |   * Protected :  (lbd)< 30     |                                     |
c |                                |                                |                                     |
c ==================================[ Search Statistics (every  10000 conflicts) ]=========================
c |                                                                                                       |
c |          RESTARTS           |          ORIGINAL         |              LEARNT              | Progress |
c |       NB   Blocked  Avg Cfc |    Vars  Clauses Literals |   Red   Learnts    LBD2  Removed |          |
c =========================================================================================================
c |       15         0      666 |   31162   635766  2372553 |     1     7997       63     2405 |  0.342 % |
c |       39        13      512 |   31162   635766  2372553 |     3     6946      104    15138 |  0.342 % |
c |       42        32      714 |   31162   635766  2372553 |     3    16946      140    15138 |  0.342 % |
c |       49        32      816 |   31162   635766  2372553 |     4    17678      161    25709 |  0.342 % |
c |       72        32      694 |   31162   635766  2372553 |     5    15843      215    39171 |  0.342 % |
c |       77        32      779 |   31162   635766  2372553 |     5    25843      276    39171 |  0.342 % |
c |       79        50      886 |   31162   635766  2372553 |     6    21422      326    55463 |  0.342 % |
c |       88        57      909 |   31162   635766  2372553 |     6    31422      373    55463 |  0.342 % |
c |      103        57      873 |   31161   635766  2372553 |     7    23541      409    73387 |  0.345 % |
c |      136        57      735 |   31161   635766  2372553 |     7    33541      435    73387 |  0.345 % |
c |      159        59      691 |   31160   635766  2372553 |     8    24147      461    94283 |  0.349 % |
c |      187        59      641 |   31160   635766  2372553 |     8    34147      491    94283 |  0.349 % |
c |      211        59      616 |   31160   635766  2372553 |     9    22278      525   117970 |  0.349 % |
c |      234        59      598 |   31160   635766  2372553 |     9    32278      551   117970 |  0.349 % |
c |      243        62      617 |   31160   635766  2372553 |     9    42278      602   117970 |  0.349 % |
c |      251        62      637 |   31160   635766  2372553 |    10    27643      638   144525 |  0.349 % |
c |      278        62      611 |   31160   635766  2372553 |    10    37643      658   144525 |  0.349 % |
c |      291        62      618 |   31160   635766  2372553 |    10    47643      676   144525 |  0.349 % |
c |      307        62      618 |   31160   635766  2372553 |    11    30335      695   173766 |  0.349 % |
c |      316        62      632 |   31158   635766  2372553 |    11    40269      717   173766 |  0.355 % |
c |      330        62      636 |   31158   635766  2372553 |    11    50269      728   173766 |  0.355 % |
c |      337        63      652 |   31137   635766  2372553 |    12    30241      762   205408 |  0.422 % |
c |      348        63      660 |   31131   635766  2372553 |    12    40241      795   205408 |  0.441 % |
c empty clause found by core 7 at conflict 239930
*
c checking the resolution graph...OK
c All useful bySize 2101254 clauses, percentiles 0 4 4 8 19 32 51 71 85 115 237 239 (0,1,5,10,25,50,75,90,95,99,100-1,100)
c All useless bySize 934139 clauses, percentiles 0 2 3 3 4 4 32 55 70 100 222 228 (0,1,5,10,25,50,75,90,95,99,100-1,100)
c ProofOnly useful bySize 1982976 clauses, percentiles 0 5 8 12 21 34 52 72 86 116 237 239 (0,1,5,10,25,50,75,90,95,99,100-1,100)
c ProofOnly useless bySize 416322 clauses, percentiles 1 8 13 16 23 35 53 72 85 116 222 228 (0,1,5,10,25,50,75,90,95,99,100-1,100)
c All useful byFinalLBD 2101254 clauses, percentiles 0 1 3 4 6 8 10 11 13 15 25 25 (0,1,5,10,25,50,75,90,95,99,100-1,100)
c All useless byFinalLBD 934139 clauses, percentiles 0 2 3 3 4 4 9 12 13 16 25 26 (0,1,5,10,25,50,75,90,95,99,100-1,100)
c ProofOnly useful byFinalLBD 1982976 clauses, percentiles 0 1 3 4 6 8 10 12 13 15 25 25 (0,1,5,10,25,50,75,90,95,99,100-1,100)
c ProofOnly useless byFinalLBD 416322 clauses, percentiles 1 4 5 6 8 10 11 13 15 17 25 26 (0,1,5,10,25,50,75,90,95,99,100-1,100)
c All useful byInitialLBD 2101254 clauses, percentiles 0 3 4 4 6 8 10 12 13 15 25 25 (0,1,5,10,25,50,75,90,95,99,100-1,100)
c All useless byInitialLBD 934139 clauses, percentiles 0 2 3 3 4 4 9 12 13 16 26 26 (0,1,5,10,25,50,75,90,95,99,100-1,100)
c ProofOnly useful byInitialLBD 1982976 clauses, percentiles 0 3 4 5 7 8 10 12 13 15 25 25 (0,1,5,10,25,50,75,90,95,99,100-1,100)
c ProofOnly useless byInitialLBD 416322 clauses, percentiles 1 4 6 7 8 10 12 14 15 17 26 26 (0,1,5,10,25,50,75,90,95,99,100-1,100)
c Literals ProofOnly useful 77366463
c Literals ProofOnly useless 16858749
c additional windowsGood 1 1 1 1 2 4 8 9 10 43 262 270 (0,1,5,10,25,50,75,90,95,99,100-1,100)
c additional windowsBad 1 1 1 1 1 1 1 2 2 3 77 78 (0,1,5,10,25,50,75,90,95,99,100-1,100)
c additional 1WindowNoDecision 59154 28042 0.47 284094 141997 0.5 (nbWindowsGood,nbWindowsNoDecisionGood,nbWindowsBad,nbWindowsNoDecisionBad
c additional topclausessize all (10%,5%,1%,top) 90.43 103.70 133.84 239
c additional topclausessize proofonly (10%,5%,1%,top) 90.99 104.24 134.36 239
c additional topclausesinitialLBD all (10%,5%,1%,top) 82.88 96.33 126.66 239
c additional topclausesinitialLBD proofonly (10%,5%,1%,top) 77.31 90.99 121.49 239
c additional topclausesfinalLBD all (10%,5%,1%,top) 72.59 86.54 117.22 239
c additional topclausesfinalLBD proofonly (10%,5%,1%,top) 68.84 83.07 113.90 239
c additional predictionInitialLBD 1 40 1982976 0.70 0.00 0.00 2399258 416322 0.17 0.21 0.19 0.17 (nbgoodclauses,nbtotalgood,precisionGood,recallGood,FGood,nbbadclause,nbtotalbad,precisionBad,recallBad,FBad,accuracy)
c additional predictionInitialLBD 2 7600 1982976 0.97 0.00 0.01 2391698 416322 0.17 0.21 0.19 0.18 (nbgoodclauses,nbtotalgood,precisionGood,recallGood,FGood,nbbadclause,nbtotalbad,precisionBad,recallBad,FBad,accuracy)
c additional predictionInitialLBD 3 44804 1982976 0.97 0.02 0.04 2354494 416322 0.18 0.21 0.19 0.19 (nbgoodclauses,nbtotalgood,precisionGood,recallGood,FGood,nbbadclause,nbtotalbad,precisionBad,recallBad,FBad,accuracy)
c additional predictionInitialLBD 4 123869 1982976 0.95 0.06 0.11 2275429 416322 0.18 0.21 0.19 0.22 (nbgoodclauses,nbtotalgood,precisionGood,recallGood,FGood,nbbadclause,nbtotalbad,precisionBad,recallBad,FBad,accuracy)
c additional predictionInitialLBD 5 253674 1982976 0.93 0.12 0.21 2145624 416322 0.19 0.20 0.19 0.26 (nbgoodclauses,nbtotalgood,precisionGood,recallGood,FGood,nbbadclause,nbtotalbad,precisionBad,recallBad,FBad,accuracy)
c additional predictionInitialLBD 6 463097 1982976 0.91 0.21 0.35 1936201 416322 0.19 0.19 0.19 0.33 (nbgoodclauses,nbtotalgood,precisionGood,recallGood,FGood,nbbadclause,nbtotalbad,precisionBad,recallBad,FBad,accuracy)
c additional predictionInitialLBD 7 763307 1982976 0.90 0.35 0.50 1635991 416322 0.21 0.17 0.19 0.43 (nbgoodclauses,nbtotalgood,precisionGood,recallGood,FGood,nbbadclause,nbtotalbad,precisionBad,recallBad,FBad,accuracy)
c additional predictionInitialLBD 8 1126531 1982976 0.88 0.50 0.64 1272767 416322 0.22 0.14 0.18 0.53 (nbgoodclauses,nbtotalgood,precisionGood,recallGood,FGood,nbbadclause,nbtotalbad,precisionBad,recallBad,FBad,accuracy)
c additional predictionInitialLBD 10 1809338 1982976 0.86 0.78 0.82 589960 416322 0.28 0.08 0.13 0.72 (nbgoodclauses,nbtotalgood,precisionGood,recallGood,FGood,nbbadclause,nbtotalbad,precisionBad,recallBad,FBad,accuracy)
c additional predictionInitialLBD 14 2343497 1982976 0.83 0.98 0.90 55801 416322 0.43 0.01 0.02 0.82 (nbgoodclauses,nbtotalgood,precisionGood,recallGood,FGood,nbbadclause,nbtotalbad,precisionBad,recallBad,FBad,accuracy)
c additional predictionInitialLBD 18 2396337 1982976 0.83 1.00 0.91 2961 416322 0.56 0.00 0.00 0.83 (nbgoodclauses,nbtotalgood,precisionGood,recallGood,FGood,nbbadclause,nbtotalbad,precisionBad,recallBad,FBad,accuracy)
c additional predictionInitialLBD 22 2399183 1982976 0.83 1.00 0.91 115 416322 0.63 0.00 0.00 0.83 (nbgoodclauses,nbtotalgood,precisionGood,recallGood,FGood,nbbadclause,nbtotalbad,precisionBad,recallBad,FBad,accuracy)
c additional predictionInitialLBD 30 2399298 1982976 0.83 1.00 0.90 0 416322 -nan 0.00 -nan 0.83 (nbgoodclauses,nbtotalgood,precisionGood,recallGood,FGood,nbbadclause,nbtotalbad,precisionBad,recallBad,FBad,accuracy)
c additional predictionInitialLBD 40 2399298 1982976 0.83 1.00 0.90 0 416322 -nan 0.00 -nan 0.83 (nbgoodclauses,nbtotalgood,precisionGood,recallGood,FGood,nbbadclause,nbtotalbad,precisionBad,recallBad,FBad,accuracy)
c additional predictionFinallLBD 1 25194 1982976 1.00 0.01 0.02 2374104 416322 0.18 1.00 0.30 0.18 (nbgoodclauses,nbtotalgood,precisionGood,recallGood,FGood,nbbadclause,nbtotalbad,precisionBad,recallBad,FBad,accuracy)
c additional predictionFinallLBD 2 80191 1982976 0.99 0.04 0.08 2319107 416322 0.18 1.00 0.30 0.21 (nbgoodclauses,nbtotalgood,precisionGood,recallGood,FGood,nbbadclause,nbtotalbad,precisionBad,recallBad,FBad,accuracy)
c additional predictionFinallLBD 3 134660 1982976 0.98 0.07 0.12 2264638 416322 0.18 0.99 0.31 0.23 (nbgoodclauses,nbtotalgood,precisionGood,recallGood,FGood,nbbadclause,nbtotalbad,precisionBad,recallBad,FBad,accuracy)
c additional predictionFinallLBD 4 216888 1982976 0.96 0.10 0.19 2182410 416322 0.19 0.98 0.31 0.26 (nbgoodclauses,nbtotalgood,precisionGood,recallGood,FGood,nbbadclause,nbtotalbad,precisionBad,recallBad,FBad,accuracy)
c additional predictionFinallLBD 5 354804 1982976 0.93 0.17 0.28 2044494 416322 0.19 0.94 0.32 0.30 (nbgoodclauses,nbtotalgood,precisionGood,recallGood,FGood,nbbadclause,nbtotalbad,precisionBad,recallBad,FBad,accuracy)
c additional predictionFinallLBD 6 582014 1982976 0.92 0.27 0.42 1817284 416322 0.20 0.88 0.33 0.37 (nbgoodclauses,nbtotalgood,precisionGood,recallGood,FGood,nbbadclause,nbtotalbad,precisionBad,recallBad,FBad,accuracy)
c additional predictionFinallLBD 7 892408 1982976 0.90 0.40 0.56 1506890 416322 0.22 0.78 0.34 0.47 (nbgoodclauses,nbtotalgood,precisionGood,recallGood,FGood,nbbadclause,nbtotalbad,precisionBad,recallBad,FBad,accuracy)
c additional predictionFinallLBD 8 1248845 1982976 0.88 0.56 0.68 1150453 416322 0.24 0.65 0.35 0.57 (nbgoodclauses,nbtotalgood,precisionGood,recallGood,FGood,nbbadclause,nbtotalbad,precisionBad,recallBad,FBad,accuracy)
c additional predictionFinallLBD 10 1883276 1982976 0.86 0.82 0.84 516022 416322 0.29 0.36 0.32 0.74 (nbgoodclauses,nbtotalgood,precisionGood,recallGood,FGood,nbbadclause,nbtotalbad,precisionBad,recallBad,FBad,accuracy)
c additional predictionFinallLBD 14 2353114 1982976 0.83 0.99 0.90 46184 416322 0.46 0.05 0.09 0.82 (nbgoodclauses,nbtotalgood,precisionGood,recallGood,FGood,nbbadclause,nbtotalbad,precisionBad,recallBad,FBad,accuracy)
c additional predictionFinallLBD 18 2396918 1982976 0.83 1.00 0.91 2380 416322 0.60 0.00 0.01 0.83 (nbgoodclauses,nbtotalgood,precisionGood,recallGood,FGood,nbbadclause,nbtotalbad,precisionBad,recallBad,FBad,accuracy)
c additional predictionFinallLBD 22 2399213 1982976 0.83 1.00 0.91 85 416322 0.65 0.00 0.00 0.83 (nbgoodclauses,nbtotalgood,precisionGood,recallGood,FGood,nbbadclause,nbtotalbad,precisionBad,recallBad,FBad,accuracy)
c additional predictionFinallLBD 30 2399298 1982976 0.83 1.00 0.90 0 416322 -nan 0.00 -nan 0.83 (nbgoodclauses,nbtotalgood,precisionGood,recallGood,FGood,nbbadclause,nbtotalbad,precisionBad,recallBad,FBad,accuracy)
c additional predictionFinallLBD 40 2399298 1982976 0.83 1.00 0.90 0 416322 -nan 0.00 -nan 0.83 (nbgoodclauses,nbtotalgood,precisionGood,recallGood,FGood,nbbadclause,nbtotalbad,precisionBad,recallBad,FBad,accuracy)
c additional predictionSize 1 40 1982976 0.70 0.00 0.00 2399258 416322 0.17 0.21 0.19 0.17 (nbgoodclauses,nbtotalgood,precisionGood,recallGood,FGood,nbbadclause,nbtotalbad,precisionBad,recallBad,FBad,accuracy)
c additional predictionSize 2 268 1982976 0.88 0.00 0.00 2399030 416322 0.17 0.21 0.19 0.17 (nbgoodclauses,nbtotalgood,precisionGood,recallGood,FGood,nbbadclause,nbtotalbad,precisionBad,recallBad,FBad,accuracy)
c additional predictionSize 3 2451 1982976 0.97 0.00 0.00 2396847 416322 0.17 0.21 0.19 0.17 (nbgoodclauses,nbtotalgood,precisionGood,recallGood,FGood,nbbadclause,nbtotalbad,precisionBad,recallBad,FBad,accuracy)
c additional predictionSize 4 15106 1982976 0.99 0.01 0.01 2384192 416322 0.17 0.21 0.19 0.18 (nbgoodclauses,nbtotalgood,precisionGood,recallGood,FGood,nbbadclause,nbtotalbad,precisionBad,recallBad,FBad,accuracy)
c additional predictionSize 5 37984 1982976 0.98 0.02 0.04 2361314 416322 0.18 0.21 0.19 0.19 (nbgoodclauses,nbtotalgood,precisionGood,recallGood,FGood,nbbadclause,nbtotalbad,precisionBad,recallBad,FBad,accuracy)
c additional predictionSize 6 70344 1982976 0.97 0.03 0.07 2328954 416322 0.18 0.21 0.19 0.20 (nbgoodclauses,nbtotalgood,precisionGood,recallGood,FGood,nbbadclause,nbtotalbad,precisionBad,recallBad,FBad,accuracy)
c additional predictionSize 7 94900 1982976 0.96 0.05 0.09 2304398 416322 0.18 0.21 0.19 0.21 (nbgoodclauses,nbtotalgood,precisionGood,recallGood,FGood,nbbadclause,nbtotalbad,precisionBad,recallBad,FBad,accuracy)
c additional predictionSize 8 120970 1982976 0.95 0.06 0.11 2278328 416322 0.18 0.21 0.19 0.22 (nbgoodclauses,nbtotalgood,precisionGood,recallGood,FGood,nbbadclause,nbtotalbad,precisionBad,recallBad,FBad,accuracy)
c additional predictionSize 10 171472 1982976 0.93 0.08 0.15 2227826 416322 0.18 0.20 0.19 0.23 (nbgoodclauses,nbtotalgood,precisionGood,recallGood,FGood,nbbadclause,nbtotalbad,precisionBad,recallBad,FBad,accuracy)
c additional predictionSize 14 278340 1982976 0.90 0.13 0.22 2120958 416322 0.18 0.20 0.19 0.27 (nbgoodclauses,nbtotalgood,precisionGood,recallGood,FGood,nbbadclause,nbtotalbad,precisionBad,recallBad,FBad,accuracy)
c additional predictionSize 18 460206 1982976 0.87 0.20 0.33 1939092 416322 0.18 0.18 0.18 0.32 (nbgoodclauses,nbtotalgood,precisionGood,recallGood,FGood,nbbadclause,nbtotalbad,precisionBad,recallBad,FBad,accuracy)
c additional predictionSize 22 676969 1982976 0.85 0.29 0.43 1722329 416322 0.18 0.16 0.17 0.37 (nbgoodclauses,nbtotalgood,precisionGood,recallGood,FGood,nbbadclause,nbtotalbad,precisionBad,recallBad,FBad,accuracy)
c additional predictionSize 30 1053738 1982976 0.84 0.44 0.58 1345560 416322 0.18 0.12 0.15 0.47 (nbgoodclauses,nbtotalgood,precisionGood,recallGood,FGood,nbbadclause,nbtotalbad,precisionBad,recallBad,FBad,accuracy)
c additional predictionSize 40 1438379 1982976 0.83 0.60 0.70 960919 416322 0.18 0.09 0.12 0.57 (nbgoodclauses,nbtotalgood,precisionGood,recallGood,FGood,nbbadclause,nbtotalbad,precisionBad,recallBad,FBad,accuracy)
c additional predictionAge 1 181399 1982976 0.88 0.08 0.15 2217899 416322 0.18 0.20 0.19 0.23 (nbgoodclauses,nbtotalgood,precisionGood,recallGood,FGood,nbbadclause,nbtotalbad,precisionBad,recallBad,FBad,accuracy)
c additional predictionAge 10 204504 1982976 0.87 0.09 0.16 2194794 416322 0.18 0.20 0.19 0.24 (nbgoodclauses,nbtotalgood,precisionGood,recallGood,FGood,nbbadclause,nbtotalbad,precisionBad,recallBad,FBad,accuracy)
c additional predictionAge 25 239679 1982976 0.87 0.10 0.19 2159619 416322 0.18 0.19 0.19 0.25 (nbgoodclauses,nbtotalgood,precisionGood,recallGood,FGood,nbbadclause,nbtotalbad,precisionBad,recallBad,FBad,accuracy)
c additional predictionAge 50 265047 1982976 0.86 0.12 0.20 2134251 416322 0.18 0.19 0.18 0.25 (nbgoodclauses,nbtotalgood,precisionGood,recallGood,FGood,nbbadclause,nbtotalbad,precisionBad,recallBad,FBad,accuracy)
c additional predictionAge 100 279706 1982976 0.86 0.12 0.21 2119592 416322 0.18 0.19 0.18 0.26 (nbgoodclauses,nbtotalgood,precisionGood,recallGood,FGood,nbbadclause,nbtotalbad,precisionBad,recallBad,FBad,accuracy)
c additional predictionAge 250 297249 1982976 0.86 0.13 0.22 2102049 416322 0.18 0.19 0.18 0.26 (nbgoodclauses,nbtotalgood,precisionGood,recallGood,FGood,nbbadclause,nbtotalbad,precisionBad,recallBad,FBad,accuracy)
c additional predictionAge 500 309828 1982976 0.86 0.13 0.23 2089470 416322 0.18 0.19 0.18 0.27 (nbgoodclauses,nbtotalgood,precisionGood,recallGood,FGood,nbbadclause,nbtotalbad,precisionBad,recallBad,FBad,accuracy)
c additional predictionAge 1000 322440 1982976 0.86 0.14 0.24 2076858 416322 0.18 0.19 0.18 0.27 (nbgoodclauses,nbtotalgood,precisionGood,recallGood,FGood,nbbadclause,nbtotalbad,precisionBad,recallBad,FBad,accuracy)
c additional predictionAge 2500 340807 1982976 0.86 0.15 0.25 2058491 416322 0.18 0.19 0.18 0.27 (nbgoodclauses,nbtotalgood,precisionGood,recallGood,FGood,nbbadclause,nbtotalbad,precisionBad,recallBad,FBad,accuracy)
c additional predictionAge 5000 357481 1982976 0.85 0.15 0.26 2041817 416322 0.18 0.18 0.18 0.28 (nbgoodclauses,nbtotalgood,precisionGood,recallGood,FGood,nbbadclause,nbtotalbad,precisionBad,recallBad,FBad,accuracy)
c additional predictionAge 10000 379138 1982976 0.85 0.16 0.27 2020160 416322 0.18 0.18 0.18 0.29 (nbgoodclauses,nbtotalgood,precisionGood,recallGood,FGood,nbbadclause,nbtotalbad,precisionBad,recallBad,FBad,accuracy)
c additional predictionAge 25000 421973 1982976 0.85 0.18 0.30 1977325 416322 0.18 0.18 0.18 0.30 (nbgoodclauses,nbtotalgood,precisionGood,recallGood,FGood,nbbadclause,nbtotalbad,precisionBad,recallBad,FBad,accuracy)
c additional predictionAge 50000 472964 1982976 0.85 0.20 0.33 1926334 416322 0.18 0.17 0.18 0.31 (nbgoodclauses,nbtotalgood,precisionGood,recallGood,FGood,nbbadclause,nbtotalbad,precisionBad,recallBad,FBad,accuracy)
c additional predictionAge 100000 551766 1982976 0.85 0.24 0.37 1847532 416322 0.18 0.17 0.17 0.33 (nbgoodclauses,nbtotalgood,precisionGood,recallGood,FGood,nbbadclause,nbtotalbad,precisionBad,recallBad,FBad,accuracy)
c additional predictionTicks 1 181738 1982976 0.88 0.08 0.15 2217560 416322 0.18 0.20 0.19 0.23 (nbgoodclauses,nbtotalgood,precisionGood,recallGood,FGood,nbbadclause,nbtotalbad,precisionBad,recallBad,FBad,accuracy)
c additional predictionTicks 10 288043 1982976 0.86 0.12 0.22 2111255 416322 0.18 0.19 0.18 0.26 (nbgoodclauses,nbtotalgood,precisionGood,recallGood,FGood,nbbadclause,nbtotalbad,precisionBad,recallBad,FBad,accuracy)
c additional predictionTicks 25 367952 1982976 0.85 0.16 0.27 2031346 416322 0.18 0.18 0.18 0.28 (nbgoodclauses,nbtotalgood,precisionGood,recallGood,FGood,nbbadclause,nbtotalbad,precisionBad,recallBad,FBad,accuracy)
c additional predictionTicks 50 483341 1982976 0.85 0.21 0.33 1915957 416322 0.18 0.17 0.18 0.31 (nbgoodclauses,nbtotalgood,precisionGood,recallGood,FGood,nbbadclause,nbtotalbad,precisionBad,recallBad,FBad,accuracy)
c additional predictionTicks 100 594864 1982976 0.84 0.25 0.39 1804434 416322 0.18 0.16 0.17 0.34 (nbgoodclauses,nbtotalgood,precisionGood,recallGood,FGood,nbbadclause,nbtotalbad,precisionBad,recallBad,FBad,accuracy)
c additional predictionTicks 250 772527 1982976 0.84 0.33 0.47 1626771 416322 0.18 0.15 0.16 0.39 (nbgoodclauses,nbtotalgood,precisionGood,recallGood,FGood,nbbadclause,nbtotalbad,precisionBad,recallBad,FBad,accuracy)
c additional predictionTicks 500 923408 1982976 0.84 0.39 0.53 1475890 416322 0.18 0.13 0.15 0.43 (nbgoodclauses,nbtotalgood,precisionGood,recallGood,FGood,nbbadclause,nbtotalbad,precisionBad,recallBad,FBad,accuracy)
c additional predictionTicks 1000 1087287 1982976 0.84 0.46 0.59 1312011 416322 0.18 0.12 0.14 0.48 (nbgoodclauses,nbtotalgood,precisionGood,recallGood,FGood,nbbadclause,nbtotalbad,precisionBad,recallBad,FBad,accuracy)
c additional predictionTicks 2500 1322522 1982976 0.83 0.56 0.67 1076776 416322 0.18 0.10 0.13 0.54 (nbgoodclauses,nbtotalgood,precisionGood,recallGood,FGood,nbbadclause,nbtotalbad,precisionBad,recallBad,FBad,accuracy)
c additional predictionTicks 5000 1512147 1982976 0.83 0.64 0.72 887151 416322 0.19 0.08 0.12 0.59 (nbgoodclauses,nbtotalgood,precisionGood,recallGood,FGood,nbbadclause,nbtotalbad,precisionBad,recallBad,FBad,accuracy)
c additional predictionTicks 10000 1703008 1982976 0.83 0.72 0.77 696290 416322 0.19 0.07 0.10 0.65 (nbgoodclauses,nbtotalgood,precisionGood,recallGood,FGood,nbbadclause,nbtotalbad,precisionBad,recallBad,FBad,accuracy)
c additional predictionTicks 25000 1927115 1982976 0.83 0.81 0.82 472183 416322 0.20 0.05 0.08 0.71 (nbgoodclauses,nbtotalgood,precisionGood,recallGood,FGood,nbbadclause,nbtotalbad,precisionBad,recallBad,FBad,accuracy)
c additional predictionTicks 50000 2061462 1982976 0.83 0.86 0.85 337836 416322 0.20 0.03 0.06 0.74 (nbgoodclauses,nbtotalgood,precisionGood,recallGood,FGood,nbbadclause,nbtotalbad,precisionBad,recallBad,FBad,accuracy)
c additional predictionTicks 100000 2166074 1982976 0.83 0.91 0.87 233224 416322 0.20 0.02 0.04 0.77 (nbgoodclauses,nbtotalgood,precisionGood,recallGood,FGood,nbbadclause,nbtotalbad,precisionBad,recallBad,FBad,accuracy)
c additional lifetimeGood 1 10 10 30 17030 288610 870030 1455588 1732754 2108300 2398107 2398136 (0,1,5,10,25,50,75,90,95,99,100-1,100)
c additional lifetimeBad 1 10 10 30 24690 314777 888209 1467329 1757037 2175676 2397723 2397763 (0,1,5,10,25,50,75,90,95,99,100-1,100)
c additional lifetimeBadBad 2 10 10 10 10 20 90 590 2050 24012 2228834 2228844 (0,1,5,10,25,50,75,90,95,99,100-1,100)
c additional compositionBad 1 3 7 11 19 41 87 151 199 306 679 708 (0,1,5,10,25,50,75,90,95,99,100-1,100)
c additional compositionBadWithGood 0 0 0 1 2 4 7 13 18 31 112 131 (0,1,5,10,25,50,75,90,95,99,100-1,100)
c additional compositionBadWithBad 0 0 0 0 0 0 1 3 4 6 17 20 (0,1,5,10,25,50,75,90,95,99,100-1,100)
c additional compositionBadWithInitial 0 2 6 9 16 36 78 137 182 279 583 586 (0,1,5,10,25,50,75,90,95,99,100-1,100)
c additional compositionGood 1 3 5 8 17 42 95 166 218 329 813 858 (0,1,5,10,25,50,75,90,95,99,100-1,100)
c additional compositionGoodWithGood 0 0 0 1 2 4 9 16 22 36 117 124 (0,1,5,10,25,50,75,90,95,99,100-1,100)
c additional compositionGoodWithInitial 0 2 4 7 15 37 85 151 199 300 721 747 (0,1,5,10,25,50,75,90,95,99,100-1,100)
c additional propagationGood total 49897964 percentiles 0 1 1 1 1 1 2 6 25 377 172786 203613 (0,1,5,10,25,50,75,90,95,99,100-1,100)
c additional propagationBad total 661449 percentiles 1 1 1 1 1 1 2 3 4 9 211 3242 (0,1,5,10,25,50,75,90,95,99,100-1,100)
c additional resolutionGood total 14520624 percentiles 0 1 1 1 1 1 2 4 10 100 51710 52894 (0,1,5,10,25,50,75,90,95,99,100-1,100)
c additional resolutionBad total 412714 percentiles 0 0 0 0 1 1 1 2 2 5 73 85 (0,1,5,10,25,50,75,90,95,99,100-1,100)
Computing K-Core for 3035393 clauses...
c building structure for KCore computation.
c the graph has 161894170 edges, maxdegree=858
c we start the KCore with the value 20
c Non directed graph built
K=20,569270 nodes removed so far
K=21,608009 nodes removed so far
K=22,645339 nodes removed so far
K=23,681984 nodes removed so far
K=24,717434 nodes removed so far
K=25,751821 nodes removed so far
K=26,784965 nodes removed so far
K=27,817202 nodes removed so far
K=28,848394 nodes removed so far
K=29,878964 nodes removed so far
K=30,908558 nodes removed so far
K=31,936921 nodes removed so far
K=32,964411 nodes removed so far
K=33,991255 nodes removed so far
K=34,1017478 nodes removed so far
K=35,1042616 nodes removed so far
K=36,1067158 nodes removed so far
K=37,1091162 nodes removed so far
K=38,1114372 nodes removed so far
K=39,1137203 nodes removed so far
K=40,1159216 nodes removed so far
K=41,1180881 nodes removed so far
K=42,1202083 nodes removed so far
K=43,1222550 nodes removed so far
K=44,1242445 nodes removed so far
K=45,1262075 nodes removed so far
K=46,1281100 nodes removed so far
K=47,1299512 nodes removed so far
K=48,1317752 nodes removed so far
K=49,1335469 nodes removed so far
K=50,1352791 nodes removed so far
K=51,1369793 nodes removed so far
K=52,1386201 nodes removed so far
K=53,1402261 nodes removed so far
K=54,1418468 nodes removed so far
K=55,1434187 nodes removed so far
K=56,1449612 nodes removed so far
K=57,1464835 nodes removed so far
K=58,1479721 nodes removed so far
K=59,1494499 nodes removed so far
K=60,1508892 nodes removed so far
K=61,1522986 nodes removed so far
K=62,1536915 nodes removed so far
K=63,1550491 nodes removed so far
K=64,1564176 nodes removed so far
K=65,1577670 nodes removed so far
K=66,1591088 nodes removed so far
K=67,1604173 nodes removed so far
K=68,1617121 nodes removed so far
K=69,1629727 nodes removed so far
K=70,1642340 nodes removed so far
K=71,1654616 nodes removed so far
K=72,1667153 nodes removed so far
K=73,1678812 nodes removed so far
K=74,1690520 nodes removed so far
K=75,1702282 nodes removed so far
K=76,1713758 nodes removed so far
K=77,1725135 nodes removed so far
K=78,1736403 nodes removed so far
K=79,1747565 nodes removed so far
K=80,1758446 nodes removed so far
K=81,1769487 nodes removed so far
K=82,1780246 nodes removed so far
K=83,1790876 nodes removed so far
K=84,1801398 nodes removed so far
K=85,1811713 nodes removed so far
K=86,1821883 nodes removed so far
K=87,1831978 nodes removed so far
K=88,1841900 nodes removed so far
K=89,1851627 nodes removed so far
K=90,1861247 nodes removed so far
K=91,1870776 nodes removed so far
K=92,1879998 nodes removed so far
K=93,1889108 nodes removed so far
K=94,1898386 nodes removed so far
K=95,1907581 nodes removed so far
K=96,1916554 nodes removed so far
K=97,1925369 nodes removed so far
K=98,1933858 nodes removed so far
K=99,1942466 nodes removed so far
K=100,1951006 nodes removed so far
K=101,1959324 nodes removed so far
K=102,1967839 nodes removed so far
K=103,1976216 nodes removed so far
K=104,1984328 nodes removed so far
K=105,1992454 nodes removed so far
K=106,2000194 nodes removed so far
K=107,2008065 nodes removed so far
K=108,2015967 nodes removed so far
K=109,2023438 nodes removed so far
K=110,2030946 nodes removed so far
K=111,2038544 nodes removed so far
K=112,2045823 nodes removed so far
K=113,2053358 nodes removed so far
K=114,2060610 nodes removed so far
K=115,2067771 nodes removed so far
K=116,2074768 nodes removed so far
K=117,2081686 nodes removed so far
K=118,2088724 nodes removed so far
K=119,2095613 nodes removed so far
K=120,2102217 nodes removed so far
K=121,2108863 nodes removed so far
K=122,2115582 nodes removed so far
K=123,2122132 nodes removed so far
K=124,2128687 nodes removed so far
K=125,2135316 nodes removed so far
K=126,2141736 nodes removed so far
K=127,2148337 nodes removed so far
K=128,2154558 nodes removed so far
K=129,2160902 nodes removed so far
K=130,2166921 nodes removed so far
K=131,2173069 nodes removed so far
K=132,2179227 nodes removed so far
K=133,2185342 nodes removed so far
K=134,2191421 nodes removed so far
K=135,2197301 nodes removed so far
K=136,2203166 nodes removed so far
K=137,2208786 nodes removed so far
K=138,2214658 nodes removed so far
K=139,2220127 nodes removed so far
K=140,2225873 nodes removed so far
K=141,2231538 nodes removed so far
K=142,2236765 nodes removed so far
K=143,2242069 nodes removed so far
K=144,2247485 nodes removed so far
K=145,2252849 nodes removed so far
K=146,2258013 nodes removed so far
K=147,2263352 nodes removed so far
K=148,2268562 nodes removed so far
K=149,2273476 nodes removed so far
K=150,2278333 nodes removed so far
K=151,2283120 nodes removed so far
K=152,2288157 nodes removed so far
K=153,2292828 nodes removed so far
K=154,2297560 nodes removed so far
K=155,2301931 nodes removed so far
K=156,2306486 nodes removed so far
K=157,2310870 nodes removed so far
K=158,2315090 nodes removed so far
K=159,2319571 nodes removed so far
K=160,2323923 nodes removed so far
K=161,2328226 nodes removed so far
K=162,2332264 nodes removed so far
K=163,2336630 nodes removed so far
K=164,2340742 nodes removed so far
K=165,2344609 nodes removed so far
K=166,2348654 nodes removed so far
K=167,2352291 nodes removed so far
K=168,2356231 nodes removed so far
K=169,2360073 nodes removed so far
K=170,2363959 nodes removed so far
K=171,2367588 nodes removed so far
K=172,2371097 nodes removed so far
K=173,2374555 nodes removed so far
K=174,2378096 nodes removed so far
K=175,2381639 nodes removed so far
K=176,2385130 nodes removed so far
K=177,2388419 nodes removed so far
K=178,2391461 nodes removed so far
K=179,2394825 nodes removed so far
K=180,2398063 nodes removed so far
K=181,2401183 nodes removed so far
K=182,2404156 nodes removed so far
K=183,2407097 nodes removed so far
K=184,2410060 nodes removed so far
K=185,2412862 nodes removed so far
K=186,2415901 nodes removed so far
K=187,2418597 nodes removed so far
K=188,2421269 nodes removed so far
K=189,2423983 nodes removed so far
K=190,2426719 nodes removed so far
K=191,2429445 nodes removed so far
K=192,2432038 nodes removed so far
K=193,2434584 nodes removed so far
K=194,2436907 nodes removed so far
K=195,2439102 nodes removed so far
K=196,2441688 nodes removed so far
K=197,2443985 nodes removed so far
K=198,2446209 nodes removed so far
K=199,2448203 nodes removed so far
K=200,2450070 nodes removed so far
K=201,2452240 nodes removed so far
K=202,2454122 nodes removed so far
K=203,2455870 nodes removed so far
K=204,2457853 nodes removed so far
K=205,2459542 nodes removed so far
K=206,2461260 nodes removed so far
K=207,2462954 nodes removed so far
K=208,2464591 nodes removed so far
K=209,2466309 nodes removed so far
K=210,2467991 nodes removed so far
K=211,2469677 nodes removed so far
K=212,2471303 nodes removed so far
K=213,2472808 nodes removed so far
K=214,2474271 nodes removed so far
K=215,2475647 nodes removed so far
K=216,2477034 nodes removed so far
K=217,2478490 nodes removed so far
K=218,2479655 nodes removed so far
K=219,2481002 nodes removed so far
K=220,2482183 nodes removed so far
K=221,2483379 nodes removed so far
K=222,2484367 nodes removed so far
K=223,2485536 nodes removed so far
K=224,2486461 nodes removed so far
K=225,2487648 nodes removed so far
K=226,2488826 nodes removed so far
K=227,2489786 nodes removed so far
K=228,2490659 nodes removed so far
K=229,2491633 nodes removed so far
K=230,2492546 nodes removed so far
K=231,2493473 nodes removed so far
K=232,2494375 nodes removed so far
K=233,2495271 nodes removed so far
K=234,2496036 nodes removed so far
K=235,2496729 nodes removed so far
K=236,2497452 nodes removed so far
K=237,2498143 nodes removed so far
K=238,2498870 nodes removed so far
K=239,2499582 nodes removed so far
K=240,2500349 nodes removed so far
K=241,2500955 nodes removed so far
K=242,2501544 nodes removed so far
K=243,2502209 nodes removed so far
K=244,2502748 nodes removed so far
K=245,2503381 nodes removed so far
K=246,2503869 nodes removed so far
K=247,2504584 nodes removed so far
K=248,2505108 nodes removed so far
K=249,2505652 nodes removed so far
K=250,2506162 nodes removed so far
K=251,2506626 nodes removed so far
K=252,2507115 nodes removed so far
K=253,2507727 nodes removed so far
K=254,2508226 nodes removed so far
K=255,2508674 nodes removed so far
K=256,2509134 nodes removed so far
K=257,2509645 nodes removed so far
K=258,2510102 nodes removed so far
K=259,2510456 nodes removed so far
K=260,2510897 nodes removed so far
K=261,2511269 nodes removed so far
K=262,2511693 nodes removed so far
K=263,2512059 nodes removed so far
K=264,2512457 nodes removed so far
K=265,2512785 nodes removed so far
K=266,2513101 nodes removed so far
K=267,2513423 nodes removed so far
K=268,2514417 nodes removed so far
K=269,2514792 nodes removed so far
K=270,2515184 nodes removed so far
K=271,K=272,K=273,K=274,K=275,K=276,K=277,K=278,K=279,K=280,K=281,K=282,K=283,K=284,K=285,K=286,K=287,K=288,K=289,2520105 nodes removed so far
K=290,K=291,K=292,K=293,K=294,K=295,K=296,K=297,K=298,K=299,K=300,K=301,K=302,K=303,K=304,K=305,K=306,KCore = 306
Building structure for PR...
Computing PR...
Pageranking 2427351 nodes done in 13 iteration. cumulError=9.20215e-11
clause level 299 (Kante=454, Kdesc=66629, core=1):28698 
clause level 461 (Kante=449, Kdesc=48419, core=1):26163 
clause level 4 (Kante=37, Kdesc=52991, core=3):8662 21060 -21159 
clause level 1032 (Kante=581, Kdesc=33228, core=6):-26046 
clause level 1241 (Kante=328, Kdesc=45082, core=3):-14999 
clause level 19 (Kante=2, Kdesc=46114, core=7):-15051 -28595 
clause level 215 (Kante=5, Kdesc=39410, core=3):-11842 11836 
clause level 1440 (Kante=425, Kdesc=28611, core=9):-11787 
clause level 1195 (Kante=591, Kdesc=25358, core=2):26161 
clause level 1385 (Kante=441, Kdesc=14960, core=1):26156 
clause level 1025 (Kante=3, Kdesc=22394, core=2):11783 11287 
clause level 1451 (Kante=449, Kdesc=18872, core=4):6415 
clause level 20 (Kante=73, Kdesc=21302, core=3):15075 -28645 
clause level 1609 (Kante=552, Kdesc=6681, core=4):26102 
clause level 709 (Kante=668, Kdesc=42, core=7):-14525 14524 14523 
clause level 190 (Kante=314, Kdesc=6198, core=3):11840 -11843 -11842 
clause level 261 (Kante=586, Kdesc=2678, core=0):-15056 28587 15051 15052 28586 
clause level 317 (Kante=697, Kdesc=812, core=6):-10744 10743 10742 -15059 -15056 
clause level 881 (Kante=467, Kdesc=9, core=9):28640 -28641 -28642 
clause level 940 (Kante=470, Kdesc=1, core=8):28694 7312 7311 
clause level 905 (Kante=611, Kdesc=8, core=4):-11848 11847 11846 
clause level 950 (Kante=536, Kdesc=469, core=9):-21051 -11790 -11789 
clause level 1277 (Kante=553, Kdesc=39, core=3):28645 -28647 -28648 
clause level 1680 (Kante=542, Kdesc=1069, core=0):26090 
clause level 888 (Kante=459, Kdesc=35, core=7):11857 -11858 -11859 -11860 
clause level 747 (Kante=769, Kdesc=65, core=9):26076 -26079 -26078 6326 6325 -6395 -6396 
clause level 319 (Kante=480, Kdesc=82, core=1):15056 -26155 -15058 -15059 -26156 -26157 -15057 
clause level 1126 (Kante=538, Kdesc=106, core=2):28638 6320 -28640 -28641 -28643 -28642 6321 
clause level 519 (Kante=640, Kdesc=285, core=4):6329 -6331 -6330 -26145 26078 26077 -26146 
clause level 505 (Kante=510, Kdesc=10, core=6):6368 15057 -15058 -15059 15056 -28588 
clause level 924 (Kante=517, Kdesc=13, core=2):-28644 11851 28643 28641 28640 28642 11850 
clause level 1156 (Kante=649, Kdesc=12, core=8):-26111 26108 26107 26109 -11290 -11289 -11291 
clause level 184 (Kante=438, Kdesc=28, core=8):11850 8661 -11852 -11853 -11854 -11851 8660 
clause level 1142 (Kante=585, Kdesc=78, core=6):-11194 11192 11191 11193 11190 11189 11188 11187 
clause level 1347 (Kante=621, Kdesc=61, core=9):-6370 26052 6361 6359 6360 26050 26051 26049 
clause level 1534 (Kante=631, Kdesc=27, core=5):-11795 6356 26051 6355 26050 
clause level 931 (Kante=477, Kdesc=117, core=2):-28646 -15012 28644 11851 28643 -15010 -15011 11850 -15009 28642 11849 -28692 
clause level 814 (Kante=590, Kdesc=1, core=1):6345 -6346 -6347 -6348 26061 26058 26060 26059 -26129 
clause level 1292 (Kante=478, Kdesc=1, core=2):-26098 11800 26093 26094 11798 11791 11796 11799 11790 
clause level 1180 (Kante=397, Kdesc=293, core=3):8662 28639 11849 11850 11846 11845 11847 28641 28640 11844 
clause level 1410 (Kante=471, Kdesc=6, core=5):26151 -6375 -6374 -7313 -6376 -11791 11780 7309 15003 11779 -7314 7308 -11790 -7333 -7334 -11792 15002 -21120 6316 -21121 
clause level 1500 (Kante=596, Kdesc=3, core=2):-22466 22456 22455 22458 22457 7291 22452 26087 22454 26086 22453 
clause level 1042 (Kante=447, Kdesc=64, core=8):22468 8578 -11789 26104 26105 -11790 -28584 11778 -28585 11777 8579 -7335 -8676 8577 8567 8568 15049 21050 15048 14990 14998 14991 15003 15002 21049 -7336 
clause level 1183 (Kante=556, Kdesc=31, core=6):-14520 6334 14517 14516 14515 14518 14514 6333 26072 26071 
clause level 1388 (Kante=530, Kdesc=1, core=9):11778 -11784 6417 6416 22426 7318 7314 7319 -11787 -11786 -11788 -11785 26102 6415 -11783 -11284 -11292 7313 6418 7315 26057 -15083 -26125 21052 21051 26056 -7340 -22473 -15085 -11789 -26127 -26128 -26129 
clause level 392 (Kante=469, Kdesc=100, core=4):26048 -26049 6355 -26050 6354 11768 14981 -14623 -14622 -15096 -11878 -11883 -11879 -10818 -10819 -11882 -15091 -15095 -11880 10705 -15092 14505 14509 14510 14508 10704 10703 10706 10583 
clause level 733 (Kante=490, Kdesc=78, core=9):-28609 26083 -21106 -6338 -6339 -6341 26071 -21105 -6340 26067 -26137 26082 -8677 26069 26072 
clause level 171 (Kante=422, Kdesc=10, core=8):-28644 11849 -11852 28640 28639 -11853 11850 -21159 -21156 -21149 -21150 21048 -21157 -21160 -21162 
clause level 820 (Kante=575, Kdesc=60, core=1):-6345 26070 6343 6344 26069 
clause level 1537 (Kante=813, Kdesc=21, core=5):26153 11795 26050 26051 6352 
clause level 1356 (Kante=622, Kdesc=32, core=4):-11788 7309 7308 -6320 -6321 -26153 -26154 26083 26084 
clause level 1416 (Kante=530, Kdesc=18, core=8):-28612 -6404 -6403 -6405 26123 6352 26122 -6421 6351 
clause level 400 (Kante=614, Kdesc=27, core=1):-7258 -22475 7257 -11854 11852 6307 21049 21050 -21159 -11855 -7261 7255 7256 -7262 11851 -7263 -21151 11178 22360 -6422 -21152 -11293 22359 -21158 22358 
clause level 280 (Kante=502, Kdesc=18, core=1):-26103 7302 26102 26101 28697 11786 -11791 11785 28698 -15075 7301 -11792 -15076 -7328 -7327 8572 11784 8571 7255 7256 7259 -7369 -7368 -7370 -7371 
clause level 364 (Kante=596, Kdesc=34, core=3):-21056 -11847 21054 11846 -11849 11844 -11848 21053 11845 
clause level 1184 (Kante=593, Kdesc=34, core=8):-15068 6313 15064 11224 -6381 11225 15065 -26093 -26091 6316 6312 -6382 -26092 6311 
clause level 209 (Kante=446, Kdesc=25, core=3):26156 -15094 -11848 -26161 11846 -26157 -11847 -26162 11845 -6379 6369 14988 6368 -6382 14985 14984 14986 -21121 -15095 
clause level 799 (Kante=441, Kdesc=7, core=2):11785 7312 -11788 -11789 7311 -7313 -7314 -11790 7310 11780 11779 26049 26048 26046 
clause level 429 (Kante=511, Kdesc=9, core=8):-26105 26103 26101 26100 26099 11789 26104 26102 -11790 -11791 -7325 -7324 11788 26098 7302 
clause level 643 (Kante=564, Kdesc=37, core=8):-11270 11259 26155 6375 6376 11258 -26162 26156 -6383 -6388 -11857 -8673 -6384 -11856 -8672 -6389 11780 11784 11783 11778 6374 11257 11779 11782 8560 8559 -11858 14981 -15096 -11886 11770 -8675 11781 -15097 11775 14995 11776 14994 
clause level 1194 (Kante=490, Kdesc=1, core=2):6372 28583 28582 6361 -14619 14508 -10815 -6384 6360 -14618 -10814 -14620 10701 14507 14506 14505 10704 -11283 -11284 -10816 6359 -11286 26161 28581 -11285 -11287 26160 -11281 -14621 -6383 10703 10702 -10817 -11882 -11877 -11879 -11874 -11883 -11878 -15088 -11873 6314 -15096 11782 -11880 -11867 -11868 -11872 -11871 -14622 -10818 11783 -15097 -15095 -15092 -11875 -15089 -15087 -15091 6313 
clause level 1700 (Kante=599, Kdesc=12, core=1):22446 -22451 -22452 -22453 -22450 -22454 
clause level 1636 (Kante=563, Kdesc=21, core=8):11791 -28612 15024 -15094 15025 -26086 -28611 6318 -15095 -15096 -15097 -15099 
clause level 1537 (Kante=498, Kdesc=1, core=2):-11792 6369 6363 6368 26106 26103 6367 6366 26108 6319 6365 26105 6364 26104 26111 
clause level 1552 (Kante=575, Kdesc=1, core=2):-26151 26104 26106 26105 6368 26108 26107 11792 6369 6318 26109 6367 6366 6365 6362 6305 
Found 1228 good successive clauses in order (1163 originals, maxlevel=1700)
c KCorePR 3035393 306 1228 1163 1700
c DistanceTo...Unseen 520042
c DistanceToGoodKCore c   DIST 0: 1228 (+1228) / 1228 (+1228)
c   DIST 1: 2226186 (+2224958) / 1835723 (+1834495)
c   DIST 2: 2513451 (+287265) / 2099895 (+264172)
c   DIST 3: 2515283 (+1832) / 2101228 (+1333)
c   DIST 4: 2515345 (+62) / 2101253 (+25)
c   DIST 5: 2515351 (+6) / 2101254 (+1)
c TotalDistance=3035393
No graph is dumped
c result of core 7 is UNSAT
c One thread has finished
c Core 7 said it finished
c result of core 0 is UNKNOWN
c result of core 1 is UNKNOWN
c result of core 3 is UNKNOWN
c result of core 5 is UNKNOWN
c result of core 2 is UNKNOWN
c result of core 6 is UNKNOWN
c result of core 9 is UNKNOWN
c result of core 8 is UNKNOWN
c result of core 4 is UNKNOWN
c restarts              : 359 (668 conflicts in avg)
c blocked restarts      : 63 (multiple: 12) 
c last block at restart : 337
c nb ReduceDB           : 12
c nb removed Clauses    : 205408
c nb learnts DL2        : 845
c nb learnts size 2     : 18
c nb learnts size 1     : 5
c conflicts             : 239930         (19 /sec)
c decisions             : 293665         (0.00 % random) (24 /sec)
c propagations          : 53502845       (4304 /sec)
c conflict literals     : 9320823        (19.65 % deleted)
c nb reduced Clauses    : 568
c CPU time              : 12429.7 s

s INDETERMINATE
