c
c This is glucose-proof 1.0 based on  2.1 --  (thanks to MiniSAT)
c
c EXPERIMENTAL EASY PARALLEL (ROUND ROBIN) VERSION
c
c WARNING: for repeatability, setting FPU to use double precision
c Parallel version 2 solvers created.
c ========================================[ Problem Statistics ]===========================================
c |                                                                                                       |
c |  Number of variables:        120306                                                                   |
c |  Number of clauses:          802200                                                                   |
c |  Parse time:                   0.74 s                                                                 |
c |                                                                                                       |
c ========================================[ MAGIC CONSTANTS ]==============================================
c | Constants are supposed to work well together :-)                                                      |
c | however, if you find better choices, please let us known...                                           |
c |-------------------------------------------------------------------------------------------------------|
c |                                |                                |                                     |
c | - Restarts:                    | - Reduce Clause DB:            | - Minimize Asserting:               |
c |   * LBD Queue    :     50      |   * First     :   4000         |    * size <  30                     |
c |   * Trail  Queue :   5000      |   * Inc       :    300         |    * lbd  <   6                     |
c |   * K            :   0.80      |   * Special   :   1000         |                                     |
c |   * R            :   1.40      |   * Protected :  (lbd)< 30     |                                     |
c |                                |                                |                                     |
c ==================================[ Search Statistics (every  10000 conflicts) ]=========================
c |                                                                                                       |
c |          RESTARTS           |          ORIGINAL         |              LEARNT              | Progress |
c |       NB   Blocked  Avg Cfc |    Vars  Clauses Literals |   Red   Learnts    LBD2  Removed |          |
c =========================================================================================================
c |       65         0      153 |   85139   802200  2223232 |     1     7870      845     2202 | 29.231 % |
c |      119        22      168 |   82004   802200  2223232 |     3     6871     1563    14085 | 31.837 % |
c |      215        22      139 |   80667   802200  2223232 |     3    16727     1920    14085 | 32.948 % |
c |      273        22      146 |   80068   802200  2223232 |     4    17426     2089    23467 | 33.446 % |
c |      323        22      154 |   79449   802200  2223232 |     5    15673     2249    35227 | 33.961 % |
c |      350        22      171 |   79317   802200  2223232 |     5    25601     2351    35227 | 34.071 % |
c |      369        22      189 |   79206   802200  2223232 |     6    21271     2398    49569 | 34.163 % |
c |      381        22      209 |   79095   802200  2223232 |     6    31230     2441    49569 | 34.255 % |
c |      387        22      232 |   78706   802200  2223232 |     7    24286     2459    66529 | 34.579 % |
c |      393        22      254 |   78648   802200  2223232 |     7    34271     2508    66529 | 34.627 % |
c |      401        22      274 |   78386   802200  2223232 |     8    24617     2535    86079 | 34.844 % |
c |      407        22      294 |   77811   802200  2223232 |     8    34597     2545    86079 | 35.322 % |
c |      410        22      317 |   77809   802200  2223232 |     9    22503     2562   108197 | 35.324 % |
c |      424        22      330 |   77745   802200  2223232 |     9    32496     2587   108197 | 35.377 % |
c |      434        22      345 |   77689   802200  2223232 |     9    42476     2604   108197 | 35.424 % |
c |      438        22      365 |   77662   802200  2223232 |    10    27736     2620   132937 | 35.446 % |
c |      447        22      380 |   77530   802200  2223232 |    10    37733     2646   132937 | 35.556 % |
c |      448        22      401 |   77500   802200  2223232 |    10    47728     2661   132937 | 35.581 % |
c |      452        22      420 |   77441   802200  2223232 |    11    30362     2677   160323 | 35.630 % |
c |      455        22      439 |   77436   802200  2223232 |    11    40362     2692   160323 | 35.634 % |
c |      456        22      460 |   77433   802200  2223232 |    11    50353     2717   160323 | 35.637 % |
c |      458        22      480 |   77432   802200  2223232 |    12    30383     2723   190316 | 35.637 % |
c |      458        22      502 |   77430   802200  2223232 |    12    40381     2733   190316 | 35.639 % |
c |      463        22      518 |   77365   802200  2223232 |    12    50374     2743   190316 | 35.693 % |
c |      464        22      538 |   77100   802200  2223232 |    12    59938     2757   190316 | 35.913 % |
c empty clause found by core 1 at conflict 259424
*
c checking the resolution graph...OK
c All useful bySize 465391 clauses, percentiles 0 2 2 2 3 110 299 493 620 877 1665 1670 (0,1,5,10,25,50,75,90,95,99,100-1,100)
c All useless bySize 856315 clauses, percentiles 0 2 2 2 2 3 5 276 460 809 2146 2359 (0,1,5,10,25,50,75,90,95,99,100-1,100)
c ProofOnly useful bySize 325910 clauses, percentiles 0 3 11 26 94 213 380 560 680 927 1665 1670 (0,1,5,10,25,50,75,90,95,99,100-1,100)
c ProofOnly useless bySize 192938 clauses, percentiles 1 3 14 36 111 241 430 645 786 1083 2146 2359 (0,1,5,10,25,50,75,90,95,99,100-1,100)
c All useful byFinalLBD 465391 clauses, percentiles 0 1 2 2 2 7 11 15 16 21 146 191 (0,1,5,10,25,50,75,90,95,99,100-1,100)
c All useless byFinalLBD 856315 clauses, percentiles 0 2 2 2 2 3 5 12 17 58 461 551 (0,1,5,10,25,50,75,90,95,99,100-1,100)
c ProofOnly useful byFinalLBD 325910 clauses, percentiles 0 1 2 3 7 10 13 15 17 22 146 191 (0,1,5,10,25,50,75,90,95,99,100-1,100)
c ProofOnly useless byFinalLBD 192938 clauses, percentiles 1 2 4 6 8 12 16 29 53 131 461 551 (0,1,5,10,25,50,75,90,95,99,100-1,100)
c All useful byInitialLBD 465391 clauses, percentiles 0 2 2 2 3 8 12 15 17 22 207 214 (0,1,5,10,25,50,75,90,95,99,100-1,100)
c All useless byInitialLBD 856315 clauses, percentiles 0 2 2 2 2 3 5 13 18 60 461 551 (0,1,5,10,25,50,75,90,95,99,100-1,100)
c ProofOnly useful byInitialLBD 325910 clauses, percentiles 0 2 4 5 8 10 13 16 18 24 207 214 (0,1,5,10,25,50,75,90,95,99,100-1,100)
c ProofOnly useless byInitialLBD 192938 clauses, percentiles 1 3 5 6 9 12 17 31 55 134 461 551 (0,1,5,10,25,50,75,90,95,99,100-1,100)
c Literals ProofOnly useful 85189477
c Literals ProofOnly useless 57969766
c additional windowsGood 1 1 1 1 1 1 1 3 20 85 309 312 (0,1,5,10,25,50,75,90,95,99,100-1,100)
c additional windowsBad 1 1 1 1 1 1 1 6 11 26 109 122 (0,1,5,10,25,50,75,90,95,99,100-1,100)
c additional 1WindowNoDecision 58761 31900 0.54 56852 28519 0.5 (nbWindowsGood,nbWindowsNoDecisionGood,nbWindowsBad,nbWindowsNoDecisionBad
c additional topclausessize all (10%,5%,1%,top) 663.53 776.78 1011.07 1670
c additional topclausessize proofonly (10%,5%,1%,top) 690.91 802.07 1032.68 1670
c additional topclausesinitialLBD all (10%,5%,1%,top) 611.38 728.86 970.01 1670
c additional topclausesinitialLBD proofonly (10%,5%,1%,top) 569.74 690.91 937.64 1670
c additional topclausesfinalLBD all (10%,5%,1%,top) 521.23 647.18 900.72 1670
c additional topclausesfinalLBD proofonly (10%,5%,1%,top) 492.33 621.46 879.13 1670
c additional predictionInitialLBD 1 661 325910 0.98 0.00 0.00 518187 192938 0.37 0.59 0.46 0.37 (nbgoodclauses,nbtotalgood,precisionGood,recallGood,FGood,nbbadclause,nbtotalbad,precisionBad,recallBad,FBad,accuracy)
c additional predictionInitialLBD 2 5953 325910 0.76 0.01 0.03 512895 192938 0.37 0.59 0.46 0.38 (nbgoodclauses,nbtotalgood,precisionGood,recallGood,FGood,nbbadclause,nbtotalbad,precisionBad,recallBad,FBad,accuracy)
c additional predictionInitialLBD 3 14914 325910 0.75 0.03 0.07 503934 192938 0.38 0.58 0.46 0.39 (nbgoodclauses,nbtotalgood,precisionGood,recallGood,FGood,nbbadclause,nbtotalbad,precisionBad,recallBad,FBad,accuracy)
c additional predictionInitialLBD 4 29079 325910 0.75 0.07 0.12 489769 192938 0.38 0.57 0.46 0.40 (nbgoodclauses,nbtotalgood,precisionGood,recallGood,FGood,nbbadclause,nbtotalbad,precisionBad,recallBad,FBad,accuracy)
c additional predictionInitialLBD 5 50458 325910 0.73 0.11 0.20 468390 192938 0.38 0.55 0.45 0.42 (nbgoodclauses,nbtotalgood,precisionGood,recallGood,FGood,nbbadclause,nbtotalbad,precisionBad,recallBad,FBad,accuracy)
c additional predictionInitialLBD 6 77866 325910 0.72 0.17 0.28 440982 192938 0.39 0.52 0.45 0.44 (nbgoodclauses,nbtotalgood,precisionGood,recallGood,FGood,nbbadclause,nbtotalbad,precisionBad,recallBad,FBad,accuracy)
c additional predictionInitialLBD 7 112064 325910 0.71 0.24 0.36 406784 192938 0.39 0.49 0.44 0.46 (nbgoodclauses,nbtotalgood,precisionGood,recallGood,FGood,nbbadclause,nbtotalbad,precisionBad,recallBad,FBad,accuracy)
c additional predictionInitialLBD 8 151893 325910 0.70 0.33 0.44 366955 192938 0.40 0.45 0.43 0.49 (nbgoodclauses,nbtotalgood,precisionGood,recallGood,FGood,nbbadclause,nbtotalbad,precisionBad,recallBad,FBad,accuracy)
c additional predictionInitialLBD 10 241909 325910 0.69 0.51 0.59 276939 192938 0.43 0.36 0.39 0.55 (nbgoodclauses,nbtotalgood,precisionGood,recallGood,FGood,nbbadclause,nbtotalbad,precisionBad,recallBad,FBad,accuracy)
c additional predictionInitialLBD 14 399397 325910 0.68 0.84 0.75 119451 192938 0.55 0.20 0.30 0.65 (nbgoodclauses,nbtotalgood,precisionGood,recallGood,FGood,nbbadclause,nbtotalbad,precisionBad,recallBad,FBad,accuracy)
c additional predictionInitialLBD 18 467509 325910 0.67 0.96 0.79 51339 192938 0.75 0.12 0.20 0.68 (nbgoodclauses,nbtotalgood,precisionGood,recallGood,FGood,nbbadclause,nbtotalbad,precisionBad,recallBad,FBad,accuracy)
c additional predictionInitialLBD 22 486670 325910 0.66 0.99 0.79 32178 192938 0.87 0.09 0.16 0.67 (nbgoodclauses,nbtotalgood,precisionGood,recallGood,FGood,nbbadclause,nbtotalbad,precisionBad,recallBad,FBad,accuracy)
c additional predictionInitialLBD 30 497767 325910 0.65 0.99 0.79 21081 192938 0.92 0.06 0.11 0.66 (nbgoodclauses,nbtotalgood,precisionGood,recallGood,FGood,nbbadclause,nbtotalbad,precisionBad,recallBad,FBad,accuracy)
c additional predictionInitialLBD 40 503736 325910 0.65 1.00 0.78 15112 192938 0.94 0.04 0.08 0.65 (nbgoodclauses,nbtotalgood,precisionGood,recallGood,FGood,nbbadclause,nbtotalbad,precisionBad,recallBad,FBad,accuracy)
c additional predictionFinallLBD 1 8110 325910 0.93 0.02 0.05 510738 192938 0.38 1.00 0.55 0.39 (nbgoodclauses,nbtotalgood,precisionGood,recallGood,FGood,nbbadclause,nbtotalbad,precisionBad,recallBad,FBad,accuracy)
c additional predictionFinallLBD 2 25154 325910 0.89 0.07 0.13 493694 192938 0.39 0.99 0.55 0.41 (nbgoodclauses,nbtotalgood,precisionGood,recallGood,FGood,nbbadclause,nbtotalbad,precisionBad,recallBad,FBad,accuracy)
c additional predictionFinallLBD 3 41589 325910 0.86 0.11 0.20 477259 192938 0.39 0.97 0.56 0.43 (nbgoodclauses,nbtotalgood,precisionGood,recallGood,FGood,nbbadclause,nbtotalbad,precisionBad,recallBad,FBad,accuracy)
c additional predictionFinallLBD 4 58317 325910 0.83 0.15 0.25 460531 192938 0.40 0.95 0.56 0.45 (nbgoodclauses,nbtotalgood,precisionGood,recallGood,FGood,nbbadclause,nbtotalbad,precisionBad,recallBad,FBad,accuracy)
c additional predictionFinallLBD 5 79868 325910 0.78 0.19 0.31 438980 192938 0.40 0.91 0.56 0.46 (nbgoodclauses,nbtotalgood,precisionGood,recallGood,FGood,nbbadclause,nbtotalbad,precisionBad,recallBad,FBad,accuracy)
c additional predictionFinallLBD 6 106737 325910 0.74 0.24 0.37 412111 192938 0.40 0.86 0.55 0.47 (nbgoodclauses,nbtotalgood,precisionGood,recallGood,FGood,nbbadclause,nbtotalbad,precisionBad,recallBad,FBad,accuracy)
c additional predictionFinallLBD 7 138856 325910 0.72 0.31 0.43 379992 192938 0.41 0.80 0.54 0.49 (nbgoodclauses,nbtotalgood,precisionGood,recallGood,FGood,nbbadclause,nbtotalbad,precisionBad,recallBad,FBad,accuracy)
c additional predictionFinallLBD 8 176414 325910 0.71 0.38 0.50 342434 192938 0.41 0.73 0.53 0.51 (nbgoodclauses,nbtotalgood,precisionGood,recallGood,FGood,nbbadclause,nbtotalbad,precisionBad,recallBad,FBad,accuracy)
c additional predictionFinallLBD 10 261755 325910 0.69 0.56 0.62 257093 192938 0.44 0.59 0.50 0.57 (nbgoodclauses,nbtotalgood,precisionGood,recallGood,FGood,nbbadclause,nbtotalbad,precisionBad,recallBad,FBad,accuracy)
c additional predictionFinallLBD 14 410240 325910 0.68 0.86 0.76 108608 192938 0.57 0.32 0.41 0.66 (nbgoodclauses,nbtotalgood,precisionGood,recallGood,FGood,nbbadclause,nbtotalbad,precisionBad,recallBad,FBad,accuracy)
c additional predictionFinallLBD 18 472837 325910 0.67 0.97 0.79 46011 192938 0.78 0.19 0.30 0.68 (nbgoodclauses,nbtotalgood,precisionGood,recallGood,FGood,nbbadclause,nbtotalbad,precisionBad,recallBad,FBad,accuracy)
c additional predictionFinallLBD 22 490017 325910 0.66 0.99 0.79 28831 192938 0.91 0.14 0.24 0.67 (nbgoodclauses,nbtotalgood,precisionGood,recallGood,FGood,nbbadclause,nbtotalbad,precisionBad,recallBad,FBad,accuracy)
c additional predictionFinallLBD 30 499901 325910 0.65 1.00 0.79 18947 192938 0.96 0.09 0.17 0.66 (nbgoodclauses,nbtotalgood,precisionGood,recallGood,FGood,nbbadclause,nbtotalbad,precisionBad,recallBad,FBad,accuracy)
c additional predictionFinallLBD 40 505124 325910 0.64 1.00 0.78 13724 192938 0.98 0.07 0.13 0.65 (nbgoodclauses,nbtotalgood,precisionGood,recallGood,FGood,nbbadclause,nbtotalbad,precisionBad,recallBad,FBad,accuracy)
c additional predictionSize 1 661 325910 0.98 0.00 0.00 518187 192938 0.37 0.59 0.46 0.37 (nbgoodclauses,nbtotalgood,precisionGood,recallGood,FGood,nbbadclause,nbtotalbad,precisionBad,recallBad,FBad,accuracy)
c additional predictionSize 2 3767 325910 0.75 0.01 0.02 515081 192938 0.37 0.59 0.46 0.38 (nbgoodclauses,nbtotalgood,precisionGood,recallGood,FGood,nbbadclause,nbtotalbad,precisionBad,recallBad,FBad,accuracy)
c additional predictionSize 3 6502 325910 0.70 0.01 0.03 512346 192938 0.37 0.59 0.46 0.38 (nbgoodclauses,nbtotalgood,precisionGood,recallGood,FGood,nbbadclause,nbtotalbad,precisionBad,recallBad,FBad,accuracy)
c additional predictionSize 4 8534 325910 0.68 0.02 0.03 510314 192938 0.37 0.58 0.45 0.38 (nbgoodclauses,nbtotalgood,precisionGood,recallGood,FGood,nbbadclause,nbtotalbad,precisionBad,recallBad,FBad,accuracy)
c additional predictionSize 5 10503 325910 0.67 0.02 0.04 508345 192938 0.37 0.58 0.45 0.38 (nbgoodclauses,nbtotalgood,precisionGood,recallGood,FGood,nbbadclause,nbtotalbad,precisionBad,recallBad,FBad,accuracy)
c additional predictionSize 6 12724 325910 0.67 0.03 0.05 506124 192938 0.37 0.58 0.45 0.38 (nbgoodclauses,nbtotalgood,precisionGood,recallGood,FGood,nbbadclause,nbtotalbad,precisionBad,recallBad,FBad,accuracy)
c additional predictionSize 7 15373 325910 0.68 0.03 0.06 503475 192938 0.37 0.58 0.45 0.38 (nbgoodclauses,nbtotalgood,precisionGood,recallGood,FGood,nbbadclause,nbtotalbad,precisionBad,recallBad,FBad,accuracy)
c additional predictionSize 8 18255 325910 0.69 0.04 0.07 500593 192938 0.37 0.57 0.45 0.39 (nbgoodclauses,nbtotalgood,precisionGood,recallGood,FGood,nbbadclause,nbtotalbad,precisionBad,recallBad,FBad,accuracy)
c additional predictionSize 10 23367 325910 0.69 0.05 0.09 495481 192938 0.37 0.57 0.45 0.39 (nbgoodclauses,nbtotalgood,precisionGood,recallGood,FGood,nbbadclause,nbtotalbad,precisionBad,recallBad,FBad,accuracy)
c additional predictionSize 14 31518 325910 0.68 0.07 0.12 487330 192938 0.38 0.56 0.45 0.39 (nbgoodclauses,nbtotalgood,precisionGood,recallGood,FGood,nbbadclause,nbtotalbad,precisionBad,recallBad,FBad,accuracy)
c additional predictionSize 18 38040 325910 0.68 0.08 0.14 480808 192938 0.38 0.55 0.45 0.40 (nbgoodclauses,nbtotalgood,precisionGood,recallGood,FGood,nbbadclause,nbtotalbad,precisionBad,recallBad,FBad,accuracy)
c additional predictionSize 22 43641 325910 0.67 0.09 0.16 475207 192938 0.38 0.55 0.45 0.40 (nbgoodclauses,nbtotalgood,precisionGood,recallGood,FGood,nbbadclause,nbtotalbad,precisionBad,recallBad,FBad,accuracy)
c additional predictionSize 30 53077 325910 0.67 0.11 0.19 465771 192938 0.38 0.54 0.44 0.41 (nbgoodclauses,nbtotalgood,precisionGood,recallGood,FGood,nbbadclause,nbtotalbad,precisionBad,recallBad,FBad,accuracy)
c additional predictionSize 40 64424 325910 0.67 0.13 0.22 454424 192938 0.38 0.53 0.44 0.41 (nbgoodclauses,nbtotalgood,precisionGood,recallGood,FGood,nbbadclause,nbtotalbad,precisionBad,recallBad,FBad,accuracy)
c additional predictionAge 1 6477 325910 0.44 0.01 0.02 512371 192938 0.37 0.58 0.45 0.37 (nbgoodclauses,nbtotalgood,precisionGood,recallGood,FGood,nbbadclause,nbtotalbad,precisionBad,recallBad,FBad,accuracy)
c additional predictionAge 10 11420 325910 0.44 0.02 0.03 507428 192938 0.37 0.57 0.45 0.37 (nbgoodclauses,nbtotalgood,precisionGood,recallGood,FGood,nbbadclause,nbtotalbad,precisionBad,recallBad,FBad,accuracy)
c additional predictionAge 25 13444 325910 0.43 0.02 0.03 505404 192938 0.37 0.57 0.45 0.37 (nbgoodclauses,nbtotalgood,precisionGood,recallGood,FGood,nbbadclause,nbtotalbad,precisionBad,recallBad,FBad,accuracy)
c additional predictionAge 50 15162 325910 0.43 0.02 0.04 503686 192938 0.37 0.57 0.44 0.37 (nbgoodclauses,nbtotalgood,precisionGood,recallGood,FGood,nbbadclause,nbtotalbad,precisionBad,recallBad,FBad,accuracy)
c additional predictionAge 100 16703 325910 0.43 0.02 0.04 502145 192938 0.37 0.56 0.44 0.37 (nbgoodclauses,nbtotalgood,precisionGood,recallGood,FGood,nbbadclause,nbtotalbad,precisionBad,recallBad,FBad,accuracy)
c additional predictionAge 250 18624 325910 0.43 0.02 0.05 500224 192938 0.36 0.56 0.44 0.37 (nbgoodclauses,nbtotalgood,precisionGood,recallGood,FGood,nbbadclause,nbtotalbad,precisionBad,recallBad,FBad,accuracy)
c additional predictionAge 500 20119 325910 0.44 0.03 0.05 498729 192938 0.36 0.56 0.44 0.37 (nbgoodclauses,nbtotalgood,precisionGood,recallGood,FGood,nbbadclause,nbtotalbad,precisionBad,recallBad,FBad,accuracy)
c additional predictionAge 1000 21888 325910 0.44 0.03 0.06 496960 192938 0.36 0.55 0.44 0.37 (nbgoodclauses,nbtotalgood,precisionGood,recallGood,FGood,nbbadclause,nbtotalbad,precisionBad,recallBad,FBad,accuracy)
c additional predictionAge 2500 25205 325910 0.44 0.03 0.06 493643 192938 0.36 0.55 0.44 0.37 (nbgoodclauses,nbtotalgood,precisionGood,recallGood,FGood,nbbadclause,nbtotalbad,precisionBad,recallBad,FBad,accuracy)
c additional predictionAge 5000 29471 325910 0.43 0.04 0.07 489377 192938 0.36 0.54 0.43 0.36 (nbgoodclauses,nbtotalgood,precisionGood,recallGood,FGood,nbbadclause,nbtotalbad,precisionBad,recallBad,FBad,accuracy)
c additional predictionAge 10000 36339 325910 0.41 0.05 0.08 482509 192938 0.36 0.53 0.42 0.36 (nbgoodclauses,nbtotalgood,precisionGood,recallGood,FGood,nbbadclause,nbtotalbad,precisionBad,recallBad,FBad,accuracy)
c additional predictionAge 25000 55289 325910 0.38 0.06 0.11 463559 192938 0.34 0.49 0.40 0.35 (nbgoodclauses,nbtotalgood,precisionGood,recallGood,FGood,nbbadclause,nbtotalbad,precisionBad,recallBad,FBad,accuracy)
c additional predictionAge 50000 84569 325910 0.35 0.09 0.15 434279 192938 0.32 0.42 0.36 0.32 (nbgoodclauses,nbtotalgood,precisionGood,recallGood,FGood,nbbadclause,nbtotalbad,precisionBad,recallBad,FBad,accuracy)
c additional predictionAge 100000 138478 325910 0.33 0.14 0.20 380370 192938 0.26 0.31 0.28 0.28 (nbgoodclauses,nbtotalgood,precisionGood,recallGood,FGood,nbbadclause,nbtotalbad,precisionBad,recallBad,FBad,accuracy)
c additional predictionTicks 1 6598 325910 0.44 0.01 0.02 512250 192938 0.37 0.58 0.45 0.37 (nbgoodclauses,nbtotalgood,precisionGood,recallGood,FGood,nbbadclause,nbtotalbad,precisionBad,recallBad,FBad,accuracy)
c additional predictionTicks 10 51966 325910 0.50 0.08 0.14 466882 192938 0.36 0.51 0.42 0.37 (nbgoodclauses,nbtotalgood,precisionGood,recallGood,FGood,nbbadclause,nbtotalbad,precisionBad,recallBad,FBad,accuracy)
c additional predictionTicks 25 75088 325910 0.51 0.12 0.19 443760 192938 0.35 0.48 0.41 0.38 (nbgoodclauses,nbtotalgood,precisionGood,recallGood,FGood,nbbadclause,nbtotalbad,precisionBad,recallBad,FBad,accuracy)
c additional predictionTicks 50 98399 325910 0.52 0.16 0.24 420449 192938 0.35 0.45 0.39 0.38 (nbgoodclauses,nbtotalgood,precisionGood,recallGood,FGood,nbbadclause,nbtotalbad,precisionBad,recallBad,FBad,accuracy)
c additional predictionTicks 100 123839 325910 0.54 0.20 0.30 395009 192938 0.34 0.42 0.38 0.39 (nbgoodclauses,nbtotalgood,precisionGood,recallGood,FGood,nbbadclause,nbtotalbad,precisionBad,recallBad,FBad,accuracy)
c additional predictionTicks 250 162318 325910 0.55 0.28 0.37 356530 192938 0.34 0.37 0.35 0.41 (nbgoodclauses,nbtotalgood,precisionGood,recallGood,FGood,nbbadclause,nbtotalbad,precisionBad,recallBad,FBad,accuracy)
c additional predictionTicks 500 195741 325910 0.57 0.34 0.43 323107 192938 0.34 0.33 0.34 0.42 (nbgoodclauses,nbtotalgood,precisionGood,recallGood,FGood,nbbadclause,nbtotalbad,precisionBad,recallBad,FBad,accuracy)
c additional predictionTicks 1000 232000 325910 0.58 0.42 0.48 286848 192938 0.34 0.30 0.31 0.45 (nbgoodclauses,nbtotalgood,precisionGood,recallGood,FGood,nbbadclause,nbtotalbad,precisionBad,recallBad,FBad,accuracy)
c additional predictionTicks 2500 285220 325910 0.59 0.52 0.55 233628 192938 0.33 0.24 0.28 0.48 (nbgoodclauses,nbtotalgood,precisionGood,recallGood,FGood,nbbadclause,nbtotalbad,precisionBad,recallBad,FBad,accuracy)
c additional predictionTicks 5000 330825 325910 0.60 0.61 0.60 188023 192938 0.32 0.18 0.23 0.50 (nbgoodclauses,nbtotalgood,precisionGood,recallGood,FGood,nbbadclause,nbtotalbad,precisionBad,recallBad,FBad,accuracy)
c additional predictionTicks 10000 381050 325910 0.60 0.70 0.65 137798 192938 0.29 0.12 0.17 0.52 (nbgoodclauses,nbtotalgood,precisionGood,recallGood,FGood,nbbadclause,nbtotalbad,precisionBad,recallBad,FBad,accuracy)
c additional predictionTicks 25000 449050 325910 0.61 0.84 0.70 69798 192938 0.24 0.05 0.09 0.56 (nbgoodclauses,nbtotalgood,precisionGood,recallGood,FGood,nbbadclause,nbtotalbad,precisionBad,recallBad,FBad,accuracy)
c additional predictionTicks 50000 487487 325910 0.62 0.92 0.74 31361 192938 0.21 0.02 0.04 0.59 (nbgoodclauses,nbtotalgood,precisionGood,recallGood,FGood,nbbadclause,nbtotalbad,precisionBad,recallBad,FBad,accuracy)
c additional predictionTicks 100000 509094 325910 0.62 0.98 0.76 9754 192938 0.19 0.01 0.01 0.62 (nbgoodclauses,nbtotalgood,precisionGood,recallGood,FGood,nbbadclause,nbtotalbad,precisionBad,recallBad,FBad,accuracy)
c additional lifetimeGood 1 4 8267 39783 124233 230725 335499 413589 443307 480757 519475 519479 (0,1,5,10,25,50,75,90,95,99,100-1,100)
c additional lifetimeBad 1 2 985 8072 33453 84022 161044 272070 342686 432604 519449 519486 (0,1,5,10,25,50,75,90,95,99,100-1,100)
c additional lifetimeBadBad 2 2 2 2 2 8 52 2171 13380 50659 491940 496806 (0,1,5,10,25,50,75,90,95,99,100-1,100)
c additional compositionBad 2 4 10 18 84 353 1020 1991 2742 4400 10358 10679 (0,1,5,10,25,50,75,90,95,99,100-1,100)
c additional compositionBadWithGood 0 0 0 1 5 18 50 96 132 210 479 482 (0,1,5,10,25,50,75,90,95,99,100-1,100)
c additional compositionBadWithBad 0 0 0 0 0 1 2 3 4 7 24 27 (0,1,5,10,25,50,75,90,95,99,100-1,100)
c additional compositionBadWithInitial 0 3 8 15 75 331 968 1898 2617 4214 9952 10267 (0,1,5,10,25,50,75,90,95,99,100-1,100)
c additional compositionGood 1 3 8 14 87 391 1090 2102 2863 4559 10382 11279 (0,1,5,10,25,50,75,90,95,99,100-1,100)
c additional compositionGoodWithGood 0 1 1 2 7 24 61 116 158 245 496 509 (0,1,5,10,25,50,75,90,95,99,100-1,100)
c additional compositionGoodWithInitial 0 1 6 11 76 365 1028 1990 2722 4338 10011 10838 (0,1,5,10,25,50,75,90,95,99,100-1,100)
c additional propagationGood total 44411380 percentiles 0 1 1 1 1 1 3 29 124 1913 118544 127839 (0,1,5,10,25,50,75,90,95,99,100-1,100)
c additional propagationBad total 1270441 percentiles 1 1 1 1 1 1 2 4 8 40 37283 75601 (0,1,5,10,25,50,75,90,95,99,100-1,100)
c additional resolutionGood total 8352815 percentiles 0 1 1 1 1 1 2 13 42 323 36922 37444 (0,1,5,10,25,50,75,90,95,99,100-1,100)
c additional resolutionBad total 249362 percentiles 0 0 0 0 1 1 1 2 3 8 76 101 (0,1,5,10,25,50,75,90,95,99,100-1,100)
Computing K-Core for 1321706 clauses...
c building structure for KCore computation.
c the graph has 395575448 edges, maxdegree=11279
c we start the KCore with the value 20
c Non directed graph built
K=20,148538 nodes removed so far
K=21,152505 nodes removed so far
K=22,156069 nodes removed so far
K=23,159368 nodes removed so far
K=24,162789 nodes removed so far
K=25,165872 nodes removed so far
K=26,168769 nodes removed so far
K=27,171616 nodes removed so far
K=28,174331 nodes removed so far
K=29,176884 nodes removed so far
K=30,179579 nodes removed so far
K=31,181893 nodes removed so far
K=32,184298 nodes removed so far
K=33,186368 nodes removed so far
K=34,188584 nodes removed so far
K=35,190582 nodes removed so far
K=36,192459 nodes removed so far
K=37,194321 nodes removed so far
K=38,196170 nodes removed so far
K=39,K=40,K=41,201474 nodes removed so far
K=42,K=43,K=44,K=45,K=46,K=47,211216 nodes removed so far
K=48,K=49,K=50,K=51,K=52,K=53,K=54,221370 nodes removed so far
K=55,K=56,K=57,K=58,K=59,K=60,K=61,230075 nodes removed so far
K=62,K=63,K=64,K=65,K=66,K=67,K=68,K=69,K=70,K=71,240828 nodes removed so far
K=72,K=73,K=74,K=75,K=76,K=77,K=78,K=79,K=80,K=81,250206 nodes removed so far
K=82,K=83,K=84,K=85,K=86,K=87,K=88,K=89,K=90,K=91,K=92,K=93,260836 nodes removed so far
K=94,K=95,K=96,K=97,K=98,K=99,K=100,K=101,K=102,K=103,K=104,K=105,270575 nodes removed so far
K=106,K=107,K=108,K=109,K=110,K=111,K=112,K=113,K=114,K=115,K=116,K=117,K=118,280727 nodes removed so far
K=119,K=120,K=121,K=122,K=123,K=124,K=125,K=126,K=127,K=128,K=129,K=130,K=131,K=132,290629 nodes removed so far
K=133,K=134,K=135,K=136,K=137,K=138,K=139,K=140,K=141,K=142,K=143,K=144,K=145,K=146,K=147,300507 nodes removed so far
K=148,K=149,K=150,K=151,K=152,K=153,K=154,K=155,K=156,K=157,K=158,K=159,K=160,K=161,K=162,K=163,310641 nodes removed so far
K=164,K=165,K=166,K=167,K=168,K=169,K=170,K=171,K=172,K=173,K=174,K=175,K=176,K=177,K=178,K=179,320379 nodes removed so far
K=180,K=181,K=182,K=183,K=184,K=185,K=186,K=187,K=188,K=189,K=190,K=191,K=192,K=193,K=194,K=195,K=196,330349 nodes removed so far
K=197,K=198,K=199,K=200,K=201,K=202,K=203,K=204,K=205,K=206,K=207,K=208,K=209,K=210,K=211,K=212,K=213,K=214,340035 nodes removed so far
K=215,K=216,K=217,K=218,K=219,K=220,K=221,K=222,K=223,K=224,K=225,K=226,K=227,K=228,K=229,K=230,K=231,K=232,K=233,K=234,K=235,350212 nodes removed so far
K=236,K=237,K=238,K=239,K=240,K=241,K=242,K=243,K=244,K=245,K=246,K=247,K=248,K=249,K=250,K=251,K=252,K=253,K=254,K=255,K=256,360385 nodes removed so far
K=257,K=258,K=259,K=260,K=261,K=262,K=263,K=264,K=265,K=266,K=267,K=268,K=269,K=270,K=271,K=272,K=273,K=274,K=275,K=276,K=277,K=278,370392 nodes removed so far
K=279,K=280,K=281,K=282,K=283,K=284,K=285,K=286,K=287,K=288,K=289,K=290,K=291,K=292,K=293,K=294,K=295,K=296,K=297,K=298,K=299,K=300,K=301,380213 nodes removed so far
K=302,K=303,K=304,K=305,K=306,K=307,K=308,K=309,K=310,K=311,K=312,K=313,K=314,K=315,K=316,K=317,K=318,K=319,K=320,K=321,K=322,K=323,K=324,K=325,K=326,K=327,390295 nodes removed so far
K=328,K=329,K=330,K=331,K=332,K=333,K=334,K=335,K=336,K=337,K=338,K=339,K=340,K=341,K=342,K=343,K=344,K=345,K=346,K=347,K=348,K=349,K=350,K=351,K=352,K=353,400295 nodes removed so far
K=354,K=355,K=356,K=357,K=358,K=359,K=360,K=361,K=362,K=363,K=364,K=365,K=366,K=367,K=368,K=369,K=370,K=371,K=372,K=373,K=374,K=375,K=376,K=377,K=378,K=379,K=380,K=381,410159 nodes removed so far
K=382,K=383,K=384,K=385,K=386,K=387,K=388,K=389,K=390,K=391,K=392,K=393,K=394,K=395,K=396,K=397,K=398,K=399,K=400,K=401,K=402,K=403,K=404,K=405,K=406,K=407,K=408,K=409,K=410,K=411,420271 nodes removed so far
K=412,K=413,K=414,K=415,K=416,K=417,K=418,K=419,K=420,K=421,K=422,K=423,K=424,K=425,K=426,K=427,K=428,K=429,K=430,K=431,K=432,K=433,K=434,K=435,K=436,K=437,K=438,K=439,K=440,K=441,430065 nodes removed so far
K=442,K=443,K=444,K=445,K=446,K=447,K=448,K=449,K=450,K=451,K=452,K=453,K=454,K=455,K=456,K=457,K=458,K=459,K=460,K=461,K=462,K=463,K=464,K=465,K=466,K=467,K=468,K=469,K=470,K=471,K=472,K=473,K=474,K=475,440165 nodes removed so far
K=476,K=477,K=478,K=479,K=480,K=481,K=482,K=483,K=484,K=485,K=486,K=487,K=488,K=489,K=490,K=491,K=492,K=493,K=494,K=495,K=496,K=497,K=498,K=499,K=500,K=501,K=502,K=503,K=504,K=505,K=506,K=507,K=508,K=509,450188 nodes removed so far
K=510,K=511,K=512,K=513,K=514,K=515,K=516,K=517,K=518,K=519,K=520,K=521,K=522,K=523,K=524,K=525,K=526,K=527,K=528,K=529,K=530,K=531,K=532,K=533,K=534,K=535,K=536,K=537,K=538,K=539,K=540,K=541,K=542,K=543,K=544,K=545,K=546,K=547,K=548,460182 nodes removed so far
K=549,K=550,K=551,K=552,K=553,K=554,K=555,K=556,K=557,K=558,K=559,K=560,K=561,K=562,K=563,K=564,K=565,K=566,K=567,K=568,K=569,K=570,K=571,K=572,K=573,K=574,K=575,K=576,K=577,K=578,K=579,K=580,K=581,K=582,K=583,K=584,K=585,K=586,K=587,470121 nodes removed so far
K=588,K=589,K=590,K=591,K=592,K=593,K=594,K=595,K=596,K=597,K=598,K=599,K=600,K=601,K=602,K=603,K=604,K=605,K=606,K=607,K=608,K=609,K=610,K=611,K=612,K=613,K=614,K=615,K=616,K=617,K=618,K=619,K=620,K=621,K=622,K=623,K=624,K=625,K=626,K=627,K=628,K=629,K=630,480165 nodes removed so far
K=631,K=632,K=633,K=634,K=635,K=636,K=637,K=638,K=639,K=640,K=641,K=642,K=643,K=644,K=645,K=646,K=647,K=648,K=649,K=650,K=651,K=652,K=653,K=654,K=655,K=656,K=657,K=658,K=659,K=660,K=661,K=662,K=663,K=664,K=665,K=666,K=667,K=668,K=669,K=670,K=671,K=672,K=673,K=674,K=675,K=676,490030 nodes removed so far
K=677,K=678,K=679,K=680,K=681,K=682,K=683,K=684,K=685,K=686,K=687,K=688,K=689,K=690,K=691,K=692,K=693,K=694,K=695,K=696,K=697,K=698,K=699,K=700,K=701,K=702,K=703,K=704,K=705,K=706,K=707,K=708,K=709,K=710,K=711,K=712,K=713,K=714,K=715,K=716,K=717,K=718,K=719,K=720,K=721,K=722,K=723,K=724,K=725,500027 nodes removed so far
K=726,K=727,K=728,K=729,K=730,K=731,K=732,K=733,K=734,K=735,K=736,K=737,K=738,K=739,K=740,K=741,K=742,K=743,K=744,K=745,K=746,K=747,K=748,K=749,K=750,K=751,K=752,K=753,K=754,K=755,K=756,K=757,K=758,K=759,K=760,K=761,K=762,K=763,K=764,K=765,K=766,K=767,K=768,K=769,K=770,K=771,K=772,K=773,K=774,K=775,K=776,K=777,510044 nodes removed so far
K=778,K=779,K=780,K=781,K=782,K=783,K=784,K=785,K=786,K=787,K=788,K=789,K=790,K=791,K=792,K=793,K=794,K=795,K=796,K=797,K=798,K=799,K=800,K=801,K=802,K=803,K=804,K=805,K=806,K=807,K=808,K=809,K=810,K=811,K=812,K=813,K=814,K=815,K=816,K=817,K=818,K=819,K=820,K=821,K=822,K=823,K=824,K=825,K=826,K=827,K=828,K=829,520007 nodes removed so far
K=830,K=831,K=832,K=833,K=834,K=835,K=836,K=837,K=838,K=839,K=840,K=841,K=842,K=843,K=844,K=845,K=846,K=847,K=848,K=849,K=850,K=851,K=852,K=853,K=854,K=855,K=856,K=857,K=858,K=859,K=860,K=861,K=862,K=863,K=864,K=865,K=866,K=867,K=868,K=869,K=870,K=871,K=872,K=873,K=874,K=875,K=876,K=877,K=878,K=879,K=880,K=881,K=882,K=883,K=884,K=885,K=886,K=887,K=888,530089 nodes removed so far
K=889,K=890,K=891,K=892,K=893,K=894,K=895,K=896,K=897,K=898,K=899,K=900,K=901,K=902,K=903,K=904,K=905,K=906,K=907,K=908,K=909,K=910,K=911,K=912,K=913,K=914,K=915,K=916,K=917,K=918,K=919,K=920,K=921,K=922,K=923,K=924,K=925,K=926,K=927,K=928,K=929,K=930,K=931,K=932,K=933,K=934,K=935,K=936,K=937,K=938,K=939,K=940,K=941,K=942,K=943,K=944,K=945,K=946,K=947,K=948,K=949,540003 nodes removed so far
K=950,K=951,K=952,K=953,K=954,K=955,K=956,K=957,K=958,K=959,K=960,K=961,K=962,K=963,K=964,K=965,K=966,K=967,K=968,K=969,K=970,K=971,K=972,K=973,K=974,K=975,K=976,K=977,K=978,K=979,K=980,K=981,K=982,K=983,K=984,K=985,K=986,K=987,K=988,K=989,K=990,K=991,K=992,K=993,K=994,K=995,K=996,K=997,K=998,K=999,K=1000,K=1001,K=1002,K=1003,K=1004,K=1005,K=1006,K=1007,K=1008,K=1009,K=1010,K=1011,K=1012,K=1013,K=1014,550079 nodes removed so far
K=1015,K=1016,K=1017,K=1018,K=1019,K=1020,K=1021,K=1022,K=1023,K=1024,K=1025,K=1026,K=1027,K=1028,K=1029,K=1030,K=1031,K=1032,K=1033,K=1034,K=1035,K=1036,K=1037,K=1038,K=1039,K=1040,K=1041,K=1042,K=1043,K=1044,K=1045,K=1046,K=1047,K=1048,K=1049,K=1050,K=1051,K=1052,K=1053,K=1054,K=1055,K=1056,K=1057,K=1058,K=1059,K=1060,K=1061,K=1062,K=1063,K=1064,K=1065,K=1066,K=1067,K=1068,K=1069,K=1070,K=1071,K=1072,K=1073,K=1074,K=1075,K=1076,K=1077,K=1078,K=1079,560072 nodes removed so far
K=1080,K=1081,K=1082,K=1083,K=1084,K=1085,K=1086,K=1087,K=1088,K=1089,K=1090,K=1091,K=1092,K=1093,K=1094,K=1095,K=1096,K=1097,K=1098,K=1099,K=1100,K=1101,K=1102,K=1103,K=1104,K=1105,K=1106,K=1107,K=1108,K=1109,K=1110,K=1111,K=1112,K=1113,K=1114,K=1115,K=1116,K=1117,K=1118,K=1119,K=1120,K=1121,K=1122,K=1123,K=1124,K=1125,K=1126,K=1127,K=1128,K=1129,K=1130,K=1131,K=1132,K=1133,K=1134,K=1135,K=1136,K=1137,K=1138,K=1139,K=1140,K=1141,K=1142,K=1143,K=1144,K=1145,K=1146,K=1147,K=1148,K=1149,K=1150,K=1151,K=1152,K=1153,570023 nodes removed so far
K=1154,K=1155,K=1156,K=1157,K=1158,K=1159,K=1160,K=1161,K=1162,K=1163,K=1164,K=1165,K=1166,K=1167,K=1168,K=1169,K=1170,K=1171,K=1172,K=1173,K=1174,K=1175,K=1176,K=1177,K=1178,K=1179,K=1180,K=1181,K=1182,K=1183,K=1184,K=1185,K=1186,K=1187,K=1188,K=1189,K=1190,K=1191,K=1192,K=1193,K=1194,K=1195,K=1196,K=1197,K=1198,K=1199,K=1200,K=1201,K=1202,K=1203,K=1204,K=1205,K=1206,K=1207,K=1208,K=1209,K=1210,K=1211,K=1212,K=1213,K=1214,K=1215,K=1216,K=1217,K=1218,K=1219,K=1220,K=1221,K=1222,K=1223,K=1224,K=1225,K=1226,K=1227,K=1228,K=1229,K=1230,K=1231,580067 nodes removed so far
K=1232,K=1233,K=1234,K=1235,K=1236,K=1237,K=1238,K=1239,K=1240,K=1241,K=1242,K=1243,K=1244,K=1245,K=1246,K=1247,K=1248,K=1249,K=1250,K=1251,K=1252,K=1253,K=1254,K=1255,K=1256,K=1257,K=1258,K=1259,K=1260,K=1261,K=1262,K=1263,K=1264,K=1265,K=1266,K=1267,K=1268,K=1269,K=1270,K=1271,K=1272,K=1273,K=1274,K=1275,K=1276,K=1277,K=1278,K=1279,K=1280,K=1281,K=1282,K=1283,K=1284,K=1285,K=1286,K=1287,K=1288,K=1289,K=1290,K=1291,K=1292,K=1293,K=1294,K=1295,K=1296,K=1297,K=1298,K=1299,K=1300,K=1301,K=1302,K=1303,K=1304,K=1305,K=1306,K=1307,K=1308,K=1309,K=1310,590101 nodes removed so far
K=1311,K=1312,K=1313,K=1314,K=1315,K=1316,K=1317,K=1318,K=1319,K=1320,K=1321,K=1322,K=1323,K=1324,K=1325,K=1326,K=1327,K=1328,K=1329,K=1330,K=1331,K=1332,K=1333,K=1334,K=1335,K=1336,K=1337,K=1338,K=1339,K=1340,K=1341,K=1342,K=1343,K=1344,K=1345,K=1346,K=1347,K=1348,K=1349,K=1350,K=1351,K=1352,K=1353,K=1354,K=1355,K=1356,K=1357,K=1358,K=1359,K=1360,K=1361,K=1362,K=1363,K=1364,K=1365,K=1366,K=1367,K=1368,K=1369,K=1370,K=1371,K=1372,K=1373,K=1374,K=1375,K=1376,K=1377,K=1378,K=1379,K=1380,K=1381,K=1382,K=1383,K=1384,K=1385,K=1386,K=1387,K=1388,K=1389,K=1390,K=1391,K=1392,K=1393,K=1394,K=1395,K=1396,K=1397,600052 nodes removed so far
K=1398,K=1399,K=1400,K=1401,K=1402,K=1403,K=1404,K=1405,K=1406,K=1407,K=1408,K=1409,K=1410,K=1411,K=1412,K=1413,K=1414,K=1415,K=1416,K=1417,K=1418,K=1419,K=1420,K=1421,K=1422,K=1423,K=1424,K=1425,K=1426,K=1427,K=1428,K=1429,K=1430,K=1431,K=1432,K=1433,K=1434,K=1435,K=1436,K=1437,K=1438,K=1439,K=1440,K=1441,K=1442,K=1443,K=1444,K=1445,K=1446,K=1447,K=1448,K=1449,K=1450,K=1451,K=1452,K=1453,K=1454,K=1455,K=1456,K=1457,K=1458,K=1459,K=1460,K=1461,K=1462,K=1463,K=1464,K=1465,K=1466,K=1467,K=1468,K=1469,K=1470,K=1471,K=1472,K=1473,K=1474,K=1475,K=1476,K=1477,K=1478,K=1479,K=1480,K=1481,K=1482,K=1483,K=1484,K=1485,K=1486,K=1487,K=1488,K=1489,610107 nodes removed so far
K=1490,K=1491,K=1492,K=1493,K=1494,K=1495,K=1496,K=1497,K=1498,K=1499,K=1500,K=1501,K=1502,K=1503,K=1504,K=1505,K=1506,K=1507,K=1508,K=1509,K=1510,K=1511,K=1512,K=1513,K=1514,K=1515,K=1516,K=1517,K=1518,K=1519,K=1520,K=1521,K=1522,K=1523,K=1524,K=1525,K=1526,K=1527,K=1528,K=1529,K=1530,K=1531,K=1532,K=1533,K=1534,K=1535,K=1536,K=1537,K=1538,K=1539,K=1540,K=1541,K=1542,K=1543,K=1544,K=1545,K=1546,K=1547,K=1548,K=1549,K=1550,K=1551,K=1552,K=1553,K=1554,K=1555,K=1556,K=1557,K=1558,K=1559,K=1560,K=1561,K=1562,K=1563,K=1564,K=1565,K=1566,K=1567,K=1568,K=1569,K=1570,K=1571,K=1572,K=1573,K=1574,K=1575,K=1576,K=1577,K=1578,K=1579,K=1580,K=1581,K=1582,K=1583,K=1584,K=1585,K=1586,K=1587,620001 nodes removed so far
K=1588,K=1589,K=1590,K=1591,K=1592,K=1593,K=1594,K=1595,K=1596,K=1597,K=1598,K=1599,K=1600,K=1601,K=1602,K=1603,K=1604,K=1605,K=1606,K=1607,K=1608,K=1609,K=1610,K=1611,K=1612,K=1613,K=1614,K=1615,K=1616,K=1617,K=1618,K=1619,K=1620,K=1621,K=1622,K=1623,K=1624,K=1625,K=1626,K=1627,K=1628,K=1629,K=1630,K=1631,K=1632,K=1633,K=1634,K=1635,K=1636,K=1637,K=1638,K=1639,K=1640,K=1641,K=1642,K=1643,K=1644,K=1645,K=1646,K=1647,K=1648,K=1649,K=1650,K=1651,K=1652,K=1653,K=1654,K=1655,K=1656,K=1657,K=1658,K=1659,K=1660,K=1661,K=1662,K=1663,K=1664,K=1665,K=1666,K=1667,K=1668,K=1669,K=1670,K=1671,K=1672,K=1673,K=1674,K=1675,K=1676,K=1677,K=1678,K=1679,K=1680,K=1681,K=1682,K=1683,K=1684,K=1685,K=1686,K=1687,630039 nodes removed so far
K=1688,K=1689,K=1690,K=1691,K=1692,K=1693,K=1694,K=1695,K=1696,K=1697,K=1698,K=1699,K=1700,K=1701,K=1702,K=1703,K=1704,K=1705,K=1706,K=1707,K=1708,K=1709,K=1710,K=1711,K=1712,K=1713,K=1714,K=1715,K=1716,K=1717,K=1718,K=1719,K=1720,K=1721,K=1722,K=1723,K=1724,K=1725,K=1726,K=1727,K=1728,K=1729,K=1730,K=1731,K=1732,K=1733,K=1734,K=1735,K=1736,K=1737,K=1738,K=1739,K=1740,K=1741,K=1742,K=1743,K=1744,K=1745,K=1746,K=1747,K=1748,K=1749,K=1750,K=1751,K=1752,K=1753,K=1754,K=1755,K=1756,K=1757,K=1758,K=1759,K=1760,K=1761,K=1762,K=1763,K=1764,K=1765,K=1766,K=1767,K=1768,K=1769,K=1770,K=1771,K=1772,K=1773,K=1774,K=1775,K=1776,K=1777,K=1778,K=1779,K=1780,K=1781,K=1782,K=1783,K=1784,K=1785,K=1786,K=1787,K=1788,K=1789,K=1790,K=1791,K=1792,K=1793,K=1794,K=1795,640067 nodes removed so far
K=1796,K=1797,K=1798,K=1799,K=1800,K=1801,K=1802,K=1803,K=1804,K=1805,K=1806,K=1807,K=1808,K=1809,K=1810,K=1811,K=1812,K=1813,K=1814,K=1815,K=1816,K=1817,K=1818,K=1819,K=1820,K=1821,K=1822,K=1823,K=1824,K=1825,K=1826,K=1827,K=1828,K=1829,K=1830,K=1831,K=1832,K=1833,K=1834,K=1835,K=1836,K=1837,K=1838,K=1839,K=1840,K=1841,K=1842,K=1843,K=1844,K=1845,K=1846,K=1847,K=1848,K=1849,K=1850,K=1851,K=1852,K=1853,K=1854,K=1855,K=1856,K=1857,K=1858,K=1859,K=1860,K=1861,K=1862,K=1863,K=1864,K=1865,K=1866,K=1867,K=1868,K=1869,K=1870,K=1871,K=1872,K=1873,K=1874,K=1875,K=1876,K=1877,K=1878,K=1879,K=1880,K=1881,K=1882,K=1883,K=1884,K=1885,K=1886,K=1887,K=1888,K=1889,K=1890,K=1891,K=1892,K=1893,K=1894,K=1895,K=1896,K=1897,K=1898,K=1899,K=1900,650056 nodes removed so far
K=1901,K=1902,K=1903,K=1904,K=1905,K=1906,K=1907,K=1908,K=1909,K=1910,K=1911,K=1912,K=1913,K=1914,K=1915,K=1916,K=1917,K=1918,K=1919,K=1920,K=1921,K=1922,K=1923,K=1924,K=1925,K=1926,K=1927,K=1928,K=1929,K=1930,K=1931,K=1932,K=1933,K=1934,K=1935,K=1936,K=1937,K=1938,K=1939,K=1940,K=1941,K=1942,K=1943,K=1944,K=1945,K=1946,K=1947,K=1948,K=1949,K=1950,K=1951,K=1952,K=1953,K=1954,K=1955,K=1956,K=1957,K=1958,K=1959,K=1960,K=1961,K=1962,K=1963,K=1964,K=1965,K=1966,K=1967,K=1968,K=1969,K=1970,K=1971,K=1972,K=1973,K=1974,K=1975,K=1976,K=1977,K=1978,K=1979,K=1980,K=1981,K=1982,K=1983,K=1984,K=1985,K=1986,K=1987,K=1988,K=1989,K=1990,K=1991,K=1992,K=1993,K=1994,660147 nodes removed so far
K=1995,K=1996,K=1997,K=1998,K=1999,K=2000,K=2001,K=2002,K=2003,K=2004,K=2005,K=2006,K=2007,K=2008,K=2009,K=2010,K=2011,K=2012,K=2013,K=2014,K=2015,K=2016,K=2017,K=2018,K=2019,K=2020,K=2021,K=2022,K=2023,K=2024,K=2025,K=2026,K=2027,K=2028,K=2029,K=2030,K=2031,K=2032,K=2033,K=2034,K=2035,K=2036,K=2037,K=2038,K=2039,K=2040,K=2041,K=2042,K=2043,K=2044,K=2045,K=2046,K=2047,K=2048,K=2049,K=2050,K=2051,K=2052,K=2053,K=2054,K=2055,K=2056,K=2057,K=2058,K=2059,K=2060,K=2061,K=2062,K=2063,K=2064,K=2065,K=2066,K=2067,K=2068,K=2069,K=2070,670154 nodes removed so far
K=2071,K=2072,K=2073,K=2074,K=2075,K=2076,K=2077,K=2078,K=2079,K=2080,K=2081,K=2082,K=2083,K=2084,K=2085,K=2086,K=2087,K=2088,K=2089,K=2090,K=2091,K=2092,K=2093,K=2094,K=2095,K=2096,K=2097,K=2098,716614 nodes removed so far
KCore = 2098
Building structure for PR...
Computing PR...
Pageranking 686820 nodes done in 13 iteration. cumulError=7.69034e-11
clause level 36 (Kante=217, Kdesc=90621, core=1):-15555 
clause level 35 (Kante=208, Kdesc=81216, core=1):-57286 
clause level 40 (Kante=255, Kdesc=63393, core=1):-57285 
clause level 32 (Kante=4, Kdesc=121023, core=1):-57298 
clause level 28 (Kante=4, Kdesc=114443, core=1):-8315 47724 
clause level 27 (Kante=5, Kdesc=69889, core=1):-8321 
clause level 26 (Kante=4, Kdesc=94083, core=0):-8339 
clause level 13 (Kante=13, Kdesc=74160, core=0):-57300 
clause level 39 (Kante=292, Kdesc=70291, core=0):-57287 
clause level 30 (Kante=69, Kdesc=89630, core=1):-15627 
clause level 34 (Kante=21, Kdesc=84072, core=1):-57288 
clause level 34 (Kante=9, Kdesc=83009, core=1):-57289 
clause level 26 (Kante=4, Kdesc=81445, core=1):-8387 
clause level 33 (Kante=141, Kdesc=77016, core=0):-57292 
clause level 27 (Kante=3, Kdesc=80951, core=1):-8381 
clause level 26 (Kante=122, Kdesc=46269, core=0):93789 108143 
clause level 49 (Kante=3, Kdesc=21444, core=0):90710 
clause level 6 (Kante=7, Kdesc=73889, core=1):-15653 
clause level 9 (Kante=102, Kdesc=86463, core=1):-20533 
clause level 13 (Kante=182, Kdesc=85917, core=1):-20485 20533 
clause level 30 (Kante=4, Kdesc=73715, core=1):-8291 
clause level 33 (Kante=33, Kdesc=71750, core=0):-57297 
clause level 33 (Kante=75, Kdesc=74336, core=1):-110626 
clause level 22 (Kante=14, Kdesc=44494, core=0):-85193 
clause level 15 (Kante=124, Kdesc=34187, core=1):-52245 
clause level 33 (Kante=117, Kdesc=72045, core=0):-57290 57885 110626 
clause level 10 (Kante=3, Kdesc=39511, core=1):-66406 
clause level 7 (Kante=5, Kdesc=66288, core=1):-57301 
clause level 33 (Kante=35, Kdesc=63832, core=0):-57299 
clause level 5 (Kante=83, Kdesc=30991, core=0):-52191 
clause level 33 (Kante=137, Kdesc=70439, core=0):-57291 57885 110626 
clause level 95 (Kante=16, Kdesc=44097, core=1):-85183 
clause level 12 (Kante=11, Kdesc=66348, core=1):-20408 
clause level 15 (Kante=51, Kdesc=21229, core=0):101717 114645 108181 
clause level 28 (Kante=55, Kdesc=49524, core=0):-8249 
clause level 1039 (Kante=6493, Kdesc=10649, core=1):119930 
clause level 26 (Kante=12, Kdesc=66611, core=0):-8303 
clause level 26 (Kante=36, Kdesc=65499, core=1):-8333 
clause level 9 (Kante=10, Kdesc=23825, core=1):-66417 
clause level 23 (Kante=76, Kdesc=27692, core=0):-25068 
clause level 4 (Kante=8, Kdesc=70796, core=1):-33520 
clause level 28 (Kante=103, Kdesc=58246, core=1):-15651 57897 57889 57896 
clause level 28 (Kante=10, Kdesc=58999, core=1):-58179 
clause level 19 (Kante=173, Kdesc=40638, core=0):-25056 
clause level 15 (Kante=155, Kdesc=28208, core=0):-52244 
clause level 28 (Kante=3, Kdesc=64709, core=0):-8297 
clause level 37 (Kante=37, Kdesc=20377, core=1):114911 100310 92230 
clause level 1 (Kante=19, Kdesc=58616, core=0):-15621 15627 
clause level 24 (Kante=10, Kdesc=45114, core=1):-8237 8249 
clause level 12 (Kante=50, Kdesc=23648, core=1):-52274 
clause level 4 (Kante=94, Kdesc=55673, core=1):-75190 
clause level 5 (Kante=26, Kdesc=56726, core=1):-75192 
clause level 37 (Kante=209, Kdesc=47988, core=0):-15549 
clause level 26 (Kante=9, Kdesc=64698, core=0):-8309 
clause level 29 (Kante=7, Kdesc=50856, core=0):-8231 
clause level 33 (Kante=72, Kdesc=49779, core=1):-57293 
clause level 26 (Kante=9, Kdesc=61660, core=0):-8327 
clause level 8 (Kante=26, Kdesc=23001, core=1):-52279 
clause level 98 (Kante=159, Kdesc=24140, core=0):-31951 98637 
clause level 28 (Kante=73, Kdesc=34683, core=0):-85187 
clause level 12 (Kante=59, Kdesc=22959, core=1):-52276 52279 
clause level 9 (Kante=14, Kdesc=19192, core=1):-66419 
clause level 13 (Kante=4, Kdesc=29808, core=0):-52295 
clause level 23 (Kante=7, Kdesc=59466, core=0):-8351 
clause level 8 (Kante=40, Kdesc=31009, core=1):-66404 
clause level 9 (Kante=18, Kdesc=22656, core=1):-52275 
clause level 29 (Kante=133, Kdesc=47049, core=0):-57294 
clause level 23 (Kante=5, Kdesc=56531, core=1):-8357 
clause level 12 (Kante=48, Kdesc=21852, core=1):-52277 52279 
clause level 8 (Kante=22, Kdesc=21865, core=1):-52280 
clause level 15 (Kante=140, Kdesc=41051, core=1):-31869 -93789 
clause level 1 (Kante=42, Kdesc=81953, core=0):-13165 
clause level 30 (Kante=63, Kdesc=35834, core=0):-10761 
clause level 13 (Kante=81, Kdesc=33600, core=0):-83496 
clause level 17 (Kante=8, Kdesc=33558, core=0):83496 -91101 
clause level 27 (Kante=3, Kdesc=55678, core=1):-8375 
clause level 8 (Kante=33, Kdesc=20212, core=1):-52278 
clause level 8 (Kante=4, Kdesc=28230, core=1):-66405 
clause level 3 (Kante=113, Kdesc=21318, core=1):-56814 
clause level 31 (Kante=74, Kdesc=34468, core=1):-57875 
clause level 8 (Kante=16, Kdesc=29166, core=1):-66407 
clause level 18 (Kante=22, Kdesc=37231, core=1):-83487 
clause level 46 (Kante=151, Kdesc=13080, core=0):119817 
clause level 2 (Kante=9, Kdesc=62166, core=1):-27094 27102 
clause level 1 (Kante=7, Kdesc=61811, core=0):-27084 27089 
clause level 2 (Kante=20, Kdesc=61312, core=0):-27102 27120 
clause level 2 (Kante=6, Kdesc=61647, core=0):-27089 27094 
clause level 23 (Kante=3, Kdesc=50265, core=0):-8405 
clause level 8 (Kante=6, Kdesc=37234, core=1):-15543 15555 58165 58166 
clause level 1 (Kante=42, Kdesc=70609, core=0):-13162 
clause level 31 (Kante=32, Kdesc=35982, core=0):-8057 
clause level 32 (Kante=3, Kdesc=31239, core=0):-8279 
clause level 31 (Kante=34, Kdesc=47131, core=1):-57296 
clause level 4 (Kante=41, Kdesc=55842, core=1):-26977 27071 
clause level 32 (Kante=49, Kdesc=20861, core=0):-52187 
clause level 14 (Kante=10, Kdesc=59526, core=0):-27008 27072 
clause level 6 (Kante=10, Kdesc=16928, core=0):114911 -11925 
clause level 1 (Kante=15, Kdesc=58924, core=0):-27071 27084 
clause level 34 (Kante=8, Kdesc=36237, core=0):112991 93789 
clause level 3 (Kante=5, Kdesc=58069, core=1):-27003 27008 
clause level 18 (Kante=12, Kdesc=23622, core=0):-83492 
clause level 1 (Kante=18, Kdesc=57808, core=1):-27010 27025 
clause level 8 (Kante=31, Kdesc=30205, core=0):-64575 
clause level 11 (Kante=152, Kdesc=26564, core=0):95424 -30391 
clause level 9 (Kante=37, Kdesc=50588, core=1):-20557 
clause level 1 (Kante=7, Kdesc=57818, core=1):-26978 26983 
clause level 2 (Kante=7, Kdesc=30489, core=1):-25050 25056 25054 
clause level 9 (Kante=742, Kdesc=48582, core=1):-20509 
clause level 2 (Kante=9, Kdesc=56564, core=1):-26983 26993 
clause level 6 (Kante=79, Kdesc=30739, core=0):-64561 
clause level 7 (Kante=43, Kdesc=31230, core=0):-64560 
clause level 4 (Kante=21, Kdesc=55031, core=0):-26998 27003 
clause level 8 (Kante=63, Kdesc=29543, core=0):27224 -100367 
clause level 8 (Kante=705, Kdesc=49533, core=1):-20521 
clause level 10 (Kante=9, Kdesc=50290, core=1):-20569 
clause level 15 (Kante=57, Kdesc=18854, core=0):-52258 
clause level 17 (Kante=3, Kdesc=21440, core=0):-48960 
clause level 3 (Kante=6, Kdesc=26169, core=0):-2315 
clause level 12 (Kante=20, Kdesc=29999, core=0):-64562 
clause level 11 (Kante=730, Kdesc=43167, core=0):-20497 
clause level 1 (Kante=111, Kdesc=58273, core=0):-27062 -100082 
clause level 6 (Kante=22, Kdesc=23835, core=1):-2091 
clause level 5 (Kante=3, Kdesc=49458, core=0):-26993 26998 
clause level 19 (Kante=10, Kdesc=21615, core=1):-33482 
clause level 1 (Kante=51, Kdesc=45019, core=0):-6084 
clause level 30 (Kante=8, Kdesc=14573, core=0):-58164 
clause level 1 (Kante=49, Kdesc=30115, core=1):-64809 
clause level 8 (Kante=33, Kdesc=24147, core=0):-65486 
clause level 30 (Kante=18, Kdesc=16384, core=1):-15489 
clause level 35 (Kante=18, Kdesc=29426, core=1):-15615 
clause level 38 (Kante=29, Kdesc=31431, core=0):-8213 
clause level 2 (Kante=4, Kdesc=50662, core=1):-74494 27008 
clause level 4 (Kante=58, Kdesc=31578, core=1):-10864 
clause level 33 (Kante=7, Kdesc=28474, core=0):-8261 
clause level 16 (Kante=9, Kdesc=32688, core=0):-20455 
clause level 5 (Kante=39, Kdesc=20248, core=0):-11424 
clause level 41 (Kante=17, Kdesc=19980, core=1):-7889 
clause level 29 (Kante=7, Kdesc=23989, core=0):-55909 
clause level 33 (Kante=56, Kdesc=18064, core=0):-8045 
clause level 24 (Kante=14, Kdesc=17011, core=0):-33470 
clause level 39 (Kante=89, Kdesc=26877, core=1):-7997 
clause level 7 (Kante=140, Kdesc=14985, core=0):-38433 
clause level 11 (Kante=1338, Kdesc=7947, core=1):89093 -98751 
clause level 23 (Kante=140, Kdesc=17383, core=1):-8417 
clause level 7 (Kante=29, Kdesc=20285, core=0):-37893 
clause level 9 (Kante=96, Kdesc=39317, core=1):-20545 
clause level 1 (Kante=94, Kdesc=16231, core=1):31869 -101717 
clause level 1 (Kante=8, Kdesc=41761, core=0):-27130 27135 
clause level 12 (Kante=29, Kdesc=36566, core=1):-64588 
clause level 1 (Kante=7, Kdesc=43395, core=0):-27079 27084 
clause level 1 (Kante=5, Kdesc=35984, core=0):-27155 27158 
clause level 1 (Kante=7, Kdesc=42643, core=0):-27125 27130 
clause level 7 (Kante=295, Kdesc=10530, core=1):-25092 
clause level 2 (Kante=26, Kdesc=30344, core=1):-30489 
clause level 12 (Kante=18, Kdesc=25503, core=0):-15247 
clause level 6 (Kante=216, Kdesc=15793, core=1):-15537 15549 
clause level 7 (Kante=8, Kdesc=28581, core=0):109551 -16746 
clause level 8 (Kante=35, Kdesc=19352, core=1):-52296 
clause level 11 (Kante=17, Kdesc=35666, core=0):-64576 
clause level 1 (Kante=126, Kdesc=11619, core=0):-31951 -101717 
clause level 32 (Kante=8, Kdesc=21153, core=1):-8051 
clause level 9 (Kante=936, Kdesc=18224, core=0):14108 90633 
clause level 4 (Kante=23, Kdesc=17470, core=0):-58906 
clause level 2 (Kante=35, Kdesc=34384, core=0):-27120 27155 
clause level 13 (Kante=76, Kdesc=32888, core=1):-20501 20485 
clause level 8 (Kante=65, Kdesc=22706, core=0):114383 -11325 
clause level 3 (Kante=5, Kdesc=33649, core=0):32051 -93407 
clause level 8 (Kante=8, Kdesc=21386, core=0):15549 57282 -110617 
clause level 13 (Kante=3, Kdesc=18008, core=0):-15387 
clause level 14 (Kante=8, Kdesc=12604, core=0):-11220 
clause level 26 (Kante=205, Kdesc=28560, core=1):-46539 
clause level 39 (Kante=4, Kdesc=20501, core=1):-58133 
clause level 23 (Kante=133, Kdesc=33831, core=1):-15623 15651 57594 58182 57888 56986 56990 57892 15663 56989 57891 27465 75190 57895 56994 57900 56993 15687 57896 56995 57897 75192 75087 15699 56992 56991 56988 56987 57889 57300 57593 58180 57587 58179 57592 57885 58181 57886 57887 57591 57884 58178 57883 58177 57588 57882 58176 57590 57881 58175 57589 
clause level 5 (Kante=7, Kdesc=13503, core=1):114835 -11835 
clause level 1 (Kante=5, Kdesc=36157, core=1):-27135 27138 
clause level 12 (Kante=17, Kdesc=18321, core=0):-57877 8279 
clause level 3 (Kante=43, Kdesc=20471, core=1):-2831 
clause level 7 (Kante=134, Kdesc=19797, core=1):-38444 
clause level 1 (Kante=5, Kdesc=32824, core=1):-26939 26942 
clause level 16 (Kante=8, Kdesc=16561, core=1):-7823 7889 
clause level 1 (Kante=51, Kdesc=33412, core=0):-20799 
clause level 6 (Kante=88, Kdesc=18327, core=1):-38446 
clause level 3 (Kante=53, Kdesc=41122, core=0):27006 27071 27008 98838 99460 
clause level 1 (Kante=5, Kdesc=38998, core=0):-27117 27120 
clause level 1 (Kante=17, Kdesc=17901, core=0):114607 -10785 10761 
clause level 2 (Kante=25, Kdesc=13300, core=0):-31017 
clause level 7 (Kante=3, Kdesc=13955, core=1):-15531 15537 
clause level 30 (Kante=6, Kdesc=19920, core=0):-8285 
clause level 1 (Kante=5, Kdesc=31715, core=0):-74467 26939 
clause level 38 (Kante=197, Kdesc=24192, core=0):-46538 
clause level 4 (Kante=15, Kdesc=14077, core=1):-17977 
clause level 2 (Kante=37, Kdesc=27035, core=0):-30093 
clause level 1 (Kante=5, Kdesc=36825, core=1):-74484 26983 
clause level 1 (Kante=18, Kdesc=37533, core=1):-83468 74502 27025 
clause level 6 (Kante=136, Kdesc=52248, core=1):-13625 
clause level 5 (Kante=12, Kdesc=29170, core=0):-20479 20485 
clause level 3 (Kante=29, Kdesc=24280, core=1):-19923 
clause level 5 (Kante=6, Kdesc=26446, core=1):-11471 
clause level 5 (Kante=75, Kdesc=20213, core=0):95443 -30937 
clause level 29 (Kante=5, Kdesc=20813, core=1):-15525 57897 57889 57896 
clause level 7 (Kante=195, Kdesc=14556, core=0):-22220 
clause level 32 (Kante=5, Kdesc=20965, core=0):-8273 
clause level 1 (Kante=5, Kdesc=38812, core=0):-27099 27102 
clause level 4 (Kante=4, Kdesc=38054, core=1):-13164 113200 
clause level 2 (Kante=6, Kdesc=34785, core=1):-74490 27003 
clause level 1 (Kante=5, Kdesc=34680, core=0):-74492 27003 
clause level 29 (Kante=52, Kdesc=28972, core=1):27434 -58472 58476 58180 57592 57886 57590 56982 57298 57593 57594 57897 15623 57889 15627 
clause level 7 (Kante=4, Kdesc=19421, core=0):-37867 
clause level 43 (Kante=17, Kdesc=14818, core=0):105253 27199 
clause level 5 (Kante=24, Kdesc=29157, core=0):-20577 
clause level 7 (Kante=694, Kdesc=26864, core=0):-20581 
clause level 14 (Kante=15, Kdesc=17522, core=0):-58169 8291 
clause level 29 (Kante=14, Kdesc=15003, core=0):-8225 47709 47999 
clause level 2 (Kante=24, Kdesc=28615, core=0):-46375 26977 
clause level 10 (Kante=12, Kdesc=25818, core=0):-33416 
clause level 28 (Kante=16, Kdesc=23792, core=0):-8093 
clause level 1 (Kante=7, Kdesc=23524, core=0):-27120 27125 
clause level 15 (Kante=10, Kdesc=11919, core=1):-50682 
clause level 4 (Kante=81, Kdesc=19611, core=1):110006 -17376 
clause level 14 (Kante=6, Kdesc=11728, core=0):-50994 
clause level 5 (Kante=154, Kdesc=18448, core=1):-38443 
clause level 1 (Kante=7, Kdesc=15905, core=0):-29972 29977 
clause level 39 (Kante=5, Kdesc=15919, core=1):-8219 
clause level 1 (Kante=5, Kdesc=33668, core=0):-74479 26970 
clause level 37 (Kante=3, Kdesc=19420, core=0):-15327 
clause level 2 (Kante=6, Kdesc=35539, core=1):-26988 26993 
clause level 2 (Kante=6, Kdesc=36037, core=0):-27096 27102 
clause level 7 (Kante=36, Kdesc=14214, core=1):-7757 
clause level 1 (Kante=18, Kdesc=28019, core=1):-46378 26977 
clause level 1 (Kante=51, Kdesc=16362, core=0):-363 
clause level 8 (Kante=239, Kdesc=22906, core=1):-64585 
clause level 1 (Kante=7, Kdesc=15610, core=0):-29977 29982 
clause level 3 (Kante=27, Kdesc=31281, core=0):-74465 26970 
clause level 7 (Kante=24, Kdesc=12582, core=0):-52609 
clause level 1 (Kante=41, Kdesc=13569, core=1):104703 -22304 22220 
clause level 3 (Kante=3, Kdesc=17644, core=0):-58914 
clause level 5 (Kante=195, Kdesc=12726, core=0):-41534 -89017 
clause level 11 (Kante=1334, Kdesc=7491, core=1):89017 -98751 
clause level 2 (Kante=109, Kdesc=17656, core=0):-27224 -119512 
clause level 1 (Kante=51, Kdesc=22418, core=0):-28353 
clause level 31 (Kante=5, Kdesc=18400, core=0):114607 -10809 
clause level 3 (Kante=7, Kdesc=17486, core=1):-4942 
clause level 1 (Kante=7, Kdesc=28003, core=0):-26970 26975 
clause level 1 (Kante=9, Kdesc=32446, core=1):-74486 26993 
clause level 8 (Kante=6, Kdesc=17299, core=1):-15513 15525 
clause level 2 (Kante=50, Kdesc=14218, core=0):-58915 
clause level 1 (Kante=16, Kdesc=30591, core=1):-26942 83446 46373 64797 26957 
clause level 1 (Kante=13, Kdesc=30295, core=1):-26947 26957 46373 64797 
clause level 3 (Kante=4, Kdesc=18901, core=0):-2909 
clause level 5 (Kante=4, Kdesc=14096, core=1):-37860 
clause level 5 (Kante=244, Kdesc=17898, core=1):-37885 
clause level 6 (Kante=39, Kdesc=13456, core=1):-37865 
clause level 2 (Kante=4, Kdesc=31073, core=1):-74488 26993 
clause level 20 (Kante=3, Kdesc=17886, core=0):-20461 
clause level 15 (Kante=3, Kdesc=14037, core=0):-46474 
clause level 4 (Kante=16, Kdesc=28398, core=0):-85194 26970 
clause level 1 (Kante=64, Kdesc=20956, core=0):109949 -16380 
clause level 15 (Kante=523, Kdesc=27767, core=1):-13313 
clause level 12 (Kante=12, Kdesc=22203, core=1):-20489 20501 
clause level 4 (Kante=3, Kdesc=18685, core=1):-38424 
clause level 17 (Kante=137, Kdesc=16942, core=1):-20407 
clause level 2 (Kante=12, Kdesc=28910, core=0):-27107 27117 
clause level 2 (Kante=349, Kdesc=20739, core=0):101983 -26496 
clause level 17 (Kante=7, Kdesc=21591, core=1):-20467 
clause level 2 (Kante=65, Kdesc=23635, core=1):-85185 26977 
clause level 12 (Kante=15, Kdesc=12131, core=0):-8267 8279 
clause level 6 (Kante=15, Kdesc=13695, core=0):-16674 
clause level 1 (Kante=12, Kdesc=26583, core=1):-27138 27148 
clause level 1 (Kante=51, Kdesc=11726, core=0):-29709 
clause level 10 (Kante=2, Kdesc=15809, core=1):-11425 114664 
clause level 3 (Kante=19, Kdesc=15804, core=0):-2883 
clause level 13 (Kante=4, Kdesc=16121, core=1):-15369 58136 
clause level 1 (Kante=5, Kdesc=23110, core=0):-26975 26978 
clause level 4 (Kante=9, Kdesc=31298, core=0):-26965 26993 43943 
clause level 35 (Kante=33, Kdesc=13325, core=1):-8255 
clause level 2 (Kante=37, Kdesc=16830, core=1):93846 -32781 
clause level 15 (Kante=3, Kdesc=15344, core=0):-20473 
clause level 7 (Kante=34, Kdesc=18745, core=0):-27224 -100120 
clause level 2 (Kante=27, Kdesc=17185, core=1):-9204 
clause level 8 (Kante=5, Kdesc=16783, core=1):-15501 15513 
clause level 4 (Kante=7, Kdesc=7612, core=1):-25106 25092 
clause level 2 (Kante=3, Kdesc=11808, core=1):-10755 10761 
clause level 2 (Kante=262, Kdesc=9475, core=1):103580 -23825 
clause level 1 (Kante=5, Kdesc=14540, core=0):-29946 29949 
clause level 7 (Kante=467, Kdesc=18372, core=1):-33426 
clause level 1 (Kante=6, Kdesc=15088, core=0):113677 -10821 10809 
clause level 1 (Kante=57, Kdesc=26580, core=1):-43965 27071 
clause level 1 (Kante=30, Kdesc=20256, core=1):-43936 26977 
clause level 8 (Kante=67, Kdesc=18111, core=0):-27224 -118048 
clause level 32 (Kante=27, Kdesc=11966, core=0):-46520 
clause level 4 (Kante=15, Kdesc=24150, core=0):-74466 26970 
clause level 1 (Kante=5, Kdesc=26382, core=1):-27069 27072 
clause level 5 (Kante=4, Kdesc=12226, core=0):-58917 
clause level 1 (Kante=13, Kdesc=18183, core=0):-27251 27261 
clause level 1 (Kante=11, Kdesc=23820, core=1):-43978 27071 
clause level 1 (Kante=10, Kdesc=26890, core=1):-43984 27084 
clause level 5 (Kante=27, Kdesc=11348, core=0):-69296 
clause level 4 (Kante=47, Kdesc=25025, core=1):-43944 27071 
clause level 30 (Kante=10, Kdesc=14957, core=0):-46522 
clause level 3 (Kante=6, Kdesc=14496, core=1):-29949 29972 
clause level 4 (Kante=31, Kdesc=15361, core=1):-37863 
clause level 1 (Kante=46, Kdesc=26082, core=1):-43969 27071 
clause level 1 (Kante=57, Kdesc=25381, core=1):-43966 27071 
clause level 4 (Kante=22, Kdesc=10255, core=0):-58916 
clause level 2 (Kante=11, Kdesc=23410, core=0):93789 -31808 
clause level 4 (Kante=6, Kdesc=17136, core=0):-54135 
clause level 2 (Kante=6, Kdesc=21514, core=1):-27148 27155 
clause level 3 (Kante=5, Kdesc=24676, core=1):-43986 27089 
clause level 13 (Kante=5, Kdesc=13289, core=0):-20491 
clause level 1 (Kante=10, Kdesc=19050, core=0):-43982 27079 
clause level 28 (Kante=3, Kdesc=16351, core=0):-8099 
clause level 30 (Kante=18, Kdesc=9382, core=0):-47702 
clause level 30 (Kante=18, Kdesc=9680, core=0):-47992 
clause level 5 (Kante=22, Kdesc=8481, core=1):-3389 
clause level 1 (Kante=51, Kdesc=14312, core=1):-23823 
clause level 3 (Kante=215, Kdesc=13321, core=0):108447 -19283 
clause level 1 (Kante=168, Kdesc=15382, core=0):-27261 27408 
clause level 6 (Kante=7, Kdesc=14174, core=1):92097 -34418 
clause level 1 (Kante=51, Kdesc=12623, core=0):-8095 
clause level 2 (Kante=4, Kdesc=23919, core=1):-74481 46381 26983 43943 
clause level 2 (Kante=12, Kdesc=21337, core=0):-43993 27107 
clause level 10 (Kante=16, Kdesc=16393, core=0):-30097 
clause level 6 (Kante=5, Kdesc=13616, core=0):-8243 8249 
clause level 5 (Kante=60, Kdesc=18176, core=1):-74578 27221 46477 
clause level 4 (Kante=104, Kdesc=23099, core=0):-26999 -33314 
clause level 8 (Kante=47, Kdesc=14753, core=0):-4946 
clause level 1 (Kante=42, Kdesc=12827, core=1):-2188 
clause level 3 (Kante=90, Kdesc=17250, core=0):11063 -114645 
clause level 3 (Kante=22, Kdesc=18632, core=0):-74472 26970 
clause level 6 (Kante=165, Kdesc=17538, core=1):-14084 -113295 
clause level 33 (Kante=149, Kdesc=14075, core=1):-15363 
clause level 11 (Kante=16, Kdesc=9260, core=0):-46236 
clause level 3 (Kante=29, Kdesc=17811, core=0):-74469 26970 
clause level 6 (Kante=56, Kdesc=16568, core=1):-27224 -99855 
clause level 11 (Kante=52, Kdesc=16924, core=0):-22533 68817 69110 68821 69114 
clause level 5 (Kante=7, Kdesc=11218, core=0):90614 -3231 
clause level 1 (Kante=8, Kdesc=18260, core=0):-64844 27079 
clause level 2 (Kante=3, Kdesc=18015, core=0):-74527 27092 
clause level 1 (Kante=13, Kdesc=13913, core=1):89812 2193 -2217 
clause level 3 (Kante=102, Kdesc=13996, core=0):-27158 27251 
clause level 5 (Kante=56, Kdesc=8597, core=1):101439 -18434 
clause level 8 (Kante=29, Kdesc=13714, core=0):-52608 32016 
clause level 1 (Kante=6, Kdesc=12659, core=0):108981 -17028 17016 
clause level 2 (Kante=53, Kdesc=14049, core=1):-20101 
clause level 2 (Kante=5, Kdesc=20154, core=1):-26960 26965 46376 46375 
clause level 1 (Kante=8, Kdesc=24933, core=0):118892 5698 -5710 
clause level 1 (Kante=6, Kdesc=24646, core=0):118577 -5698 5688 
clause level 30 (Kante=5, Kdesc=13179, core=0):-8087 
clause level 6 (Kante=34, Kdesc=9780, core=1):-2442 
clause level 1 (Kante=46, Kdesc=12543, core=1):27224 -99871 
clause level 15 (Kante=93, Kdesc=11830, core=0):-71666 73870 73856 73869 73871 73868 73867 73866 73865 73864 73863 73862 71982 73861 73860 73859 73858 73857 73872 
clause level 2 (Kante=5, Kdesc=17040, core=1):-43988 27094 
clause level 18 (Kante=10, Kdesc=19936, core=0):27070 27077 43982 64844 27071 
clause level 1 (Kante=31, Kdesc=12919, core=0):109599 -17004 16944 
clause level 2 (Kante=44, Kdesc=18497, core=1):-46396 27071 
clause level 1 (Kante=26, Kdesc=12765, core=0):109599 -16992 16944 
clause level 6 (Kante=94, Kdesc=9495, core=0):-38433 109797 
clause level 1 (Kante=14, Kdesc=20553, core=1):-43981 27079 
clause level 5 (Kante=159, Kdesc=22225, core=1):-13316 -113200 
clause level 2 (Kante=19, Kdesc=12331, core=0):31951 -118916 
clause level 1 (Kante=8, Kdesc=18039, core=1):117244 -7325 7313 
clause level 1 (Kante=13, Kdesc=15966, core=0):-31905 31915 
clause level 1 (Kante=8, Kdesc=13748, core=0):109260 16812 -16824 
clause level 3 (Kante=53, Kdesc=12333, core=0):88979 -4592 
clause level 1 (Kante=37, Kdesc=12645, core=1):109599 -17016 16944 
clause level 18 (Kante=1069, Kdesc=12560, core=1):-46566 
clause level 1 (Kante=15, Kdesc=16046, core=0):-31895 31905 
clause level 1 (Kante=18, Kdesc=11643, core=0):109284 -16980 16944 
clause level 1 (Kante=20, Kdesc=16013, core=0):-64803 26977 
clause level 8 (Kante=1123, Kdesc=8879, core=1):-14084 -98751 
clause level 1 (Kante=9, Kdesc=18653, core=0):-74518 27069 
clause level 1 (Kante=9, Kdesc=9331, core=1):-26934 26942 
clause level 32 (Kante=10, Kdesc=9296, core=1):-39931 
clause level 3 (Kante=18, Kdesc=11867, core=0):-16944 59725 59720 59719 59721 59718 59722 59723 59724 59717 59726 59727 59728 59729 
clause level 29 (Kante=160, Kdesc=12212, core=0):-15405 58142 
clause level 2 (Kante=111, Kdesc=15652, core=0):-34142 
clause level 14 (Kante=8, Kdesc=10692, core=0):-15357 
clause level 1 (Kante=7, Kdesc=18335, core=0):-27106 -5734 5722 
clause level 4 (Kante=101, Kdesc=17449, core=0):-26994 -33304 
clause level 6 (Kante=299, Kdesc=11724, core=0):88808 -4346 
clause level 1 (Kante=10, Kdesc=16431, core=0):27439 -99325 
clause level 9 (Kante=5, Kdesc=9060, core=1):-20575 
clause level 2 (Kante=22, Kdesc=11912, core=0):16752 -16852 59713 109260 59707 59706 59705 59704 59703 59702 59701 59700 59699 59698 
clause level 3 (Kante=102, Kdesc=12326, core=1):-16456 -93789 
clause level 31 (Kante=8, Kdesc=12655, core=1):-58132 
clause level 1 (Kante=6, Kdesc=9527, core=0):92909 32853 -32865 
clause level 1 (Kante=27, Kdesc=13124, core=1):-27265 -99564 
clause level 10 (Kante=3, Kdesc=8278, core=1):-23378 
clause level 4 (Kante=169, Kdesc=13993, core=0):27389 -100310 
clause level 3 (Kante=6, Kdesc=12463, core=0):-37873 
clause level 5 (Kante=80, Kdesc=15189, core=1):113200 -13320 
clause level 4 (Kante=21, Kdesc=12574, core=1):100348 -27133 
clause level 1 (Kante=8, Kdesc=11067, core=0):93220 -32853 32841 
clause level 15 (Kante=54, Kdesc=19499, core=1):-27070 7265 -7313 74496 
clause level 2 (Kante=11, Kdesc=13614, core=1):-27265 -99871 
clause level 1 (Kante=11, Kdesc=19850, core=0):-64859 27120 
clause level 5 (Kante=37, Kdesc=9557, core=0):-2472 
clause level 3 (Kante=145, Kdesc=11352, core=0):93884 -31975 
clause level 2 (Kante=8, Kdesc=10031, core=1):93212 -32805 32781 
clause level 5 (Kante=154, Kdesc=13567, core=0):107030 11592 53262 -11604 53263 
clause level 5 (Kante=135, Kdesc=13465, core=1):-11586 52948 53260 
clause level 10 (Kante=168, Kdesc=11497, core=0):-16761 32001 58914 
clause level 15 (Kante=3, Kdesc=9139, core=1):-20483 
clause level 1 (Kante=5, Kdesc=15483, core=1):-31777 31779 
clause level 3 (Kante=4, Kdesc=12812, core=0):-67453 
clause level 1 (Kante=5, Kdesc=15416, core=1):-31774 31777 
clause level 4 (Kante=11, Kdesc=11510, core=0):-40118 
clause level 18 (Kante=10, Kdesc=18431, core=1):-74521 27077 43982 64844 
clause level 4 (Kante=37, Kdesc=8360, core=0):-2460 
clause level 8 (Kante=3, Kdesc=11468, core=1):-15519 15525 
clause level 3 (Kante=3, Kdesc=10745, core=1):-27063 27071 
clause level 2 (Kante=3, Kdesc=12896, core=0):-74474 43935 46373 26957 
clause level 2 (Kante=24, Kdesc=11958, core=0):90557 -1945 
clause level 10 (Kante=65, Kdesc=11201, core=0):101964 -25584 
clause level 4 (Kante=6, Kdesc=10240, core=1):-23132 
clause level 6 (Kante=6, Kdesc=10270, core=0):-66817 23132 22767 
clause level 4 (Kante=44, Kdesc=16347, core=0):-29145 
clause level 1 (Kante=8, Kdesc=17211, core=0):-64864 27130 
clause level 6 (Kante=225, Kdesc=10288, core=0):88212 -4196 
clause level 9 (Kante=1217, Kdesc=12770, core=0):-14084 -101983 
clause level 2 (Kante=19, Kdesc=15800, core=0):-46421 27094 
clause level 1 (Kante=35, Kdesc=9318, core=1):-83446 26977 
clause level 4 (Kante=38, Kdesc=6763, core=0):-41540 -5134 
clause level 2 (Kante=5, Kdesc=15613, core=1):-46420 27084 
clause level 1 (Kante=8, Kdesc=15441, core=1):-46422 27084 
clause level 1 (Kante=8, Kdesc=16082, core=0):-64846 27084 
clause level 1 (Kante=8, Kdesc=15423, core=0):-64848 27089 
clause level 1 (Kante=7, Kdesc=15561, core=0):-26989 -7265 7255 
clause level 2 (Kante=5, Kdesc=16190, core=0):-64850 27094 
clause level 1 (Kante=11, Kdesc=16053, core=0):-64843 27079 
clause level 1 (Kante=8, Kdesc=15276, core=0):-46424 27089 
clause level 1 (Kante=9, Kdesc=15744, core=0):-64866 27135 
clause level 15 (Kante=30, Kdesc=9660, core=0):-11088 101717 108181 
clause level 2 (Kante=3, Kdesc=10100, core=1):-26957 26960 46374 
clause level 1 (Kante=42, Kdesc=9053, core=1):-64791 26977 
clause level 2 (Kante=25, Kdesc=11108, core=0):118029 -7313 
clause level 1 (Kante=8, Kdesc=15124, core=1):-46426 27094 
clause level 1 (Kante=11, Kdesc=14984, core=0):-46419 27079 
clause level 1 (Kante=50, Kdesc=10631, core=1):91983 -33283 
clause level 1 (Kante=25, Kdesc=8731, core=0):-46376 26977 
clause level 1 (Kante=69, Kdesc=10613, core=0):118029 -7265 
clause level 16 (Kante=143, Kdesc=14647, core=0):-13301 
clause level 1 (Kante=19, Kdesc=13936, core=1):-46431 27117 
clause level 5 (Kante=17, Kdesc=16353, core=0):-74536 27115 43997 64859 
clause level 1 (Kante=30, Kdesc=8267, core=1):-46374 26977 
clause level 1 (Kante=10, Kdesc=13563, core=1):-26975 26983 43943 46381 64805 
clause level 7 (Kante=26, Kdesc=7623, core=0):-40228 
clause level 1 (Kante=7, Kdesc=13091, core=0):-27111 5734 -5746 
clause level 1 (Kante=42, Kdesc=10884, core=0):-20201 
clause level 1 (Kante=8, Kdesc=15077, core=0):-64862 27125 
clause level 3 (Kante=28, Kdesc=9664, core=1):-37861 
clause level 6 (Kante=288, Kdesc=8512, core=1):-8105 
clause level 2 (Kante=15, Kdesc=13323, core=1):-46432 27117 
clause level 1 (Kante=15, Kdesc=10139, core=1):-27019 -7337 7313 
clause level 1 (Kante=118, Kdesc=10747, core=0):-28597 
clause level 1 (Kante=8, Kdesc=13823, core=1):-46440 27130 
clause level 5 (Kante=45, Kdesc=10863, core=0):22684 -105025 
clause level 6 (Kante=14, Kdesc=10338, core=0):-27135 27158 46449 44011 
clause level 1 (Kante=38, Kdesc=10795, core=0):-31865 31895 
clause level 2 (Kante=4, Kdesc=7869, core=1):93535 32853 -32877 
clause level 1 (Kante=8, Kdesc=12953, core=1):-46438 27125 
clause level 6 (Kante=102, Kdesc=7964, core=1):89093 -5120 
clause level 1 (Kante=55, Kdesc=15164, core=0):-26973 5542 -5575 
clause level 39 (Kante=48, Kdesc=9825, core=0):117077 -8205 
clause level 1 (Kante=37, Kdesc=14463, core=1):119215 -5786 5732 5728 
clause level 1 (Kante=85, Kdesc=8615, core=1):88903 -5288 5120 
clause level 3 (Kante=7, Kdesc=7972, core=1):-40120 
clause level 10 (Kante=10, Kdesc=7905, core=1):-20363 -13406 
clause level 1 (Kante=7, Kdesc=10642, core=0):-27024 33362 -33374 
clause level 1 (Kante=5, Kdesc=8055, core=0):-38690 1945 
clause level 3 (Kante=7, Kdesc=9698, core=0):-26957 26965 46374 
clause level 2 (Kante=13, Kdesc=8225, core=1):-18875 62148 62149 62150 
clause level 1 (Kante=6, Kdesc=8923, core=1):-27113 -116656 
clause level 2 (Kante=13, Kdesc=11892, core=0):-13184 -72377 
clause level 9 (Kante=7, Kdesc=7836, core=1):-68972 
clause level 6 (Kante=20, Kdesc=8519, core=1):-43955 27071 
clause level 1 (Kante=5, Kdesc=8563, core=0):-31903 31905 
clause level 1 (Kante=22, Kdesc=8872, core=1):27389 -99620 
clause level 31 (Kante=98, Kdesc=8151, core=0):-41304 55909 73539 73872 73871 73866 71666 73853 81251 73855 73857 73542 73854 73858 73537 73867 73536 73859 73535 73851 73864 73870 73541 85197 73852 73863 73850 73868 73849 73538 73540 73860 73862 81250 73856 73848 25068 73861 73847 73865 73869 72284 72283 85183 3654 
clause level 3 (Kante=19, Kdesc=8968, core=0):-17192 
clause level 18 (Kante=10, Kdesc=8442, core=1):27070 27077 64844 43982 27071 
clause level 2 (Kante=15, Kdesc=10086, core=1):-13190 -64882 
clause level 29 (Kante=107, Kdesc=8028, core=0):27306 -117934 
clause level 1 (Kante=14, Kdesc=9558, core=1):-26963 7222 46372 -7235 
clause level 2 (Kante=6, Kdesc=9572, core=1):-46442 27135 
clause level 1 (Kante=85, Kdesc=8573, core=0):-17232 
clause level 4 (Kante=155, Kdesc=8550, core=1):-43936 81275 31870 
clause level 3 (Kante=91, Kdesc=8396, core=1):-26989 -7265 
clause level 2 (Kante=11, Kdesc=8496, core=0):-13178 -64880 
clause level 1 (Kante=5, Kdesc=8244, core=1):-31930 -92420 
clause level 7 (Kante=43, Kdesc=6335, core=0):-8199 8177 8189 
clause level 1 (Kante=8, Kdesc=7653, core=1):-46447 27148 
clause level 1 (Kante=41, Kdesc=8849, core=1):-26952 46385 43947 26988 64809 64808 43946 46384 43943 46381 64805 46379 43941 64803 64802 43940 46378 46377 43939 64801 43938 46376 64800 64799 46375 43937 43936 64798 46374 43935 46373 64797 
clause level 4 (Kante=188, Kdesc=8877, core=1):-43927 81275 31870 
clause level 2 (Kante=11, Kdesc=7782, core=0):-59780 
clause level 2 (Kante=11, Kdesc=7769, core=0):-59783 
clause level 2 (Kante=11, Kdesc=7774, core=0):-59782 
clause level 1 (Kante=30, Kdesc=8130, core=0):103333 23651 -23677 
clause level 6 (Kante=19, Kdesc=7269, core=0):-64869 27158 46449 44011 
clause level 3 (Kante=152, Kdesc=6074, core=1):-27157 -20329 
clause level 14 (Kante=264, Kdesc=7416, core=0):-43998 -13406 -13316 
clause level 16 (Kante=45, Kdesc=9331, core=0):-83471 27071 74519 74518 74520 74517 33314 
clause level 2 (Kante=11, Kdesc=7581, core=1):-59779 
clause level 3 (Kante=5, Kdesc=8182, core=1):-17226 
clause level 2 (Kante=11, Kdesc=7581, core=1):-59778 
clause level 2 (Kante=10, Kdesc=7342, core=0):-17264 
clause level 6 (Kante=16, Kdesc=7369, core=0):-64870 27158 46449 44011 
clause level 7 (Kante=416, Kdesc=8899, core=0):-13577 
clause level 1 (Kante=12, Kdesc=8001, core=0):-26935 46363 46366 -7209 
clause level 2 (Kante=134, Kdesc=6970, core=0):-13284 13302 13301 55707 55706 55705 
clause level 13 (Kante=1267, Kdesc=4772, core=0):14144 67190 66898 67189 66897 67188 66896 67187 66895 66894 67186 67185 66893 67184 66892 66891 67183 67182 66890 67181 67180 67179 67178 67177 67176 67175 67174 67173 67172 67171 66879 66878 67170 67169 66877 67168 66876 41567 67166 66874 67165 66873 66872 67164 67163 66871 67162 66870 67161 66869 67160 66868 66867 67159 66866 67158 67157 66865 67156 66864 
clause level 15 (Kante=247, Kdesc=6276, core=1):-27137 -5746 43966 43965 43969 26977 27071 43978 43981 43980 43986 43944 43993 
clause level 14 (Kante=32, Kdesc=7393, core=1):-2928 8303 
clause level 1 (Kante=121, Kdesc=6096, core=0):-28591 
clause level 1 (Kante=7, Kdesc=6401, core=0):-27004 -33326 33314 
clause level 1 (Kante=56, Kdesc=6449, core=0):100082 -27064 27008 
clause level 4 (Kante=29, Kdesc=6122, core=0):-59581 81264 31774 
clause level 1123 (Kante=3962, Kdesc=125, core=0):105215 -120124 -116565 -120101 -120123 119982 119886 -120142 -120122 
clause level 2 (Kante=31, Kdesc=7109, core=0):-13310 -72398 
clause level 10 (Kante=473, Kdesc=5992, core=1):-20353 20497 -13406 20521 20533 20569 20509 20557 20485 
clause level 10 (Kante=16, Kdesc=5800, core=1):13580 66898 66897 67189 66896 67188 66895 67187 66894 67186 66893 67185 66892 67184 67183 66891 67182 66890 67181 67180 67179 67178 67177 67176 67175 67174 67173 67172 66879 67171 66878 67170 66877 67169 66876 67168 66875 67167 66874 67166 66873 67165 66872 67164 66871 67163 66870 67162 66869 67161 67160 66868 66867 67159 66866 67158 66865 67157 67156 66864 67190 
clause level 15 (Kante=58, Kdesc=6140, core=0):-27070 33314 74502 -33362 
clause level 143 (Kante=6110, Kdesc=95, core=1):108428 -119856 -113334 -95519 93942 -119857 -113333 93923 93904 -95557 -119854 -119878 -119855 
clause level 9 (Kante=1219, Kdesc=6010, core=1):14144 67157 66898 66897 67189 66896 67188 66895 67187 66894 67186 66893 67185 66892 67184 67183 66891 67182 66890 67181 67180 67179 67178 67177 67176 67175 67174 67173 67172 66879 67171 66878 67170 66877 67169 66876 67168 66875 67167 66874 67166 66873 67165 66872 67164 66871 67163 66870 67162 66869 67161 67160 66868 66867 67159 66866 67158 66865 67190 67156 66864 14147 
clause level 3 (Kante=16, Kdesc=5312, core=0):-13190 13181 20353 -20365 
clause level 11 (Kante=964, Kdesc=4144, core=0):-54615 89017 
clause level 4 (Kante=82, Kdesc=5268, core=1):-27111 64842 64843 64844 64845 64846 64847 64848 64849 64850 64851 64852 64853 64854 -20221 
clause level 1 (Kante=51, Kdesc=5364, core=0):-20911 64958 64959 64960 64961 64962 64963 64964 64965 64966 64967 64968 64969 64970 64971 64972 64973 
clause level 14 (Kante=262, Kdesc=5051, core=0):-43999 -13406 -13316 
clause level 14 (Kante=232, Kdesc=5224, core=0):-64875 -13508 65518 65519 65517 65516 65796 65490 65489 65794 65795 65488 
clause level 538 (Kante=2676, Kdesc=58, core=1):120102 119977 -119893 -100405 -119951 119879 -119930 -119892 119982 -119950 119980 119981 120154 119978 -120148 119839 119880 -120146 119822 
clause level 2 (Kante=40, Kdesc=5181, core=0):2260 39028 2256 38162 37886 -2272 39857 40134 
clause level 19 (Kante=140, Kdesc=5008, core=0):-27085 -5688 5591 43949 43969 27071 43980 64844 43982 43984 43983 43965 43985 
clause level 281 (Kante=6024, Kdesc=31, core=0):119987 -119819 -113333 -119820 -114911 -116565 -120064 -120101 -114949 -119877 -119818 -120063 -120122 -120121 -119876 -120120 
clause level 770 (Kante=4193, Kdesc=360, core=1):14549 -119856 62538 -89074 -105253 -119987 -89017 -119878 -119855 -119932 -93941 -120044 42470 41534 -119975 120150 -119976 -119931 -119877 5048 -119950 -119835 120149 -119951 120152 -89093 
clause level 16 (Kante=488, Kdesc=4299, core=1):-14054 -26488 
clause level 9 (Kante=1399, Kdesc=3772, core=1):13598 55762 66898 66897 67189 66896 67188 66895 67187 66894 67186 66893 67185 66892 67184 67183 66891 67182 66890 67181 67180 67179 67178 67177 67176 67175 67174 67173 67172 66879 67171 66878 67170 66877 67169 66876 67168 66875 67167 66874 67166 66873 67165 66872 67164 66871 67163 66870 67162 66869 67161 67160 66868 66867 67159 66866 67158 66865 67157 67156 66864 67190 55755 55756 55757 55759 55761 55758 55760 
clause level 315 (Kante=3268, Kdesc=22, core=0):116565 52607 -89055 -114911 -90712 119856 -93941 92326 119837 -119820 -119987 -120006 -110101 95558 -119835 119857 108486 -114949 -120045 -119854 -120063 -120120 -119878 -119819 -89093 -119877 119838 -90711 108430 92231 119983 -120025 -120044 95520 
clause level 428 (Kante=7206, Kdesc=74, core=0):119987 -90712 -89055 110102 -89093 -119892 -119820 -119856 -119855 -119879 110083 110045 -119819 -119818 -119877 -119876 110064 120125 -119878 -119854 120152 -90711 -119949 120068 120149 120126 
clause level 915 (Kante=3565, Kdesc=26, core=1):-110101 -114911 -119987 -116565 -93941 -120101 -119835 -120044 -114949 -120121 119984 -120120 -120063 119985 
clause level 1194 (Kante=6028, Kdesc=113, core=1):110101 
clause level 728 (Kante=3356, Kdesc=23, core=0):-93942 -110101 119857 119858 -120006 -108447 119838 119839 -108485 -120025 -120044 -120026 -120046 119984 95560 119859 -120045 
clause level 362 (Kante=4033, Kdesc=17, core=0):-108486 119856 119837 -89055 -89093 -114911 -93941 -119835 -119987 95558 -110101 -90712 95501 -119820 119857 92326 -120006 -90711 -119878 -114949 95425 92231 -119819 93943 -119818 -119877 -120045 119858 -119854 -119876 
clause level 1143 (Kante=5164, Kdesc=69, core=1):113333 -120121 119985 -120120 
clause level 677 (Kante=5983, Kdesc=41, core=1):-119932 113336 120102 120121 120064 120122 -119930 -119949 114912 114836 120065 -108466 114950 120124 120126 120125 120083 114951 114894 
clause level 1156 (Kante=2743, Kdesc=3, core=1):90712 20357 -119931 -90711 20363 -119818 -120120 -120121 -119875 119985 120154 -119950 -113333 
clause level 551 (Kante=3503, Kdesc=16, core=1):119987 -108486 -119856 -119879 -90712 -110102 -113334 -120064 -113333 -119819 -90711 -119876 -108485 -119818 120151 -119875 120154 -120046 -110101 -120028 -119855 -120007 119982 -120120 
clause level 489 (Kante=3432, Kdesc=40, core=0):-110102 -89093 52248 -108447 43988 64878 44011 20363 113334 52561 119978 113315 43989 -120101 -116565 -114911 39002 20357 -113333 -120049 -119818 -120064 -119875 39036 64844 -108485 55685 -114949 -120048 -119949 -120063 -120121 -120120 118264 113296 113239 119981 -120025 119980 -120044 119885 119884 -120142 113335 119882 119983 -120047 -120045 
clause level 437 (Kante=3953, Kdesc=6, core=0):119856 -90712 -89055 -119855 -119892 -119879 -119854 -89093 120125 -119820 110102 -119949 120149 110083 110064 -119819 -119878 -90711 120126 -119877 -119818 -119876 120068 120152 120150 
clause level 719 (Kante=3345, Kdesc=25, core=0):120007 120147 93942 -90711 -108447 -119856 -120006 -119878 119857 -110101 93904 93923 119838 119858 -120046 -119855 -119876 -119854 -119877 120149 120152 -119818 -108485 -120026 -120045 120125 120126 120068 120148 120052 119839 119859 -120025 -120044 -119875 120151 -119975 120053 
clause level 872 (Kante=5048, Kdesc=4, core=0):110101 -120101 -119931 -90652 119932 93942 -102021 93923 93904 -120082 90712 90673 103638 -90690 -120120 93885 90713 119913 -119950 100406 100368 100292 120154 103600 103543 -119911 100311 -119930 -119949 93943 103524 
clause level 740 (Kante=5860, Kdesc=50, core=1):95519 -119836 -120120 -120121 -93942 -93941 -119855 -119876 120154 -119835 -119875 -119854 
clause level 645 (Kante=4968, Kdesc=7, core=0):119932 -108486 -90690 -90711 -119930 -110101 90712 -119818 119858 -93942 -93941 -120006 -119835 -119877 -119836 90673 90693 -90652 -120027 -108485 -119854 -120025 -120044 90713 -120026 92327 95559 -120046 90674 120152 90714 119984 90716 119839 95540 95560 119859 95521 95464 
clause level 118 (Kante=4236, Kdesc=25, core=1):119950 108429 120007 -120124 108486 111718 120027 -90712 110102 52254 108144 -90711 52560 110083 -119819 110045 108353 -120123 119982 
clause level 662 (Kante=4729, Kdesc=126, core=0):-110102 52560 119856 -114911 -113334 -119835 -90711 119857 92326 92231 95558 119837 -119818 119858 -119876 -114949 -93941 -113333 -120065 -120064 92327 119838 -120121 95559 -120122 -120063 -120120 119859 95520 91680 95539 95463 94781 119839 119984 
clause level 93 (Kante=8227, Kdesc=209, core=0):-85183 69945 69938 69939 69959 
clause level 655 (Kante=3215, Kdesc=26, core=0):114645 -93942 108447 108219 -93941 -119836 40883 40882 40881 40571 40572 40569 40880 40568 40573 40885 40564 40878 40574 40886 40567 40566 40575 40887 40570 40879 40877 40565 19283 40884 40563 40875 107967 107660 40876 19295 53320 53318 53007 53008 53319 53021 53322 53010 53323 53321 53009 53011 53324 53012 53325 53013 53326 53014 53327 53015 53016 53017 53018 53019 53020 53006 108238 40872 40560 40561 40873 40874 40562 108015 19271 52989 52988 52987 52986 52985 52984 52983 52982 107684 53034 62124 62123 62122 62133 62132 62131 62130 62129 62128 62127 52981 52980 52979 52978 53003 53312 53315 53004 53005 53316 53317 53001 53000 53314 52999 53311 52998 53310 53313 53002 40588 108276 40543 40855 40496 40808 40502 40814 40813 40501 40500 40811 40499 40810 40498 40497 40809 40815 40818 40504 40816 40505 40817 40506 40503 40812 53309 52997 53308 52996 52995 53307 52994 53306 52993 52992 52991 52990 40493 40805 40492 40495 40804 40806 40494 40807 40854 40542 40541 40853 40852 40540 40851 40539 40538 40850 40537 40849 40536 40848 40552 40864 40553 40865 40866 40554 40868 40555 40556 40867 40869 40557 40870 40558 40559 40871 11604 107636 62137 73037 62138 53268 53266 52956 52955 52954 107329 40551 40863 40550 40862 40861 40549 40860 40548 40547 40859 40858 40546 40857 40545 40856 40544 19367 19355 108063 40535 40847 40534 40846 40533 40845 40532 40844 40480 40795 40483 40481 40792 40794 40482 40793 62121 62120 62119 62118 73033 73350 73035 73349 73034 108448 73342 73029 73341 73028 73027 73340 73026 73339 73338 73025 62117 62116 62115 40796 40484 40485 73345 73032 73344 73031 73343 73030 73036 73346 73348 73347 40491 40489 40490 40797 40798 40486 40487 40488 19455 
clause level 559 (Kante=5064, Kdesc=97, core=0):-119855 -113333 -120063 -120124 119981 -120125 113334 43982 64878 -119949 119982 20363 -90652 64844 -90690 66419 113315 20357 66417 39036 44011 113335 118264 38412 113296 43988 43989 113239 113336 55685 52248 52561 52554 119885 119984 
clause level 1015 (Kante=5188, Kdesc=25, core=1):-97116 90712 -90711 -119818 -110101 -120006 -120045 119985 -120044 -119930 -119950 -119949 -119931 90674 90713 90693 90718 90714 -119875 -120025 -93941 120154 -119835 -119876 -119854 120152 
clause level 833 (Kante=4144, Kdesc=1, core=1):113334 90713 -119836 -90711 -90712 108486 119931 -110101 100406 -119987 120048 -120026 105255 119912 -119819 -120044 119983 120028 -120046 -119876 120154 103638 -93941 -119818 103619 102022 102003 119932 119913 -120045 108487 -119855 -119879 -119878 -119877 -119835 -120006 -93942 -120007 108429 43982 120029 -114930 52528 120152 120151 52570 52560 52248 -95519 -119837 -119854 111719 -120025 100349 
clause level 665 (Kante=3135, Kdesc=40, core=1):-120123 -100405 52254 52250 52253 52556 52248 52560 52246 52570 52257 52568 -120046 108429 90712 -90652 -90690 90673 43982 20363 52528 -90711 -108485 -119988 43993 43986 43981 118272 43994 43997 43990 43988 43998 108486 -119930 -119987 20357 43996 -120025 90713 -119875 90674 90693 -119818 -120045 -120044 120154 -120063 108144 -97116 119983 119886 108448 108487 108489 
clause level 1017 (Kante=4068, Kdesc=6, core=1):-90712 -120121 -119931 -119951 -97116 -119950 -120120 -97173 -119930 120154 -119949 119985 
clause level 178 (Kante=3760, Kdesc=13, core=0):120123 -119987 -108486 -113334 -114949 -114911 -108447 108429 52254 -93941 52560 52528 43982 -110101 52554 108353 119980 -120065 -90690 -90652 -119818 -90711 -120006 -120064 -120121 -119855 -120045 -113333 -120025 -120044 119954 -120046 
clause level 764 (Kante=3568, Kdesc=5, core=1):120121 119932 -110101 -90712 -93942 -119819 -90711 -120006 -113333 -119987 -119876 119983 120154 90713 20363 -119931 -119836 20357 -120007 -119950 -120026 120149 -119878 120150 -120046 -93941 -119835 120152 -120025 120127 119913 -120044 119934 -119930 -119949 -119854 
clause level 925 (Kante=4086, Kdesc=30, core=0):-114892 -113333 -119856 -90633 -119932 -119877 -119878 120152 -90711 120149 -120063 -119876 120154 -120120 120151 120052 -119975 120150 -119977 -119818 -119855 -119854 -119951 -119931 120148 -119950 -90690 -119875 120153 
clause level 47 (Kante=3123, Kdesc=6, core=1):108485 -113334 52049 95519 52050 52053 52048 52047 52046 52045 52044 52043 52042 52041 52040 52039 52038 52037 52036 52035 52034 52033 52032 52031 52030 51402 52029 51397 52020 51390 52016 52028 51389 51391 52017 51392 52018 51401 52019 51394 51393 51396 52021 51398 52022 51395 52023 51399 52024 52026 52027 51400 52025 52052 52051 119885 119931 119912 20363 66417 66419 52570 52060 51433 52059 51432 51431 52058 52057 52056 52055 52054 120123 -93942 114950 
clause level 125 (Kante=5283, Kdesc=32, core=1):108143 -120064 -119950 -119855 95519 -120121 -108447 -93941 -92325 56384 79080 56669 56676 56674 56672 56653 56655 56652 56390 56651 56656 56650 56657 56649 56658 56648 56659 56647 56660 56646 56661 56645 56662 56644 56663 56643 56664 56642 56665 56641 56666 56640 56667 56639 56670 56634 56635 56636 56637 56638 56671 56654 56675 56673 56385 56677 56679 56684 56386 56678 56680 56668 -119988 -119987 119822 -120007 -113333 113334 -120048 -108485 -114949 -120027 70995 70996 70998 71215 71216 70997 71214 71218 70999 71217 71000 71006 71223 71004 71222 71005 71221 71002 71220 71001 71219 71003 -120047 42158 42478 42470 42166 42165 42163 42164 42479 42167 42476 42475 42480 42169 42474 42162 42168 42481 42473 42161 42477 42160 42472 42159 42471 51402 51390 51399 51398 51397 51396 51394 51393 51392 51389 51400 51395 51391 51401 52016 56389 56683 56387 56681 56388 -120006 -119835 119980 -120063 -119949 -119854 31015 30979 30931 30919 30943 30955 30967 30991 31003 56682 15565 113315 
clause level 815 (Kante=5158, Kdesc=2, core=1):105253 56974 116565 -93941 -120045 -119835 119985 -120121 -119818 90712 97116 -110101 -114911 -113334 -120065 -119930 119978 119982 -119950 119981 -120146 119980 58472 119856 119857 95558 -90711 -120122 -108485 46378 46375 46376 46374 61368 -114949 57582 57583 56975 -119931 57584 56976 57588 56977 -119875 43117 43116 43131 43130 43129 43128 43127 43126 43125 43124 43123 43122 43121 43132 43120 43119 43118 43133 43134 43135 66418 66113 66112 119837 95501 10360 93943 116566 116527 -120044 95520 95463 119881 92231 
Found 14420 good successive clauses in order (13852 originals, maxlevel=1194)
c KCorePR 1321706 2098 14420 13852 1194
c DistanceTo...Unseen 609917
c DistanceToGoodKCore c   DIST 0: 14420 (+14420) / 14420 (+14420)
c   DIST 1: 546141 (+531721) / 366827 (+352407)
c   DIST 2: 701153 (+155012) / 462302 (+95475)
c   DIST 3: 709760 (+8607) / 464977 (+2675)
c   DIST 4: 711337 (+1577) / 465334 (+357)
c   DIST 5: 711623 (+286) / 465374 (+40)
c   DIST 6: 711735 (+112) / 465383 (+9)
c   DIST 7: 711769 (+34) / 465386 (+3)
c   DIST 8: 711782 (+13) / 465389 (+3)
c   DIST 9: 711788 (+6) / 465390 (+1)
c   DIST 10: 711789 (+1) / 465391 (+1)
c TotalDistance=1321706
No graph is dumped
c result of core 1 is UNSAT
c One thread has finished
c Core 1 said it finished
c result of core 0 is UNKNOWN
c restarts              : 469 (553 conflicts in avg)
c blocked restarts      : 22 (multiple: 5) 
c last block at restart : 77
c nb ReduceDB           : 13
c nb removed Clauses    : 222702
c nb learnts DL2        : 2780
c nb learnts size 2     : 1631
c nb learnts size 1     : 340
c conflicts             : 259424         (17 /sec)
c decisions             : 771258         (0.00 % random) (49 /sec)
c propagations          : 1395095019     (88820 /sec)
c conflict literals     : 73172640       (26.09 % deleted)
c nb reduced Clauses    : 947
c CPU time              : 15707.1 s

s INDETERMINATE
