c
c This is glucose-proof 1.0 based on  2.1 --  (thanks to MiniSAT)
c
c EXPERIMENTAL EASY PARALLEL (ROUND ROBIN) VERSION
c
c WARNING: for repeatability, setting FPU to use double precision
c Parallel version 4 solvers created.
c ========================================[ Problem Statistics ]===========================================
c |                                                                                                       |
c |  Number of variables:         85344                                                                   |
c |  Number of clauses:          531882                                                                   |
c |  Parse time:                   0.62 s                                                                 |
c |                                                                                                       |
c ========================================[ MAGIC CONSTANTS ]==============================================
c | Constants are supposed to work well together :-)                                                      |
c | however, if you find better choices, please let us known...                                           |
c |-------------------------------------------------------------------------------------------------------|
c |                                |                                |                                     |
c | - Restarts:                    | - Reduce Clause DB:            | - Minimize Asserting:               |
c |   * LBD Queue    :     50      |   * First     :   4000         |    * size <  30                     |
c |   * Trail  Queue :   5000      |   * Inc       :    300         |    * lbd  <   6                     |
c |   * K            :   0.80      |   * Special   :   1000         |                                     |
c |   * R            :   1.40      |   * Protected :  (lbd)< 30     |                                     |
c |                                |                                |                                     |
c ==================================[ Search Statistics (every  10000 conflicts) ]=========================
c |                                                                                                       |
c |          RESTARTS           |          ORIGINAL         |              LEARNT              | Progress |
c |       NB   Blocked  Avg Cfc |    Vars  Clauses Literals |   Red   Learnts    LBD2  Removed |          |
c =========================================================================================================
c |       83         0      120 |   59008   531882  1467174 |     1     7830      720     2865 | 30.859 % |
c |      133         1      150 |   56993   531882  1467174 |     3     6538      969    14677 | 33.220 % |
c empty clause found by core 3 at conflict 27103
*
c checking the resolution graph...OK
c All useful bySize 156879 clauses, percentiles 0 2 2 2 2 2 11 185 328 632 1539 1554 (0,1,5,10,25,50,75,90,95,99,100-1,100)
c All useless bySize 484988 clauses, percentiles 0 2 2 2 2 3 3 32 176 537 1884 1895 (0,1,5,10,25,50,75,90,95,99,100-1,100)
c ProofOnly useful bySize 48008 clauses, percentiles 0 1 2 4 23 100 239 426 554 833 1539 1554 (0,1,5,10,25,50,75,90,95,99,100-1,100)
c ProofOnly useless bySize 60404 clauses, percentiles 1 2 6 11 46 131 279 488 641 990 1884 1895 (0,1,5,10,25,50,75,90,95,99,100-1,100)
c All useful byFinalLBD 156879 clauses, percentiles 0 1 2 2 2 2 4 8 10 17 197 201 (0,1,5,10,25,50,75,90,95,99,100-1,100)
c All useless byFinalLBD 484988 clauses, percentiles 0 2 2 2 2 3 3 6 11 41 432 433 (0,1,5,10,25,50,75,90,95,99,100-1,100)
c ProofOnly useful byFinalLBD 48008 clauses, percentiles 0 1 1 2 3 5 8 11 14 27 197 201 (0,1,5,10,25,50,75,90,95,99,100-1,100)
c ProofOnly useless byFinalLBD 60404 clauses, percentiles 1 2 3 4 6 9 16 34 58 126 432 433 (0,1,5,10,25,50,75,90,95,99,100-1,100)
c All useful byInitialLBD 156879 clauses, percentiles 0 2 2 2 2 2 5 9 11 23 201 253 (0,1,5,10,25,50,75,90,95,99,100-1,100)
c All useless byInitialLBD 484988 clauses, percentiles 0 2 2 2 2 3 3 6 12 43 433 437 (0,1,5,10,25,50,75,90,95,99,100-1,100)
c ProofOnly useful byInitialLBD 48008 clauses, percentiles 0 1 2 3 4 7 10 14 19 52 201 253 (0,1,5,10,25,50,75,90,95,99,100-1,100)
c ProofOnly useless byInitialLBD 60404 clauses, percentiles 1 2 3 4 6 10 17 37 61 130 433 437 (0,1,5,10,25,50,75,90,95,99,100-1,100)
c Literals ProofOnly useful 7930657
c Literals ProofOnly useless 12132360
c additional windowsGood 1 1 1 1 1 1 2 3 4 14 134 245 (0,1,5,10,25,50,75,90,95,99,100-1,100)
c additional windowsBad 1 1 1 1 1 2 3 5 8 18 63 106 (0,1,5,10,25,50,75,90,95,99,100-1,100)
c additional 1WindowNoDecision 12331 6191 0.50 9977 4412 0.44 (nbWindowsGood,nbWindowsNoDecisionGood,nbWindowsBad,nbWindowsNoDecisionBad
c additional topclausessize all (10%,5%,1%,top) 381.27 514.44 796.14 1554
c additional topclausessize proofonly (10%,5%,1%,top) 464.09 592.55 864.66 1554
c additional topclausesinitialLBD all (10%,5%,1%,top) 353.30 487.72 772.66 1554
c additional topclausesinitialLBD proofonly (10%,5%,1%,top) 328.63 464.09 751.85 1554
c additional topclausesfinalLBD all (10%,5%,1%,top) 265.03 401.28 696.41 1554
c additional topclausesfinalLBD proofonly (10%,5%,1%,top) 249.35 385.33 682.35 1554
c additional predictionInitialLBD 1 527 48008 0.98 0.01 0.02 107885 60404 0.56 1.26 0.77 0.56 (nbgoodclauses,nbtotalgood,precisionGood,recallGood,FGood,nbbadclause,nbtotalbad,precisionBad,recallBad,FBad,accuracy)
c additional predictionInitialLBD 2 4832 48008 0.76 0.08 0.14 103580 60404 0.57 1.23 0.78 0.58 (nbgoodclauses,nbtotalgood,precisionGood,recallGood,FGood,nbbadclause,nbtotalbad,precisionBad,recallBad,FBad,accuracy)
c additional predictionInitialLBD 3 11420 48008 0.71 0.17 0.27 96992 60404 0.59 1.19 0.79 0.60 (nbgoodclauses,nbtotalgood,precisionGood,recallGood,FGood,nbbadclause,nbtotalbad,precisionBad,recallBad,FBad,accuracy)
c additional predictionInitialLBD 4 19780 48008 0.67 0.28 0.39 88632 60404 0.61 1.12 0.79 0.62 (nbgoodclauses,nbtotalgood,precisionGood,recallGood,FGood,nbbadclause,nbtotalbad,precisionBad,recallBad,FBad,accuracy)
c additional predictionInitialLBD 5 29047 48008 0.63 0.38 0.48 79365 60404 0.63 1.03 0.78 0.63 (nbgoodclauses,nbtotalgood,precisionGood,recallGood,FGood,nbbadclause,nbtotalbad,precisionBad,recallBad,FBad,accuracy)
c additional predictionInitialLBD 6 38635 48008 0.61 0.49 0.54 69777 60404 0.65 0.94 0.77 0.63 (nbgoodclauses,nbtotalgood,precisionGood,recallGood,FGood,nbbadclause,nbtotalbad,precisionBad,recallBad,FBad,accuracy)
c additional predictionInitialLBD 7 48004 48008 0.59 0.59 0.59 60408 60404 0.67 0.84 0.75 0.63 (nbgoodclauses,nbtotalgood,precisionGood,recallGood,FGood,nbbadclause,nbtotalbad,precisionBad,recallBad,FBad,accuracy)
c additional predictionInitialLBD 8 56771 48008 0.57 0.68 0.62 51641 60404 0.70 0.75 0.72 0.63 (nbgoodclauses,nbtotalgood,precisionGood,recallGood,FGood,nbbadclause,nbtotalbad,precisionBad,recallBad,FBad,accuracy)
c additional predictionInitialLBD 10 70755 48008 0.55 0.81 0.65 37657 60404 0.75 0.59 0.66 0.62 (nbgoodclauses,nbtotalgood,precisionGood,recallGood,FGood,nbbadclause,nbtotalbad,precisionBad,recallBad,FBad,accuracy)
c additional predictionInitialLBD 14 85613 48008 0.51 0.91 0.66 22799 60404 0.81 0.39 0.52 0.58 (nbgoodclauses,nbtotalgood,precisionGood,recallGood,FGood,nbbadclause,nbtotalbad,precisionBad,recallBad,FBad,accuracy)
c additional predictionInitialLBD 18 92212 48008 0.49 0.95 0.65 16200 60404 0.84 0.28 0.42 0.54 (nbgoodclauses,nbtotalgood,precisionGood,recallGood,FGood,nbbadclause,nbtotalbad,precisionBad,recallBad,FBad,accuracy)
c additional predictionInitialLBD 22 96119 48008 0.48 0.96 0.64 12293 60404 0.86 0.22 0.35 0.52 (nbgoodclauses,nbtotalgood,precisionGood,recallGood,FGood,nbbadclause,nbtotalbad,precisionBad,recallBad,FBad,accuracy)
c additional predictionInitialLBD 30 99876 48008 0.47 0.98 0.64 8536 60404 0.88 0.16 0.27 0.50 (nbgoodclauses,nbtotalgood,precisionGood,recallGood,FGood,nbbadclause,nbtotalbad,precisionBad,recallBad,FBad,accuracy)
c additional predictionInitialLBD 40 102357 48008 0.46 0.99 0.63 6055 60404 0.88 0.11 0.20 0.49 (nbgoodclauses,nbtotalgood,precisionGood,recallGood,FGood,nbbadclause,nbtotalbad,precisionBad,recallBad,FBad,accuracy)
c additional predictionFinallLBD 1 4767 48008 0.88 0.09 0.16 103645 60404 0.58 0.99 0.73 0.59 (nbgoodclauses,nbtotalgood,precisionGood,recallGood,FGood,nbbadclause,nbtotalbad,precisionBad,recallBad,FBad,accuracy)
c additional predictionFinallLBD 2 14077 48008 0.82 0.24 0.37 94335 60404 0.61 0.96 0.75 0.64 (nbgoodclauses,nbtotalgood,precisionGood,recallGood,FGood,nbbadclause,nbtotalbad,precisionBad,recallBad,FBad,accuracy)
c additional predictionFinallLBD 3 22055 48008 0.76 0.35 0.48 86357 60404 0.64 0.91 0.75 0.66 (nbgoodclauses,nbtotalgood,precisionGood,recallGood,FGood,nbbadclause,nbtotalbad,precisionBad,recallBad,FBad,accuracy)
c additional predictionFinallLBD 4 30265 48008 0.71 0.45 0.55 78147 60404 0.66 0.85 0.74 0.67 (nbgoodclauses,nbtotalgood,precisionGood,recallGood,FGood,nbbadclause,nbtotalbad,precisionBad,recallBad,FBad,accuracy)
c additional predictionFinallLBD 5 38842 48008 0.66 0.53 0.59 69570 60404 0.68 0.78 0.72 0.67 (nbgoodclauses,nbtotalgood,precisionGood,recallGood,FGood,nbbadclause,nbtotalbad,precisionBad,recallBad,FBad,accuracy)
c additional predictionFinallLBD 6 47417 48008 0.62 0.61 0.62 60995 60404 0.70 0.70 0.70 0.66 (nbgoodclauses,nbtotalgood,precisionGood,recallGood,FGood,nbbadclause,nbtotalbad,precisionBad,recallBad,FBad,accuracy)
c additional predictionFinallLBD 7 55685 48008 0.60 0.69 0.64 52727 60404 0.72 0.63 0.67 0.66 (nbgoodclauses,nbtotalgood,precisionGood,recallGood,FGood,nbbadclause,nbtotalbad,precisionBad,recallBad,FBad,accuracy)
c additional predictionFinallLBD 8 63437 48008 0.58 0.76 0.66 44975 60404 0.75 0.56 0.64 0.65 (nbgoodclauses,nbtotalgood,precisionGood,recallGood,FGood,nbbadclause,nbtotalbad,precisionBad,recallBad,FBad,accuracy)
c additional predictionFinallLBD 10 75877 48008 0.55 0.87 0.67 32535 60404 0.81 0.43 0.56 0.63 (nbgoodclauses,nbtotalgood,precisionGood,recallGood,FGood,nbbadclause,nbtotalbad,precisionBad,recallBad,FBad,accuracy)
c additional predictionFinallLBD 14 88955 48008 0.51 0.95 0.67 19457 60404 0.88 0.28 0.43 0.58 (nbgoodclauses,nbtotalgood,precisionGood,recallGood,FGood,nbbadclause,nbtotalbad,precisionBad,recallBad,FBad,accuracy)
c additional predictionFinallLBD 18 94628 48008 0.49 0.97 0.65 13784 60404 0.91 0.21 0.34 0.55 (nbgoodclauses,nbtotalgood,precisionGood,recallGood,FGood,nbbadclause,nbtotalbad,precisionBad,recallBad,FBad,accuracy)
c additional predictionFinallLBD 22 97945 48008 0.48 0.98 0.65 10467 60404 0.93 0.16 0.27 0.53 (nbgoodclauses,nbtotalgood,precisionGood,recallGood,FGood,nbbadclause,nbtotalbad,precisionBad,recallBad,FBad,accuracy)
c additional predictionFinallLBD 30 101145 48008 0.47 0.99 0.64 7267 60404 0.94 0.11 0.20 0.50 (nbgoodclauses,nbtotalgood,precisionGood,recallGood,FGood,nbbadclause,nbtotalbad,precisionBad,recallBad,FBad,accuracy)
c additional predictionFinallLBD 40 103219 48008 0.46 0.99 0.63 5193 60404 0.95 0.08 0.15 0.49 (nbgoodclauses,nbtotalgood,precisionGood,recallGood,FGood,nbbadclause,nbtotalbad,precisionBad,recallBad,FBad,accuracy)
c additional predictionSize 1 527 48008 0.98 0.01 0.02 107885 60404 0.56 1.26 0.77 0.56 (nbgoodclauses,nbtotalgood,precisionGood,recallGood,FGood,nbbadclause,nbtotalbad,precisionBad,recallBad,FBad,accuracy)
c additional predictionSize 2 3077 48008 0.79 0.05 0.10 105335 60404 0.57 1.24 0.78 0.57 (nbgoodclauses,nbtotalgood,precisionGood,recallGood,FGood,nbbadclause,nbtotalbad,precisionBad,recallBad,FBad,accuracy)
c additional predictionSize 3 5554 48008 0.72 0.08 0.15 102858 60404 0.57 1.23 0.78 0.58 (nbgoodclauses,nbtotalgood,precisionGood,recallGood,FGood,nbbadclause,nbtotalbad,precisionBad,recallBad,FBad,accuracy)
c additional predictionSize 4 7163 48008 0.68 0.10 0.18 101249 60404 0.57 1.21 0.78 0.58 (nbgoodclauses,nbtotalgood,precisionGood,recallGood,FGood,nbbadclause,nbtotalbad,precisionBad,recallBad,FBad,accuracy)
c additional predictionSize 5 8534 48008 0.66 0.12 0.20 99878 60404 0.58 1.20 0.78 0.58 (nbgoodclauses,nbtotalgood,precisionGood,recallGood,FGood,nbbadclause,nbtotalbad,precisionBad,recallBad,FBad,accuracy)
c additional predictionSize 6 9859 48008 0.64 0.13 0.22 98553 60404 0.58 1.18 0.78 0.58 (nbgoodclauses,nbtotalgood,precisionGood,recallGood,FGood,nbbadclause,nbtotalbad,precisionBad,recallBad,FBad,accuracy)
c additional predictionSize 7 11073 48008 0.63 0.15 0.24 97339 60404 0.58 1.17 0.78 0.58 (nbgoodclauses,nbtotalgood,precisionGood,recallGood,FGood,nbbadclause,nbtotalbad,precisionBad,recallBad,FBad,accuracy)
c additional predictionSize 8 12213 48008 0.62 0.16 0.25 96199 60404 0.58 1.16 0.77 0.58 (nbgoodclauses,nbtotalgood,precisionGood,recallGood,FGood,nbbadclause,nbtotalbad,precisionBad,recallBad,FBad,accuracy)
c additional predictionSize 10 14315 48008 0.60 0.18 0.27 94097 60404 0.58 1.14 0.77 0.58 (nbgoodclauses,nbtotalgood,precisionGood,recallGood,FGood,nbbadclause,nbtotalbad,precisionBad,recallBad,FBad,accuracy)
c additional predictionSize 14 17293 48008 0.58 0.21 0.31 91119 60404 0.58 1.11 0.76 0.58 (nbgoodclauses,nbtotalgood,precisionGood,recallGood,FGood,nbbadclause,nbtotalbad,precisionBad,recallBad,FBad,accuracy)
c additional predictionSize 18 19711 48008 0.56 0.23 0.33 88701 60404 0.58 1.08 0.76 0.58 (nbgoodclauses,nbtotalgood,precisionGood,recallGood,FGood,nbbadclause,nbtotalbad,precisionBad,recallBad,FBad,accuracy)
c additional predictionSize 22 21638 48008 0.55 0.25 0.34 86774 60404 0.58 1.06 0.75 0.58 (nbgoodclauses,nbtotalgood,precisionGood,recallGood,FGood,nbbadclause,nbtotalbad,precisionBad,recallBad,FBad,accuracy)
c additional predictionSize 30 24981 48008 0.54 0.28 0.37 83431 60404 0.59 1.02 0.74 0.57 (nbgoodclauses,nbtotalgood,precisionGood,recallGood,FGood,nbbadclause,nbtotalbad,precisionBad,recallBad,FBad,accuracy)
c additional predictionSize 40 29069 48008 0.52 0.32 0.39 79343 60404 0.59 0.97 0.73 0.57 (nbgoodclauses,nbtotalgood,precisionGood,recallGood,FGood,nbbadclause,nbtotalbad,precisionBad,recallBad,FBad,accuracy)
c additional predictionAge 1 5449 48008 0.49 0.06 0.10 102963 60404 0.56 1.20 0.76 0.56 (nbgoodclauses,nbtotalgood,precisionGood,recallGood,FGood,nbbadclause,nbtotalbad,precisionBad,recallBad,FBad,accuracy)
c additional predictionAge 10 6697 48008 0.46 0.06 0.11 101715 60404 0.56 1.18 0.76 0.55 (nbgoodclauses,nbtotalgood,precisionGood,recallGood,FGood,nbbadclause,nbtotalbad,precisionBad,recallBad,FBad,accuracy)
c additional predictionAge 25 8067 48008 0.43 0.07 0.12 100345 60404 0.56 1.16 0.75 0.55 (nbgoodclauses,nbtotalgood,precisionGood,recallGood,FGood,nbbadclause,nbtotalbad,precisionBad,recallBad,FBad,accuracy)
c additional predictionAge 50 8964 48008 0.42 0.08 0.13 99448 60404 0.56 1.15 0.75 0.54 (nbgoodclauses,nbtotalgood,precisionGood,recallGood,FGood,nbbadclause,nbtotalbad,precisionBad,recallBad,FBad,accuracy)
c additional predictionAge 100 9815 48008 0.41 0.08 0.14 98597 60404 0.55 1.14 0.75 0.54 (nbgoodclauses,nbtotalgood,precisionGood,recallGood,FGood,nbbadclause,nbtotalbad,precisionBad,recallBad,FBad,accuracy)
c additional predictionAge 250 10760 48008 0.41 0.09 0.15 97652 60404 0.55 1.13 0.74 0.54 (nbgoodclauses,nbtotalgood,precisionGood,recallGood,FGood,nbbadclause,nbtotalbad,precisionBad,recallBad,FBad,accuracy)
c additional predictionAge 500 11559 48008 0.41 0.10 0.16 96853 60404 0.55 1.12 0.74 0.54 (nbgoodclauses,nbtotalgood,precisionGood,recallGood,FGood,nbbadclause,nbtotalbad,precisionBad,recallBad,FBad,accuracy)
c additional predictionAge 1000 12518 48008 0.41 0.11 0.17 95894 60404 0.55 1.11 0.74 0.54 (nbgoodclauses,nbtotalgood,precisionGood,recallGood,FGood,nbbadclause,nbtotalbad,precisionBad,recallBad,FBad,accuracy)
c additional predictionAge 2500 14627 48008 0.42 0.13 0.19 93785 60404 0.55 1.08 0.73 0.53 (nbgoodclauses,nbtotalgood,precisionGood,recallGood,FGood,nbbadclause,nbtotalbad,precisionBad,recallBad,FBad,accuracy)
c additional predictionAge 5000 18019 48008 0.41 0.15 0.23 90393 60404 0.55 1.04 0.72 0.53 (nbgoodclauses,nbtotalgood,precisionGood,recallGood,FGood,nbbadclause,nbtotalbad,precisionBad,recallBad,FBad,accuracy)
c additional predictionAge 10000 24260 48008 0.39 0.20 0.26 84152 60404 0.54 0.95 0.69 0.51 (nbgoodclauses,nbtotalgood,precisionGood,recallGood,FGood,nbbadclause,nbtotalbad,precisionBad,recallBad,FBad,accuracy)
c additional predictionAge 25000 40645 48008 0.37 0.31 0.34 67767 60404 0.51 0.72 0.60 0.46 (nbgoodclauses,nbtotalgood,precisionGood,recallGood,FGood,nbbadclause,nbtotalbad,precisionBad,recallBad,FBad,accuracy)
c additional predictionAge 50000 63946 48008 0.35 0.46 0.40 44466 60404 0.42 0.39 0.40 0.38 (nbgoodclauses,nbtotalgood,precisionGood,recallGood,FGood,nbbadclause,nbtotalbad,precisionBad,recallBad,FBad,accuracy)
c additional predictionAge 100000 102554 48008 0.43 0.92 0.58 5858 60404 0.31 0.04 0.07 0.42 (nbgoodclauses,nbtotalgood,precisionGood,recallGood,FGood,nbbadclause,nbtotalbad,precisionBad,recallBad,FBad,accuracy)
c additional predictionTicks 1 5601 48008 0.49 0.06 0.10 102811 60404 0.56 1.20 0.76 0.56 (nbgoodclauses,nbtotalgood,precisionGood,recallGood,FGood,nbbadclause,nbtotalbad,precisionBad,recallBad,FBad,accuracy)
c additional predictionTicks 10 18339 48008 0.44 0.17 0.25 90073 60404 0.56 1.05 0.73 0.54 (nbgoodclauses,nbtotalgood,precisionGood,recallGood,FGood,nbbadclause,nbtotalbad,precisionBad,recallBad,FBad,accuracy)
c additional predictionTicks 25 27810 48008 0.43 0.25 0.32 80602 60404 0.55 0.93 0.69 0.52 (nbgoodclauses,nbtotalgood,precisionGood,recallGood,FGood,nbbadclause,nbtotalbad,precisionBad,recallBad,FBad,accuracy)
c additional predictionTicks 50 34351 48008 0.43 0.31 0.36 74061 60404 0.55 0.85 0.67 0.51 (nbgoodclauses,nbtotalgood,precisionGood,recallGood,FGood,nbbadclause,nbtotalbad,precisionBad,recallBad,FBad,accuracy)
c additional predictionTicks 100 41226 48008 0.43 0.37 0.40 67186 60404 0.55 0.77 0.64 0.50 (nbgoodclauses,nbtotalgood,precisionGood,recallGood,FGood,nbbadclause,nbtotalbad,precisionBad,recallBad,FBad,accuracy)
c additional predictionTicks 250 49628 48008 0.44 0.45 0.45 58784 60404 0.55 0.68 0.61 0.50 (nbgoodclauses,nbtotalgood,precisionGood,recallGood,FGood,nbbadclause,nbtotalbad,precisionBad,recallBad,FBad,accuracy)
c additional predictionTicks 500 56074 48008 0.45 0.52 0.48 52338 60404 0.56 0.61 0.59 0.50 (nbgoodclauses,nbtotalgood,precisionGood,recallGood,FGood,nbbadclause,nbtotalbad,precisionBad,recallBad,FBad,accuracy)
c additional predictionTicks 1000 62738 48008 0.45 0.59 0.51 45674 60404 0.57 0.54 0.56 0.50 (nbgoodclauses,nbtotalgood,precisionGood,recallGood,FGood,nbbadclause,nbtotalbad,precisionBad,recallBad,FBad,accuracy)
c additional predictionTicks 2500 73781 48008 0.45 0.70 0.55 34631 60404 0.58 0.42 0.49 0.49 (nbgoodclauses,nbtotalgood,precisionGood,recallGood,FGood,nbbadclause,nbtotalbad,precisionBad,recallBad,FBad,accuracy)
c additional predictionTicks 5000 84352 48008 0.45 0.79 0.57 24060 60404 0.58 0.29 0.39 0.48 (nbgoodclauses,nbtotalgood,precisionGood,recallGood,FGood,nbbadclause,nbtotalbad,precisionBad,recallBad,FBad,accuracy)
c additional predictionTicks 10000 95351 48008 0.45 0.88 0.59 13061 60404 0.57 0.16 0.25 0.46 (nbgoodclauses,nbtotalgood,precisionGood,recallGood,FGood,nbbadclause,nbtotalbad,precisionBad,recallBad,FBad,accuracy)
c additional predictionTicks 25000 105281 48008 0.44 0.97 0.61 3131 60404 0.54 0.04 0.07 0.45 (nbgoodclauses,nbtotalgood,precisionGood,recallGood,FGood,nbbadclause,nbtotalbad,precisionBad,recallBad,FBad,accuracy)
c additional predictionTicks 50000 107830 48008 0.44 0.99 0.61 582 60404 0.51 0.01 0.01 0.44 (nbgoodclauses,nbtotalgood,precisionGood,recallGood,FGood,nbbadclause,nbtotalbad,precisionBad,recallBad,FBad,accuracy)
c additional predictionTicks 100000 108408 48008 0.44 1.00 0.61 4 60404 0.25 0.00 0.00 0.44 (nbgoodclauses,nbtotalgood,precisionGood,recallGood,FGood,nbbadclause,nbtotalbad,precisionBad,recallBad,FBad,accuracy)
c additional lifetimeGood 1 4 787 5166 20274 44700 67186 84849 92828 102806 109883 109886 (0,1,5,10,25,50,75,90,95,99,100-1,100)
c additional lifetimeBad 1 4 72 1843 9712 25370 46049 66272 79510 98569 109900 109904 (0,1,5,10,25,50,75,90,95,99,100-1,100)
c additional lifetimeBadBad 4 4 4 4 8 28 1444 14075 23948 47766 108105 108109 (0,1,5,10,25,50,75,90,95,99,100-1,100)
c additional compositionBad 1 3 7 13 43 164 508 1185 1764 3245 7725 9091 (0,1,5,10,25,50,75,90,95,99,100-1,100)
c additional compositionBadWithGood 0 0 0 1 2 8 26 61 90 160 342 399 (0,1,5,10,25,50,75,90,95,99,100-1,100)
c additional compositionBadWithBad 0 0 0 0 0 1 2 4 5 8 25 26 (0,1,5,10,25,50,75,90,95,99,100-1,100)
c additional compositionBadWithInitial 0 2 6 11 37 150 482 1130 1680 3089 7378 8773 (0,1,5,10,25,50,75,90,95,99,100-1,100)
c additional compositionGood 1 3 5 9 31 163 597 1516 2232 3812 9129 9549 (0,1,5,10,25,50,75,90,95,99,100-1,100)
c additional compositionGoodWithGood 0 0 0 1 2 8 31 78 113 193 395 407 (0,1,5,10,25,50,75,90,95,99,100-1,100)
c additional compositionGoodWithInitial 0 2 4 7 27 152 565 1442 2130 3641 8734 9250 (0,1,5,10,25,50,75,90,95,99,100-1,100)
c additional propagationGood total 5413872 percentiles 0 1 1 1 1 3 21 134 380 2327 20231 23251 (0,1,5,10,25,50,75,90,95,99,100-1,100)
c additional propagationBad total 481390 percentiles 1 1 1 1 1 1 3 9 19 93 7985 10347 (0,1,5,10,25,50,75,90,95,99,100-1,100)
c additional resolutionGood total 901733 percentiles 0 0 1 1 1 2 8 28 59 307 4029 4459 (0,1,5,10,25,50,75,90,95,99,100-1,100)
c additional resolutionBad total 83471 percentiles 0 0 0 0 1 1 1 3 4 10 87 89 (0,1,5,10,25,50,75,90,95,99,100-1,100)
Computing K-Core for 641867 clauses...
c building structure for KCore computation.
c the graph has 50077530 edges, maxdegree=9549
c we start the KCore with the value 20
c Non directed graph built
K=20,95763 nodes removed so far
K=21,97561 nodes removed so far
K=22,99171 nodes removed so far
K=23,100684 nodes removed so far
K=24,102209 nodes removed so far
K=25,103591 nodes removed so far
K=26,105053 nodes removed so far
K=27,106397 nodes removed so far
K=28,107615 nodes removed so far
K=29,108775 nodes removed so far
K=30,K=31,111136 nodes removed so far
K=32,K=33,K=34,K=35,K=36,K=37,K=38,K=39,K=40,K=41,120276 nodes removed so far
K=42,K=43,K=44,K=45,K=46,K=47,K=48,K=49,K=50,K=51,K=52,K=53,K=54,K=55,K=56,130617 nodes removed so far
K=57,K=58,K=59,K=60,K=61,K=62,K=63,K=64,K=65,K=66,K=67,K=68,K=69,K=70,K=71,K=72,K=73,140253 nodes removed so far
K=74,K=75,K=76,K=77,K=78,K=79,K=80,K=81,K=82,K=83,K=84,K=85,K=86,K=87,K=88,K=89,K=90,K=91,K=92,K=93,K=94,K=95,150378 nodes removed so far
K=96,K=97,K=98,K=99,K=100,K=101,K=102,K=103,K=104,K=105,K=106,K=107,K=108,K=109,K=110,K=111,K=112,K=113,K=114,K=115,K=116,K=117,K=118,K=119,K=120,K=121,K=122,K=123,160035 nodes removed so far
K=124,K=125,K=126,K=127,K=128,K=129,K=130,K=131,K=132,K=133,K=134,K=135,K=136,K=137,K=138,K=139,K=140,K=141,K=142,K=143,K=144,K=145,K=146,K=147,K=148,K=149,K=150,K=151,K=152,K=153,K=154,K=155,K=156,K=157,K=158,170201 nodes removed so far
K=159,K=160,K=161,K=162,K=163,K=164,K=165,K=166,K=167,K=168,K=169,K=170,K=171,K=172,K=173,K=174,K=175,K=176,K=177,K=178,K=179,K=180,K=181,K=182,K=183,K=184,K=185,K=186,K=187,K=188,K=189,K=190,K=191,K=192,K=193,K=194,K=195,K=196,K=197,K=198,K=199,K=200,K=201,K=202,K=203,K=204,180142 nodes removed so far
K=205,K=206,K=207,K=208,K=209,K=210,K=211,K=212,K=213,K=214,K=215,K=216,K=217,K=218,K=219,K=220,K=221,K=222,K=223,K=224,K=225,K=226,K=227,K=228,K=229,K=230,K=231,K=232,K=233,K=234,K=235,K=236,K=237,K=238,K=239,K=240,K=241,K=242,K=243,K=244,K=245,K=246,K=247,K=248,K=249,K=250,K=251,K=252,K=253,K=254,K=255,K=256,K=257,K=258,190061 nodes removed so far
K=259,K=260,K=261,K=262,K=263,K=264,K=265,K=266,K=267,K=268,K=269,K=270,K=271,K=272,K=273,K=274,K=275,K=276,K=277,K=278,K=279,K=280,K=281,K=282,K=283,K=284,K=285,K=286,K=287,K=288,K=289,K=290,K=291,K=292,K=293,K=294,K=295,K=296,K=297,K=298,K=299,K=300,K=301,K=302,K=303,K=304,K=305,K=306,K=307,K=308,K=309,K=310,K=311,K=312,K=313,K=314,K=315,K=316,K=317,K=318,K=319,K=320,K=321,K=322,K=323,K=324,K=325,K=326,K=327,K=328,K=329,K=330,K=331,K=332,K=333,K=334,K=335,200020 nodes removed so far
K=336,K=337,K=338,K=339,K=340,K=341,K=342,K=343,K=344,K=345,K=346,K=347,K=348,K=349,K=350,K=351,K=352,K=353,K=354,K=355,K=356,K=357,K=358,K=359,K=360,K=361,K=362,K=363,K=364,K=365,K=366,K=367,K=368,K=369,K=370,K=371,K=372,K=373,K=374,K=375,K=376,K=377,K=378,K=379,K=380,K=381,K=382,K=383,K=384,K=385,K=386,K=387,K=388,K=389,K=390,K=391,K=392,K=393,K=394,K=395,K=396,K=397,K=398,K=399,K=400,K=401,K=402,K=403,K=404,K=405,K=406,K=407,K=408,K=409,K=410,K=411,K=412,K=413,K=414,K=415,K=416,K=417,K=418,K=419,K=420,K=421,K=422,K=423,K=424,K=425,K=426,K=427,K=428,K=429,K=430,K=431,K=432,K=433,K=434,K=435,K=436,K=437,K=438,K=439,K=440,210049 nodes removed so far
K=441,K=442,K=443,K=444,K=445,K=446,K=447,K=448,K=449,K=450,K=451,K=452,K=453,K=454,K=455,K=456,K=457,K=458,K=459,K=460,K=461,K=462,K=463,K=464,K=465,K=466,K=467,K=468,K=469,K=470,K=471,K=472,K=473,K=474,K=475,K=476,K=477,K=478,K=479,K=480,K=481,K=482,K=483,K=484,K=485,K=486,K=487,K=488,K=489,K=490,K=491,K=492,K=493,K=494,K=495,K=496,K=497,K=498,K=499,K=500,K=501,K=502,K=503,K=504,K=505,K=506,K=507,K=508,K=509,K=510,K=511,K=512,K=513,K=514,K=515,K=516,K=517,K=518,K=519,K=520,K=521,K=522,K=523,K=524,K=525,K=526,K=527,K=528,K=529,K=530,K=531,K=532,K=533,K=534,K=535,K=536,K=537,K=538,K=539,K=540,K=541,K=542,K=543,K=544,K=545,K=546,K=547,K=548,K=549,K=550,K=551,K=552,K=553,K=554,K=555,K=556,K=557,K=558,K=559,K=560,K=561,K=562,K=563,K=564,220105 nodes removed so far
K=565,K=566,K=567,K=568,K=569,K=570,K=571,K=572,K=573,K=574,K=575,K=576,K=577,K=578,K=579,K=580,K=581,K=582,K=583,K=584,K=585,K=586,K=587,K=588,K=589,K=590,K=591,K=592,K=593,K=594,K=595,K=596,K=597,K=598,K=599,K=600,K=601,K=602,K=603,K=604,K=605,K=606,K=607,K=608,K=609,K=610,K=611,K=612,K=613,K=614,K=615,K=616,K=617,K=618,K=619,K=620,K=621,K=622,K=623,K=624,K=625,K=626,K=627,K=628,K=629,K=630,K=631,K=632,K=633,K=634,K=635,K=636,K=637,K=638,K=639,K=640,K=641,K=642,K=643,K=644,K=645,K=646,K=647,K=648,K=649,K=650,K=651,K=652,K=653,K=654,K=655,K=656,K=657,K=658,K=659,K=660,K=661,K=662,K=663,K=664,K=665,K=666,K=667,K=668,K=669,K=670,K=671,K=672,K=673,K=674,K=675,K=676,K=677,K=678,K=679,K=680,K=681,K=682,K=683,K=684,K=685,K=686,K=687,K=688,K=689,K=690,K=691,K=692,K=693,K=694,K=695,K=696,K=697,K=698,K=699,K=700,K=701,K=702,K=703,230020 nodes removed so far
K=704,K=705,K=706,K=707,K=708,K=709,K=710,K=711,K=712,K=713,K=714,K=715,K=716,K=717,K=718,K=719,K=720,K=721,K=722,K=723,K=724,K=725,K=726,K=727,K=728,K=729,K=730,K=731,K=732,K=733,K=734,K=735,K=736,K=737,K=738,K=739,K=740,K=741,K=742,K=743,K=744,K=745,K=746,K=747,K=748,K=749,K=750,K=751,K=752,K=753,K=754,K=755,K=756,K=757,K=758,K=759,K=760,K=761,K=762,K=763,K=764,K=765,K=766,K=767,K=768,K=769,K=770,K=771,K=772,K=773,K=774,K=775,K=776,K=777,K=778,K=779,K=780,K=781,K=782,K=783,K=784,K=785,K=786,K=787,K=788,K=789,K=790,K=791,K=792,K=793,K=794,K=795,K=796,K=797,K=798,K=799,K=800,K=801,K=802,K=803,K=804,K=805,K=806,K=807,K=808,K=809,K=810,K=811,K=812,K=813,K=814,K=815,K=816,K=817,K=818,240286 nodes removed so far
K=819,K=820,K=821,K=822,K=823,K=824,K=825,K=826,K=827,K=828,K=829,K=830,K=831,K=832,K=833,K=834,K=835,K=836,K=837,K=838,K=839,K=840,K=841,K=842,K=843,259632 nodes removed so far
KCore = 843
Building structure for PR...
Computing PR...
Pageranking 244975 nodes done in 13 iteration. cumulError=4.66649e-11
clause level 85 (Kante=351, Kdesc=18309, core=2):66168 
clause level 4 (Kante=76, Kdesc=18960, core=3):-18342 
clause level 14 (Kante=5, Kdesc=6532, core=1):-22857 
clause level 41 (Kante=8, Kdesc=8497, core=3):-61640 
clause level 2 (Kante=5, Kdesc=5798, core=3):-22852 22857 
clause level 28 (Kante=89, Kdesc=12436, core=3):-18298 
clause level 3 (Kante=22, Kdesc=12389, core=2):-52318 
clause level 26 (Kante=251, Kdesc=8585, core=1):-18221 
clause level 24 (Kante=4, Kdesc=8744, core=1):-52521 
clause level 23 (Kante=4, Kdesc=8743, core=2):-52081 
clause level 13 (Kante=8, Kdesc=5396, core=1):-22860 
clause level 1 (Kante=7, Kdesc=5528, core=1):-22847 22852 
clause level 25 (Kante=8, Kdesc=8559, core=1):-52080 
clause level 27 (Kante=75, Kdesc=12047, core=3):-18322 
clause level 2 (Kante=1060, Kdesc=12007, core=3):-18286 18334 
clause level 18 (Kante=4, Kdesc=10863, core=3):-15792 
clause level 4 (Kante=12, Kdesc=6556, core=1):-65 
clause level 15 (Kante=44, Kdesc=4181, core=2):-21 
clause level 46 (Kante=43, Kdesc=11907, core=0):-18328 
clause level 27 (Kante=227, Kdesc=7921, core=3):-18242 52521 52081 52080 
clause level 25 (Kante=297, Kdesc=10122, core=3):-26132 25470 
clause level 48 (Kante=5, Kdesc=11730, core=3):-52317 
clause level 12 (Kante=13, Kdesc=4243, core=0):-22895 
clause level 2 (Kante=24, Kdesc=8653, core=2):-16941 
clause level 26 (Kante=3, Kdesc=5996, core=0):-6602 
clause level 89 (Kante=93, Kdesc=3251, core=1):85031 
clause level 1 (Kante=5, Kdesc=5027, core=1):-22844 22847 
clause level 64 (Kante=4, Kdesc=5562, core=1):-71588 
clause level 10 (Kante=44, Kdesc=3741, core=1):-22875 
clause level 16 (Kante=8, Kdesc=5449, core=0):-22834 
clause level 26 (Kante=6, Kdesc=5328, core=3):-6612 
clause level 31 (Kante=24, Kdesc=9367, core=1):-26131 
clause level 15 (Kante=11, Kdesc=4019, core=2):-22839 
clause level 15 (Kante=7, Kdesc=5541, core=0):-58424 
clause level 1 (Kante=51, Kdesc=12158, core=1):-15996 
clause level 30 (Kante=3, Kdesc=4435, core=0):-35538 
clause level 2 (Kante=6, Kdesc=4155, core=3):-22890 22895 
clause level 30 (Kante=6, Kdesc=10954, core=0):-52310 
clause level 28 (Kante=10, Kdesc=10861, core=2):-18316 
clause level 23 (Kante=5, Kdesc=4673, core=0):-33 
clause level 1 (Kante=9, Kdesc=7793, core=3):-52290 18221 
clause level 23 (Kante=9, Kdesc=3872, core=0):-6620 
clause level 49 (Kante=80, Kdesc=10374, core=3):-18310 
clause level 30 (Kante=9, Kdesc=10794, core=0):-18304 18310 
clause level 24 (Kante=7, Kdesc=4082, core=0):-35544 
clause level 35 (Kante=464, Kdesc=5503, core=1):-54258 61640 19520 19525 
clause level 15 (Kante=5, Kdesc=4739, core=0):-58426 
clause level 27 (Kante=9, Kdesc=7523, core=0):-18216 
clause level 1 (Kante=7, Kdesc=5039, core=0):-6607 6612 
clause level 3 (Kante=6, Kdesc=4979, core=1):-4035 
clause level 15 (Kante=9, Kdesc=4703, core=0):-58421 
clause level 49 (Kante=140, Kdesc=9950, core=0):-72882 72237 72700 52313 
clause level 37 (Kante=550, Kdesc=5856, core=1):-19533 19521 54252 
clause level 24 (Kante=6, Kdesc=3755, core=0):-6617 
clause level 16 (Kante=12, Kdesc=5049, core=0):76232 71896 
clause level 1 (Kante=42, Kdesc=11668, core=1):-10579 
clause level 26 (Kante=5, Kdesc=4030, core=2):-6641 
clause level 23 (Kante=5, Kdesc=3819, core=3):-6625 
clause level 12 (Kante=5, Kdesc=3677, core=3):-58431 
clause level 3 (Kante=23, Kdesc=6670, core=0):-3027 
clause level 26 (Kante=3, Kdesc=3905, core=3):-35547 
clause level 12 (Kante=3, Kdesc=4258, core=3):-22870 
clause level 13 (Kante=10, Kdesc=5201, core=0):-22880 
clause level 1 (Kante=5, Kdesc=4397, core=1):-35542 6612 
clause level 11 (Kante=6, Kdesc=3443, core=3):-58433 
clause level 3 (Kante=11, Kdesc=4276, core=3):-22347 
clause level 1 (Kante=5, Kdesc=4656, core=0):-35540 6607 
clause level 53 (Kante=7, Kdesc=3661, core=0):65308 82653 78400 
clause level 13 (Kante=7, Kdesc=4675, core=1):-4561 
clause level 2 (Kante=6, Kdesc=3497, core=3):-22885 22890 
clause level 1 (Kante=38, Kdesc=5621, core=3):-19589 
clause level 26 (Kante=8, Kdesc=3913, core=2):-6636 
clause level 56 (Kante=6, Kdesc=5317, core=0):-19521 
clause level 24 (Kante=10, Kdesc=4002, core=3):-18234 18242 
clause level 1 (Kante=5, Kdesc=4962, core=3):-58435 22880 
clause level 26 (Kante=3, Kdesc=3942, core=1):-6676 
clause level 19 (Kante=3, Kdesc=6140, core=3):-6734 
clause level 1 (Kante=5, Kdesc=3717, core=0):-35553 6641 
clause level 17 (Kante=664, Kdesc=3016, core=2):-19 
clause level 1 (Kante=51, Kdesc=6326, core=1):-14644 
clause level 2 (Kante=7, Kdesc=4518, core=3):-12171 
clause level 9 (Kante=3, Kdesc=6553, core=2):-22946 
clause level 1 (Kante=42, Kdesc=10338, core=0):-10582 
clause level 13 (Kante=6, Kdesc=4981, core=3):-58441 
clause level 6 (Kante=173, Kdesc=4686, core=3):-19888 
clause level 28 (Kante=11, Kdesc=7393, core=0):-52307 18286 
clause level 2 (Kante=4, Kdesc=3863, core=2):-35567 6676 
clause level 30 (Kante=111, Kdesc=5340, core=2):-18245 
clause level 2 (Kante=5, Kdesc=3666, core=2):-18229 18234 
clause level 22 (Kante=5, Kdesc=3285, core=3):75740 78316 
clause level 31 (Kante=19, Kdesc=6943, core=2):-18256 
clause level 30 (Kante=109, Kdesc=5254, core=2):-52303 
clause level 27 (Kante=26, Kdesc=3897, core=3):-18211 18242 
clause level 10 (Kante=153, Kdesc=4725, core=2):67532 -23908 
clause level 17 (Kante=11, Kdesc=4619, core=1):-63 
clause level 44 (Kante=6, Kdesc=6949, core=1):-58464 
clause level 19 (Kante=168, Kdesc=6663, core=1):-22978 
clause level 19 (Kante=111, Kdesc=6412, core=3):-58466 
clause level 3 (Kante=203, Kdesc=4492, core=1):84764 -5101 
clause level 13 (Kante=8, Kdesc=4284, core=0):-58437 
clause level 21 (Kante=4, Kdesc=5923, core=3):-6724 
clause level 25 (Kante=3, Kdesc=3420, core=0):-18226 18229 
clause level 17 (Kante=8, Kdesc=4595, core=2):-23016 
clause level 23 (Kante=5, Kdesc=3507, core=3):-35555 
clause level 19 (Kante=119, Kdesc=6361, core=3):-58465 
clause level 12 (Kante=6, Kdesc=3462, core=1):-4579 
clause level 15 (Kante=3, Kdesc=3122, core=3):-15893 
clause level 18 (Kante=56, Kdesc=4999, core=2):-6808 
clause level 8 (Kante=178, Kdesc=9676, core=3):-15994 
clause level 10 (Kante=54, Kdesc=9123, core=2):-10835 
clause level 13 (Kante=6, Kdesc=3336, core=3):-58439 
clause level 2 (Kante=6, Kdesc=3177, core=1):-52294 18229 
clause level 23 (Kante=6, Kdesc=3457, core=0):-35569 
clause level 13 (Kante=5, Kdesc=3550, core=3):-4555 
clause level 17 (Kante=226, Kdesc=4832, core=0):-6814 
clause level 23 (Kante=3, Kdesc=2994, core=3):-6646 
clause level 15 (Kante=9, Kdesc=3569, core=0):-14474 14482 
clause level 14 (Kante=48, Kdesc=4219, core=1):-19587 
clause level 12 (Kante=14, Kdesc=2624, core=0):-22900 
clause level 12 (Kante=190, Kdesc=6718, core=1):-42092 
clause level 20 (Kante=137, Kdesc=6208, core=0):-58463 
clause level 42 (Kante=11, Kdesc=4082, core=0):71588 19533 -19581 
clause level 15 (Kante=107, Kdesc=4101, core=0):-23026 
clause level 4 (Kante=3, Kdesc=2824, core=2):-24845 
clause level 5 (Kante=3, Kdesc=4109, core=1):14485 -76232 
clause level 19 (Kante=5, Kdesc=5880, core=3):-6729 
clause level 27 (Kante=11, Kdesc=3121, core=0):-52288 18211 
clause level 1 (Kante=7, Kdesc=4965, core=3):-6719 6724 
clause level 1 (Kante=5, Kdesc=5756, core=3):-35588 6729 
clause level 10 (Kante=18, Kdesc=4462, core=2):75176 -16528 
clause level 13 (Kante=5, Kdesc=3537, core=0):-31853 
clause level 1 (Kante=42, Kdesc=3269, core=0):-9500 
clause level 7 (Kante=7, Kdesc=2979, core=3):-48937 
clause level 33 (Kante=38, Kdesc=3835, core=1):-57 
clause level 19 (Kante=5, Kdesc=5255, core=3):-35590 
clause level 13 (Kante=6, Kdesc=2566, core=0):-58443 
clause level 22 (Kante=3, Kdesc=2823, core=0):-6656 
clause level 22 (Kante=5, Kdesc=5217, core=0):-35586 
clause level 1 (Kante=42, Kdesc=4357, core=1):-12014 
clause level 6 (Kante=10, Kdesc=4059, core=0):-23014 23026 
clause level 19 (Kante=286, Kdesc=5049, core=1):-35594 
clause level 1 (Kante=6, Kdesc=3557, core=0):67013 24010 -24022 
clause level 19 (Kante=166, Kdesc=3646, core=2):-6790 
clause level 10 (Kante=73, Kdesc=4575, core=0):75176 -16588 
clause level 1 (Kante=5, Kdesc=3895, core=0):131 129 -141 
clause level 1 (Kante=10, Kdesc=3330, core=3):67434 -23962 23950 
clause level 17 (Kante=97, Kdesc=3723, core=3):-6784 
clause level 2 (Kante=25, Kdesc=3297, core=3):67546 -24010 23962 
clause level 4 (Kante=212, Kdesc=3908, core=1):79484 -10854 
clause level 39 (Kante=6, Kdesc=2811, core=3):-54254 
clause level 13 (Kante=8, Kdesc=4204, core=2):-15896 
clause level 1 (Kante=11, Kdesc=5332, core=3):-9171 9176 26132 52291 26131 52290 
clause level 14 (Kante=25, Kdesc=2812, core=3):-31849 
clause level 1 (Kante=6, Kdesc=3418, core=0):67009 -23998 23986 
clause level 18 (Kante=11, Kdesc=2835, core=1):-35607 
clause level 3 (Kante=7, Kdesc=3214, core=1):-7997 
clause level 2 (Kante=16, Kdesc=4266, core=0):74994 16528 -16564 
clause level 17 (Kante=121, Kdesc=2727, core=0):-35606 
clause level 1 (Kante=6, Kdesc=2924, core=3):67005 -23974 23962 
clause level 46 (Kante=9, Kdesc=3162, core=0):-19527 19537 19533 
clause level 2 (Kante=6, Kdesc=4908, core=0):-9166 9171 
clause level 3 (Kante=15, Kdesc=4842, core=1):-9156 9176 
clause level 13 (Kante=3, Kdesc=2272, core=0):-58445 
clause level 20 (Kante=157, Kdesc=2418, core=3):76162 -14954 
clause level 1 (Kante=6, Kdesc=3991, core=2):74561 -16552 16540 
clause level 16 (Kante=5, Kdesc=2732, core=0):-6796 
clause level 12 (Kante=398, Kdesc=2308, core=1):21281 79512 
clause level 11 (Kante=19, Kdesc=1855, core=0):-22905 
clause level 1 (Kante=42, Kdesc=2424, core=0):-9503 
clause level 9 (Kante=202, Kdesc=6060, core=1):-16322 
clause level 2 (Kante=5, Kdesc=5217, core=2):-9176 9181 
clause level 28 (Kante=3, Kdesc=4460, core=0):-9161 9166 
clause level 1 (Kante=33, Kdesc=2840, core=2):71882 -20853 20793 
clause level 3 (Kante=6, Kdesc=3001, core=0):-11335 
clause level 11 (Kante=16, Kdesc=1857, core=0):-22915 
clause level 10 (Kante=6, Kdesc=2696, core=3):75176 -16504 
clause level 10 (Kante=29, Kdesc=1879, core=0):-22910 
clause level 4 (Kante=11, Kdesc=3825, core=3):-9355 
clause level 1 (Kante=7, Kdesc=4583, core=1):-39255 9176 52291 26132 
clause level 2 (Kante=4, Kdesc=4542, core=0):-39257 9181 
clause level 12 (Kante=9, Kdesc=2829, core=0):-31854 
clause level 20 (Kante=227, Kdesc=4756, core=3):-28112 22978 22954 22966 
clause level 4 (Kante=12, Kdesc=3282, core=1):-39312 
clause level 10 (Kante=773, Kdesc=3855, core=1):-10910 64378 
clause level 5 (Kante=10, Kdesc=3330, core=2):-39310 
clause level 4 (Kante=7, Kdesc=4221, core=2):-11262 11280 
clause level 2 (Kante=92, Kdesc=3167, core=2):-11280 11292 
clause level 13 (Kante=8, Kdesc=2701, core=0):-4549 
clause level 1 (Kante=5, Kdesc=4347, core=0):-39249 9161 
clause level 42 (Kante=6, Kdesc=2883, core=3):-12040 
clause level 10 (Kante=4, Kdesc=1925, core=2):-58449 
clause level 1 (Kante=6, Kdesc=3514, core=2):74565 -16576 16564 
clause level 3 (Kante=10, Kdesc=4452, core=1):-39251 9176 
clause level 5 (Kante=224, Kdesc=2410, core=0):77372 -13968 
clause level 13 (Kante=9, Kdesc=4058, core=2):-48700 
clause level 21 (Kante=64, Kdesc=4251, core=3):-28114 22954 22966 22978 
clause level 4 (Kante=129, Kdesc=3621, core=0):-16468 16504 
clause level 20 (Kante=226, Kdesc=4200, core=3):-28113 22978 22954 22966 
clause level 18 (Kante=16, Kdesc=2408, core=3):-22990 
clause level 1 (Kante=51, Kdesc=3477, core=0):-1587 
clause level 16 (Kante=10, Kdesc=2454, core=1):-15774 
clause level 12 (Kante=3, Kdesc=2053, core=0):-58447 
clause level 14 (Kante=141, Kdesc=1989, core=0):-30118 
clause level 11 (Kante=4, Kdesc=3536, core=3):75176 -16540 
clause level 22 (Kante=52, Kdesc=1705, core=1):11144 75176 85044 
clause level 7 (Kante=169, Kdesc=2743, core=0):-23038 23014 
clause level 9 (Kante=195, Kdesc=2224, core=3):74533 -16384 
clause level 10 (Kante=9, Kdesc=1792, core=1):-22918 
clause level 16 (Kante=6, Kdesc=2346, core=1):-48652 
clause level 3 (Kante=57, Kdesc=2633, core=0):64224 -2923 
clause level 19 (Kante=17, Kdesc=2245, core=1):-58469 
clause level 7 (Kante=3, Kdesc=3725, core=0):-11256 11262 
clause level 18 (Kante=24, Kdesc=2922, core=1):-58471 
clause level 3 (Kante=7, Kdesc=2320, core=1):-30917 
clause level 3 (Kante=22, Kdesc=3638, core=0):-20919 -9181 
clause level 32 (Kante=16, Kdesc=4117, core=2):-39253 9181 
clause level 14 (Kante=373, Kdesc=1934, core=2):-6802 
clause level 11 (Kante=345, Kdesc=3160, core=1):21281 -75176 
clause level 15 (Kante=288, Kdesc=1825, core=3):-29684 
clause level 3 (Kante=5, Kdesc=2982, core=0):-9399 
clause level 11 (Kante=6, Kdesc=2693, core=3):75176 -16600 
clause level 15 (Kante=76, Kdesc=2444, core=0):-30116 
clause level 12 (Kante=4, Kdesc=2304, core=3):-22171 
clause level 2 (Kante=4, Kdesc=2275, core=0):-9181 9186 
clause level 4 (Kante=76, Kdesc=1870, core=3):-48936 
clause level 2 (Kante=4, Kdesc=2293, core=2):-9186 9189 
clause level 44 (Kante=50, Kdesc=2244, core=2):-28105 
clause level 9 (Kante=3, Kdesc=2561, core=2):-22207 
clause level 20 (Kante=121, Kdesc=2376, core=0):75994 -14876 
clause level 4 (Kante=56, Kdesc=2824, core=1):66392 -24519 
clause level 8 (Kante=5, Kdesc=2362, core=1):-5425 
clause level 20 (Kante=300, Kdesc=2111, core=1):21281 79555 
clause level 18 (Kante=25, Kdesc=2794, core=1):-58472 
clause level 22 (Kante=3, Kdesc=1981, core=3):-35574 
clause level 1 (Kante=6, Kdesc=2711, core=3):-20911 -64398 
clause level 5 (Kante=5, Kdesc=2827, core=1):68644 -21871 
clause level 1 (Kante=61, Kdesc=2211, core=0):-14485 -9189 
clause level 17 (Kante=6, Kdesc=1893, core=0):-15802 
clause level 16 (Kante=4, Kdesc=2449, core=1):-15779 
clause level 21 (Kante=4, Kdesc=2184, core=2):-35576 
clause level 23 (Kante=29, Kdesc=3895, core=1):-21055 -82652 
clause level 23 (Kante=7, Kdesc=2099, core=1):-35571 
clause level 18 (Kante=75, Kdesc=3093, core=2):-23008 
clause level 16 (Kante=25, Kdesc=2168, core=3):71896 -19905 
clause level 3 (Kante=11, Kdesc=2869, core=1):-11268 11280 
clause level 3 (Kante=10, Kdesc=2510, core=0):-11274 11280 
clause level 166 (Kante=3632, Kdesc=73, core=1):74106 -64378 -85213 -85212 -84988 -85031 
clause level 1 (Kante=8, Kdesc=1735, core=2):74784 -16516 16504 
clause level 1 (Kante=5, Kdesc=3987, core=0):-21036 21039 
clause level 2 (Kante=75, Kdesc=1918, core=0):-41246 11256 
clause level 108 (Kante=2534, Kdesc=107, core=1):85072 -85034 85235 -85033 85236 
clause level 2 (Kante=23, Kdesc=2618, core=1):-28115 
clause level 3 (Kante=49, Kdesc=1981, core=3):-10848 10854 42092 
clause level 4 (Kante=74, Kdesc=1661, core=2):-48935 
clause level 12 (Kante=161, Kdesc=1351, core=1):-15914 
clause level 3 (Kante=4, Kdesc=2294, core=2):-41252 11292 
clause level 3 (Kante=352, Kdesc=2500, core=0):461 -69784 
clause level 11 (Kante=5, Kdesc=2544, core=2):75106 -16418 
clause level 17 (Kante=4, Kdesc=2444, core=0):71896 -19971 
clause level 10 (Kante=41, Kdesc=2361, core=1):21281 -16504 
clause level 16 (Kante=4, Kdesc=2119, core=0):-48654 
clause level 1 (Kante=8, Kdesc=2493, core=3):80068 -9265 9257 
clause level 1 (Kante=5, Kdesc=2335, core=1):21299 -16420 16408 
clause level 18 (Kante=286, Kdesc=1890, core=1):69798 -645 
clause level 11 (Kante=5, Kdesc=1855, core=0):75176 -16516 
clause level 23 (Kante=183, Kdesc=2057, core=1):-28111 
clause level 15 (Kante=141, Kdesc=1962, core=1):71896 -19869 
clause level 45 (Kante=203, Kdesc=2527, core=3):-43406 
clause level 1 (Kante=14, Kdesc=2821, core=1):-21048 -82025 
clause level 49 (Kante=41, Kdesc=2178, core=3):-20979 77358 18262 18274 18310 
clause level 12 (Kante=3, Kdesc=2034, core=2):-15988 
clause level 1 (Kante=13, Kdesc=2180, core=3):74800 -16624 16600 
clause level 16 (Kante=8, Kdesc=2082, core=2):-40758 
clause level 5 (Kante=86, Kdesc=1735, core=1):66532 -24933 
clause level 1 (Kante=21, Kdesc=2460, core=1):75176 -16498 16468 
clause level 1 (Kante=5, Kdesc=1990, core=1):21289 -16396 16384 
clause level 2 (Kante=221, Kdesc=1965, core=3):-21250 -80582 
clause level 2 (Kante=112, Kdesc=1721, core=2):-21250 -65336 
clause level 1 (Kante=5, Kdesc=2010, core=1):21304 16420 -16432 
clause level 5 (Kante=7, Kdesc=1701, core=1):66547 -24741 -66462 -66518 
clause level 10 (Kante=224, Kdesc=1362, core=2):75106 -16418 16384 
clause level 2 (Kante=43, Kdesc=1701, core=3):11144 -79288 
clause level 2 (Kante=20, Kdesc=2311, core=3):21312 -70440 
clause level 110 (Kante=5281, Kdesc=12, core=3):85114 67575 67491 67337 67125 
clause level 45 (Kante=130, Kdesc=1963, core=1):-21088 -65308 
clause level 288 (Kante=4626, Kdesc=81, core=0):67574 -71966 -85072 -85086 85237 
clause level 349 (Kante=2725, Kdesc=426, core=0):-71966 
clause level 2 (Kante=4, Kdesc=1804, core=3):21289 -16408 16384 
clause level 3 (Kante=618, Kdesc=1879, core=2):-15976 16216 
clause level 3 (Kante=673, Kdesc=2252, core=2):-15946 16216 
clause level 1 (Kante=23, Kdesc=1689, core=0):-55704 21123 
clause level 1 (Kante=21, Kdesc=1543, core=2):-372 408 406 409 410 
clause level 23 (Kante=17, Kdesc=1681, core=3):-256 -20990 
clause level 2 (Kante=11, Kdesc=1466, core=0):-55707 21123 
clause level 12 (Kante=26, Kdesc=1550, core=0):-41246 21281 16498 16388 16448 16468 
clause level 2 (Kante=7, Kdesc=1260, core=0):-55709 21123 
clause level 2 (Kante=5, Kdesc=1339, core=2):-21113 21123 
clause level 178 (Kante=5701, Kdesc=17, core=3):77358 -67575 -67617 -85212 -67574 -67616 -67630 
clause level 1 (Kante=14, Kdesc=1249, core=3):-20987 -64657 
clause level 2 (Kante=3, Kdesc=1244, core=0):-55711 21123 
clause level 1 (Kante=5, Kdesc=1276, core=0):-55713 21123 
clause level 2 (Kante=6, Kdesc=1253, core=0):-21118 21123 
clause level 143 (Kante=3386, Kdesc=88, core=1):68714 55652 31970 31521 31524 31971 31972 31525 31973 50312 31974 31522 31523 50313 61639 50308 50311 50307 50302 31969 31975 74106 -85213 33281 33064 33280 33063 33062 33279 33278 33061 33060 33277 33276 33059 33275 50314 16841 33058 44032 44252 44031 44251 44030 44250 44029 44249 44248 44028 44027 44247 44246 44026 44033 44244 44024 44245 44025 -22945 -78442 -85115 -85212 50320 50321 16921 56987 57209 57208 56986 57207 56985 57206 56984 57205 56983 57204 56982 57203 56981 -78470 16848 73525 73301 31968 16859 16925 54981 54752 43178 43177 40045 40233 58649 58055 58051 58049 58053 58052 58651 58054 58650 58652 58654 58050 58653 22992 47016 -85114 54982 58659 58657 58658 
clause level 12 (Kante=307, Kdesc=1051, core=2):-33874 16424 55777 21281 16498 
clause level 13 (Kante=353, Kdesc=1066, core=2):-33877 16424 55777 21281 16498 
clause level 13 (Kante=350, Kdesc=903, core=2):-33868 16424 55777 21281 16498 
clause level 241 (Kante=5583, Kdesc=25, core=2):85145 -85073 -67617 -67575 -79554 -77358 -79540 -85072 -85087 43702 44370 43038 43710 44372 43044 43043 43711 44371 43040 43042 43039 43709 44369 43041 43708 44368 43707 43037 44367 43706 43036 43035 43705 44365 43034 43704 44364 43033 43703 44363 44362 43031 43032 43701 44361 43700 43030 44360 44373 43029 43699 44359 -67574 85235 
clause level 359 (Kante=5162, Kdesc=2, core=2):-67574 79556 79542 79514 
clause level 86 (Kante=1327, Kdesc=18, core=3):85017 41767 41764 79556 79527 41935 41765 41993 41994 41995 41991 41763 41990 41762 41761 41989 41992 41760 41988 41943 41987 41759 41758 41986 41985 41757 41756 41984 41983 41755 41754 41982 41981 41753 41752 41980 41979 41751 41978 41750 41977 41749 41976 41748 41747 41975 41746 41974 41973 41745 41744 41972 41743 41971 41742 41970 41741 41969 41740 41968 41739 41967 41738 41966 41965 41737 41736 41964 41735 41963 41715 41962 41960 41959 41958 41957 41955 41954 41952 41951 41928 41700 41950 41948 41949 41946 41945 41716 41944 41942 41714 41941 41713 41940 41712 41939 41711 41938 41710 41937 41709 41936 41708 41766 41707 41706 41934 41933 41705 41704 41932 41931 41703 41702 41930 41929 41701 41961 41699 41927 41926 41698 41697 41925 41696 41924 41695 41923 41694 41922 41693 41921 41692 41920 41691 41919 41690 41918 41689 41917 41688 41916 21119 51723 
clause level 112 (Kante=2433, Kdesc=2, core=1):79555 -79554 47646 -68714 -85003 -85089 -85213 -74134 -85058 47454 -77386 85214 31975 81512 31527 74106 31974 31526 31973 31525 31524 31972 31971 31523 31970 31522 31969 31521 31520 50313 50312 50303 50309 61639 50308 50304 50311 50305 50306 50310 50307 50302 33008 32968 33009 32954 32956 32957 32958 32984 32955 32953 32967 32959 32960 32950 32961 32952 33006 32962 32963 32965 32966 32974 32970 32971 32972 32973 32983 32975 32976 32977 32978 32979 32980 32981 32982 32969 32985 32964 32986 33005 33004 33007 33003 33002 33001 33000 32999 32998 32997 32996 32995 32994 32993 32992 32991 32990 32989 32988 32987 32949 32951 40046 40234 40045 40233 85161 -67616 -67574 32805 33023 85186 -85032 55652 83891 83863 83821 33281 33064 33280 33063 33062 33279 33278 33061 33060 33277 33276 33059 33275 50314 16841 44032 44252 44031 44251 44030 44250 44029 44249 44248 44028 44027 44247 44246 44026 44033 44244 44024 44245 44025 -79540 64378 
clause level 94 (Kante=4100, Kdesc=22, core=1):-81708 85214 31975 74106 31974 31526 31973 31525 31524 31972 31971 31523 31970 31522 31969 31521 31520 50313 50312 50303 50309 61639 50308 50304 50311 50305 50306 50310 50307 50302 31527 -85088 -85058 33281 33064 33280 33063 33062 33279 33278 33061 33060 33277 33276 33059 33275 33058 50314 16841 55652 44032 44252 44031 44251 44030 44250 44029 44249 44248 44028 44027 44247 44246 44026 44033 44244 44024 44245 44025 -74134 61630 -22945 -78442 85215 85236 
clause level 79 (Kante=1830, Kdesc=1, core=0):-85044 -68714 47646 74120 56851 74092 56847 56879 56875 56880 56432 56881 56429 56426 56885 56427 56877 56428 56883 56884 74022 57109 57331 57142 56882 56433 56886 56848 56846 56852 56845 56853 56844 56854 56855 56843 56850 56849 56856 56871 56872 56870 56873 56874 56431 56869 56430 56876 56868 56867 56878 56862 56858 56860 56859 56863 56864 56865 56857 56861 56866 57143 57141 47454 -74134 -66547 -71966 -85058 -85073 31741 31746 31739 43137 -78456 -79555 -85019 43138 -85160 -85145 -78470 85162 49589 49401 49556 49427 49428 49584 49583 49426 49582 49425 49581 49429 49585 49580 49579 49430 49431 49586 49587 49433 49432 49434 49424 49588 29682 30117 29274 57847 57625 57619 57841 57622 57844 57621 57845 57624 57843 57846 57620 57842 57623 2995 3019 2983 2923 2935 2971 2947 2959 3007 57104 57324 57325 57101 57327 57108 57102 57103 57107 57323 57105 57106 57328 57329 57330 57326 11192 64378 -77358 29850 35954 35958 35953 35961 35959 35955 35960 35952 36124 35951 36123 35950 36122 35957 35941 36121 35949 35948 36120 36119 35947 35946 36118 35945 36117 35944 36116 35956 36115 35943 35942 36114 36113 -76274 85147 85132 -67616 -67574 
clause level 215 (Kante=3280, Kdesc=1, core=1):-74106 5119 -85019 -85033 -77358 -79555 43035 43699 44365 43029 43038 44372 43030 43031 43705 43704 43703 43706 43707 43708 43036 43700 44360 44373 43040 43709 44359 44368 44364 43039 43710 44369 43034 44367 44363 43042 43044 43033 43711 44362 43041 44370 43702 44371 43032 43043 43037 44361 43701 79541 85045 -67575 -67617 -67574 -85159 59363 -77386 -85144 -85129 -79554 -66547 70883 69799 -85158 79513 -85017 85110 
clause level 90 (Kante=1770, Kdesc=1, core=3):85045 -85130 76246 67575 -76232 -74106 -78400 14466 -78442 -67616 31739 42927 43377 43137 28070 39264 31741 43367 39262 39251 9171 39255 14453 39254 28063 28064 39256 9161 28062 14458 29864 64182 29836 29839 29853 29854 29841 29833 29845 29838 29835 29843 29840 29834 29842 29844 29852 29846 48321 29837 61628 29849 29855 29890 29862 29857 29856 29859 29860 29858 29865 29861 29863 29866 29867 29868 29869 29870 29871 29872 29874 29875 29882 29883 29884 29885 29886 29887 29888 29889 29847 29891 29892 29893 29894 29895 29896 29897 29898 29899 29900 29901 29902 29903 29904 29905 29906 29851 29848 29850 48322 48168 48320 48166 48169 48323 48165 48319 49177 49176 49175 49174 48318 48164 29908 29907 48167 11168 -74135 35951 36113 36121 36122 36119 35946 35945 35941 36115 35943 35948 35942 36116 36114 14474 -76274 -68714 -71966 -85003 -85044 -84988 -85033 -85089 -67574 -85160 85109 85020 85076 14972 14924 14948 14864 76176 14912 14960 14876 15104 14984 14888 47097 47102 47100 47098 47103 47099 47101 14900 14936 39347 58113 57909 58116 57910 58094 58092 57908 57904 57907 58091 58093 58090 58095 58089 58088 57903 58096 57905 55044 57925 58108 57923 57911 57906 57931 58115 55052 57929 57928 58114 55051 57930 57933 58118 57932 58117 76008 55055 54836 55062 55063 55061 55060 54830 55059 55064 54829 55058 54828 55057 54831 54827 55056 54826 54832 55065 54822 54825 55054 54833 54834 54835 54823 55050 55049 55048 55047 43143 43142 43140 11785 43138 -79555 -76302 -85145 49064 49066 49069 49067 49070 49065 49071 49068 49073 49072 -77358 -78470 55521 55293 53919 53690 53918 55292 55520 55291 53917 53689 55519 53916 53688 55290 55518 53687 53915 55289 55517 55516 53914 55288 53686 53685 53913 55287 55515 53912 53684 55286 55514 55513 53911 55285 53683 53910 53682 55284 55512 55511 53681 55283 53909 53908 53680 55282 55510 55053 53907 54824 53679 55509 55281 55280 53906 53678 55508 55507 53905 55279 53677 53904 55278 53903 55277 53902 55276 55275 53901 53900 55274 53899 55273 53898 55272 53897 55271 53896 55042 55270 53895 55269 53894 55268 53893 55267 55038 53892 55266 55037 53891 55265 55036 53890 55264 53889 55035 55263 55034 53888 55262 53887 55033 55261 53886 55260 55032 55031 53885 55259 55258 53884 55030 55257 53883 55029 53882 55028 55256 53881 55027 55255 53880 55026 55254 53879 55025 55253 53878 55024 55252 55023 55022 55021 
clause level 200 (Kante=2171, Kdesc=3, core=1):79555 -74106 -85044 5119 71953 67490 47278 46856 -85032 67574 46824 46823 46822 46821 46820 46819 -85212 71840 -77386 23194 23218 23206 23182 23242 23228 23240 23230 23714 48061 47249 46826 47867 48060 48059 47866 46825 47868 46827 47250 46828 46829 47251 47252 46830 46831 47253 47254 46832 47247 46834 46833 47255 47256 47248 32258 23266 23254 23272 67504 32288 32506 67575 47257 46835 23816 61067 61065 61066 33605 34052 33606 33604 34053 34051 -85143 31197 31198 31199 54687 -76288 71967 32262 32261 32260 32259 32257 32256 32255 32254 32253 -76246 71939 -85058 47261 46839 58517 47260 46838 46837 47259 46848 47270 46836 47258 47269 46847 46846 47268 47266 46845 47267 46844 23302 67132 23320 23314 66668 23290 48527 -76302 47273 47274 46852 46853 46851 46854 47276 47275 
clause level 311 (Kante=5232, Kdesc=3, core=1):79555 79513 -66547 -85017 79443 79303 79121 
clause level 169 (Kante=2357, Kdesc=1, core=1):67574 76246 -85162 57917 
clause level 119 (Kante=3946, Kdesc=8, core=0):79540 -84988 85147 85162 75177 -66547 85115 76303 76275 85116 -85088 
clause level 348 (Kante=4553, Kdesc=5, core=0):84974 -71966 -67574 -85073 -85087 85236 12440 
clause level 172 (Kante=5004, Kdesc=1, core=2):79555 85045 49586 49397 75120 49588 49589 16528 49433 49587 49432 49430 49585 49584 49583 49428 49427 49582 49581 16540 49426 49580 49424 49579 16588 49431 49434 49429 49425 49401 49552 49399 49398 49400 49555 49556 49402 49557 49553 49554 16420 42197 42425 42423 42195 42191 42419 42190 16432 16468 75176 49571 49578 49423 49419 49422 49576 49421 49577 49417 49420 49575 49418 49574 49572 49416 49573 48782 16486 49561 49566 49407 49563 49408 49564 49565 49562 49410 49411 49405 49412 49567 49560 49413 49568 49569 49414 49409 49415 49406 49570 49403 49558 49404 49559 42448 42220 42447 42219 42218 42446 42445 42217 42216 42444 42215 42443 42442 42214 42213 42441 42212 42440 42439 42211 42438 42210 42435 42436 42437 42209 42207 42208 42206 42433 42434 42205 16600 16516 16372 16576 16564 16552 16394 16406 16418 16396 16408 16384 42169 16436 16442 16504 16424 48802 42426 42199 42428 42194 42196 42424 42430 42420 42198 42427 42422 42200 42203 42202 42431 42204 42432 -79554 -85074 -85073 85161 -85087 -85159 -85212 85109 -85034 85090 -79540 
clause level 89 (Kante=2142, Kdesc=1, core=3):77387 -85161 -81722 -85088 40047 40053 40046 40050 40235 40051 40238 40048 40239 40237 40240 40236 40234 40045 40233 40232 40052 47013 40049 40044 47012 47011 47010 47000 47009 47008 47005 47006 47007 47001 47002 47004 47003 46999 46998 20951 46996 46995 46997 46994 46993 46992 46991 46990 46989 46988 46987 46986 46985 46984 46983 46982 46981 46980 46979 46978 46977 46976 46975 75234 61637 46972 85045 69799 43147 -22904 -22902 43137 43146 43138 43143 43142 43377 43144 31742 31741 43140 43154 31740 43141 11827 43156 43139 43155 42918 -74106 43374 43136 43135 43134 61635 11863 43157 43149 11887 11815 50991 50760 43375 54714 54943 54715 54944 54716 14469 43148 11839 54945 43153 46973 46974 43152 84138 43376 43151 43150 50985 31746 31739 11875 11795 11803 50766 14490 54940 54713 54942 54711 54939 14459 -81708 -71938 -85044 85033 52173 52149 52150 52163 52157 52158 52156 52166 52171 52167 52164 52162 52161 52160 52155 52154 52153 52152 52168 52159 52151 52169 52165 52170 52172 -85184 
clause level 342 (Kante=3174, Kdesc=1, core=0):79555 77387 -67616 -71966 -67574 -84974 -85198 -85212 -85073 -85087 12440 77359 -67630 
clause level 326 (Kante=2559, Kdesc=9, core=3):68714 85161 -67630 85147 -67616 -85002 85165 85162 85166 
clause level 224 (Kante=5847, Kdesc=7, core=3):85044 -74106 -76274 76246 -67574 -76302 14876 76176 14888 14900 14912 14960 14924 14972 14984 14864 47097 47102 47100 47098 47103 47099 15104 47101 43142 31739 31742 31741 31746 -74134 61642 55046 55045 55044 55043 55042 55039 55033 55030 55029 55028 55027 55026 55025 55024 55023 55022 55021 40142 14936 40141 31740 43138 43140 43137 43136 43143 43135 61635 50760 11780 14996 15008 15020 15092 15116 15080 14948 57909 58094 58092 57908 57904 57907 58091 58093 58090 58089 58088 57903 58096 57905 57925 58108 57923 57911 57906 76008 -67616 43700 43706 43699 43701 43030 43703 43031 43032 43704 43035 43705 43029 43037 43707 43038 43708 43033 43039 43709 43040 43710 43043 43044 43702 43036 43034 43041 50985 -85114 55065 54834 54835 58113 58116 57910 58095 57931 58115 55052 57929 57928 58114 55051 57930 57933 58118 57932 58117 55055 54836 55062 55063 55061 55060 54830 55059 55064 54829 55058 54828 55057 54831 54827 55056 54826 54832 54822 54825 55054 54833 54823 55050 55049 55048 55047 58109 57926 57927 58105 57920 58112 47074 47077 47075 57921 58106 54824 57934 55053 58119 23376 40108 40106 40094 40092 40091 40090 40089 40088 40087 40086 40085 -85058 40110 40109 40107 40105 40104 40103 40097 40093 12566 12572 53799 53571 54025 54022 53800 53572 54488 54029 61630 5259 41567 41795 41796 41568 54024 21476 54023 54482 
clause level 180 (Kante=2931, Kdesc=19, core=3):-67575 -76274 -85045 -74106 -85212 -71966 -76302 -85114 47007 47009 47008 47006 47001 47004 47005 47002 47013 47012 47011 47010 46999 47000 31742 43137 31741 31746 31739 47003 -85044 -85089 -74134 43136 43143 43138 11780 11785 43140 61635 43142 61642 -85073 
Found 6683 good successive clauses in order (6358 originals, maxlevel=359)
c KCorePR 641867 843 6683 6358 359
c DistanceTo...Unseen 387276
c DistanceToGoodKCore c   DIST 0: 6683 (+6683) / 6683 (+6683)
c   DIST 1: 124285 (+117602) / 73753 (+67070)
c   DIST 2: 247073 (+122788) / 153762 (+80009)
c   DIST 3: 253114 (+6041) / 156522 (+2760)
c   DIST 4: 254081 (+967) / 156864 (+342)
c   DIST 5: 254297 (+216) / 156875 (+11)
c   DIST 6: 254426 (+129) / 156877 (+2)
c   DIST 7: 254520 (+94) / 156878 (+1)
c   DIST 8: 254568 (+48) / 156879 (+1)
c   DIST 9: 254583 (+15) / 156879 (+0)
c   DIST 10: 254587 (+4) / 156879 (+0)
c   DIST 11: 254590 (+3) / 156879 (+0)
c   DIST 12: 254591 (+1) / 156879 (+0)
c TotalDistance=641867
No graph is dumped
c result of core 3 is UNSAT
c One thread has finished
c Core 3 said it finished
c result of core 0 is UNKNOWN
c result of core 1 is UNKNOWN
c result of core 2 is UNKNOWN
c restarts              : 142 (190 conflicts in avg)
c blocked restarts      : 1 (multiple: 1) 
c last block at restart : 94
c nb ReduceDB           : 3
c nb removed Clauses    : 14677
c nb learnts DL2        : 1061
c nb learnts size 2     : 608
c nb learnts size 1     : 136
c conflicts             : 27103          (40 /sec)
c decisions             : 206011         (0.00 % random) (301 /sec)
c propagations          : 113303382      (165480 /sec)
c conflict literals     : 5179825        (16.22 % deleted)
c nb reduced Clauses    : 319
c CPU time              : 684.696 s

s INDETERMINATE
