c
c This is glucose-proof 1.0 based on  2.1 --  (thanks to MiniSAT)
c
c EXPERIMENTAL EASY PARALLEL (ROUND ROBIN) VERSION
c
c WARNING: for repeatability, setting FPU to use double precision
c Parallel version 4 solvers created.
c ========================================[ Problem Statistics ]===========================================
c |                                                                                                       |
c |  Number of variables:         64616                                                                   |
c |  Number of clauses:          376290                                                                   |
c |  Parse time:                   0.41 s                                                                 |
c |                                                                                                       |
c ========================================[ MAGIC CONSTANTS ]==============================================
c | Constants are supposed to work well together :-)                                                      |
c | however, if you find better choices, please let us known...                                           |
c |-------------------------------------------------------------------------------------------------------|
c |                                |                                |                                     |
c | - Restarts:                    | - Reduce Clause DB:            | - Minimize Asserting:               |
c |   * LBD Queue    :     50      |   * First     :   4000         |    * size <  30                     |
c |   * Trail  Queue :   5000      |   * Inc       :    300         |    * lbd  <   6                     |
c |   * K            :   0.80      |   * Special   :   1000         |                                     |
c |   * R            :   1.40      |   * Protected :  (lbd)< 30     |                                     |
c |                                |                                |                                     |
c ==================================[ Search Statistics (every  10000 conflicts) ]=========================
c |                                                                                                       |
c |          RESTARTS           |          ORIGINAL         |              LEARNT              | Progress |
c |       NB   Blocked  Avg Cfc |    Vars  Clauses Literals |   Red   Learnts    LBD2  Removed |          |
c =========================================================================================================
c |       92         0      108 |   49282   376290  1029434 |     1     7531      497     2591 | 23.731 % |
c |      186        25      107 |   47488   376290  1029434 |     3     6679      805    14447 | 26.507 % |
c empty clause found by core 2 at conflict 29570
*
c checking the resolution graph...OK
c All useful bySize 73081 clauses, percentiles 0 2 2 2 2 2 4 42 106 249 700 768 (0,1,5,10,25,50,75,90,95,99,100-1,100)
c All useless bySize 422534 clauses, percentiles 0 2 2 2 2 3 5 174 309 603 1788 1804 (0,1,5,10,25,50,75,90,95,99,100-1,100)
c ProofOnly useful bySize 17328 clauses, percentiles 0 1 2 3 5 25 92 166 236 397 700 768 (0,1,5,10,25,50,75,90,95,99,100-1,100)
c ProofOnly useless bySize 100951 clauses, percentiles 1 3 6 12 55 138 274 445 568 889 1788 1804 (0,1,5,10,25,50,75,90,95,99,100-1,100)
c All useful byFinalLBD 73081 clauses, percentiles 0 1 2 2 2 2 3 5 10 36 213 217 (0,1,5,10,25,50,75,90,95,99,100-1,100)
c All useless byFinalLBD 422534 clauses, percentiles 0 2 2 2 2 3 5 18 41 122 768 768 (0,1,5,10,25,50,75,90,95,99,100-1,100)
c ProofOnly useful byFinalLBD 17328 clauses, percentiles 0 1 1 1 2 3 6 18 31 97 213 217 (0,1,5,10,25,50,75,90,95,99,100-1,100)
c ProofOnly useless byFinalLBD 100951 clauses, percentiles 1 1 2 3 6 13 35 73 112 228 768 768 (0,1,5,10,25,50,75,90,95,99,100-1,100)
c All useful byInitialLBD 73081 clauses, percentiles 0 2 2 2 2 2 3 8 15 59 257 262 (0,1,5,10,25,50,75,90,95,99,100-1,100)
c All useless byInitialLBD 422534 clauses, percentiles 0 2 2 2 2 3 5 21 45 126 768 783 (0,1,5,10,25,50,75,90,95,99,100-1,100)
c ProofOnly useful byInitialLBD 17328 clauses, percentiles 0 1 2 2 3 5 12 29 52 115 257 262 (0,1,5,10,25,50,75,90,95,99,100-1,100)
c ProofOnly useless byInitialLBD 100951 clauses, percentiles 1 2 3 4 7 16 38 78 117 233 768 783 (0,1,5,10,25,50,75,90,95,99,100-1,100)
c Literals ProofOnly useful 1081900
c Literals ProofOnly useless 19691475
c additional windowsGood 1 1 1 1 1 1 1 2 2 3 7 7 (0,1,5,10,25,50,75,90,95,99,100-1,100)
c additional windowsBad 1 1 1 1 2 3 7 15 25 63 528 550 (0,1,5,10,25,50,75,90,95,99,100-1,100)
c additional 1WindowNoDecision 11740 6200 0.53 1870 763 0.41 (nbWindowsGood,nbWindowsNoDecisionGood,nbWindowsBad,nbWindowsNoDecisionBad
c additional topclausessize all (10%,5%,1%,top) 132.86 193.50 348.39 768
c additional topclausessize proofonly (10%,5%,1%,top) 175.04 238.04 393.20 768
c additional topclausesinitialLBD all (10%,5%,1%,top) 125.81 184.93 337.53 768
c additional topclausesinitialLBD proofonly (10%,5%,1%,top) 120.00 177.60 327.93 768
c additional topclausesfinalLBD all (10%,5%,1%,top) 94.68 150.50 295.38 768
c additional topclausesfinalLBD proofonly (10%,5%,1%,top) 91.64 146.21 289.08 768
c additional predictionInitialLBD 1 353 17328 0.91 0.02 0.04 117926 100951 0.86 5.82 1.49 0.86 (nbgoodclauses,nbtotalgood,precisionGood,recallGood,FGood,nbbadclause,nbtotalbad,precisionBad,recallBad,FBad,accuracy)
c additional predictionInitialLBD 2 4486 17328 0.58 0.15 0.24 113793 100951 0.87 5.72 1.51 0.86 (nbgoodclauses,nbtotalgood,precisionGood,recallGood,FGood,nbbadclause,nbtotalbad,precisionBad,recallBad,FBad,accuracy)
c additional predictionInitialLBD 3 11216 17328 0.49 0.31 0.38 107063 100951 0.89 5.49 1.53 0.85 (nbgoodclauses,nbtotalgood,precisionGood,recallGood,FGood,nbbadclause,nbtotalbad,precisionBad,recallBad,FBad,accuracy)
c additional predictionInitialLBD 4 18564 17328 0.40 0.43 0.42 99715 100951 0.90 5.19 1.54 0.82 (nbgoodclauses,nbtotalgood,precisionGood,recallGood,FGood,nbbadclause,nbtotalbad,precisionBad,recallBad,FBad,accuracy)
c additional predictionInitialLBD 5 25525 17328 0.35 0.52 0.42 92754 100951 0.91 4.87 1.53 0.79 (nbgoodclauses,nbtotalgood,precisionGood,recallGood,FGood,nbbadclause,nbtotalbad,precisionBad,recallBad,FBad,accuracy)
c additional predictionInitialLBD 6 31605 17328 0.32 0.58 0.41 86674 100951 0.92 4.58 1.53 0.76 (nbgoodclauses,nbtotalgood,precisionGood,recallGood,FGood,nbbadclause,nbtotalbad,precisionBad,recallBad,FBad,accuracy)
c additional predictionInitialLBD 7 37006 17328 0.29 0.63 0.40 81273 100951 0.92 4.32 1.52 0.72 (nbgoodclauses,nbtotalgood,precisionGood,recallGood,FGood,nbbadclause,nbtotalbad,precisionBad,recallBad,FBad,accuracy)
c additional predictionInitialLBD 8 41586 17328 0.28 0.66 0.39 76693 100951 0.92 4.09 1.51 0.70 (nbgoodclauses,nbtotalgood,precisionGood,recallGood,FGood,nbbadclause,nbtotalbad,precisionBad,recallBad,FBad,accuracy)
c additional predictionInitialLBD 10 49430 17328 0.25 0.72 0.37 68849 100951 0.93 3.69 1.48 0.65 (nbgoodclauses,nbtotalgood,precisionGood,recallGood,FGood,nbbadclause,nbtotalbad,precisionBad,recallBad,FBad,accuracy)
c additional predictionInitialLBD 14 60984 17328 0.22 0.78 0.35 57295 100951 0.93 3.09 1.43 0.57 (nbgoodclauses,nbtotalgood,precisionGood,recallGood,FGood,nbbadclause,nbtotalbad,precisionBad,recallBad,FBad,accuracy)
c additional predictionInitialLBD 18 69338 17328 0.21 0.83 0.33 48941 100951 0.94 2.65 1.39 0.51 (nbgoodclauses,nbtotalgood,precisionGood,recallGood,FGood,nbbadclause,nbtotalbad,precisionBad,recallBad,FBad,accuracy)
c additional predictionInitialLBD 22 75911 17328 0.20 0.86 0.32 42368 100951 0.94 2.31 1.34 0.46 (nbgoodclauses,nbtotalgood,precisionGood,recallGood,FGood,nbbadclause,nbtotalbad,precisionBad,recallBad,FBad,accuracy)
c additional predictionInitialLBD 30 85127 17328 0.18 0.91 0.31 33152 100951 0.95 1.82 1.25 0.40 (nbgoodclauses,nbtotalgood,precisionGood,recallGood,FGood,nbbadclause,nbtotalbad,precisionBad,recallBad,FBad,accuracy)
c additional predictionInitialLBD 40 93257 17328 0.17 0.93 0.29 25022 100951 0.95 1.38 1.13 0.34 (nbgoodclauses,nbtotalgood,precisionGood,recallGood,FGood,nbbadclause,nbtotalbad,precisionBad,recallBad,FBad,accuracy)
c additional predictionFinallLBD 1 4897 17328 0.63 0.18 0.28 113382 100951 0.87 0.98 0.93 0.86 (nbgoodclauses,nbtotalgood,precisionGood,recallGood,FGood,nbbadclause,nbtotalbad,precisionBad,recallBad,FBad,accuracy)
c additional predictionFinallLBD 2 14284 17328 0.54 0.44 0.48 103995 100951 0.91 0.93 0.92 0.86 (nbgoodclauses,nbtotalgood,precisionGood,recallGood,FGood,nbbadclause,nbtotalbad,precisionBad,recallBad,FBad,accuracy)
c additional predictionFinallLBD 3 22271 17328 0.45 0.58 0.51 96008 100951 0.92 0.88 0.90 0.84 (nbgoodclauses,nbtotalgood,precisionGood,recallGood,FGood,nbbadclause,nbtotalbad,precisionBad,recallBad,FBad,accuracy)
c additional predictionFinallLBD 4 29481 17328 0.39 0.67 0.50 88798 100951 0.94 0.82 0.88 0.80 (nbgoodclauses,nbtotalgood,precisionGood,recallGood,FGood,nbbadclause,nbtotalbad,precisionBad,recallBad,FBad,accuracy)
c additional predictionFinallLBD 5 35923 17328 0.35 0.72 0.47 82356 100951 0.94 0.77 0.85 0.76 (nbgoodclauses,nbtotalgood,precisionGood,recallGood,FGood,nbbadclause,nbtotalbad,precisionBad,recallBad,FBad,accuracy)
c additional predictionFinallLBD 6 41624 17328 0.32 0.76 0.45 76655 100951 0.95 0.72 0.82 0.72 (nbgoodclauses,nbtotalgood,precisionGood,recallGood,FGood,nbbadclause,nbtotalbad,precisionBad,recallBad,FBad,accuracy)
c additional predictionFinallLBD 7 46519 17328 0.29 0.78 0.43 71760 100951 0.95 0.67 0.79 0.69 (nbgoodclauses,nbtotalgood,precisionGood,recallGood,FGood,nbbadclause,nbtotalbad,precisionBad,recallBad,FBad,accuracy)
c additional predictionFinallLBD 8 50609 17328 0.28 0.81 0.41 67670 100951 0.95 0.64 0.76 0.66 (nbgoodclauses,nbtotalgood,precisionGood,recallGood,FGood,nbbadclause,nbtotalbad,precisionBad,recallBad,FBad,accuracy)
c additional predictionFinallLBD 10 57632 17328 0.25 0.84 0.39 60647 100951 0.95 0.57 0.72 0.61 (nbgoodclauses,nbtotalgood,precisionGood,recallGood,FGood,nbbadclause,nbtotalbad,precisionBad,recallBad,FBad,accuracy)
c additional predictionFinallLBD 14 67947 17328 0.22 0.88 0.36 50332 100951 0.96 0.48 0.64 0.54 (nbgoodclauses,nbtotalgood,precisionGood,recallGood,FGood,nbbadclause,nbtotalbad,precisionBad,recallBad,FBad,accuracy)
c additional predictionFinallLBD 18 75288 17328 0.21 0.90 0.34 42991 100951 0.96 0.41 0.57 0.48 (nbgoodclauses,nbtotalgood,precisionGood,recallGood,FGood,nbbadclause,nbtotalbad,precisionBad,recallBad,FBad,accuracy)
c additional predictionFinallLBD 22 80981 17328 0.20 0.92 0.33 37298 100951 0.96 0.36 0.52 0.44 (nbgoodclauses,nbtotalgood,precisionGood,recallGood,FGood,nbbadclause,nbtotalbad,precisionBad,recallBad,FBad,accuracy)
c additional predictionFinallLBD 30 89026 17328 0.18 0.95 0.31 29253 100951 0.97 0.28 0.44 0.38 (nbgoodclauses,nbtotalgood,precisionGood,recallGood,FGood,nbbadclause,nbtotalbad,precisionBad,recallBad,FBad,accuracy)
c additional predictionFinallLBD 40 96148 17328 0.17 0.96 0.29 22131 100951 0.97 0.21 0.35 0.32 (nbgoodclauses,nbtotalgood,precisionGood,recallGood,FGood,nbbadclause,nbtotalbad,precisionBad,recallBad,FBad,accuracy)
c additional predictionSize 1 353 17328 0.91 0.02 0.04 117926 100951 0.86 5.82 1.49 0.86 (nbgoodclauses,nbtotalgood,precisionGood,recallGood,FGood,nbbadclause,nbtotalbad,precisionBad,recallBad,FBad,accuracy)
c additional predictionSize 2 2594 17328 0.64 0.10 0.17 115685 100951 0.86 5.77 1.50 0.86 (nbgoodclauses,nbtotalgood,precisionGood,recallGood,FGood,nbbadclause,nbtotalbad,precisionBad,recallBad,FBad,accuracy)
c additional predictionSize 3 5292 17328 0.57 0.17 0.27 112987 100951 0.87 5.70 1.51 0.86 (nbgoodclauses,nbtotalgood,precisionGood,recallGood,FGood,nbbadclause,nbtotalbad,precisionBad,recallBad,FBad,accuracy)
c additional predictionSize 4 7178 17328 0.53 0.22 0.31 111101 100951 0.88 5.63 1.52 0.86 (nbgoodclauses,nbtotalgood,precisionGood,recallGood,FGood,nbbadclause,nbtotalbad,precisionBad,recallBad,FBad,accuracy)
c additional predictionSize 5 9071 17328 0.50 0.26 0.34 109208 100951 0.88 5.56 1.52 0.85 (nbgoodclauses,nbtotalgood,precisionGood,recallGood,FGood,nbbadclause,nbtotalbad,precisionBad,recallBad,FBad,accuracy)
c additional predictionSize 6 10445 17328 0.48 0.29 0.36 107834 100951 0.89 5.51 1.53 0.85 (nbgoodclauses,nbtotalgood,precisionGood,recallGood,FGood,nbbadclause,nbtotalbad,precisionBad,recallBad,FBad,accuracy)
c additional predictionSize 7 11735 17328 0.46 0.31 0.37 106544 100951 0.89 5.46 1.53 0.85 (nbgoodclauses,nbtotalgood,precisionGood,recallGood,FGood,nbbadclause,nbtotalbad,precisionBad,recallBad,FBad,accuracy)
c additional predictionSize 8 12908 17328 0.45 0.33 0.38 105371 100951 0.89 5.41 1.53 0.84 (nbgoodclauses,nbtotalgood,precisionGood,recallGood,FGood,nbbadclause,nbtotalbad,precisionBad,recallBad,FBad,accuracy)
c additional predictionSize 10 15319 17328 0.42 0.37 0.39 102960 100951 0.89 5.31 1.53 0.83 (nbgoodclauses,nbtotalgood,precisionGood,recallGood,FGood,nbbadclause,nbtotalbad,precisionBad,recallBad,FBad,accuracy)
c additional predictionSize 14 18638 17328 0.39 0.42 0.40 99641 100951 0.90 5.17 1.53 0.82 (nbgoodclauses,nbtotalgood,precisionGood,recallGood,FGood,nbbadclause,nbtotalbad,precisionBad,recallBad,FBad,accuracy)
c additional predictionSize 18 21477 17328 0.37 0.46 0.41 96802 100951 0.90 5.04 1.53 0.81 (nbgoodclauses,nbtotalgood,precisionGood,recallGood,FGood,nbbadclause,nbtotalbad,precisionBad,recallBad,FBad,accuracy)
c additional predictionSize 22 23615 17328 0.35 0.48 0.41 94664 100951 0.91 4.95 1.53 0.80 (nbgoodclauses,nbtotalgood,precisionGood,recallGood,FGood,nbbadclause,nbtotalbad,precisionBad,recallBad,FBad,accuracy)
c additional predictionSize 30 27257 17328 0.34 0.53 0.41 91022 100951 0.91 4.78 1.53 0.78 (nbgoodclauses,nbtotalgood,precisionGood,recallGood,FGood,nbbadclause,nbtotalbad,precisionBad,recallBad,FBad,accuracy)
c additional predictionSize 40 30918 17328 0.32 0.57 0.41 87361 100951 0.91 4.61 1.53 0.76 (nbgoodclauses,nbtotalgood,precisionGood,recallGood,FGood,nbbadclause,nbtotalbad,precisionBad,recallBad,FBad,accuracy)
c additional predictionAge 1 7771 17328 0.34 0.15 0.21 110508 100951 0.87 5.53 1.50 0.83 (nbgoodclauses,nbtotalgood,precisionGood,recallGood,FGood,nbbadclause,nbtotalbad,precisionBad,recallBad,FBad,accuracy)
c additional predictionAge 10 9430 17328 0.31 0.17 0.22 108849 100951 0.87 5.45 1.50 0.82 (nbgoodclauses,nbtotalgood,precisionGood,recallGood,FGood,nbbadclause,nbtotalbad,precisionBad,recallBad,FBad,accuracy)
c additional predictionAge 25 11205 17328 0.29 0.19 0.23 107074 100951 0.87 5.37 1.49 0.81 (nbgoodclauses,nbtotalgood,precisionGood,recallGood,FGood,nbbadclause,nbtotalbad,precisionBad,recallBad,FBad,accuracy)
c additional predictionAge 50 12245 17328 0.28 0.20 0.23 106034 100951 0.87 5.32 1.49 0.81 (nbgoodclauses,nbtotalgood,precisionGood,recallGood,FGood,nbbadclause,nbtotalbad,precisionBad,recallBad,FBad,accuracy)
c additional predictionAge 100 13292 17328 0.27 0.21 0.23 104987 100951 0.87 5.27 1.49 0.80 (nbgoodclauses,nbtotalgood,precisionGood,recallGood,FGood,nbbadclause,nbtotalbad,precisionBad,recallBad,FBad,accuracy)
c additional predictionAge 250 14427 17328 0.26 0.22 0.24 103852 100951 0.87 5.21 1.49 0.80 (nbgoodclauses,nbtotalgood,precisionGood,recallGood,FGood,nbbadclause,nbtotalbad,precisionBad,recallBad,FBad,accuracy)
c additional predictionAge 500 15226 17328 0.26 0.23 0.24 103053 100951 0.87 5.18 1.49 0.79 (nbgoodclauses,nbtotalgood,precisionGood,recallGood,FGood,nbbadclause,nbtotalbad,precisionBad,recallBad,FBad,accuracy)
c additional predictionAge 1000 16182 17328 0.26 0.24 0.25 102097 100951 0.87 5.13 1.49 0.79 (nbgoodclauses,nbtotalgood,precisionGood,recallGood,FGood,nbbadclause,nbtotalbad,precisionBad,recallBad,FBad,accuracy)
c additional predictionAge 2500 18340 17328 0.25 0.27 0.26 99939 100951 0.87 5.04 1.49 0.78 (nbgoodclauses,nbtotalgood,precisionGood,recallGood,FGood,nbbadclause,nbtotalbad,precisionBad,recallBad,FBad,accuracy)
c additional predictionAge 5000 21459 17328 0.25 0.30 0.27 96820 100951 0.88 4.89 1.49 0.76 (nbgoodclauses,nbtotalgood,precisionGood,recallGood,FGood,nbbadclause,nbtotalbad,precisionBad,recallBad,FBad,accuracy)
c additional predictionAge 10000 27647 17328 0.23 0.37 0.29 90632 100951 0.88 4.60 1.48 0.73 (nbgoodclauses,nbtotalgood,precisionGood,recallGood,FGood,nbbadclause,nbtotalbad,precisionBad,recallBad,FBad,accuracy)
c additional predictionAge 25000 44922 17328 0.21 0.54 0.30 73357 100951 0.89 3.78 1.44 0.63 (nbgoodclauses,nbtotalgood,precisionGood,recallGood,FGood,nbbadclause,nbtotalbad,precisionBad,recallBad,FBad,accuracy)
c additional predictionAge 50000 67506 17328 0.19 0.76 0.31 50773 100951 0.92 2.69 1.37 0.50 (nbgoodclauses,nbtotalgood,precisionGood,recallGood,FGood,nbbadclause,nbtotalbad,precisionBad,recallBad,FBad,accuracy)
c additional predictionAge 100000 109350 17328 0.15 0.96 0.26 8929 100951 0.91 0.47 0.62 0.21 (nbgoodclauses,nbtotalgood,precisionGood,recallGood,FGood,nbbadclause,nbtotalbad,precisionBad,recallBad,FBad,accuracy)
c additional predictionTicks 1 7903 17328 0.34 0.16 0.22 110376 100951 0.87 5.53 1.50 0.83 (nbgoodclauses,nbtotalgood,precisionGood,recallGood,FGood,nbbadclause,nbtotalbad,precisionBad,recallBad,FBad,accuracy)
c additional predictionTicks 10 22587 17328 0.23 0.30 0.26 95692 100951 0.87 4.82 1.48 0.75 (nbgoodclauses,nbtotalgood,precisionGood,recallGood,FGood,nbbadclause,nbtotalbad,precisionBad,recallBad,FBad,accuracy)
c additional predictionTicks 25 33576 17328 0.20 0.39 0.27 84703 100951 0.88 4.28 1.45 0.68 (nbgoodclauses,nbtotalgood,precisionGood,recallGood,FGood,nbbadclause,nbtotalbad,precisionBad,recallBad,FBad,accuracy)
c additional predictionTicks 50 40891 17328 0.19 0.45 0.27 77388 100951 0.88 3.92 1.43 0.64 (nbgoodclauses,nbtotalgood,precisionGood,recallGood,FGood,nbbadclause,nbtotalbad,precisionBad,recallBad,FBad,accuracy)
c additional predictionTicks 100 48197 17328 0.18 0.51 0.27 70082 100951 0.88 3.56 1.41 0.60 (nbgoodclauses,nbtotalgood,precisionGood,recallGood,FGood,nbbadclause,nbtotalbad,precisionBad,recallBad,FBad,accuracy)
c additional predictionTicks 250 56164 17328 0.18 0.58 0.27 62115 100951 0.88 3.17 1.38 0.55 (nbgoodclauses,nbtotalgood,precisionGood,recallGood,FGood,nbbadclause,nbtotalbad,precisionBad,recallBad,FBad,accuracy)
c additional predictionTicks 500 61772 17328 0.18 0.63 0.28 56507 100951 0.89 2.90 1.36 0.52 (nbgoodclauses,nbtotalgood,precisionGood,recallGood,FGood,nbbadclause,nbtotalbad,precisionBad,recallBad,FBad,accuracy)
c additional predictionTicks 1000 67650 17328 0.18 0.69 0.28 50629 100951 0.89 2.61 1.33 0.48 (nbgoodclauses,nbtotalgood,precisionGood,recallGood,FGood,nbbadclause,nbtotalbad,precisionBad,recallBad,FBad,accuracy)
c additional predictionTicks 2500 77716 17328 0.17 0.78 0.29 40563 100951 0.91 2.12 1.27 0.43 (nbgoodclauses,nbtotalgood,precisionGood,recallGood,FGood,nbbadclause,nbtotalbad,precisionBad,recallBad,FBad,accuracy)
c additional predictionTicks 5000 87517 17328 0.17 0.86 0.28 30762 100951 0.92 1.63 1.18 0.36 (nbgoodclauses,nbtotalgood,precisionGood,recallGood,FGood,nbbadclause,nbtotalbad,precisionBad,recallBad,FBad,accuracy)
c additional predictionTicks 10000 99305 17328 0.16 0.92 0.27 18974 100951 0.93 1.02 0.97 0.28 (nbgoodclauses,nbtotalgood,precisionGood,recallGood,FGood,nbbadclause,nbtotalbad,precisionBad,recallBad,FBad,accuracy)
c additional predictionTicks 25000 112230 17328 0.15 0.98 0.26 6049 100951 0.94 0.33 0.49 0.19 (nbgoodclauses,nbtotalgood,precisionGood,recallGood,FGood,nbbadclause,nbtotalbad,precisionBad,recallBad,FBad,accuracy)
c additional predictionTicks 50000 116816 17328 0.15 0.99 0.26 1463 100951 0.94 0.08 0.15 0.16 (nbgoodclauses,nbtotalgood,precisionGood,recallGood,FGood,nbbadclause,nbtotalbad,precisionBad,recallBad,FBad,accuracy)
c additional predictionTicks 100000 118232 17328 0.15 1.00 0.26 47 100951 0.91 0.00 0.00 0.15 (nbgoodclauses,nbtotalgood,precisionGood,recallGood,FGood,nbbadclause,nbtotalbad,precisionBad,recallBad,FBad,accuracy)
c additional lifetimeGood 1 4 16 180 4816 18113 39118 64544 84027 105370 119242 119262 (0,1,5,10,25,50,75,90,95,99,100-1,100)
c additional lifetimeBad 1 4 20 471 8215 26006 51554 73893 85748 104393 119271 119283 (0,1,5,10,25,50,75,90,95,99,100-1,100)
c additional lifetimeBadBad 1 4 4 4 24 3534 21111 46478 64075 92720 117752 118377 (0,1,5,10,25,50,75,90,95,99,100-1,100)
c additional compositionBad 1 3 7 11 29 80 219 482 730 1406 4938 5942 (0,1,5,10,25,50,75,90,95,99,100-1,100)
c additional compositionBadWithGood 0 0 0 0 1 5 14 32 48 94 281 301 (0,1,5,10,25,50,75,90,95,99,100-1,100)
c additional compositionBadWithBad 0 0 0 0 1 2 4 7 10 21 146 147 (0,1,5,10,25,50,75,90,95,99,100-1,100)
c additional compositionBadWithInitial 0 2 5 9 25 71 200 447 682 1316 4818 5819 (0,1,5,10,25,50,75,90,95,99,100-1,100)
c additional compositionGood 1 3 4 5 10 27 81 215 368 851 2535 3068 (0,1,5,10,25,50,75,90,95,99,100-1,100)
c additional compositionGoodWithGood 0 0 0 0 1 3 7 17 28 66 194 195 (0,1,5,10,25,50,75,90,95,99,100-1,100)
c additional compositionGoodWithInitial 0 2 3 4 9 24 73 198 345 804 2380 2904 (0,1,5,10,25,50,75,90,95,99,100-1,100)
c additional propagationGood total 2486226 percentiles 0 1 1 1 3 18 97 341 706 2060 6873 7846 (0,1,5,10,25,50,75,90,95,99,100-1,100)
c additional propagationBad total 1243147 percentiles 1 1 1 1 1 2 5 18 45 211 3164 4346 (0,1,5,10,25,50,75,90,95,99,100-1,100)
c additional resolutionGood total 466683 percentiles 0 0 1 1 2 7 23 62 112 330 1565 1954 (0,1,5,10,25,50,75,90,95,99,100-1,100)
c additional resolutionBad total 281650 percentiles 0 0 0 0 1 1 2 6 11 31 199 309 (0,1,5,10,25,50,75,90,95,99,100-1,100)
Computing K-Core for 495615 clauses...
c building structure for KCore computation.
c the graph has 20311435 edges, maxdegree=5942
c we start the KCore with the value 20
c Non directed graph built
K=20,89503 nodes removed so far
K=21,91670 nodes removed so far
K=22,93715 nodes removed so far
K=23,95813 nodes removed so far
K=24,97673 nodes removed so far
K=25,99598 nodes removed so far
K=26,101363 nodes removed so far
K=27,103115 nodes removed so far
K=28,104975 nodes removed so far
K=29,106731 nodes removed so far
K=30,K=31,K=32,111461 nodes removed so far
K=33,K=34,K=35,K=36,K=37,K=38,120017 nodes removed so far
K=39,K=40,K=41,K=42,K=43,K=44,K=45,K=46,K=47,131038 nodes removed so far
K=48,K=49,K=50,K=51,K=52,K=53,K=54,K=55,K=56,K=57,140743 nodes removed so far
K=58,K=59,K=60,K=61,K=62,K=63,K=64,K=65,K=66,K=67,K=68,K=69,150611 nodes removed so far
K=70,K=71,K=72,K=73,K=74,K=75,K=76,K=77,K=78,K=79,K=80,K=81,K=82,K=83,K=84,160484 nodes removed so far
K=85,K=86,K=87,K=88,K=89,K=90,K=91,K=92,K=93,K=94,K=95,K=96,K=97,K=98,K=99,K=100,K=101,K=102,K=103,170035 nodes removed so far
K=104,K=105,K=106,K=107,K=108,K=109,K=110,K=111,K=112,K=113,K=114,K=115,K=116,K=117,K=118,K=119,K=120,K=121,K=122,K=123,K=124,K=125,K=126,K=127,K=128,K=129,180177 nodes removed so far
K=130,K=131,K=132,K=133,K=134,K=135,K=136,K=137,K=138,K=139,K=140,K=141,K=142,K=143,K=144,K=145,K=146,K=147,K=148,K=149,K=150,K=151,K=152,K=153,K=154,K=155,K=156,K=157,K=158,K=159,K=160,K=161,190144 nodes removed so far
K=162,K=163,K=164,K=165,K=166,K=167,K=168,K=169,K=170,K=171,K=172,K=173,K=174,K=175,K=176,K=177,K=178,K=179,K=180,K=181,K=182,K=183,K=184,K=185,K=186,K=187,K=188,K=189,K=190,K=191,K=192,K=193,K=194,K=195,K=196,K=197,K=198,K=199,K=200,K=201,K=202,K=203,200199 nodes removed so far
K=204,K=205,K=206,K=207,K=208,K=209,K=210,K=211,K=212,K=213,K=214,K=215,K=216,K=217,K=218,K=219,K=220,K=221,K=222,K=223,K=224,K=225,K=226,K=227,K=228,K=229,K=230,K=231,K=232,K=233,K=234,K=235,K=236,K=237,K=238,K=239,K=240,K=241,K=242,K=243,K=244,K=245,K=246,210068 nodes removed so far
K=247,K=248,K=249,K=250,K=251,K=252,K=253,K=254,K=255,K=256,K=257,K=258,K=259,K=260,K=261,K=262,K=263,K=264,K=265,K=266,K=267,K=268,K=269,K=270,K=271,K=272,K=273,K=274,K=275,K=276,K=277,K=278,K=279,K=280,K=281,K=282,K=283,K=284,K=285,K=286,K=287,K=288,K=289,K=290,K=291,221539 nodes removed so far
K=292,K=293,K=294,K=295,K=296,K=297,K=298,K=299,K=300,K=301,K=302,K=303,K=304,K=305,K=306,K=307,K=308,K=309,K=310,K=311,K=312,K=313,K=314,K=315,K=316,K=317,K=318,K=319,K=320,K=321,K=322,K=323,K=324,K=325,K=326,K=327,K=328,K=329,K=330,K=331,K=332,K=333,K=334,K=335,K=336,K=337,K=338,K=339,K=340,K=341,K=342,K=343,K=344,K=345,K=346,K=347,K=348,K=349,K=350,K=351,K=352,K=353,K=354,K=355,K=356,K=357,K=358,K=359,K=360,K=361,K=362,230039 nodes removed so far
K=363,K=364,K=365,K=366,K=367,K=368,K=369,K=370,K=371,K=372,K=373,K=374,K=375,K=376,K=377,K=378,K=379,K=380,K=381,K=382,K=383,K=384,K=385,K=386,K=387,K=388,K=389,K=390,K=391,K=392,K=393,K=394,K=395,KCore = 395
Building structure for PR...
Computing PR...
Pageranking 221350 nodes done in 12 iteration. cumulError=9.42203e-11
clause level 135 (Kante=476, Kdesc=10429, core=3):-18826 
clause level 3 (Kante=254, Kdesc=13045, core=3):49591 
clause level 134 (Kante=1769, Kdesc=8956, core=0):-47511 
clause level 9 (Kante=70, Kdesc=9222, core=3):-18838 18826 
clause level 103 (Kante=1236, Kdesc=8459, core=1):-50174 
clause level 57 (Kante=620, Kdesc=11596, core=0):-52333 
clause level 19 (Kante=420, Kdesc=9040, core=0):-13957 
clause level 2 (Kante=3, Kdesc=8021, core=0):-18820 18826 
clause level 22 (Kante=4, Kdesc=7444, core=2):-39482 
clause level 10 (Kante=173, Kdesc=7205, core=2):51086 
clause level 71 (Kante=5, Kdesc=6909, core=0):-39481 
clause level 32 (Kante=1179, Kdesc=6541, core=0):-53081 
clause level 16 (Kante=5, Kdesc=7533, core=2):-3696 
clause level 24 (Kante=313, Kdesc=6491, core=3):-46172 18826 46168 
clause level 2 (Kante=41, Kdesc=8113, core=0):-14053 
clause level 13 (Kante=3, Kdesc=7574, core=3):-3750 
clause level 15 (Kante=5, Kdesc=7816, core=1):-3738 
clause level 17 (Kante=3, Kdesc=6254, core=0):-3684 3696 
clause level 23 (Kante=3, Kdesc=5301, core=1):-13942 
clause level 6 (Kante=9, Kdesc=7787, core=2):-3726 3738 
clause level 5 (Kante=9, Kdesc=7476, core=0):-3720 3726 
clause level 123 (Kante=1358, Kdesc=3461, core=0):52913 
clause level 16 (Kante=7, Kdesc=6229, core=3):-3690 
clause level 18 (Kante=9, Kdesc=4887, core=1):-3678 
clause level 19 (Kante=8, Kdesc=4749, core=3):-39473 
clause level 167 (Kante=1417, Kdesc=4122, core=2):-31168 
clause level 15 (Kante=3, Kdesc=4962, core=3):-3792 
clause level 61 (Kante=127, Kdesc=5842, core=1):-14051 
clause level 14 (Kante=14, Kdesc=6840, core=0):-24809 3750 
clause level 67 (Kante=1116, Kdesc=3376, core=2):-39996 
clause level 6 (Kante=54, Kdesc=7090, core=0):-14057 
clause level 5 (Kante=6, Kdesc=3467, core=2):-17951 
clause level 22 (Kante=3, Kdesc=4437, core=2):-13952 
clause level 12 (Kante=4, Kdesc=4752, core=0):-3786 3792 
clause level 25 (Kante=3, Kdesc=4974, core=2):-13947 
clause level 15 (Kante=6, Kdesc=6452, core=0):-24810 3750 
clause level 14 (Kante=15, Kdesc=4884, core=1):-3702 
clause level 16 (Kante=6, Kdesc=5043, core=3):-3780 
clause level 1 (Kante=5, Kdesc=4779, core=0):-39469 13947 
clause level 10 (Kante=25, Kdesc=5314, core=2):-3756 
clause level 6 (Kante=40, Kdesc=4643, core=3):-3708 3738 
clause level 202 (Kante=1428, Kdesc=4123, core=2):-8077 
clause level 6 (Kante=27, Kdesc=4628, core=3):-3714 3738 
clause level 4 (Kante=3, Kdesc=4106, core=2):-3774 3780 
clause level 174 (Kante=321, Kdesc=2665, core=2):-13991 
clause level 7 (Kante=3, Kdesc=4099, core=1):-31007 
clause level 62 (Kante=96, Kdesc=3136, core=0):-39486 
clause level 33 (Kante=798, Kdesc=2170, core=0):-50507 
clause level 7 (Kante=3, Kdesc=3557, core=3):-32265 
clause level 10 (Kante=16, Kdesc=2749, core=2):-40359 
clause level 31 (Kante=37, Kdesc=2552, core=2):-52500 
clause level 70 (Kante=268, Kdesc=1973, core=3):-39661 
clause level 5 (Kante=6, Kdesc=2751, core=0):-40007 
clause level 10 (Kante=3, Kdesc=3137, core=1):-3768 
clause level 6 (Kante=11, Kdesc=3027, core=3):-31908 
clause level 14 (Kante=8, Kdesc=2852, core=0):-39140 
clause level 9 (Kante=90, Kdesc=2668, core=3):-40358 
clause level 15 (Kante=7, Kdesc=2570, core=3):-31556 
clause level 66 (Kante=55, Kdesc=2471, core=2):-39487 
clause level 5 (Kante=6, Kdesc=2429, core=2):-40351 
clause level 15 (Kante=5, Kdesc=2440, core=3):-31734 
clause level 4 (Kante=21, Kdesc=2342, core=0):-40360 
clause level 67 (Kante=10, Kdesc=2170, core=2):-39488 39486 
clause level 7 (Kante=7, Kdesc=1593, core=1):-8090 8074 
clause level 56 (Kante=18, Kdesc=1268, core=3):-27879 -52332 
clause level 171 (Kante=1001, Kdesc=336, core=1):52747 52914 
clause level 58 (Kante=46, Kdesc=1557, core=0):-52000 -14111 
clause level 170 (Kante=844, Kdesc=832, core=2):-43465 
clause level 58 (Kante=26, Kdesc=1081, core=1):-51834 -8113 8095 
clause level 205 (Kante=1247, Kdesc=302, core=1):-32253 28049 28047 
Found 1361 good successive clauses in order (1291 originals, maxlevel=205)
c KCorePR 495615 395 1361 1291 205
c DistanceTo...Unseen 283012
c DistanceToGoodKCore c   DIST 0: 1361 (+1361) / 1361 (+1361)
c   DIST 1: 71725 (+70364) / 14147 (+12786)
c   DIST 2: 167047 (+95322) / 59623 (+45476)
c   DIST 3: 190100 (+23053) / 68006 (+8383)
c   DIST 4: 199299 (+9199) / 70523 (+2517)
c   DIST 5: 204077 (+4778) / 71825 (+1302)
c   DIST 6: 206801 (+2724) / 72426 (+601)
c   DIST 7: 208434 (+1633) / 72629 (+203)
c   DIST 8: 209430 (+996) / 72754 (+125)
c   DIST 9: 210375 (+945) / 72873 (+119)
c   DIST 10: 211167 (+792) / 72955 (+82)
c   DIST 11: 211566 (+399) / 72995 (+40)
c   DIST 12: 211822 (+256) / 73036 (+41)
c   DIST 13: 212021 (+199) / 73067 (+31)
c   DIST 14: 212143 (+122) / 73070 (+3)
c   DIST 15: 212224 (+81) / 73073 (+3)
c   DIST 16: 212303 (+79) / 73078 (+5)
c   DIST 17: 212355 (+52) / 73080 (+2)
c   DIST 18: 212394 (+39) / 73081 (+1)
c   DIST 19: 212414 (+20) / 73081 (+0)
c   DIST 20: 212505 (+91) / 73081 (+0)
c   DIST 21: 212543 (+38) / 73081 (+0)
c   DIST 22: 212561 (+18) / 73081 (+0)
c   DIST 23: 212566 (+5) / 73081 (+0)
c   DIST 24: 212571 (+5) / 73081 (+0)
c   DIST 25: 212575 (+4) / 73081 (+0)
c   DIST 26: 212583 (+8) / 73081 (+0)
c   DIST 27: 212585 (+2) / 73081 (+0)
c   DIST 28: 212587 (+2) / 73081 (+0)
c   DIST 29: 212589 (+2) / 73081 (+0)
c   DIST 30: 212591 (+2) / 73081 (+0)
c   DIST 31: 212592 (+1) / 73081 (+0)
c   DIST 32: 212594 (+2) / 73081 (+0)
c   DIST 33: 212595 (+1) / 73081 (+0)
c   DIST 34: 212598 (+3) / 73081 (+0)
c   DIST 35: 212602 (+4) / 73081 (+0)
c   DIST 36: 212603 (+1) / 73081 (+0)
c TotalDistance=495615
No graph is dumped
c result of core 2 is UNSAT
c One thread has finished
c Core 2 said it finished
c result of core 0 is UNKNOWN
c result of core 3 is UNKNOWN
c result of core 1 is UNKNOWN
c restarts              : 259 (114 conflicts in avg)
c blocked restarts      : 38 (multiple: 20) 
c last block at restart : 256
c nb ReduceDB           : 3
c nb removed Clauses    : 14447
c nb learnts DL2        : 1001
c nb learnts size 2     : 580
c nb learnts size 1     : 80
c conflicts             : 29570          (169 /sec)
c decisions             : 228383         (0.00 % random) (1305 /sec)
c propagations          : 37822843       (216144 /sec)
c conflict literals     : 5273226        (12.14 % deleted)
c nb reduced Clauses    : 406
c CPU time              : 174.989 s

s INDETERMINATE
