c
c This is glucose-proof 1.0 based on  2.1 --  (thanks to MiniSAT)
c
c EXPERIMENTAL EASY PARALLEL (ROUND ROBIN) VERSION
c
c WARNING: for repeatability, setting FPU to use double precision
c Parallel version 12 solvers created.
c ========================================[ Problem Statistics ]===========================================
c |                                                                                                       |
c |  Number of variables:        101554                                                                   |
c |  Number of clauses:          636703                                                                   |
c |  Parse time:                   2.42 s                                                                 |
c |                                                                                                       |
c ========================================[ MAGIC CONSTANTS ]==============================================
c | Constants are supposed to work well together :-)                                                      |
c | however, if you find better choices, please let us known...                                           |
c |-------------------------------------------------------------------------------------------------------|
c |                                |                                |                                     |
c | - Restarts:                    | - Reduce Clause DB:            | - Minimize Asserting:               |
c |   * LBD Queue    :     50      |   * First     :   4000         |    * size <  30                     |
c |   * Trail  Queue :   5000      |   * Inc       :    300         |    * lbd  <   6                     |
c |   * K            :   0.80      |   * Special   :   1000         |                                     |
c |   * R            :   1.40      |   * Protected :  (lbd)< 30     |                                     |
c |                                |                                |                                     |
c ==================================[ Search Statistics (every  10000 conflicts) ]=========================
c |                                                                                                       |
c |          RESTARTS           |          ORIGINAL         |              LEARNT              | Progress |
c |       NB   Blocked  Avg Cfc |    Vars  Clauses Literals |   Red   Learnts    LBD2  Removed |          |
c =========================================================================================================
c |       94         0      106 |   71700   636703  1750481 |     1     7778      584     5374 | 29.397 % |
c |      162        18      123 |   69955   636703  1750481 |     3     6849      908    22470 | 31.115 % |
c |      221        23      135 |   64858   636703  1750481 |     3    15751     1146    22470 | 36.134 % |
c |      297        23      134 |   64182   636703  1750481 |     4    16948     1299    35266 | 36.800 % |
c |      378        24      132 |   63167   636703  1750481 |     5    13617     1455    48495 | 37.800 % |
c |      428        33      140 |   59195   636703  1750481 |     5    21176     1683    48495 | 41.711 % |
c empty clause found by core 1 at conflict 60972
*
c checking the resolution graph...OK
c All useful bySize 246412 clauses, percentiles 0 2 2 2 2 4 49 186 337 643 1346 1357 (0,1,5,10,25,50,75,90,95,99,100-1,100)
c All useless bySize 1135353 clauses, percentiles 0 0 2 2 2 7 161 394 557 857 1823 1832 (0,1,5,10,25,50,75,90,95,99,100-1,100)
c ProofOnly useful bySize 130013 clauses, percentiles 0 2 2 3 7 41 134 325 469 754 1346 1357 (0,1,5,10,25,50,75,90,95,99,100-1,100)
c ProofOnly useless bySize 601641 clauses, percentiles 1 3 6 12 56 147 322 544 687 954 1823 1832 (0,1,5,10,25,50,75,90,95,99,100-1,100)
c All useful byFinalLBD 246412 clauses, percentiles 0 1 1 2 2 2 5 10 19 49 214 214 (0,1,5,10,25,50,75,90,95,99,100-1,100)
c All useless byFinalLBD 1135353 clauses, percentiles 0 0 2 2 2 5 13 34 56 121 617 617 (0,1,5,10,25,50,75,90,95,99,100-1,100)
c ProofOnly useful byFinalLBD 130013 clauses, percentiles 0 1 1 1 2 4 8 18 28 68 214 214 (0,1,5,10,25,50,75,90,95,99,100-1,100)
c ProofOnly useless byFinalLBD 601641 clauses, percentiles 1 1 2 4 6 12 26 54 80 150 617 617 (0,1,5,10,25,50,75,90,95,99,100-1,100)
c All useful byInitialLBD 246412 clauses, percentiles 0 2 2 2 2 3 7 17 28 67 283 294 (0,1,5,10,25,50,75,90,95,99,100-1,100)
c All useless byInitialLBD 1135353 clauses, percentiles 0 0 2 2 2 5 15 37 60 125 617 617 (0,1,5,10,25,50,75,90,95,99,100-1,100)
c ProofOnly useful byInitialLBD 130013 clauses, percentiles 0 2 2 2 4 6 13 27 40 87 283 294 (0,1,5,10,25,50,75,90,95,99,100-1,100)
c ProofOnly useless byInitialLBD 601641 clauses, percentiles 1 2 4 5 7 14 29 58 84 154 617 617 (0,1,5,10,25,50,75,90,95,99,100-1,100)
c Literals ProofOnly useful 14180777
c Literals ProofOnly useless 133650931
c additional windowsGood 1 1 1 1 1 1 1 2 2 3 8 11 (0,1,5,10,25,50,75,90,95,99,100-1,100)
c additional windowsBad 1 1 1 1 2 4 7 11 15 33 1139 1417 (0,1,5,10,25,50,75,90,95,99,100-1,100)
c additional 1WindowNoDecision 83359 43318 0.52 20482 9109 0.44 (nbWindowsGood,nbWindowsNoDecisionGood,nbWindowsBad,nbWindowsNoDecisionBad
c additional topclausessize all (10%,5%,1%,top) 388.16 524.42 796.05 1357
c additional topclausessize proofonly (10%,5%,1%,top) 442.34 574.25 836.65 1357
c additional topclausesinitialLBD all (10%,5%,1%,top) 340.93 479.64 759.59 1357
c additional topclausesinitialLBD proofonly (10%,5%,1%,top) 304.12 442.34 729.49 1357
c additional topclausesfinalLBD all (10%,5%,1%,top) 253.00 385.45 683.38 1357
c additional topclausesfinalLBD proofonly (10%,5%,1%,top) 232.70 360.79 663.08 1357
c additional predictionInitialLBD 1 1230 130013 0.88 0.01 0.02 730424 601641 0.82 4.63 1.40 0.82 (nbgoodclauses,nbtotalgood,precisionGood,recallGood,FGood,nbbadclause,nbtotalbad,precisionBad,recallBad,FBad,accuracy)
c additional predictionInitialLBD 2 21973 130013 0.62 0.10 0.18 709681 601641 0.84 4.56 1.41 0.83 (nbgoodclauses,nbtotalgood,precisionGood,recallGood,FGood,nbbadclause,nbtotalbad,precisionBad,recallBad,FBad,accuracy)
c additional predictionInitialLBD 3 59066 130013 0.53 0.24 0.33 672588 601641 0.85 4.41 1.43 0.83 (nbgoodclauses,nbtotalgood,precisionGood,recallGood,FGood,nbbadclause,nbtotalbad,precisionBad,recallBad,FBad,accuracy)
c additional predictionInitialLBD 4 105928 130013 0.44 0.35 0.39 625726 601641 0.87 4.17 1.43 0.80 (nbgoodclauses,nbtotalgood,precisionGood,recallGood,FGood,nbbadclause,nbtotalbad,precisionBad,recallBad,FBad,accuracy)
c additional predictionInitialLBD 5 153154 130013 0.38 0.44 0.41 578500 601641 0.87 3.89 1.43 0.77 (nbgoodclauses,nbtotalgood,precisionGood,recallGood,FGood,nbbadclause,nbtotalbad,precisionBad,recallBad,FBad,accuracy)
c additional predictionInitialLBD 6 196330 130013 0.34 0.51 0.41 535324 601641 0.88 3.63 1.42 0.74 (nbgoodclauses,nbtotalgood,precisionGood,recallGood,FGood,nbbadclause,nbtotalbad,precisionBad,recallBad,FBad,accuracy)
c additional predictionInitialLBD 7 235418 130013 0.31 0.56 0.40 496236 601641 0.89 3.38 1.40 0.70 (nbgoodclauses,nbtotalgood,precisionGood,recallGood,FGood,nbbadclause,nbtotalbad,precisionBad,recallBad,FBad,accuracy)
c additional predictionInitialLBD 8 270359 130013 0.29 0.61 0.40 461295 601641 0.89 3.16 1.39 0.67 (nbgoodclauses,nbtotalgood,precisionGood,recallGood,FGood,nbbadclause,nbtotalbad,precisionBad,recallBad,FBad,accuracy)
c additional predictionInitialLBD 10 328895 130013 0.27 0.68 0.39 402759 601641 0.90 2.78 1.36 0.61 (nbgoodclauses,nbtotalgood,precisionGood,recallGood,FGood,nbbadclause,nbtotalbad,precisionBad,recallBad,FBad,accuracy)
c additional predictionInitialLBD 14 414939 130013 0.24 0.77 0.37 316715 601641 0.91 2.21 1.29 0.53 (nbgoodclauses,nbtotalgood,precisionGood,recallGood,FGood,nbbadclause,nbtotalbad,precisionBad,recallBad,FBad,accuracy)
c additional predictionInitialLBD 18 475328 130013 0.23 0.83 0.36 256326 601641 0.91 1.80 1.21 0.47 (nbgoodclauses,nbtotalgood,precisionGood,recallGood,FGood,nbbadclause,nbtotalbad,precisionBad,recallBad,FBad,accuracy)
c additional predictionInitialLBD 22 519604 130013 0.22 0.87 0.35 212050 601641 0.92 1.50 1.14 0.42 (nbgoodclauses,nbtotalgood,precisionGood,recallGood,FGood,nbbadclause,nbtotalbad,precisionBad,recallBad,FBad,accuracy)
c additional predictionInitialLBD 30 579378 130013 0.21 0.92 0.34 152276 601641 0.93 1.09 1.01 0.36 (nbgoodclauses,nbtotalgood,precisionGood,recallGood,FGood,nbbadclause,nbtotalbad,precisionBad,recallBad,FBad,accuracy)
c additional predictionInitialLBD 40 624451 130013 0.20 0.95 0.33 107203 601641 0.94 0.77 0.85 0.31 (nbgoodclauses,nbtotalgood,precisionGood,recallGood,FGood,nbbadclause,nbtotalbad,precisionBad,recallBad,FBad,accuracy)
c additional predictionFinallLBD 1 24929 130013 0.68 0.13 0.22 706725 601641 0.84 0.99 0.91 0.83 (nbgoodclauses,nbtotalgood,precisionGood,recallGood,FGood,nbbadclause,nbtotalbad,precisionBad,recallBad,FBad,accuracy)
c additional predictionFinallLBD 2 76120 130013 0.60 0.35 0.44 655534 601641 0.87 0.95 0.91 0.84 (nbgoodclauses,nbtotalgood,precisionGood,recallGood,FGood,nbbadclause,nbtotalbad,precisionBad,recallBad,FBad,accuracy)
c additional predictionFinallLBD 3 120706 130013 0.52 0.49 0.50 610948 601641 0.89 0.90 0.90 0.83 (nbgoodclauses,nbtotalgood,precisionGood,recallGood,FGood,nbbadclause,nbtotalbad,precisionBad,recallBad,FBad,accuracy)
c additional predictionFinallLBD 4 170001 130013 0.45 0.59 0.51 561653 601641 0.91 0.85 0.87 0.80 (nbgoodclauses,nbtotalgood,precisionGood,recallGood,FGood,nbbadclause,nbtotalbad,precisionBad,recallBad,FBad,accuracy)
c additional predictionFinallLBD 5 217583 130013 0.39 0.66 0.49 514071 601641 0.91 0.78 0.84 0.76 (nbgoodclauses,nbtotalgood,precisionGood,recallGood,FGood,nbbadclause,nbtotalbad,precisionBad,recallBad,FBad,accuracy)
c additional predictionFinallLBD 6 259218 130013 0.35 0.71 0.47 472436 601641 0.92 0.72 0.81 0.72 (nbgoodclauses,nbtotalgood,precisionGood,recallGood,FGood,nbbadclause,nbtotalbad,precisionBad,recallBad,FBad,accuracy)
c additional predictionFinallLBD 7 295725 130013 0.33 0.74 0.45 435929 601641 0.92 0.67 0.78 0.68 (nbgoodclauses,nbtotalgood,precisionGood,recallGood,FGood,nbbadclause,nbtotalbad,precisionBad,recallBad,FBad,accuracy)
c additional predictionFinallLBD 8 327575 130013 0.31 0.77 0.44 404079 601641 0.93 0.62 0.74 0.65 (nbgoodclauses,nbtotalgood,precisionGood,recallGood,FGood,nbbadclause,nbtotalbad,precisionBad,recallBad,FBad,accuracy)
c additional predictionFinallLBD 10 380351 130013 0.28 0.82 0.42 351303 601641 0.93 0.54 0.69 0.59 (nbgoodclauses,nbtotalgood,precisionGood,recallGood,FGood,nbbadclause,nbtotalbad,precisionBad,recallBad,FBad,accuracy)
c additional predictionFinallLBD 14 456252 130013 0.25 0.87 0.39 275402 601641 0.94 0.43 0.59 0.51 (nbgoodclauses,nbtotalgood,precisionGood,recallGood,FGood,nbbadclause,nbtotalbad,precisionBad,recallBad,FBad,accuracy)
c additional predictionFinallLBD 18 508807 130013 0.23 0.91 0.37 222847 601641 0.94 0.35 0.51 0.45 (nbgoodclauses,nbtotalgood,precisionGood,recallGood,FGood,nbbadclause,nbtotalbad,precisionBad,recallBad,FBad,accuracy)
c additional predictionFinallLBD 22 547102 130013 0.22 0.93 0.36 184552 601641 0.95 0.29 0.45 0.40 (nbgoodclauses,nbtotalgood,precisionGood,recallGood,FGood,nbbadclause,nbtotalbad,precisionBad,recallBad,FBad,accuracy)
c additional predictionFinallLBD 30 598629 130013 0.21 0.96 0.34 133025 601641 0.96 0.21 0.35 0.34 (nbgoodclauses,nbtotalgood,precisionGood,recallGood,FGood,nbbadclause,nbtotalbad,precisionBad,recallBad,FBad,accuracy)
c additional predictionFinallLBD 40 637765 130013 0.20 0.97 0.33 93889 601641 0.96 0.15 0.26 0.30 (nbgoodclauses,nbtotalgood,precisionGood,recallGood,FGood,nbbadclause,nbtotalbad,precisionBad,recallBad,FBad,accuracy)
c additional predictionSize 1 1230 130013 0.88 0.01 0.02 730424 601641 0.82 4.63 1.40 0.82 (nbgoodclauses,nbtotalgood,precisionGood,recallGood,FGood,nbbadclause,nbtotalbad,precisionBad,recallBad,FBad,accuracy)
c additional predictionSize 2 12649 130013 0.68 0.07 0.12 719005 601641 0.83 4.60 1.41 0.83 (nbgoodclauses,nbtotalgood,precisionGood,recallGood,FGood,nbbadclause,nbtotalbad,precisionBad,recallBad,FBad,accuracy)
c additional predictionSize 3 27655 130013 0.61 0.13 0.22 703999 601641 0.84 4.55 1.42 0.83 (nbgoodclauses,nbtotalgood,precisionGood,recallGood,FGood,nbbadclause,nbtotalbad,precisionBad,recallBad,FBad,accuracy)
c additional predictionSize 4 38914 130013 0.57 0.17 0.26 692740 601641 0.84 4.50 1.42 0.83 (nbgoodclauses,nbtotalgood,precisionGood,recallGood,FGood,nbbadclause,nbtotalbad,precisionBad,recallBad,FBad,accuracy)
c additional predictionSize 5 51073 130013 0.53 0.21 0.30 680581 601641 0.85 4.44 1.42 0.83 (nbgoodclauses,nbtotalgood,precisionGood,recallGood,FGood,nbbadclause,nbtotalbad,precisionBad,recallBad,FBad,accuracy)
c additional predictionSize 6 60691 130013 0.50 0.23 0.32 670963 601641 0.85 4.39 1.43 0.82 (nbgoodclauses,nbtotalgood,precisionGood,recallGood,FGood,nbbadclause,nbtotalbad,precisionBad,recallBad,FBad,accuracy)
c additional predictionSize 7 70305 130013 0.48 0.26 0.34 661349 601641 0.85 4.35 1.43 0.82 (nbgoodclauses,nbtotalgood,precisionGood,recallGood,FGood,nbbadclause,nbtotalbad,precisionBad,recallBad,FBad,accuracy)
c additional predictionSize 8 78273 130013 0.46 0.28 0.35 653381 601641 0.86 4.30 1.43 0.81 (nbgoodclauses,nbtotalgood,precisionGood,recallGood,FGood,nbbadclause,nbtotalbad,precisionBad,recallBad,FBad,accuracy)
c additional predictionSize 10 93508 130013 0.43 0.31 0.36 638146 601641 0.86 4.22 1.43 0.81 (nbgoodclauses,nbtotalgood,precisionGood,recallGood,FGood,nbbadclause,nbtotalbad,precisionBad,recallBad,FBad,accuracy)
c additional predictionSize 14 115406 130013 0.40 0.36 0.38 616248 601641 0.86 4.10 1.43 0.79 (nbgoodclauses,nbtotalgood,precisionGood,recallGood,FGood,nbbadclause,nbtotalbad,precisionBad,recallBad,FBad,accuracy)
c additional predictionSize 18 132841 130013 0.38 0.39 0.39 598813 601641 0.87 4.00 1.43 0.78 (nbgoodclauses,nbtotalgood,precisionGood,recallGood,FGood,nbbadclause,nbtotalbad,precisionBad,recallBad,FBad,accuracy)
c additional predictionSize 22 146834 130013 0.37 0.42 0.39 584820 601641 0.87 3.92 1.43 0.77 (nbgoodclauses,nbtotalgood,precisionGood,recallGood,FGood,nbbadclause,nbtotalbad,precisionBad,recallBad,FBad,accuracy)
c additional predictionSize 30 168919 130013 0.35 0.46 0.40 562735 601641 0.88 3.79 1.42 0.75 (nbgoodclauses,nbtotalgood,precisionGood,recallGood,FGood,nbbadclause,nbtotalbad,precisionBad,recallBad,FBad,accuracy)
c additional predictionSize 40 191498 130013 0.34 0.50 0.40 540156 601641 0.88 3.65 1.42 0.74 (nbgoodclauses,nbtotalgood,precisionGood,recallGood,FGood,nbbadclause,nbtotalbad,precisionBad,recallBad,FBad,accuracy)
c additional predictionAge 1 28194 130013 0.38 0.08 0.14 703460 601641 0.83 4.49 1.40 0.81 (nbgoodclauses,nbtotalgood,precisionGood,recallGood,FGood,nbbadclause,nbtotalbad,precisionBad,recallBad,FBad,accuracy)
c additional predictionAge 10 28205 130013 0.38 0.08 0.14 703449 601641 0.83 4.49 1.40 0.81 (nbgoodclauses,nbtotalgood,precisionGood,recallGood,FGood,nbbadclause,nbtotalbad,precisionBad,recallBad,FBad,accuracy)
c additional predictionAge 25 32931 130013 0.35 0.09 0.14 698723 601641 0.83 4.46 1.40 0.81 (nbgoodclauses,nbtotalgood,precisionGood,recallGood,FGood,nbbadclause,nbtotalbad,precisionBad,recallBad,FBad,accuracy)
c additional predictionAge 50 36141 130013 0.33 0.09 0.14 695513 601641 0.83 4.44 1.40 0.81 (nbgoodclauses,nbtotalgood,precisionGood,recallGood,FGood,nbbadclause,nbtotalbad,precisionBad,recallBad,FBad,accuracy)
c additional predictionAge 100 39138 130013 0.32 0.10 0.15 692516 601641 0.83 4.42 1.40 0.80 (nbgoodclauses,nbtotalgood,precisionGood,recallGood,FGood,nbbadclause,nbtotalbad,precisionBad,recallBad,FBad,accuracy)
c additional predictionAge 250 42756 130013 0.31 0.10 0.15 688898 601641 0.83 4.40 1.40 0.80 (nbgoodclauses,nbtotalgood,precisionGood,recallGood,FGood,nbbadclause,nbtotalbad,precisionBad,recallBad,FBad,accuracy)
c additional predictionAge 500 45207 130013 0.30 0.10 0.15 686447 601641 0.83 4.38 1.40 0.80 (nbgoodclauses,nbtotalgood,precisionGood,recallGood,FGood,nbbadclause,nbtotalbad,precisionBad,recallBad,FBad,accuracy)
c additional predictionAge 1000 47285 130013 0.30 0.11 0.16 684369 601641 0.83 4.37 1.40 0.80 (nbgoodclauses,nbtotalgood,precisionGood,recallGood,FGood,nbbadclause,nbtotalbad,precisionBad,recallBad,FBad,accuracy)
c additional predictionAge 2500 50338 130013 0.29 0.11 0.16 681316 601641 0.83 4.35 1.40 0.79 (nbgoodclauses,nbtotalgood,precisionGood,recallGood,FGood,nbbadclause,nbtotalbad,precisionBad,recallBad,FBad,accuracy)
c additional predictionAge 5000 54038 130013 0.29 0.12 0.17 677616 601641 0.83 4.33 1.39 0.79 (nbgoodclauses,nbtotalgood,precisionGood,recallGood,FGood,nbbadclause,nbtotalbad,precisionBad,recallBad,FBad,accuracy)
c additional predictionAge 10000 61182 130013 0.28 0.13 0.18 670472 601641 0.83 4.29 1.39 0.79 (nbgoodclauses,nbtotalgood,precisionGood,recallGood,FGood,nbbadclause,nbtotalbad,precisionBad,recallBad,FBad,accuracy)
c additional predictionAge 25000 80106 130013 0.27 0.16 0.20 651548 601641 0.83 4.18 1.39 0.77 (nbgoodclauses,nbtotalgood,precisionGood,recallGood,FGood,nbbadclause,nbtotalbad,precisionBad,recallBad,FBad,accuracy)
c additional predictionAge 50000 109642 130013 0.25 0.21 0.23 622012 601641 0.83 3.99 1.38 0.75 (nbgoodclauses,nbtotalgood,precisionGood,recallGood,FGood,nbbadclause,nbtotalbad,precisionBad,recallBad,FBad,accuracy)
c additional predictionAge 100000 162337 130013 0.23 0.29 0.26 569317 601641 0.84 3.67 1.36 0.70 (nbgoodclauses,nbtotalgood,precisionGood,recallGood,FGood,nbbadclause,nbtotalbad,precisionBad,recallBad,FBad,accuracy)
c additional predictionTicks 1 28735 130013 0.38 0.08 0.14 702919 601641 0.83 4.49 1.40 0.81 (nbgoodclauses,nbtotalgood,precisionGood,recallGood,FGood,nbbadclause,nbtotalbad,precisionBad,recallBad,FBad,accuracy)
c additional predictionTicks 10 32310 130013 0.38 0.09 0.15 699344 601641 0.83 4.47 1.40 0.81 (nbgoodclauses,nbtotalgood,precisionGood,recallGood,FGood,nbbadclause,nbtotalbad,precisionBad,recallBad,FBad,accuracy)
c additional predictionTicks 25 97314 130013 0.25 0.19 0.22 634340 601641 0.83 4.07 1.38 0.76 (nbgoodclauses,nbtotalgood,precisionGood,recallGood,FGood,nbbadclause,nbtotalbad,precisionBad,recallBad,FBad,accuracy)
c additional predictionTicks 50 128796 130013 0.24 0.23 0.23 602858 601641 0.83 3.87 1.37 0.73 (nbgoodclauses,nbtotalgood,precisionGood,recallGood,FGood,nbbadclause,nbtotalbad,precisionBad,recallBad,FBad,accuracy)
c additional predictionTicks 100 163070 130013 0.23 0.28 0.25 568584 601641 0.84 3.66 1.36 0.70 (nbgoodclauses,nbtotalgood,precisionGood,recallGood,FGood,nbbadclause,nbtotalbad,precisionBad,recallBad,FBad,accuracy)
c additional predictionTicks 250 211165 130013 0.22 0.35 0.27 520489 601641 0.84 3.36 1.34 0.66 (nbgoodclauses,nbtotalgood,precisionGood,recallGood,FGood,nbbadclause,nbtotalbad,precisionBad,recallBad,FBad,accuracy)
c additional predictionTicks 500 247506 130013 0.21 0.41 0.28 484148 601641 0.84 3.13 1.33 0.63 (nbgoodclauses,nbtotalgood,precisionGood,recallGood,FGood,nbbadclause,nbtotalbad,precisionBad,recallBad,FBad,accuracy)
c additional predictionTicks 1000 282207 130013 0.21 0.46 0.29 449447 601641 0.84 2.92 1.31 0.60 (nbgoodclauses,nbtotalgood,precisionGood,recallGood,FGood,nbbadclause,nbtotalbad,precisionBad,recallBad,FBad,accuracy)
c additional predictionTicks 2500 332063 130013 0.21 0.54 0.31 399591 601641 0.85 2.62 1.28 0.56 (nbgoodclauses,nbtotalgood,precisionGood,recallGood,FGood,nbbadclause,nbtotalbad,precisionBad,recallBad,FBad,accuracy)
c additional predictionTicks 5000 378180 130013 0.21 0.61 0.31 353474 601641 0.86 2.33 1.25 0.52 (nbgoodclauses,nbtotalgood,precisionGood,recallGood,FGood,nbbadclause,nbtotalbad,precisionBad,recallBad,FBad,accuracy)
c additional predictionTicks 10000 436080 130013 0.21 0.69 0.32 295574 601641 0.86 1.97 1.20 0.47 (nbgoodclauses,nbtotalgood,precisionGood,recallGood,FGood,nbbadclause,nbtotalbad,precisionBad,recallBad,FBad,accuracy)
c additional predictionTicks 25000 533230 130013 0.20 0.81 0.32 198424 601641 0.88 1.34 1.06 0.38 (nbgoodclauses,nbtotalgood,precisionGood,recallGood,FGood,nbbadclause,nbtotalbad,precisionBad,recallBad,FBad,accuracy)
c additional predictionTicks 50000 614741 130013 0.19 0.90 0.31 116913 601641 0.89 0.80 0.84 0.30 (nbgoodclauses,nbtotalgood,precisionGood,recallGood,FGood,nbbadclause,nbtotalbad,precisionBad,recallBad,FBad,accuracy)
c additional predictionTicks 100000 680894 130013 0.18 0.96 0.31 50760 601641 0.90 0.35 0.50 0.23 (nbgoodclauses,nbtotalgood,precisionGood,recallGood,FGood,nbbadclause,nbtotalbad,precisionBad,recallBad,FBad,accuracy)
c additional lifetimeGood 1 48 12616 35568 113604 290820 461936 551986 587924 640423 744963 745054 (0,1,5,10,25,50,75,90,95,99,100-1,100)
c additional lifetimeBad 1 36 11760 35266 115202 282856 492882 596607 635098 685930 744842 744938 (0,1,5,10,25,50,75,90,95,99,100-1,100)
c additional lifetimeBadBad 1 12 12 12 60 13456 98029 265920 409041 629644 742894 744073 (0,1,5,10,25,50,75,90,95,99,100-1,100)
c additional compositionBad 1 4 8 14 36 113 329 734 1116 2087 5843 6055 (0,1,5,10,25,50,75,90,95,99,100-1,100)
c additional compositionBadWithGood 0 0 0 1 3 12 50 162 265 508 1172 1225 (0,1,5,10,25,50,75,90,95,99,100-1,100)
c additional compositionBadWithBad 0 0 0 0 1 1 3 6 10 21 141 160 (0,1,5,10,25,50,75,90,95,99,100-1,100)
c additional compositionBadWithInitial 0 2 6 10 28 91 262 582 883 1664 5171 5936 (0,1,5,10,25,50,75,90,95,99,100-1,100)
c additional compositionGood 1 3 4 6 12 35 121 362 628 1497 4661 4984 (0,1,5,10,25,50,75,90,95,99,100-1,100)
c additional compositionGoodWithGood 0 0 0 1 2 6 25 98 175 384 1043 1204 (0,1,5,10,25,50,75,90,95,99,100-1,100)
c additional compositionGoodWithInitial 0 1 3 4 9 27 93 266 471 1151 3923 4374 (0,1,5,10,25,50,75,90,95,99,100-1,100)
c additional propagationGood total 64600710 percentiles 0 1 1 1 3 20 146 683 1804 10729 51200 54312 (0,1,5,10,25,50,75,90,95,99,100-1,100)
c additional propagationBad total 9705048 percentiles 1 1 1 1 1 2 4 14 38 225 37354 39475 (0,1,5,10,25,50,75,90,95,99,100-1,100)
c additional resolutionGood total 9657611 percentiles 0 1 1 1 2 7 31 103 238 1363 12222 12579 (0,1,5,10,25,50,75,90,95,99,100-1,100)
c additional resolutionBad total 1524063 percentiles 0 0 0 0 1 1 2 5 9 29 488 496 (0,1,5,10,25,50,75,90,95,99,100-1,100)
Computing K-Core for 1381765 clauses...
c building structure for KCore computation.
c the graph has 183706647 edges, maxdegree=6055
c we start the KCore with the value 20
c Non directed graph built
K=20,218160 nodes removed so far
K=21,226505 nodes removed so far
K=22,234439 nodes removed so far
K=23,242389 nodes removed so far
K=24,249952 nodes removed so far
K=25,257296 nodes removed so far
K=26,264690 nodes removed so far
K=27,271786 nodes removed so far
K=28,278943 nodes removed so far
K=29,285779 nodes removed so far
K=30,292696 nodes removed so far
K=31,299397 nodes removed so far
K=32,305833 nodes removed so far
K=33,312258 nodes removed so far
K=34,318521 nodes removed so far
K=35,324764 nodes removed so far
K=36,330828 nodes removed so far
K=37,336748 nodes removed so far
K=38,342421 nodes removed so far
K=39,348135 nodes removed so far
K=40,353542 nodes removed so far
K=41,359017 nodes removed so far
K=42,364222 nodes removed so far
K=43,369278 nodes removed so far
K=44,374235 nodes removed so far
K=45,379279 nodes removed so far
K=46,384250 nodes removed so far
K=47,388987 nodes removed so far
K=48,393775 nodes removed so far
K=49,398479 nodes removed so far
K=50,403052 nodes removed so far
K=51,407673 nodes removed so far
K=52,411825 nodes removed so far
K=53,416015 nodes removed so far
K=54,420144 nodes removed so far
K=55,424344 nodes removed so far
K=56,428347 nodes removed so far
K=57,432243 nodes removed so far
K=58,436099 nodes removed so far
K=59,439932 nodes removed so far
K=60,443703 nodes removed so far
K=61,447459 nodes removed so far
K=62,451133 nodes removed so far
K=63,454647 nodes removed so far
K=64,458296 nodes removed so far
K=65,461915 nodes removed so far
K=66,K=67,K=68,472206 nodes removed so far
K=69,K=70,K=71,481863 nodes removed so far
K=72,K=73,K=74,491159 nodes removed so far
K=75,K=76,K=77,500052 nodes removed so far
K=78,K=79,K=80,K=81,511348 nodes removed so far
K=82,K=83,K=84,K=85,522040 nodes removed so far
K=86,K=87,K=88,K=89,532205 nodes removed so far
K=90,K=91,K=92,K=93,541693 nodes removed so far
K=94,K=95,K=96,K=97,551053 nodes removed so far
K=98,K=99,K=100,K=101,K=102,561792 nodes removed so far
K=103,K=104,K=105,K=106,570171 nodes removed so far
K=107,K=108,K=109,K=110,K=111,580197 nodes removed so far
K=112,K=113,K=114,K=115,K=116,K=117,591351 nodes removed so far
K=118,K=119,K=120,K=121,K=122,600375 nodes removed so far
K=123,K=124,K=125,K=126,K=127,K=128,610593 nodes removed so far
K=129,K=130,K=131,K=132,K=133,K=134,620410 nodes removed so far
K=135,K=136,K=137,K=138,K=139,K=140,K=141,631352 nodes removed so far
K=142,K=143,K=144,K=145,K=146,K=147,640113 nodes removed so far
K=148,K=149,K=150,K=151,K=152,K=153,K=154,K=155,651326 nodes removed so far
K=156,K=157,K=158,K=159,K=160,K=161,K=162,660648 nodes removed so far
K=163,K=164,K=165,K=166,K=167,K=168,K=169,K=170,670381 nodes removed so far
K=171,K=172,K=173,K=174,K=175,K=176,K=177,K=178,K=179,680817 nodes removed so far
K=180,K=181,K=182,K=183,K=184,K=185,K=186,K=187,K=188,690614 nodes removed so far
K=189,K=190,K=191,K=192,K=193,K=194,K=195,K=196,K=197,700076 nodes removed so far
K=198,K=199,K=200,K=201,K=202,K=203,K=204,K=205,K=206,K=207,710159 nodes removed so far
K=208,K=209,K=210,K=211,K=212,K=213,K=214,K=215,K=216,K=217,K=218,720621 nodes removed so far
K=219,K=220,K=221,K=222,K=223,K=224,K=225,K=226,K=227,K=228,K=229,730687 nodes removed so far
K=230,K=231,K=232,K=233,K=234,K=235,K=236,K=237,K=238,K=239,K=240,740441 nodes removed so far
K=241,K=242,K=243,K=244,K=245,K=246,K=247,K=248,K=249,K=250,K=251,K=252,750413 nodes removed so far
K=253,K=254,K=255,K=256,K=257,K=258,K=259,K=260,K=261,K=262,K=263,K=264,K=265,760443 nodes removed so far
K=266,K=267,K=268,K=269,K=270,K=271,K=272,K=273,K=274,K=275,K=276,770143 nodes removed so far
K=277,K=278,K=279,K=280,K=281,K=282,K=283,K=284,K=285,K=286,K=287,K=288,K=289,780092 nodes removed so far
K=290,K=291,K=292,K=293,K=294,K=295,K=296,K=297,K=298,K=299,K=300,790054 nodes removed so far
K=301,K=302,K=303,K=304,K=305,K=306,K=307,K=308,K=309,K=310,K=311,K=312,800388 nodes removed so far
K=313,K=314,K=315,K=316,K=317,K=318,K=319,K=320,K=321,K=322,K=323,810306 nodes removed so far
K=324,K=325,K=326,K=327,K=328,K=329,K=330,K=331,K=332,K=333,K=334,K=335,K=336,K=337,K=338,K=339,K=340,K=341,K=342,820016 nodes removed so far
K=343,K=344,K=345,K=346,K=347,K=348,K=349,K=350,K=351,K=352,K=353,K=354,K=355,K=356,K=357,K=358,K=359,830286 nodes removed so far
K=360,K=361,K=362,K=363,K=364,K=365,K=366,K=367,K=368,K=369,K=370,K=371,K=372,K=373,K=374,K=375,K=376,K=377,K=378,K=379,K=380,840301 nodes removed so far
K=381,K=382,K=383,K=384,K=385,K=386,K=387,K=388,K=389,K=390,K=391,K=392,K=393,K=394,K=395,K=396,K=397,K=398,K=399,K=400,K=401,K=402,K=403,850025 nodes removed so far
K=404,K=405,K=406,K=407,K=408,K=409,K=410,K=411,K=412,K=413,K=414,K=415,K=416,K=417,K=418,K=419,K=420,K=421,K=422,K=423,K=424,K=425,K=426,K=427,K=428,K=429,K=430,K=431,K=432,K=433,860127 nodes removed so far
K=434,K=435,K=436,K=437,K=438,K=439,K=440,K=441,K=442,K=443,K=444,K=445,K=446,K=447,K=448,K=449,K=450,K=451,K=452,K=453,K=454,K=455,K=456,K=457,K=458,K=459,K=460,K=461,K=462,K=463,870160 nodes removed so far
K=464,K=465,K=466,K=467,K=468,K=469,K=470,K=471,K=472,K=473,K=474,K=475,K=476,K=477,K=478,K=479,K=480,K=481,K=482,K=483,K=484,K=485,K=486,K=487,K=488,K=489,K=490,K=491,K=492,K=493,K=494,K=495,K=496,K=497,K=498,K=499,K=500,K=501,880175 nodes removed so far
K=502,K=503,K=504,K=505,K=506,K=507,K=508,K=509,K=510,K=511,K=512,K=513,K=514,K=515,K=516,K=517,K=518,K=519,K=520,K=521,K=522,K=523,K=524,K=525,K=526,K=527,K=528,K=529,K=530,K=531,K=532,K=533,K=534,K=535,K=536,K=537,K=538,K=539,K=540,K=541,K=542,890143 nodes removed so far
K=543,K=544,K=545,K=546,K=547,K=548,K=549,K=550,K=551,K=552,K=553,K=554,K=555,K=556,K=557,K=558,K=559,K=560,K=561,K=562,K=563,K=564,K=565,K=566,K=567,K=568,K=569,K=570,K=571,K=572,K=573,K=574,K=575,K=576,K=577,K=578,K=579,K=580,K=581,K=582,K=583,K=584,K=585,K=586,K=587,900173 nodes removed so far
K=588,K=589,K=590,K=591,K=592,K=593,K=594,K=595,K=596,K=597,K=598,K=599,K=600,K=601,K=602,K=603,K=604,K=605,K=606,K=607,K=608,K=609,K=610,K=611,K=612,K=613,K=614,K=615,K=616,K=617,K=618,K=619,K=620,K=621,K=622,K=623,K=624,K=625,K=626,K=627,K=628,K=629,K=630,K=631,K=632,K=633,K=634,K=635,K=636,K=637,K=638,K=639,K=640,910105 nodes removed so far
K=641,K=642,K=643,K=644,K=645,K=646,K=647,K=648,K=649,K=650,K=651,K=652,K=653,K=654,K=655,K=656,K=657,K=658,K=659,K=660,K=661,K=662,K=663,K=664,K=665,K=666,K=667,K=668,K=669,K=670,K=671,K=672,K=673,K=674,K=675,K=676,K=677,K=678,K=679,K=680,K=681,K=682,K=683,K=684,K=685,K=686,K=687,K=688,K=689,K=690,K=691,K=692,K=693,K=694,K=695,K=696,K=697,K=698,K=699,K=700,K=701,920144 nodes removed so far
K=702,K=703,K=704,K=705,K=706,K=707,K=708,K=709,K=710,K=711,K=712,K=713,K=714,K=715,K=716,K=717,K=718,K=719,K=720,K=721,K=722,K=723,K=724,K=725,K=726,K=727,K=728,K=729,K=730,K=731,K=732,K=733,K=734,K=735,K=736,K=737,K=738,K=739,K=740,K=741,K=742,K=743,K=744,K=745,K=746,K=747,K=748,K=749,K=750,K=751,K=752,K=753,K=754,K=755,K=756,K=757,K=758,K=759,K=760,K=761,K=762,K=763,K=764,K=765,K=766,K=767,K=768,K=769,K=770,K=771,K=772,K=773,K=774,930106 nodes removed so far
K=775,K=776,K=777,K=778,K=779,K=780,K=781,K=782,K=783,K=784,K=785,K=786,K=787,K=788,K=789,K=790,K=791,K=792,K=793,K=794,K=795,K=796,K=797,K=798,K=799,K=800,K=801,K=802,K=803,K=804,K=805,K=806,K=807,K=808,K=809,K=810,K=811,K=812,K=813,K=814,K=815,K=816,K=817,K=818,K=819,K=820,K=821,K=822,K=823,K=824,K=825,K=826,K=827,K=828,K=829,K=830,K=831,K=832,K=833,K=834,K=835,K=836,K=837,K=838,K=839,K=840,K=841,K=842,K=843,K=844,K=845,K=846,K=847,K=848,K=849,K=850,K=851,K=852,K=853,K=854,K=855,K=856,K=857,K=858,940057 nodes removed so far
K=859,K=860,K=861,K=862,K=863,K=864,K=865,K=866,K=867,K=868,K=869,K=870,K=871,K=872,K=873,K=874,K=875,K=876,K=877,K=878,K=879,K=880,K=881,K=882,K=883,K=884,K=885,K=886,K=887,K=888,K=889,K=890,K=891,K=892,K=893,K=894,K=895,K=896,K=897,K=898,K=899,K=900,K=901,K=902,K=903,K=904,K=905,K=906,K=907,K=908,K=909,K=910,K=911,K=912,K=913,K=914,K=915,K=916,K=917,K=918,K=919,K=920,K=921,K=922,K=923,K=924,K=925,K=926,K=927,K=928,K=929,K=930,K=931,K=932,K=933,K=934,K=935,K=936,K=937,K=938,K=939,K=940,K=941,K=942,K=943,K=944,K=945,K=946,K=947,K=948,K=949,K=950,K=951,K=952,K=953,K=954,950024 nodes removed so far
K=955,K=956,K=957,K=958,K=959,K=960,K=961,K=962,K=963,K=964,K=965,K=966,K=967,K=968,K=969,K=970,K=971,K=972,K=973,K=974,K=975,K=976,K=977,K=978,K=979,K=980,K=981,K=982,K=983,K=984,K=985,K=986,K=987,K=988,K=989,K=990,K=991,K=992,K=993,K=994,K=995,K=996,K=997,K=998,K=999,K=1000,K=1001,K=1002,K=1003,K=1004,K=1005,K=1006,K=1007,K=1008,K=1009,K=1010,K=1011,K=1012,K=1013,K=1014,K=1015,K=1016,K=1017,K=1018,K=1019,K=1020,K=1021,K=1022,K=1023,K=1024,K=1025,K=1026,K=1027,K=1028,K=1029,K=1030,K=1031,K=1032,K=1033,K=1034,K=1035,K=1036,K=1037,K=1038,K=1039,K=1040,K=1041,K=1042,K=1043,K=1044,K=1045,K=1046,K=1047,K=1048,K=1049,K=1050,K=1051,K=1052,K=1053,K=1054,K=1055,K=1056,K=1057,K=1058,960011 nodes removed so far
K=1059,K=1060,K=1061,K=1062,K=1063,K=1064,K=1065,K=1066,K=1067,K=1068,K=1069,K=1070,K=1071,K=1072,K=1073,K=1074,K=1075,K=1076,K=1077,K=1078,K=1079,K=1080,K=1081,K=1082,K=1083,K=1084,K=1085,K=1086,K=1087,K=1088,K=1089,K=1090,K=1091,K=1092,K=1093,K=1094,K=1095,K=1096,K=1097,K=1098,K=1099,K=1100,K=1101,K=1102,K=1103,K=1104,K=1105,K=1106,K=1107,K=1108,K=1109,K=1110,K=1111,K=1112,K=1113,K=1114,K=1115,K=1116,K=1117,K=1118,K=1119,K=1120,K=1121,K=1122,K=1123,K=1124,K=1125,K=1126,K=1127,K=1128,K=1129,K=1130,970203 nodes removed so far
K=1131,K=1132,K=1133,K=1134,K=1135,K=1136,K=1137,K=1138,K=1139,K=1140,K=1141,K=1142,K=1143,K=1144,K=1145,K=1146,K=1147,K=1148,K=1149,K=1150,K=1151,K=1152,K=1153,K=1154,989238 nodes removed so far
KCore = 1154
Building structure for PR...
Computing PR...
Pageranking 869279 nodes done in 14 iteration. cumulError=1.56371e-11
clause level 52 (Kante=735, Kdesc=95344, core=3):76562 
clause level 11 (Kante=353, Kdesc=108349, core=10):-47949 
clause level 11 (Kante=895, Kdesc=106790, core=9):-47950 
clause level 1 (Kante=51, Kdesc=105322, core=10):-9268 
clause level 11 (Kante=680, Kdesc=108444, core=11):-47951 
clause level 2 (Kante=5, Kdesc=113729, core=4):-7979 7984 
clause level 1 (Kante=32, Kdesc=106277, core=8):-7958 7984 
clause level 1 (Kante=51, Kdesc=97808, core=2):-27335 
clause level 85 (Kante=443, Kdesc=60988, core=7):-78485 
clause level 3 (Kante=10, Kdesc=111564, core=2):-7966 7984 
clause level 354 (Kante=1725, Kdesc=107055, core=0):-7984 
clause level 13 (Kante=111, Kdesc=73218, core=10):-9166 
clause level 13 (Kante=109, Kdesc=70400, core=10):-9169 
clause level 16 (Kante=133, Kdesc=95636, core=1):-72198 
clause level 74 (Kante=11, Kdesc=67861, core=8):-80886 
clause level 2 (Kante=5, Kdesc=89375, core=2):-7974 7979 
clause level 18 (Kante=6, Kdesc=97734, core=10):7984 -14195 
clause level 16 (Kante=321, Kdesc=110208, core=10):-27247 
clause level 2 (Kante=5, Kdesc=68045, core=0):-9161 9166 
clause level 2 (Kante=7, Kdesc=84229, core=10):-7961 7966 
clause level 15 (Kante=208, Kdesc=75298, core=0):-42992 
clause level 26 (Kante=136, Kdesc=75938, core=1):-42996 
clause level 32 (Kante=7, Kdesc=73877, core=6):-51856 
clause level 36 (Kante=13, Kdesc=55714, core=1):78195 -76562 
clause level 3 (Kante=4, Kdesc=66750, core=0):-48 
clause level 8 (Kante=11, Kdesc=94292, core=7):-27241 27247 
clause level 31 (Kante=11, Kdesc=95017, core=5):-51859 
clause level 2 (Kante=6, Kdesc=59822, core=10):-9156 9161 
clause level 91 (Kante=1629, Kdesc=77897, core=4):-62017 
clause level 36 (Kante=940, Kdesc=77247, core=6):-62018 
clause level 32 (Kante=6, Kdesc=80521, core=2):-42997 
clause level 32 (Kante=8, Kdesc=83129, core=10):-42998 
clause level 21 (Kante=33, Kdesc=83629, core=3):7984 -14217 
clause level 68 (Kante=185, Kdesc=58586, core=6):-85592 
clause level 1 (Kante=5, Kdesc=84467, core=2):-7971 7974 
clause level 7 (Kante=519, Kdesc=53057, core=6):-27236 
clause level 4 (Kante=5, Kdesc=93543, core=2):-32699 7979 32692 
clause level 268 (Kante=241, Kdesc=76443, core=9):-14301 
clause level 1 (Kante=42, Kdesc=46175, core=8):-14509 
clause level 95 (Kante=535, Kdesc=74118, core=6):-72200 
clause level 14 (Kante=203, Kdesc=56571, core=8):-42995 
clause level 66 (Kante=1095, Kdesc=41778, core=6):85592 -83671 
clause level 137 (Kante=6, Kdesc=79057, core=9):-47952 
clause level 13 (Kante=7, Kdesc=60009, core=3):-9240 
clause level 34 (Kante=4, Kdesc=82574, core=0):7984 32692 -14233 
clause level 24 (Kante=11, Kdesc=74375, core=10):-68116 
clause level 19 (Kante=9, Kdesc=70606, core=2):8010 -1730 
clause level 32 (Kante=6, Kdesc=86635, core=10):-51858 
clause level 25 (Kante=4, Kdesc=74422, core=9):-68115 
clause level 19 (Kante=37, Kdesc=78568, core=10):-52133 
clause level 14 (Kante=201, Kdesc=52119, core=4):-52131 
clause level 489 (Kante=2686, Kdesc=78658, core=4):-8010 
clause level 3 (Kante=8, Kdesc=75618, core=2):-7987 8010 
clause level 1 (Kante=20, Kdesc=78129, core=7):-7994 8010 
clause level 2 (Kante=58, Kdesc=43963, core=0):-22894 
clause level 19 (Kante=11, Kdesc=74846, core=11):7984 -14205 32699 
clause level 13 (Kante=80, Kdesc=60825, core=10):-42999 
clause level 29 (Kante=948, Kdesc=18384, core=6):-44625 
clause level 17 (Kante=7, Kdesc=70392, core=4):-51862 
clause level 35 (Kante=8, Kdesc=76089, core=6):-52682 
clause level 15 (Kante=4, Kdesc=55580, core=0):-43000 
clause level 3 (Kante=78, Kdesc=34766, core=9):75505 
clause level 24 (Kante=80, Kdesc=25585, core=2):-43807 
clause level 18 (Kante=13, Kdesc=66430, core=9):-68121 
clause level 33 (Kante=4, Kdesc=79823, core=0):7984 -14229 
clause level 16 (Kante=15, Kdesc=65302, core=4):-52138 
clause level 20 (Kante=13, Kdesc=40240, core=6):-51308 
clause level 8 (Kante=6, Kdesc=36506, core=0):-27233 
clause level 12 (Kante=150, Kdesc=63556, core=4):-52134 
clause level 5 (Kante=13, Kdesc=39824, core=11):-31576 
clause level 9 (Kante=53, Kdesc=39602, core=0):-12599 
clause level 2 (Kante=6, Kdesc=44359, core=4):-9148 9156 
clause level 27 (Kante=8, Kdesc=63240, core=4):-51318 
clause level 105 (Kante=11, Kdesc=73017, core=1):-52686 
clause level 1 (Kante=8, Kdesc=28138, core=0):-18177 18182 
clause level 2 (Kante=8, Kdesc=75469, core=5):-57718 7994 
clause level 9 (Kante=94, Kdesc=28819, core=11):-9374 
clause level 12 (Kante=7, Kdesc=51180, core=0):12491 -12504 
clause level 15 (Kante=6, Kdesc=66488, core=3):7984 -14192 
clause level 18 (Kante=5, Kdesc=60238, core=4):-68122 
clause level 5 (Kante=4, Kdesc=76926, core=7):7984 -19754 
clause level 269 (Kante=73, Kdesc=74024, core=4):-51314 
clause level 3 (Kante=115, Kdesc=21260, core=7):75121 
clause level 1 (Kante=5, Kdesc=42207, core=8):-9145 9148 
clause level 17 (Kante=484, Kdesc=54095, core=2):-51040 
clause level 1 (Kante=13, Kdesc=71642, core=4):-32709 8010 
clause level 1 (Kante=8, Kdesc=73632, core=6):-32711 8010 
clause level 405 (Kante=203, Kdesc=69453, core=3):-32710 
clause level 18 (Kante=5, Kdesc=47350, core=4):-52677 
clause level 14 (Kante=8, Kdesc=56407, core=7):-68119 
clause level 20 (Kante=2, Kdesc=66875, core=0):8010 -1741 
clause level 3 (Kante=21, Kdesc=48734, core=7):-6384 
clause level 13 (Kante=148, Kdesc=52464, core=1):-27337 
clause level 6 (Kante=5, Kdesc=73303, core=5):7984 -19744 
clause level 298 (Kante=1873, Kdesc=41679, core=1):-23 
clause level 29 (Kante=4, Kdesc=48463, core=9):-62025 
clause level 15 (Kante=5, Kdesc=47271, core=9):-51306 
clause level 29 (Kante=186, Kdesc=68556, core=1):-68118 
clause level 2 (Kante=5, Kdesc=39511, core=1):-7953 7958 
clause level 1 (Kante=15, Kdesc=29480, core=10):-18182 18195 
clause level 2 (Kante=6, Kdesc=45402, core=11):-28903 28908 
clause level 23 (Kante=5, Kdesc=60741, core=2):7984 -14237 
clause level 19 (Kante=6, Kdesc=35144, core=0):-51307 
clause level 3 (Kante=29, Kdesc=70623, core=4):-32707 8010 1741 1749 
clause level 3 (Kante=4, Kdesc=59172, core=2):-14190 14192 
clause level 22 (Kante=85, Kdesc=35726, core=1):-52701 
clause level 1 (Kante=7, Kdesc=22395, core=6):-42988 9169 
clause level 4 (Kante=9, Kdesc=68448, core=6):-32704 7994 32692 32702 
clause level 1 (Kante=16, Kdesc=67465, core=8):-57722 8010 
clause level 1 (Kante=8, Kdesc=69993, core=4):-57725 8010 
clause level 1 (Kante=12, Kdesc=46274, core=4):-14223 14229 
clause level 36 (Kante=5, Kdesc=66839, core=0):-51310 32692 
clause level 36 (Kante=4, Kdesc=20820, core=1):-44087 
clause level 5 (Kante=3, Kdesc=42438, core=5):-9234 9240 
clause level 14 (Kante=2, Kdesc=36484, core=3):82231 -79638 
clause level 7 (Kante=3, Kdesc=17773, core=6):-31572 
clause level 1 (Kante=10, Kdesc=30594, core=0):-18195 18203 
clause level 35 (Kante=6, Kdesc=42261, core=11):-52679 
clause level 31 (Kante=18, Kdesc=59924, core=6):-50765 
clause level 6 (Kante=9, Kdesc=53853, core=3):-47954 7971 
clause level 2 (Kante=13, Kdesc=66904, core=8):-57723 8010 
clause level 18 (Kante=91, Kdesc=59382, core=10):-52683 14229 
clause level 31 (Kante=12, Kdesc=47738, core=5):-14295 14301 
clause level 1 (Kante=11, Kdesc=66481, core=4):-57724 8010 
clause level 102 (Kante=64, Kdesc=44032, core=2):-52409 51863 
clause level 3 (Kante=3, Kdesc=31968, core=10):-17 23 
clause level 269 (Kante=13, Kdesc=65733, core=0):-52690 14239 
clause level 29 (Kante=7, Kdesc=45138, core=6):-62026 
clause level 24 (Kante=5, Kdesc=59261, core=8):-51309 14203 
clause level 303 (Kante=1377, Kdesc=39533, core=2):-35111 
clause level 238 (Kante=24, Kdesc=41905, core=1):-39102 
clause level 11 (Kante=20, Kdesc=39043, core=2):-52702 
clause level 397 (Kante=13, Kdesc=63933, core=4):-51588 
clause level 317 (Kante=14, Kdesc=58565, core=1):-52681 14203 51580 32699 
clause level 10 (Kante=5, Kdesc=24426, core=7):-68129 
clause level 20 (Kante=6, Kdesc=33892, core=9):-52678 
clause level 2 (Kante=4, Kdesc=44807, core=2):-8041 8048 
clause level 9 (Kante=5, Kdesc=57510, core=5):7984 -12562 12520 
clause level 35 (Kante=8, Kdesc=60167, core=0):-51311 32692 
clause level 1 (Kante=11, Kdesc=50361, core=1):-3380 3390 
clause level 17 (Kante=311, Kdesc=44248, core=8):-51042 
clause level 1 (Kante=5, Kdesc=27437, core=1):-9153 9156 
clause level 12 (Kante=18, Kdesc=30997, core=6):-50776 
clause level 2 (Kante=4, Kdesc=42964, core=5):-7983 7986 
clause level 3 (Kante=5, Kdesc=24311, core=0):-18169 18177 
clause level 249 (Kante=802, Kdesc=34654, core=9):-9238 
clause level 601 (Kante=2153, Kdesc=43455, core=11):-3418 
clause level 10 (Kante=4, Kdesc=22846, core=7):-27218 
clause level 74 (Kante=347, Kdesc=33349, core=9):-81366 
clause level 12 (Kante=24, Kdesc=32132, core=6):-50775 
clause level 8 (Kante=33, Kdesc=57954, core=3):7984 -12552 
clause level 20 (Kante=9, Kdesc=44508, core=3):-50768 
clause level 10 (Kante=14, Kdesc=30632, core=0):-72456 
clause level 2 (Kante=5, Kdesc=40248, core=10):-7973 7983 
clause level 2 (Kante=6, Kdesc=33201, core=7):-18194 18199 
clause level 5 (Kante=29, Kdesc=20268, core=4):-31573 
clause level 2 (Kante=4, Kdesc=51010, core=6):14198 -14219 14205 
clause level 11 (Kante=7, Kdesc=25096, core=7):-27213 
clause level 8 (Kante=32, Kdesc=26552, core=1):-51333 
clause level 2 (Kante=4, Kdesc=35929, core=10):-18202 18207 
clause level 1 (Kante=7, Kdesc=36744, core=5):-28898 28903 
clause level 2 (Kante=25, Kdesc=25437, core=2):-24720 
clause level 1 (Kante=14, Kdesc=52895, core=5):-57711 7979 
clause level 1 (Kante=22, Kdesc=62374, core=8):-57721 8010 19780 
clause level 8 (Kante=499, Kdesc=40277, core=11):-51039 
clause level 1 (Kante=9, Kdesc=45473, core=0):-57715 7984 
clause level 1 (Kante=5, Kdesc=45281, core=5):-3347 3350 
clause level 2 (Kante=6, Kdesc=47285, core=10):-3370 3380 
clause level 7 (Kante=28, Kdesc=22194, core=11):-52707 
clause level 1 (Kante=5, Kdesc=35112, core=11):-18199 18202 
clause level 357 (Kante=15, Kdesc=56113, core=2):-57719 
clause level 1 (Kante=7, Kdesc=34096, core=6):-18207 18212 
clause level 2 (Kante=4, Kdesc=21115, core=2):-42986 9161 
clause level 14 (Kante=142, Kdesc=41188, core=4):-51865 
clause level 2 (Kante=4, Kdesc=36168, core=8):-26008 26016 
clause level 4 (Kante=13, Kdesc=21795, core=10):7984 -19731 
clause level 2 (Kante=3, Kdesc=37471, core=1):-7978 7983 
clause level 2 (Kante=6, Kdesc=32174, core=7):-18184 18189 
clause level 12 (Kante=8, Kdesc=25998, core=2):-27208 
clause level 8 (Kante=413, Kdesc=37478, core=0):-68120 27343 27373 
clause level 6 (Kante=9, Kdesc=16342, core=10):-32415 
clause level 1 (Kante=5, Kdesc=26955, core=8):-72354 9145 
clause level 11 (Kante=6, Kdesc=17416, core=2):-9252 
clause level 1 (Kante=9, Kdesc=43199, core=2):-28890 28898 
clause level 1 (Kante=10, Kdesc=30059, core=5):-57708 7966 
clause level 1 (Kante=5, Kdesc=32026, core=11):-18181 18184 
clause level 9 (Kante=33, Kdesc=19990, core=3):-52706 
clause level 361 (Kante=10, Kdesc=44584, core=4):-47962 
clause level 238 (Kante=10, Kdesc=39216, core=2):-39101 
clause level 355 (Kante=12, Kdesc=48334, core=11):-50774 
clause level 316 (Kante=1616, Kdesc=47620, core=10):-57713 
clause level 327 (Kante=5, Kdesc=46804, core=7):-11 
clause level 11 (Kante=34, Kdesc=20325, core=3):-44400 
clause level 2 (Kante=10, Kdesc=41403, core=11):-28908 28918 
clause level 1 (Kante=7, Kdesc=43802, core=5):-39100 11 
clause level 35 (Kante=10, Kdesc=52651, core=6):-51313 14241 32692 
clause level 1 (Kante=21, Kdesc=42085, core=4):-3395 3418 
clause level 2 (Kante=19, Kdesc=22187, core=4):-18203 18218 
clause level 12 (Kante=24, Kdesc=29099, core=4):-52697 
clause level 16 (Kante=31, Kdesc=22862, core=1):-45209 
clause level 2 (Kante=5, Kdesc=41169, core=11):-3390 3395 
clause level 1 (Kante=5, Kdesc=24354, core=4):-42983 9153 
clause level 12 (Kante=22, Kdesc=28293, core=4):-51326 
clause level 5 (Kante=32, Kdesc=17116, core=5):-32413 
clause level 13 (Kante=23, Kdesc=29990, core=6):-51861 
clause level 11 (Kante=13, Kdesc=28595, core=4):-52699 
clause level 3 (Kante=10, Kdesc=34932, core=5):-8031 8041 
clause level 4 (Kante=6, Kdesc=48502, core=7):-32705 7994 7966 7961 7987 
clause level 21 (Kante=9, Kdesc=20398, core=11):-51325 
clause level 7 (Kante=9, Kdesc=15763, core=11):-30455 
clause level 7 (Kante=10, Kdesc=18048, core=6):-51058 
clause level 2 (Kante=7, Kdesc=12036, core=5):-7987 7994 
clause level 406 (Kante=68, Kdesc=52475, core=0):8010 -14281 51313 51587 
clause level 2 (Kante=4, Kdesc=36713, core=7):-7965 7973 
clause level 9 (Kante=3, Kdesc=26942, core=2):-27228 
clause level 16 (Kante=5, Kdesc=22599, core=5):-44395 
clause level 7 (Kante=10, Kdesc=17781, core=11):-50784 
clause level 1 (Kante=8, Kdesc=42301, core=11):-62020 7966 
clause level 18 (Kante=9, Kdesc=34537, core=1):-51044 
clause level 2 (Kante=9, Kdesc=44834, core=9):-62022 7971 22800 
clause level 2 (Kante=6, Kdesc=40495, core=7):-7991 7996 
clause level 8 (Kante=5, Kdesc=15145, core=0):-51061 
clause level 9 (Kante=5, Kdesc=26124, core=11):-68106 
clause level 9 (Kante=5, Kdesc=20266, core=7):-68108 
clause level 3 (Kante=4, Kdesc=17483, core=0):-51354 
clause level 361 (Kante=11, Kdesc=41214, core=9):-47961 
clause level 2 (Kante=4, Kdesc=27844, core=7):-55542 18194 
clause level 1 (Kante=10, Kdesc=18047, core=7):-28873 28881 
clause level 2 (Kante=6, Kdesc=37277, core=11):-28885 28890 
clause level 7 (Kante=46, Kdesc=29691, core=3):-51331 
clause level 21 (Kante=10, Kdesc=42400, core=2):-42993 14237 51858 
clause level 6 (Kante=24, Kdesc=29023, core=9):-50794 
clause level 2 (Kante=5, Kdesc=40381, core=8):-3350 3355 
clause level 1 (Kante=5, Kdesc=32036, core=8):-41632 7983 
clause level 13 (Kante=35, Kdesc=22415, core=8):-43312 
clause level 3 (Kante=4, Kdesc=16619, core=2):-52726 
clause level 9 (Kante=6, Kdesc=24166, core=9):-68110 
clause level 1 (Kante=13, Kdesc=36690, core=8):-57712 7979 
clause level 6 (Kante=8, Kdesc=35593, core=0):-62030 
clause level 3 (Kante=6, Kdesc=43301, core=8):-39099 11 
clause level 1 (Kante=51, Kdesc=20074, core=9):-12878 
clause level 6 (Kante=14, Kdesc=32347, core=6):-22846 
clause level 31 (Kante=12, Kdesc=16345, core=9):-9216 44630 
clause level 3 (Kante=5, Kdesc=48817, core=4):7966 -22800 22788 
clause level 1 (Kante=5, Kdesc=29471, core=2):-21402 21405 
clause level 1 (Kante=3, Kdesc=21443, core=10):4 -19 
clause level 2 (Kante=4, Kdesc=30561, core=10):-7960 7965 
clause level 13 (Kante=8, Kdesc=13354, core=11):-30456 
clause level 4 (Kante=7, Kdesc=23448, core=4):-18176 18184 
clause level 3 (Kante=9, Kdesc=29165, core=0):-18212 18227 
clause level 3 (Kante=9, Kdesc=41272, core=4):-3355 3370 
clause level 40 (Kante=3, Kdesc=28624, core=1):-52695 
clause level 11 (Kante=226, Kdesc=27585, core=8):-52135 
clause level 1 (Kante=7, Kdesc=36162, core=2):-28931 28936 
clause level 3 (Kante=5, Kdesc=33685, core=10):-8023 8031 
clause level 9 (Kante=4, Kdesc=22313, core=2):-14525 
clause level 2 (Kante=6, Kdesc=10232, core=7):-14385 -14402 
clause level 3 (Kante=6, Kdesc=14232, core=8):-20019 
clause level 1 (Kante=10, Kdesc=40307, core=5):-32694 7966 
clause level 3 (Kante=7, Kdesc=39683, core=11):-7996 8014 
clause level 2 (Kante=6, Kdesc=32612, core=10):-7986 7991 
clause level 2 (Kante=7, Kdesc=18279, core=5):-28881 28891 
clause level 8 (Kante=5, Kdesc=14417, core=2):-51060 
clause level 3 (Kante=3, Kdesc=23662, core=6):-18190 18195 
clause level 16 (Kante=13, Kdesc=37176, core=2):-42994 14237 51859 
clause level 37 (Kante=10, Kdesc=18747, core=0):-9230 
clause level 9 (Kante=4, Kdesc=22038, core=3):-14522 
clause level 2 (Kante=6, Kdesc=25590, core=5):-21418 21423 
clause level 1 (Kante=11, Kdesc=39125, core=7):-32691 7958 
clause level 95 (Kante=8, Kdesc=19032, core=9):-32411 
clause level 24 (Kante=6, Kdesc=28442, core=6):-52700 
clause level 6 (Kante=7, Kdesc=17117, core=3):-52724 
clause level 1 (Kante=5, Kdesc=33860, core=11):-41630 7978 
clause level 16 (Kante=6, Kdesc=29084, core=8):-51332 
clause level 3 (Kante=14, Kdesc=16296, core=11):-51353 
clause level 1 (Kante=16, Kdesc=35572, core=7):-47959 7984 
clause level 3 (Kante=14, Kdesc=15966, core=11):-52725 
clause level 2 (Kante=5, Kdesc=33395, core=11):-28880 28885 
clause level 3 (Kante=6, Kdesc=39874, core=9):-45427 11 
clause level 12 (Kante=27, Kdesc=18206, core=11):-45210 
clause level 1 (Kante=7, Kdesc=37326, core=5):-3365 3370 
clause level 9 (Kante=3, Kdesc=22223, core=4):-27223 
clause level 6 (Kante=7, Kdesc=20924, core=3):-24710 
clause level 12 (Kante=6, Kdesc=18325, core=7):-68102 
clause level 1 (Kante=3, Kdesc=42695, core=10):14233 -14249 14237 
clause level 2 (Kante=5, Kdesc=37393, core=1):-45428 11 
clause level 2 (Kante=17, Kdesc=33046, core=6):-26036 26051 
clause level 1 (Kante=28, Kdesc=20016, core=7):-8031 8056 
clause level 1 (Kante=7, Kdesc=21471, core=11):-26030 26035 
clause level 6 (Kante=8, Kdesc=32511, core=0):-62029 
clause level 11 (Kante=6, Kdesc=19248, core=7):-68104 
clause level 1 (Kante=7, Kdesc=21916, core=10):-3403 3408 
clause level 2 (Kante=7, Kdesc=33476, core=11):-28918 70559 28926 
clause level 7 (Kante=5, Kdesc=13382, core=7):-50787 
clause level 1 (Kante=11, Kdesc=36229, core=7):-57705 7958 
clause level 1 (Kante=7, Kdesc=33982, core=5):-3342 3347 
clause level 13 (Kante=31, Kdesc=17040, core=2):-45207 
clause level 1 (Kante=7, Kdesc=32726, core=2):-28926 28931 
clause level 2 (Kante=4, Kdesc=23107, core=3):-8027 8030 
clause level 2 (Kante=5, Kdesc=24353, core=5):-18227 18237 
clause level 667 (Kante=2289, Kdesc=32821, core=8):-70559 
clause level 1 (Kante=5, Kdesc=25025, core=7):-55544 18199 
clause level 1 (Kante=5, Kdesc=36191, core=5):-35116 3370 
clause level 2 (Kante=17, Kdesc=36956, core=3):-72355 14192 
clause level 2 (Kante=3, Kdesc=23193, core=2):-8056 8064 
clause level 5 (Kante=11, Kdesc=13531, core=8):-41350 
clause level 10 (Kante=177, Kdesc=16192, core=3):-50242 
clause level 5 (Kante=7, Kdesc=16422, core=3):-43007 
clause level 3 (Kante=3, Kdesc=38417, core=3):-32693 14195 
clause level 6 (Kante=24, Kdesc=15252, core=3):-43006 
clause level 3 (Kante=8, Kdesc=29297, core=0):-26026 26036 
clause level 352 (Kante=2283, Kdesc=30526, core=3):-70552 
clause level 1 (Kante=5, Kdesc=34850, core=10):-70537 28875 
clause level 2 (Kante=4, Kdesc=30218, core=10):-26011 26016 
clause level 14 (Kante=4, Kdesc=18887, core=3):-44401 
clause level 3 (Kante=13, Kdesc=28498, core=9):-26016 26036 
clause level 684 (Kante=3284, Kdesc=30901, core=6):-28936 
clause level 1 (Kante=7, Kdesc=21974, core=0):-18217 18222 
clause level 33 (Kante=190, Kdesc=32394, core=5):-51324 57711 32695 
clause level 1 (Kante=3, Kdesc=16211, core=8):14198 -14213 
clause level 1 (Kante=5, Kdesc=14735, core=3):-28871 28873 
clause level 3 (Kante=3, Kdesc=15207, core=7):-14503 
clause level 1 (Kante=19, Kdesc=35939, core=8):-57710 7979 
clause level 1 (Kante=7, Kdesc=30271, core=6):-8036 8041 
clause level 2 (Kante=5, Kdesc=23405, core=1):-7955 7960 
clause level 10 (Kante=35, Kdesc=15555, core=11):-43325 
clause level 2 (Kante=9, Kdesc=17527, core=2):-28891 28909 
clause level 15 (Kante=30, Kdesc=18907, core=11):-44394 
clause level 14 (Kante=4, Kdesc=17647, core=2):-45211 
clause level 15 (Kante=4, Kdesc=18109, core=8):-45213 
clause level 4 (Kante=15, Kdesc=11892, core=10):-50804 
clause level 2 (Kante=3, Kdesc=26192, core=10):-41627 7973 
clause level 2 (Kante=4, Kdesc=18403, core=1):-18185 18190 
clause level 28 (Kante=51, Kdesc=12265, core=9):-1958 
clause level 13 (Kante=27, Kdesc=18777, core=2):-44403 
clause level 1 (Kante=17, Kdesc=29997, core=5):-72197 26008 
clause level 5 (Kante=3, Kdesc=17906, core=6):-44406 
clause level 578 (Kante=2150, Kdesc=33093, core=6):-8014 
clause level 1 (Kante=7, Kdesc=26425, core=1):-21397 21402 
clause level 3 (Kante=14, Kdesc=14173, core=11):-50805 
clause level 1 (Kante=5, Kdesc=27464, core=1):-26023 26026 
clause level 6 (Kante=4, Kdesc=17353, core=4):-45215 
clause level 7 (Kante=8, Kdesc=14303, core=11):-49362 
clause level 2 (Kante=4, Kdesc=19808, core=10):-26035 26040 
clause level 2 (Kante=35, Kdesc=25045, core=7):-6385 
clause level 2 (Kante=12, Kdesc=21275, core=10):-18237 18250 
clause level 2 (Kante=3, Kdesc=12965, core=8):-18266 18269 
clause level 5 (Kante=8, Kdesc=21211, core=10):-55535 18181 
clause level 269 (Kante=19, Kdesc=24879, core=4):-52698 
clause level 14 (Kante=31, Kdesc=15538, core=2):-44397 
clause level 5 (Kante=5, Kdesc=13389, core=3):7966 -1707 
clause level 10 (Kante=3, Kdesc=12411, core=1):-39388 
clause level 27 (Kante=798, Kdesc=29682, core=5):-22836 22824 31856 31576 
clause level 45 (Kante=8, Kdesc=34682, core=3):-72195 
clause level 1 (Kante=12, Kdesc=6128, core=8):-14319 14325 
clause level 5 (Kante=5, Kdesc=18605, core=0):-18218 18235 
clause level 3 (Kante=22, Kdesc=13934, core=1):-51350 
clause level 1 (Kante=7, Kdesc=31237, core=2):-3337 3342 
clause level 2 (Kante=11, Kdesc=15579, core=3):-48013 
clause level 3 (Kante=17, Kdesc=17903, core=11):-18235 18266 
clause level 15 (Kante=8, Kdesc=17376, core=5):-44405 
clause level 6 (Kante=9, Kdesc=14528, core=9):-50796 
clause level 67 (Kante=1, Kdesc=14067, core=2):-83671 85592 
clause level 1 (Kante=7, Kdesc=16530, core=0):-18253 18258 
clause level 7 (Kante=7, Kdesc=14760, core=11):-52715 
clause level 5 (Kante=25, Kdesc=23666, core=4):-6388 
clause level 13 (Kante=3, Kdesc=17456, core=1):-44407 
clause level 5 (Kante=19, Kdesc=13777, core=11):-50798 
clause level 323 (Kante=7, Kdesc=36792, core=0):-72226 
clause level 6 (Kante=4, Kdesc=14546, core=9):-52714 
clause level 1 (Kante=7, Kdesc=14569, core=4):-26053 26058 
clause level 1 (Kante=5, Kdesc=31108, core=4):-35107 3347 
clause level 2 (Kante=8, Kdesc=16897, core=1):-21405 21418 
clause level 11 (Kante=52, Kdesc=13936, core=9):-43315 
clause level 6 (Kante=27, Kdesc=14616, core=6):-50793 
clause level 2 (Kante=3, Kdesc=20561, core=5):-41625 7965 
clause level 4 (Kante=9, Kdesc=18520, core=5):-24716 
clause level 1 (Kante=13, Kdesc=24555, core=8):-7970 7983 
clause level 14 (Kante=14, Kdesc=17496, core=11):-43320 
clause level 779 (Kante=2806, Kdesc=26319, core=4):-8048 
clause level 13 (Kante=229, Kdesc=21144, core=1):-27277 27247 
clause level 2 (Kante=4, Kdesc=28960, core=1):-35110 3355 
clause level 2 (Kante=4, Kdesc=28930, core=4):-70541 28885 
clause level 2 (Kante=3, Kdesc=28100, core=10):-8028 8031 
clause level 1 (Kante=5, Kdesc=14875, core=2):-26050 26053 
clause level 2 (Kante=4, Kdesc=19810, core=10):-41623 7960 
clause level 2 (Kante=6, Kdesc=31293, core=2):-3360 3365 35116 
clause level 5 (Kante=14, Kdesc=30375, core=7):-47957 12526 7984 
clause level 2 (Kante=16, Kdesc=23618, core=7):-21387 21405 
clause level 1 (Kante=5, Kdesc=28181, core=11):-70539 28880 
clause level 356 (Kante=25, Kdesc=27279, core=9):8010 -14253 52410 52407 52408 
clause level 2 (Kante=7, Kdesc=17480, core=5):-26074 26082 
clause level 11 (Kante=82, Kdesc=13907, core=0):-49402 
clause level 2 (Kante=7, Kdesc=23983, core=1):-8000 8010 
clause level 1 (Kante=7, Kdesc=20885, core=0):-18222 18227 
clause level 2 (Kante=5, Kdesc=20991, core=4):-8022 8027 
clause level 6 (Kante=8, Kdesc=14333, core=9):-50803 
clause level 2 (Kante=12, Kdesc=8622, core=4):-14493 14499 
clause level 2 (Kante=9, Kdesc=13665, core=10):-28860 28898 
clause level 7 (Kante=32, Kdesc=24948, core=11):-51336 
clause level 1 (Kante=7, Kdesc=15946, core=6):-8040 8045 
clause level 13 (Kante=15, Kdesc=11547, core=10):-48236 
clause level 4 (Kante=10, Kdesc=29565, core=2):-32701 7984 7974 7966 
clause level 15 (Kante=29, Kdesc=12688, core=11):-44392 
clause level 2 (Kante=10, Kdesc=16743, core=8):-26082 26100 
clause level 2 (Kante=16, Kdesc=14753, core=2):-26059 26074 
clause level 3 (Kante=11, Kdesc=17220, core=7):-28875 28890 
clause level 12 (Kante=4, Kdesc=14101, core=10):-9246 
clause level 15 (Kante=26, Kdesc=14167, core=8):-43311 
clause level 1 (Kante=5, Kdesc=21285, core=7):-55547 18207 
clause level 2 (Kante=3, Kdesc=25126, core=10):-8020 8023 
clause level 16 (Kante=62, Kdesc=29112, core=0):-68123 
clause level 12 (Kante=14, Kdesc=33052, core=9):-51330 14299 
clause level 5 (Kante=3, Kdesc=15676, core=4):-45216 
clause level 12 (Kante=144, Kdesc=14428, core=5):-50243 
clause level 10 (Kante=6, Kdesc=15943, core=1):-14519 
clause level 2 (Kante=25, Kdesc=17190, core=2):-24722 
clause level 1 (Kante=5, Kdesc=28700, core=2):-35114 3365 
clause level 2 (Kante=4, Kdesc=27945, core=4):-70543 28890 
clause level 1 (Kante=9, Kdesc=30749, core=4):-62027 7984 
clause level 1 (Kante=5, Kdesc=25123, core=6):-35120 3380 
clause level 270 (Kante=5, Kdesc=25155, core=8):-51334 
clause level 4 (Kante=25, Kdesc=19789, core=1):-62032 
clause level 658 (Kante=2443, Kdesc=29592, core=10):-28875 
clause level 1 (Kante=35, Kdesc=31513, core=6):-35105 3380 
clause level 13 (Kante=33, Kdesc=14622, core=10):-44398 
clause level 1 (Kante=6, Kdesc=14164, core=4):-26056 26059 
clause level 4 (Kante=18, Kdesc=24767, core=0):-12544 12550 
clause level 13 (Kante=4, Kdesc=15349, core=4):-45217 
clause level 2 (Kante=4, Kdesc=14653, core=0):-55555 18227 
clause level 1 (Kante=5, Kdesc=20435, core=6):-8019 8022 
clause level 36 (Kante=17, Kdesc=26359, core=8):78196 -76563 
clause level 1 (Kante=5, Kdesc=22056, core=1):-60172 21402 
clause level 2 (Kante=10, Kdesc=13929, core=4):-26040 26050 
clause level 7 (Kante=22, Kdesc=24141, core=11):-12550 7984 12520 47955 
clause level 2 (Kante=8, Kdesc=24265, core=6):-3408 3418 
clause level 16 (Kante=3, Kdesc=15684, core=3):-44402 
clause level 1 (Kante=9, Kdesc=26797, core=1):-35118 3380 
clause level 12 (Kante=39, Kdesc=13511, core=11):-43855 
clause level 7 (Kante=10, Kdesc=14632, core=4):-51345 
clause level 3 (Kante=6, Kdesc=16447, core=5):-28909 28927 
clause level 1 (Kante=5, Kdesc=22344, core=5):-21384 21387 
clause level 14 (Kante=4, Kdesc=15259, core=2):-43318 
clause level 10 (Kante=6, Kdesc=14983, core=4):-14516 
clause level 10 (Kante=9, Kdesc=31774, core=0):-51329 14311 
clause level 3 (Kante=5, Kdesc=26080, core=3):7971 -22812 22800 
clause level 6 (Kante=12, Kdesc=21937, core=9):-62031 
clause level 3 (Kante=8, Kdesc=28815, core=2):-35112 3365 35116 
clause level 1 (Kante=5, Kdesc=14756, core=1):-18215 18218 
clause level 2 (Kante=8, Kdesc=19304, core=4):-21423 21433 
clause level 1 (Kante=7, Kdesc=24285, core=6):-3385 3390 
clause level 2 (Kante=3, Kdesc=27420, core=4):-28893 28898 
clause level 36 (Kante=5, Kdesc=15864, core=5):-52694 50768 
clause level 2 (Kante=10, Kdesc=20427, core=1):-21392 21402 
clause level 4 (Kante=24, Kdesc=21848, core=8):-42991 52131 14225 14190 51856 
clause level 6 (Kante=9, Kdesc=12583, core=5):-52716 
clause level 2 (Kante=4, Kdesc=18433, core=7):-55549 18212 
clause level 5 (Kante=4, Kdesc=14835, core=2):-43323 
clause level 17 (Kante=6, Kdesc=14777, core=10):-48237 
clause level 2 (Kante=7, Kdesc=21789, core=6):-26046 26051 
clause level 2 (Kante=5, Kdesc=14102, core=8):-26005 26015 
clause level 14 (Kante=68, Kdesc=13576, core=4):-43849 
clause level 2 (Kante=7, Kdesc=13897, core=9):-18258 18273 
clause level 2 (Kante=4, Kdesc=14405, core=2):-66701 26015 
clause level 1 (Kante=3, Kdesc=30002, core=10):14269 14273 -14285 
clause level 1 (Kante=11, Kdesc=15314, core=0):-18208 18215 
clause level 33 (Kante=234, Kdesc=17139, core=3):-52694 50768 52692 14295 
clause level 2 (Kante=6, Kdesc=18115, core=1):-21410 21418 
clause level 2 (Kante=5, Kdesc=17029, core=1):-21413 21418 
clause level 1 (Kante=7, Kdesc=12583, core=0):-26000 26005 
clause level 12 (Kante=32, Kdesc=11600, core=11):-49411 
clause level 4 (Kante=24, Kdesc=19989, core=10):-18189 18227 55557 
clause level 13 (Kante=36, Kdesc=13484, core=11):-43314 
clause level 2 (Kante=7, Kdesc=23523, core=11):-32715 8023 
clause level 641 (Kante=1694, Kdesc=15999, core=9):-12730 
clause level 2 (Kante=3, Kdesc=23890, core=4):-3375 3380 
clause level 20 (Kante=6, Kdesc=12963, core=2):-43309 
clause level 3 (Kante=17, Kdesc=13902, core=7):-28870 28890 
clause level 3 (Kante=4, Kdesc=18137, core=8):-55540 18189 
clause level 5 (Kante=6, Kdesc=11514, core=8):7984 -19742 
clause level 1 (Kante=5, Kdesc=22786, core=5):-35124 3390 
clause level 1 (Kante=7, Kdesc=16510, core=3):-8030 8035 
clause level 14 (Kante=9, Kdesc=14399, core=2):-43322 
clause level 16 (Kante=3, Kdesc=14077, core=10):-45212 
clause level 2 (Kante=3, Kdesc=14730, core=2):-26010 26015 
clause level 1 (Kante=7, Kdesc=25882, core=7):-28870 28875 
clause level 1 (Kante=5, Kdesc=25480, core=7):-70548 28903 
clause level 4 (Kante=4, Kdesc=24273, core=6):-32723 8041 
clause level 3 (Kante=10, Kdesc=12464, core=6):-18266 18281 
clause level 1 (Kante=5, Kdesc=17708, core=0):-55551 18217 
clause level 12 (Kante=47, Kdesc=10919, core=9):-48290 
clause level 1 (Kante=8, Kdesc=20940, core=1):-26018 26023 
clause level 2 (Kante=7, Kdesc=23097, core=3):-32716 8031 
clause level 15 (Kante=17, Kdesc=11461, core=10):-44413 
clause level 3 (Kante=3, Kdesc=22141, core=1):-26031 26036 
clause level 92 (Kante=12, Kdesc=23241, core=6):-32414 7953 
clause level 1 (Kante=5, Kdesc=13212, core=2):-26058 26061 
clause level 12 (Kante=41, Kdesc=10909, core=9):-48292 
clause level 3 (Kante=8, Kdesc=14502, core=8):-26020 26030 
clause level 1 (Kante=5, Kdesc=25587, core=6):22824 -22838 62026 22820 62025 
clause level 2 (Kante=3, Kdesc=18148, core=4):-60178 21418 
clause level 7 (Kante=25, Kdesc=23867, core=11):-51335 
clause level 4 (Kante=15, Kdesc=12108, core=11):-24689 
clause level 2 (Kante=5, Kdesc=15528, core=10):-18245 18250 
clause level 1 (Kante=5, Kdesc=24380, core=11):-70546 28898 
clause level 1 (Kante=7, Kdesc=15513, core=6):-8035 8040 
clause level 2 (Kante=4, Kdesc=11883, core=3):-66697 26005 
clause level 2 (Kante=4, Kdesc=17787, core=0):-55553 18222 
clause level 505 (Kante=2323, Kdesc=26387, core=0):-52428 
clause level 2 (Kante=5, Kdesc=18095, core=11):-24544 24549 
clause level 6 (Kante=3, Kdesc=10786, core=1):-39949 
clause level 1 (Kante=7, Kdesc=19437, core=1):-21379 21384 
clause level 1 (Kante=9, Kdesc=18914, core=1):-60170 21402 
clause level 2 (Kante=6, Kdesc=13506, core=4):-26025 26030 
clause level 5 (Kante=34, Kdesc=13730, core=10):-39385 
clause level 14 (Kante=46, Kdesc=14224, core=5):-45200 
clause level 3 (Kante=5, Kdesc=16009, core=8):-21433 21438 
clause level 4 (Kante=147, Kdesc=8493, core=6):-39994 
clause level 1 (Kante=7, Kdesc=22230, core=11):-28913 28918 
clause level 15 (Kante=4, Kdesc=12404, core=6):-43851 
clause level 19 (Kante=32, Kdesc=21913, core=7):8010 -1779 
clause level 89 (Kante=4984, Kdesc=8065, core=1):-66241 
clause level 3 (Kante=12, Kdesc=12502, core=8):-26015 26030 
clause level 15 (Kante=42, Kdesc=11065, core=5):-43327 
clause level 2 (Kante=4, Kdesc=18210, core=3):-41635 7991 
clause level 1 (Kante=7, Kdesc=21749, core=11):-28921 28926 
clause level 1 (Kante=5, Kdesc=13924, core=6):-66709 26035 
clause level 14 (Kante=44, Kdesc=12392, core=4):-44396 
clause level 2 (Kante=4, Kdesc=23235, core=11):-70550 28908 
clause level 2 (Kante=6, Kdesc=25269, core=10):-45432 26016 
clause level 1 (Kante=5, Kdesc=22255, core=10):-35122 3385 
clause level 4 (Kante=6, Kdesc=25842, core=8):7974 -22824 22800 
clause level 5 (Kante=16, Kdesc=11653, core=2):-24686 65308 65074 65542 64840 
clause level 2 (Kante=5, Kdesc=21126, core=5):-32718 8031 
clause level 2 (Kante=5, Kdesc=11326, core=8):-18278 18283 
clause level 2 (Kante=5, Kdesc=12542, core=4):-18273 18278 
clause level 8 (Kante=4, Kdesc=10108, core=3):-66474 
clause level 1 (Kante=8, Kdesc=13448, core=1):-39105 18190 
clause level 1 (Kante=5, Kdesc=24022, core=7):-70535 28870 
clause level 2 (Kante=4, Kdesc=14904, core=6):-35135 3418 
clause level 3 (Kante=6, Kdesc=18370, core=2):7958 -1699 
clause level 1 (Kante=5, Kdesc=15299, core=3):-21416 21419 
clause level 491 (Kante=6, Kdesc=21038, core=4):-52703 
clause level 2 (Kante=3, Kdesc=13904, core=9):-18200 18203 
clause level 2 (Kante=4, Kdesc=13134, core=1):4 11 -25 
clause level 1 (Kante=7, Kdesc=10493, core=0):-26067 26072 
clause level 3 (Kante=7, Kdesc=14421, core=3):-24481 24491 
clause level 15 (Kante=20, Kdesc=17714, core=6):-42991 14190 14225 51856 
clause level 3 (Kante=15, Kdesc=17702, core=1):-60163 21402 
clause level 12 (Kante=4, Kdesc=21992, core=2):-52705 
clause level 1 (Kante=5, Kdesc=10039, core=0):-26072 26074 
clause level 11 (Kante=4, Kdesc=8598, core=0):-56289 
clause level 356 (Kante=27, Kdesc=24172, core=4):-51328 50773 
clause level 1 (Kante=5, Kdesc=14291, core=1):-60180 21423 
clause level 1 (Kante=5, Kdesc=14098, core=1):-60175 21410 
clause level 1 (Kante=27, Kdesc=14171, core=0):-8087 8112 
clause level 357 (Kante=4, Kdesc=20518, core=0):8010 -14253 52407 52408 
clause level 1 (Kante=5, Kdesc=10740, core=9):-24532 24535 
clause level 1 (Kante=5, Kdesc=13617, core=5):-55559 18237 
clause level 2 (Kante=10, Kdesc=18653, core=1):-72622 21384 
clause level 2 (Kante=7, Kdesc=11061, core=10):-8048 8056 
clause level 2 (Kante=5, Kdesc=12461, core=2):-28865 28898 
clause level 6 (Kante=4, Kdesc=13253, core=3):7971 -1712 32696 
clause level 2 (Kante=3, Kdesc=13319, core=5):-18232 18237 
clause level 1 (Kante=5, Kdesc=12398, core=0):-66707 26030 
clause level 1 (Kante=5, Kdesc=11474, core=11):-60184 21433 
clause level 407 (Kante=142, Kdesc=23856, core=11):-51321 51587 51313 
clause level 5 (Kante=5, Kdesc=24222, core=9):-70531 28875 
clause level 1 (Kante=7, Kdesc=22219, core=1):-28865 28870 
clause level 2 (Kante=10, Kdesc=18179, core=6):-35131 3418 
clause level 2 (Kante=5, Kdesc=11851, core=5):-55557 18237 
clause level 355 (Kante=10, Kdesc=22677, core=9):14245 -14273 14253 
clause level 699 (Kante=827, Kdesc=24026, core=6):-26051 
clause level 1 (Kante=11, Kdesc=12612, core=5):-26061 26071 
clause level 17 (Kante=15, Kdesc=11503, core=11):-43307 
clause level 1 (Kante=5, Kdesc=19601, core=4):-70554 28918 
clause level 12 (Kante=50, Kdesc=11353, core=9):-43313 
clause level 1 (Kante=8, Kdesc=8656, core=8):-26095 26100 
clause level 11 (Kante=9, Kdesc=23127, core=11):-51327 14311 
clause level 492 (Kante=4, Kdesc=13924, core=9):-35145 
clause level 2 (Kante=3, Kdesc=20830, core=0):-32726 8048 
clause level 1 (Kante=10, Kdesc=14217, core=3):-21449 21457 
clause level 3 (Kante=9, Kdesc=21649, core=8):-57737 8041 
clause level 2 (Kante=4, Kdesc=16183, core=1):-60168 21392 
clause level 3 (Kante=64, Kdesc=13200, core=7):-14460 14478 
clause level 115 (Kante=7, Kdesc=8672, core=11):-68173 
clause level 2 (Kante=4, Kdesc=10959, core=8):-66699 26015 
clause level 1 (Kante=23, Kdesc=21490, core=4):-35126 3418 
clause level 2 (Kante=4, Kdesc=19288, core=11):-3400 3403 
clause level 3 (Kante=5, Kdesc=16903, core=5):-24473 24478 
clause level 5 (Kante=4, Kdesc=10018, core=6):-14484 14502 
clause level 4 (Kante=7, Kdesc=24376, core=0):-72508 28875 
clause level 490 (Kante=186, Kdesc=19171, core=11):-52704 
clause level 1 (Kante=3, Kdesc=18843, core=7):14245 14249 -14261 
clause level 2 (Kante=6, Kdesc=16699, core=5):-60165 21387 
clause level 3 (Kante=13, Kdesc=13699, core=7):-14448 14460 
clause level 4 (Kante=7, Kdesc=24060, core=7):-70532 28875 
clause level 3 (Kante=7, Kdesc=13968, core=7):-35133 3418 
clause level 399 (Kante=7, Kdesc=21748, core=7):-32708 
clause level 17 (Kante=35, Kdesc=12808, core=2):-49365 12522 12514 
clause level 3 (Kante=4, Kdesc=10295, core=3):-28868 28873 
clause level 7 (Kante=23, Kdesc=10469, core=10):-39945 
clause level 1 (Kante=5, Kdesc=12863, core=11):-18242 18245 
clause level 2 (Kante=3, Kdesc=11836, core=2):-66703 26020 
clause level 1 (Kante=19, Kdesc=19425, core=4):-35128 3418 
clause level 1 (Kante=7, Kdesc=14918, core=11):-24529 24534 
clause level 3 (Kante=5, Kdesc=13938, core=3):-3413 3418 
clause level 34 (Kante=150, Kdesc=17934, core=4):76466 14195 51862 52677 
clause level 14 (Kante=46, Kdesc=10170, core=5):-44411 
clause level 2 (Kante=3, Kdesc=12324, core=2):-55564 18250 
clause level 5 (Kante=7, Kdesc=19049, core=8):-50198 12556 12538 12544 47956 12550 
clause level 1 (Kante=5, Kdesc=6839, core=6):-41656 8045 
clause level 15 (Kante=5, Kdesc=9242, core=7):-9456 9462 
clause level 13 (Kante=49, Kdesc=8634, core=10):-43329 
clause level 2 (Kante=8, Kdesc=10926, core=4):-66705 26030 
clause level 21 (Kante=6, Kdesc=16145, core=7):8010 -1755 1737 
clause level 1 (Kante=7, Kdesc=14893, core=0):-24506 24511 
clause level 2 (Kante=6, Kdesc=12256, core=3):-28979 28984 
clause level 269 (Kante=32, Kdesc=21892, core=4):8031 -14313 50774 50773 
clause level 15 (Kante=13, Kdesc=8464, core=4):-43328 
clause level 1 (Kante=5, Kdesc=12216, core=8):-28994 28997 
clause level 2 (Kante=47, Kdesc=9587, core=10):-14478 14484 
clause level 3 (Kante=5, Kdesc=13472, core=6):-18263 18273 
clause level 1 (Kante=5, Kdesc=15403, core=0):-24478 24481 
clause level 2 (Kante=4, Kdesc=8932, core=4):-24535 24537 
clause level 15 (Kante=12, Kdesc=10798, core=11):-43852 
clause level 1 (Kante=5, Kdesc=13340, core=11):-41637 7996 
clause level 15 (Kante=43, Kdesc=9395, core=5):-45222 
clause level 18 (Kante=244, Kdesc=19905, core=11):-68128 
clause level 1 (Kante=9, Kdesc=14237, core=7):-24516 24524 
clause level 3 (Kante=3, Kdesc=19183, core=3):-57732 8031 
clause level 13 (Kante=7, Kdesc=20263, core=10):-51322 14295 52692 14299 
clause level 2 (Kante=7, Kdesc=10277, core=5):-18225 18235 
clause level 721 (Kante=3144, Kdesc=9242, core=6):-32742 
clause level 1 (Kante=15, Kdesc=11823, core=11):-26110 26123 
clause level 3 (Kante=10, Kdesc=18090, core=1):-32721 8041 
clause level 355 (Kante=63, Kdesc=24723, core=6):-68117 1730 
clause level 5 (Kante=11, Kdesc=17738, core=10):-32714 8023 
clause level 1 (Kante=8, Kdesc=8522, core=1):-24517 24522 
clause level 10 (Kante=17, Kdesc=6308, core=3):-57477 
clause level 20 (Kante=13, Kdesc=18520, core=3):8010 -1777 
clause level 1 (Kante=5, Kdesc=8472, core=5):-26092 26095 
clause level 2 (Kante=3, Kdesc=12387, core=11):-18213 18215 
clause level 1 (Kante=10, Kdesc=13444, core=9):-21486 21493 
clause level 328 (Kante=11, Kdesc=22771, core=5):-45430 
clause level 2 (Kante=8, Kdesc=11485, core=8):-55569 18268 
clause level 3 (Kante=8, Kdesc=11639, core=6):-8067 8082 
clause level 13 (Kante=4, Kdesc=9974, core=4):-14510 
clause level 1 (Kante=7, Kdesc=12300, core=8):-8076 8081 
clause level 13 (Kante=4, Kdesc=9976, core=0):-14513 
clause level 2 (Kante=17, Kdesc=9158, core=10):-14475 14487 
clause level 18 (Kante=4, Kdesc=6447, core=1):-14200 7984 32699 
clause level 1 (Kante=5, Kdesc=10992, core=8):-41670 8081 
clause level 1 (Kante=7, Kdesc=11711, core=9):-8097 8102 
clause level 2 (Kante=6, Kdesc=14644, core=11):-47963 7994 
clause level 2 (Kante=3, Kdesc=12163, core=6):-41649 8027 
clause level 1 (Kante=11, Kdesc=11050, core=9):-28984 28994 
clause level 1 (Kante=15, Kdesc=9336, core=1):-24537 24550 
clause level 16 (Kante=197, Kdesc=19252, core=0):-68127 
clause level 2 (Kante=6, Kdesc=13262, core=5):-57719 7994 
clause level 2 (Kante=64, Kdesc=13581, core=5):-10901 
clause level 2 (Kante=11, Kdesc=17247, core=8):-57730 8031 
clause level 1 (Kante=45, Kdesc=7889, core=11):-20020 
clause level 10 (Kante=11, Kdesc=9278, core=0):-14517 14523 
clause level 14 (Kante=5, Kdesc=7693, core=7):-9251 
clause level 1 (Kante=9, Kdesc=21188, core=6):-70533 28870 
clause level 1 (Kante=7, Kdesc=11709, core=11):-8092 8097 
clause level 3 (Kante=4, Kdesc=12908, core=8):-41640 8014 
clause level 9 (Kante=13, Kdesc=9246, core=6):-47962 7994 
clause level 1 (Kante=25, Kdesc=19032, core=8):-57731 8031 
clause level 10 (Kante=7, Kdesc=17285, core=3):-51323 14299 
clause level 2 (Kante=4, Kdesc=13817, core=5):-24468 24473 
clause level 2 (Kante=4, Kdesc=18636, core=4):7984 22836 -22848 
clause level 4 (Kante=7, Kdesc=20631, core=7):-70536 28875 
clause level 2 (Kante=5, Kdesc=8645, core=4):-28937 28952 
clause level 3 (Kante=16, Kdesc=12579, core=10):-28967 29003 
clause level 2 (Kante=14, Kdesc=11181, core=8):-15869 15887 
clause level 2 (Kante=3, Kdesc=9356, core=0):-18268 18273 
clause level 1 (Kante=13, Kdesc=12108, core=3):-15887 15900 
clause level 12 (Kante=46, Kdesc=8050, core=2):-48289 
clause level 11 (Kante=9, Kdesc=16286, core=0):-52696 14311 
clause level 642 (Kante=81, Kdesc=9451, core=7):-47983 
clause level 1 (Kante=5, Kdesc=10199, core=4):-55561 18242 
clause level 1 (Kante=21, Kdesc=12630, core=0):-21457 21475 
clause level 13 (Kante=12, Kdesc=14926, core=4):7958 -14185 42982 9145 
clause level 299 (Kante=23, Kdesc=17420, core=5):-31014 39100 39099 
clause level 2 (Kante=9, Kdesc=10002, core=8):-26076 26091 
clause level 2 (Kante=6, Kdesc=13131, core=8):-24524 24529 
clause level 4 (Kante=10, Kdesc=10461, core=11):-18171 18184 47953 
clause level 1 (Kante=5, Kdesc=16188, core=8):-70561 28936 
clause level 2 (Kante=4, Kdesc=11067, core=2):-18223 18225 
clause level 2 (Kante=6, Kdesc=11270, core=6):-21428 21433 
clause level 1 (Kante=3, Kdesc=19969, core=10):14293 14297 -14309 
clause level 3 (Kante=6, Kdesc=11238, core=9):-64548 24491 
clause level 2 (Kante=5, Kdesc=9750, core=8):-26071 26076 
clause level 5 (Kante=21, Kdesc=10606, core=4):-28927 28967 
clause level 459 (Kante=3717, Kdesc=9849, core=3):-44124 
clause level 2 (Kante=6, Kdesc=16821, core=2):-57739 8048 
clause level 490 (Kante=202, Kdesc=18040, core=10):8041 -14343 
clause level 3 (Kante=7, Kdesc=15790, core=2):-32725 8048 
clause level 2 (Kante=3, Kdesc=10538, core=0):-66711 26040 
clause level 16 (Kante=8, Kdesc=8908, core=6):-44391 
clause level 2 (Kante=4, Kdesc=8648, core=4):-26054 26056 
clause level 355 (Kante=17, Kdesc=16486, core=9):8031 -14325 50774 50773 
clause level 5 (Kante=47, Kdesc=10730, core=3):-39384 
clause level 16 (Kante=5, Kdesc=8762, core=9):-45201 
clause level 14 (Kante=31, Kdesc=9041, core=5):-43316 
clause level 2 (Kante=6, Kdesc=10678, core=8):-7999 8004 
clause level 3 (Kante=4, Kdesc=12850, core=0):-24491 24506 
clause level 6 (Kante=4, Kdesc=12726, core=5):-14436 14448 
clause level 2 (Kante=5, Kdesc=9719, core=7):-26045 26050 
clause level 2 (Kante=24, Kdesc=14206, core=2):-24511 24544 
clause level 1 (Kante=8, Kdesc=11970, core=9):-21480 21486 
clause level 1 (Kante=139, Kdesc=12044, core=11):-326 
clause level 1 (Kante=17, Kdesc=9853, core=11):-64549 18195 
clause level 642 (Kante=4, Kdesc=9491, core=9):-47986 
clause level 1 (Kante=13, Kdesc=8773, core=8):-14469 14475 
clause level 3 (Kante=6, Kdesc=12410, core=9):-8004 8014 
clause level 3 (Kante=5, Kdesc=11095, core=3):-8051 8056 
clause level 1 (Kante=5, Kdesc=10653, core=6):-41644 8014 
clause level 2 (Kante=7, Kdesc=9693, core=7):-64548 18195 
clause level 1 (Kante=49, Kdesc=8408, core=8):-28861 28909 70549 
clause level 2 (Kante=5, Kdesc=11926, core=11):-21475 21480 
clause level 1 (Kante=5, Kdesc=10449, core=6):-64550 24491 
clause level 2 (Kante=6, Kdesc=12441, core=3):-24534 24544 
clause level 425 (Kante=5, Kdesc=7866, core=0):-60196 
clause level 2 (Kante=7, Kdesc=9779, core=11):-28951 28959 
clause level 624 (Kante=12, Kdesc=14537, core=8):-60188 
clause level 2 (Kante=7, Kdesc=13331, core=8):-14247 14253 
clause level 3 (Kante=18, Kdesc=8728, core=5):-28866 28891 28909 
clause level 4 (Kante=3, Kdesc=11361, core=6):-14442 14448 
clause level 2 (Kante=6, Kdesc=10575, core=0):-39107 18195 
clause level 1 (Kante=11, Kdesc=8629, core=2):-28969 28979 
clause level 2 (Kante=8, Kdesc=9971, core=6):-60182 21433 
clause level 15 (Kante=31, Kdesc=8559, core=9):-44393 
clause level 7 (Kante=47, Kdesc=7348, core=4):-65295 
clause level 2 (Kante=7, Kdesc=12397, core=0):-64545 64548 24481 
clause level 4 (Kante=6, Kdesc=9718, core=7):-28959 28969 
clause level 1 (Kante=5, Kdesc=10776, core=7):-64560 24516 
clause level 1 (Kante=7, Kdesc=9706, core=7):-15864 15869 
clause level 1 (Kante=5, Kdesc=12917, core=6):1789 -1803 32716 1785 32715 
clause level 6 (Kante=8, Kdesc=7982, core=4):-52723 
clause level 15 (Kante=9, Kdesc=7729, core=7):-9444 9456 
clause level 3 (Kante=3, Kdesc=10979, core=3):-21411 21416 
clause level 16 (Kante=27, Kdesc=6208, core=11):-43326 
clause level 3 (Kante=10, Kdesc=10606, core=5):-21419 21429 
clause level 2 (Kante=3, Kdesc=11375, core=10):-41646 8019 
clause level 2 (Kante=10, Kdesc=6565, core=0):-22992 
clause level 2 (Kante=4, Kdesc=9576, core=2):-66715 26050 
clause level 6 (Kante=30, Kdesc=14997, core=11):-62306 22844 22836 
clause level 653 (Kante=339, Kdesc=14935, core=3):-51602 
clause level 98 (Kante=7, Kdesc=15526, core=10):-31013 39099 39100 
clause level 17 (Kante=4, Kdesc=10771, core=10):-64549 24491 
clause level 7 (Kante=2, Kdesc=10880, core=3):7971 32692 -1712 
clause level 400 (Kante=2497, Kdesc=5212, core=9):-43292 
clause level 6 (Kante=9, Kdesc=16358, core=7):-32713 8020 8010 
clause level 3 (Kante=3, Kdesc=14618, core=5):32722 -14349 57736 14343 
clause level 1 (Kante=16, Kdesc=11529, core=2):-32729 8056 
clause level 2 (Kante=2, Kdesc=8087, core=0):-14457 14469 
clause level 9 (Kante=11, Kdesc=12480, core=9):-50206 12582 12498 12546 12534 12522 12510 
clause level 2 (Kante=5, Kdesc=5676, core=5):-8082 8087 
clause level 642 (Kante=153, Kdesc=9612, core=10):-47979 
clause level 690 (Kante=3, Kdesc=13568, core=3):-57729 
clause level 2 (Kante=4, Kdesc=8061, core=8):-55571 18268 
clause level 2 (Kante=3, Kdesc=15380, core=6):-26038 26046 
clause level 14 (Kante=19, Kdesc=12206, core=9):1699 57705 72355 -14185 57706 
clause level 2 (Kante=8, Kdesc=6096, core=4):-18259 18266 
clause level 2 (Kante=6, Kdesc=9313, core=6):-41642 8014 
clause level 1 (Kante=3, Kdesc=17615, core=5):14281 -14297 14285 
clause level 1 (Kante=5, Kdesc=6460, core=11):-60186 21438 
clause level 2 (Kante=40, Kdesc=9391, core=7):-14454 14460 
clause level 2 (Kante=9, Kdesc=10491, core=2):-21429 21449 
clause level 4 (Kante=11, Kdesc=13585, core=6):-62866 23000 22836 22832 
clause level 10 (Kante=24, Kdesc=12302, core=0):-47968 8010 12606 
clause level 2 (Kante=3, Kdesc=9598, core=5):21 -43 25 23 
clause level 4 (Kante=19, Kdesc=12041, core=10):-21448 21477 
clause level 1 (Kante=15, Kdesc=7206, core=7):-72227 28861 
clause level 384 (Kante=7, Kdesc=14268, core=1):-70557 
clause level 14 (Kante=27, Kdesc=7419, core=2):-43310 
clause level 1 (Kante=8, Kdesc=10234, core=6):-57735 8036 
clause level 707 (Kante=2786, Kdesc=12593, core=0):-52430 
clause level 13 (Kante=6, Kdesc=12182, core=9):-21438 21448 
clause level 1 (Kante=7, Kdesc=9857, core=7):-24519 24524 
clause level 508 (Kante=1126, Kdesc=6535, core=0):-43832 
clause level 2 (Kante=6, Kdesc=7115, core=2):-26091 26099 
clause level 5 (Kante=9, Kdesc=7371, core=7):-52720 
clause level 1 (Kante=5, Kdesc=6464, core=9):-55573 18273 
clause level 5 (Kante=6, Kdesc=8683, core=3):-41361 
clause level 1 (Kante=5, Kdesc=8937, core=6):-41652 8035 
Found 3473 good successive clauses in order (2684 originals, maxlevel=779)
c KCorePR 1381765 1154 3473 2684 779
c DistanceTo...Unseen 448025
c DistanceToGoodKCore c   DIST 0: 3473 (+3473) / 3473 (+3473)
c   DIST 1: 572804 (+569331) / 118977 (+115504)
c   DIST 2: 796033 (+223229) / 222108 (+103131)
c   DIST 3: 843685 (+47652) / 234877 (+12769)
c   DIST 4: 878524 (+34839) / 241165 (+6288)
c   DIST 5: 901754 (+23230) / 244379 (+3214)
c   DIST 6: 916683 (+14929) / 245562 (+1183)
c   DIST 7: 924696 (+8013) / 245913 (+351)
c   DIST 8: 928876 (+4180) / 246075 (+162)
c   DIST 9: 931044 (+2168) / 246198 (+123)
c   DIST 10: 932073 (+1029) / 246249 (+51)
c   DIST 11: 932756 (+683) / 246286 (+37)
c   DIST 12: 933123 (+367) / 246324 (+38)
c   DIST 13: 933358 (+235) / 246352 (+28)
c   DIST 14: 933516 (+158) / 246367 (+15)
c   DIST 15: 933615 (+99) / 246375 (+8)
c   DIST 16: 933679 (+64) / 246387 (+12)
c   DIST 17: 933704 (+25) / 246397 (+10)
c   DIST 18: 933721 (+17) / 246407 (+10)
c   DIST 19: 933732 (+11) / 246410 (+3)
c   DIST 20: 933735 (+3) / 246411 (+1)
c   DIST 21: 933737 (+2) / 246412 (+1)
c   DIST 22: 933739 (+2) / 246412 (+0)
c   DIST 23: 933740 (+1) / 246412 (+0)
c TotalDistance=1381765
No graph is dumped
c result of core 1 is UNSAT
c One thread has finished
c Core 1 said it finished
c result of core 3 is UNKNOWN
c result of core 2 is UNKNOWN
c result of core 10 is UNKNOWN
c result of core 7 is UNKNOWN
c result of core 5 is UNKNOWN
c result of core 6 is UNKNOWN
c result of core 4 is UNKNOWN
c result of core 8 is UNKNOWN
c result of core 0 is UNKNOWN
c result of core 11 is UNKNOWN
c result of core 9 is UNKNOWN
c restarts              : 434 (140 conflicts in avg)
c blocked restarts      : 33 (multiple: 12) 
c last block at restart : 428
c nb ReduceDB           : 5
c nb removed Clauses    : 48495
c nb learnts DL2        : 1751
c nb learnts size 2     : 973
c nb learnts size 1     : 107
c conflicts             : 60972          (10 /sec)
c decisions             : 451353         (0.00 % random) (71 /sec)
c propagations          : 105479594      (16597 /sec)
c conflict literals     : 11776193       (13.77 % deleted)
c nb reduced Clauses    : 875
c CPU time              : 6355.51 s

s INDETERMINATE
