c
c This is glucose-proof 1.0 based on  2.1 --  (thanks to MiniSAT)
c
c EXPERIMENTAL EASY PARALLEL (ROUND ROBIN) VERSION
c
c WARNING: for repeatability, setting FPU to use double precision
c Parallel version 14 solvers created.
c ========================================[ Problem Statistics ]===========================================
c |                                                                                                       |
c |  Number of variables:         21498                                                                   |
c |  Number of clauses:          703071                                                                   |
c |  Parse time:                   2.07 s                                                                 |
c |                                                                                                       |
c ========================================[ MAGIC CONSTANTS ]==============================================
c | Constants are supposed to work well together :-)                                                      |
c | however, if you find better choices, please let us known...                                           |
c |-------------------------------------------------------------------------------------------------------|
c |                                |                                |                                     |
c | - Restarts:                    | - Reduce Clause DB:            | - Minimize Asserting:               |
c |   * LBD Queue    :     50      |   * First     :   4000         |    * size <  30                     |
c |   * Trail  Queue :   5000      |   * Inc       :    300         |    * lbd  <   6                     |
c |   * K            :   0.80      |   * Special   :   1000         |                                     |
c |   * R            :   1.40      |   * Protected :  (lbd)< 30     |                                     |
c |                                |                                |                                     |
c ==================================[ Search Statistics (every  10000 conflicts) ]=========================
c |                                                                                                       |
c |          RESTARTS           |          ORIGINAL         |              LEARNT              | Progress |
c |       NB   Blocked  Avg Cfc |    Vars  Clauses Literals |   Red   Learnts    LBD2  Removed |          |
c =========================================================================================================
c |       63         0      158 |   21465   703071  2039754 |     1     8005      201     2893 |  0.154 % |
c |      139        38      143 |   21444   703071  2039754 |     3     6957      320    16561 |  0.251 % |
c |      225        38      133 |   21424   703071  2039754 |     3    16949      398    16561 |  0.344 % |
c |      312        57      128 |   21410   703071  2039754 |     4    17670      477    27368 |  0.409 % |
c |      370       101      135 |   21395   703071  2039754 |     5    15844      656    40787 |  0.479 % |
c |      403       144      148 |   21392   703071  2039754 |     5    25835      724    40787 |  0.493 % |
c |      438       205      159 |   21382   703071  2039754 |     6    21436      788    56872 |  0.540 % |
c |      450       233      177 |   21381   703071  2039754 |     6    31430      852    56872 |  0.545 % |
c |      460       282      195 |   21373   703071  2039754 |     7    24428      876    75404 |  0.581 % |
c |      489       359      204 |   21371   703071  2039754 |     7    34423      939    75404 |  0.591 % |
c |      526       391      209 |   21370   703071  2039754 |     8    24820     1015    97033 |  0.595 % |
c |      527       444      227 |   21368   703071  2039754 |     8    34819     1019    97033 |  0.605 % |
c |      527       515      246 |   21368   703071  2039754 |     9    22620     1023   121424 |  0.605 % |
c |      527       566      265 |   21368   703071  2039754 |     9    32620     1036   121424 |  0.605 % |
c |      548       631      273 |   21365   703071  2039754 |     9    42618     1072   121424 |  0.619 % |
c |      555       692      288 |   21365   703071  2039754 |    10    27815     1081   148084 |  0.619 % |
c |      587       738      289 |   21364   703071  2039754 |    10    37813     1154   148084 |  0.623 % |
c |      616       772      292 |   21364   703071  2039754 |    10    47813     1196   148084 |  0.623 % |
c |      622       817      305 |   21364   703071  2039754 |    11    30417     1221   176979 |  0.623 % |
c |      626       876      319 |   21363   703071  2039754 |    11    40417     1266   176979 |  0.628 % |
c |      643       929      326 |   21361   703071  2039754 |    11    50416     1279   176979 |  0.637 % |
c |      667       976      329 |   21084   703071  2039754 |    12    30377     1294   209035 |  1.926 % |
c |      684      1044      336 |   21081   703071  2039754 |    12    40377     1329   209035 |  1.940 % |
c |      687      1084      349 |   21076   703071  2039754 |    12    50377     1334   209035 |  1.963 % |
c |      688      1125      363 |   21076   703071  2039754 |    12    60377     1336   209035 |  1.963 % |
c |      688      1182      377 |   21075   703071  2039754 |    13    37793     1339   243277 |  1.968 % |
c |      691      1240      390 |   21074   703071  2039754 |    13    47793     1358   243277 |  1.972 % |
c |      696      1289      402 |   21073   703071  2039754 |    13    57793     1375   243277 |  1.977 % |
c |      711      1345      407 |   21071   703071  2039754 |    13    67774     1416   243277 |  1.986 % |
c |      723      1403      414 |   21071   703071  2039754 |    14    42594     1425   279662 |  1.986 % |
c |      724      1432      428 |   21070   703071  2039754 |    14    52594     1430   279662 |  1.991 % |
c |      725      1485      441 |   21069   703071  2039754 |    14    62594     1457   279662 |  1.996 % |
c |      725      1520      455 |   21069   703071  2039754 |    14    72594     1474   279662 |  1.996 % |
c |      725      1562      468 |   21069   703071  2039754 |    15    44806     1511   318672 |  1.996 % |
c |      732      1617      478 |   21049   703071  2039754 |    15    54806     1521   318672 |  2.089 % |
c |      751      1682      479 |   21048   703071  2039754 |    15    64806     1529   318672 |  2.093 % |
c |      773      1723      478 |   21048   703071  2039754 |    15    74695     1536   318672 |  2.093 % |
c |      815      1783      466 |   21048   703071  2039754 |    16    44355     1547   359917 |  2.093 % |
c |      825      1831      472 |   21047   703071  2039754 |    16    54355     1550   359917 |  2.098 % |
c |      838      1864      477 |   21046   703071  2039754 |    16    64355     1557   359917 |  2.103 % |
c |      847      1909      484 |   21045   703071  2039754 |    16    74355     1560   359917 |  2.107 % |
c |      853      1982      492 |   21044   703071  2039754 |    16    84355     1565   359917 |  2.112 % |
c |      863      2048      498 |   21042   703071  2039754 |    17    51391     1579   403915 |  2.121 % |
c |      878      2093      501 |   21041   703071  2039754 |    17    61391     1593   403915 |  2.126 % |
c |      879      2136      511 |   21041   703071  2039754 |    17    71391     1593   403915 |  2.126 % |
c |      919      2185      500 |   21040   703071  2039754 |    17    81387     1632   403915 |  2.130 % |
c |     1003      2215      468 |   21038   703071  2039754 |    18    45805     1691   450323 |  2.140 % |
c empty clause found by core 4 at conflict 474097
*
c checking the resolution graph...OK
c All useful bySize 480232 clauses, percentiles 0 2 2 2 2 2 371 954 1736 3169 4232 4245 (0,1,5,10,25,50,75,90,95,99,100-1,100)
c All useless bySize 6862648 clauses, percentiles 0 2 2 23 115 405 880 1767 2382 3206 4359 4365 (0,1,5,10,25,50,75,90,95,99,100-1,100)
c ProofOnly useful bySize 228504 clauses, percentiles 0 2 3 12 64 398 836 1796 2597 3471 4232 4245 (0,1,5,10,25,50,75,90,95,99,100-1,100)
c ProofOnly useless bySize 6408845 clauses, percentiles 1 7 29 50 157 433 930 1835 2430 3225 4359 4365 (0,1,5,10,25,50,75,90,95,99,100-1,100)
c All useful byFinalLBD 480232 clauses, percentiles 0 2 2 2 2 2 13 21 28 53 160 160 (0,1,5,10,25,50,75,90,95,99,100-1,100)
c All useless byFinalLBD 6862648 clauses, percentiles 0 2 2 7 14 21 30 42 54 89 420 420 (0,1,5,10,25,50,75,90,95,99,100-1,100)
c ProofOnly useful byFinalLBD 228504 clauses, percentiles 0 1 2 3 8 13 19 26 31 56 117 117 (0,1,5,10,25,50,75,90,95,99,100-1,100)
c ProofOnly useless byFinalLBD 6408845 clauses, percentiles 1 3 8 10 15 22 31 43 56 90 420 420 (0,1,5,10,25,50,75,90,95,99,100-1,100)
c All useful byInitialLBD 480232 clauses, percentiles 0 2 2 2 2 2 16 24 30 56 160 160 (0,1,5,10,25,50,75,90,95,99,100-1,100)
c All useless byInitialLBD 6862648 clauses, percentiles 0 2 2 9 15 22 31 44 56 91 420 514 (0,1,5,10,25,50,75,90,95,99,100-1,100)
c ProofOnly useful byInitialLBD 228504 clauses, percentiles 0 2 2 6 11 15 21 28 34 62 131 156 (0,1,5,10,25,50,75,90,95,99,100-1,100)
c ProofOnly useless byInitialLBD 6408845 clauses, percentiles 1 5 10 12 17 23 32 45 57 92 420 514 (0,1,5,10,25,50,75,90,95,99,100-1,100)
c Literals ProofOnly useful 146765042
c Literals ProofOnly useless 4478567376
c additional windowsGood 1 1 1 1 1 1 1 1 1 2 4 4 (0,1,5,10,25,50,75,90,95,99,100-1,100)
c additional windowsBad 1 3 7 12 13 13 17 55 91 279 3860 4941 (0,1,5,10,25,50,75,90,95,99,100-1,100)
c additional 1WindowNoDecision 222246 108572 0.49 967 383 0.4 (nbWindowsGood,nbWindowsNoDecisionGood,nbWindowsBad,nbWindowsNoDecisionBad
c additional topclausessize all (10%,5%,1%,top) 1955.28 2611.58 3481.77 4245
c additional topclausessize proofonly (10%,5%,1%,top) 2257.38 2854.69 3569.68 4245
c additional topclausesinitialLBD all (10%,5%,1%,top) 1747.65 2422.33 3412.27 4245
c additional topclausesinitialLBD proofonly (10%,5%,1%,top) 1580.16 2257.38 3349.56 4245
c additional topclausesfinalLBD all (10%,5%,1%,top) 1313.17 1967.48 3225.19 4245
c additional topclausesfinalLBD proofonly (10%,5%,1%,top) 1220.10 1854.68 3169.53 4245
c additional predictionInitialLBD 1 194 228504 0.93 0.00 0.00 6637155 6408845 0.97 28.05 1.87 0.97 (nbgoodclauses,nbtotalgood,precisionGood,recallGood,FGood,nbbadclause,nbtotalbad,precisionBad,recallBad,FBad,accuracy)
c additional predictionInitialLBD 2 24957 228504 0.47 0.05 0.09 6612392 6408845 0.97 27.99 1.87 0.97 (nbgoodclauses,nbtotalgood,precisionGood,recallGood,FGood,nbbadclause,nbtotalbad,precisionBad,recallBad,FBad,accuracy)
c additional predictionInitialLBD 3 55559 228504 0.28 0.07 0.11 6581790 6408845 0.97 27.87 1.87 0.96 (nbgoodclauses,nbtotalgood,precisionGood,recallGood,FGood,nbbadclause,nbtotalbad,precisionBad,recallBad,FBad,accuracy)
c additional predictionInitialLBD 4 80883 228504 0.23 0.08 0.12 6556466 6408845 0.97 27.77 1.87 0.96 (nbgoodclauses,nbtotalgood,precisionGood,recallGood,FGood,nbbadclause,nbtotalbad,precisionBad,recallBad,FBad,accuracy)
c additional predictionInitialLBD 5 106920 228504 0.20 0.09 0.13 6530429 6408845 0.97 27.67 1.87 0.96 (nbgoodclauses,nbtotalgood,precisionGood,recallGood,FGood,nbbadclause,nbtotalbad,precisionBad,recallBad,FBad,accuracy)
c additional predictionInitialLBD 6 137187 228504 0.18 0.11 0.14 6500162 6408845 0.97 27.56 1.87 0.95 (nbgoodclauses,nbtotalgood,precisionGood,recallGood,FGood,nbbadclause,nbtotalbad,precisionBad,recallBad,FBad,accuracy)
c additional predictionInitialLBD 7 190691 228504 0.16 0.14 0.15 6446658 6408845 0.97 27.35 1.87 0.95 (nbgoodclauses,nbtotalgood,precisionGood,recallGood,FGood,nbbadclause,nbtotalbad,precisionBad,recallBad,FBad,accuracy)
c additional predictionInitialLBD 8 259292 228504 0.15 0.17 0.16 6378057 6408845 0.97 27.08 1.87 0.94 (nbgoodclauses,nbtotalgood,precisionGood,recallGood,FGood,nbbadclause,nbtotalbad,precisionBad,recallBad,FBad,accuracy)
c additional predictionInitialLBD 10 444188 228504 0.13 0.25 0.17 6193161 6408845 0.97 26.35 1.88 0.92 (nbgoodclauses,nbtotalgood,precisionGood,recallGood,FGood,nbbadclause,nbtotalbad,precisionBad,recallBad,FBad,accuracy)
c additional predictionInitialLBD 14 1155052 228504 0.09 0.46 0.15 5482297 6408845 0.98 23.45 1.88 0.82 (nbgoodclauses,nbtotalgood,precisionGood,recallGood,FGood,nbbadclause,nbtotalbad,precisionBad,recallBad,FBad,accuracy)
c additional predictionInitialLBD 18 2193314 228504 0.07 0.66 0.12 4444035 6408845 0.98 19.11 1.87 0.68 (nbgoodclauses,nbtotalgood,precisionGood,recallGood,FGood,nbbadclause,nbtotalbad,precisionBad,recallBad,FBad,accuracy)
c additional predictionInitialLBD 22 3250977 228504 0.06 0.79 0.10 3386372 6408845 0.99 14.61 1.85 0.53 (nbgoodclauses,nbtotalgood,precisionGood,recallGood,FGood,nbbadclause,nbtotalbad,precisionBad,recallBad,FBad,accuracy)
c additional predictionInitialLBD 30 4845443 228504 0.04 0.92 0.08 1791906 6408845 0.99 7.77 1.76 0.30 (nbgoodclauses,nbtotalgood,precisionGood,recallGood,FGood,nbbadclause,nbtotalbad,precisionBad,recallBad,FBad,accuracy)
c additional predictionInitialLBD 40 5797653 228504 0.04 0.97 0.07 839696 6408845 0.99 3.65 1.56 0.16 (nbgoodclauses,nbtotalgood,precisionGood,recallGood,FGood,nbbadclause,nbtotalbad,precisionBad,recallBad,FBad,accuracy)
c additional predictionFinallLBD 1 11295 228504 0.23 0.01 0.02 6626054 6408845 0.97 1.00 0.98 0.96 (nbgoodclauses,nbtotalgood,precisionGood,recallGood,FGood,nbbadclause,nbtotalbad,precisionBad,recallBad,FBad,accuracy)
c additional predictionFinallLBD 2 56561 228504 0.33 0.08 0.13 6580788 6408845 0.97 0.99 0.98 0.96 (nbgoodclauses,nbtotalgood,precisionGood,recallGood,FGood,nbbadclause,nbtotalbad,precisionBad,recallBad,FBad,accuracy)
c additional predictionFinallLBD 3 103310 228504 0.23 0.11 0.15 6534039 6408845 0.97 0.99 0.98 0.96 (nbgoodclauses,nbtotalgood,precisionGood,recallGood,FGood,nbbadclause,nbtotalbad,precisionBad,recallBad,FBad,accuracy)
c additional predictionFinallLBD 4 149808 228504 0.20 0.13 0.16 6487541 6408845 0.97 0.98 0.98 0.95 (nbgoodclauses,nbtotalgood,precisionGood,recallGood,FGood,nbbadclause,nbtotalbad,precisionBad,recallBad,FBad,accuracy)
c additional predictionFinallLBD 5 205163 228504 0.18 0.17 0.17 6432186 6408845 0.97 0.97 0.97 0.95 (nbgoodclauses,nbtotalgood,precisionGood,recallGood,FGood,nbbadclause,nbtotalbad,precisionBad,recallBad,FBad,accuracy)
c additional predictionFinallLBD 6 272658 228504 0.17 0.20 0.18 6364691 6408845 0.97 0.96 0.97 0.94 (nbgoodclauses,nbtotalgood,precisionGood,recallGood,FGood,nbbadclause,nbtotalbad,precisionBad,recallBad,FBad,accuracy)
c additional predictionFinallLBD 7 361380 228504 0.15 0.24 0.18 6275969 6408845 0.97 0.95 0.96 0.93 (nbgoodclauses,nbtotalgood,precisionGood,recallGood,FGood,nbbadclause,nbtotalbad,precisionBad,recallBad,FBad,accuracy)
c additional predictionFinallLBD 8 468567 228504 0.14 0.28 0.18 6168782 6408845 0.97 0.94 0.95 0.91 (nbgoodclauses,nbtotalgood,precisionGood,recallGood,FGood,nbbadclause,nbtotalbad,precisionBad,recallBad,FBad,accuracy)
c additional predictionFinallLBD 10 750684 228504 0.11 0.37 0.17 5886665 6408845 0.98 0.90 0.93 0.88 (nbgoodclauses,nbtotalgood,precisionGood,recallGood,FGood,nbbadclause,nbtotalbad,precisionBad,recallBad,FBad,accuracy)
c additional predictionFinallLBD 14 1558322 228504 0.08 0.58 0.15 5079027 6408845 0.98 0.78 0.87 0.77 (nbgoodclauses,nbtotalgood,precisionGood,recallGood,FGood,nbbadclause,nbtotalbad,precisionBad,recallBad,FBad,accuracy)
c additional predictionFinallLBD 18 2583540 228504 0.07 0.74 0.12 4053809 6408845 0.99 0.62 0.76 0.63 (nbgoodclauses,nbtotalgood,precisionGood,recallGood,FGood,nbbadclause,nbtotalbad,precisionBad,recallBad,FBad,accuracy)
c additional predictionFinallLBD 22 3566573 228504 0.05 0.85 0.10 3070776 6408845 0.99 0.47 0.64 0.49 (nbgoodclauses,nbtotalgood,precisionGood,recallGood,FGood,nbbadclause,nbtotalbad,precisionBad,recallBad,FBad,accuracy)
c additional predictionFinallLBD 30 5016047 228504 0.04 0.95 0.08 1621302 6408845 0.99 0.25 0.40 0.27 (nbgoodclauses,nbtotalgood,precisionGood,recallGood,FGood,nbbadclause,nbtotalbad,precisionBad,recallBad,FBad,accuracy)
c additional predictionFinallLBD 40 5867084 228504 0.04 0.98 0.07 770265 6408845 0.99 0.12 0.21 0.15 (nbgoodclauses,nbtotalgood,precisionGood,recallGood,FGood,nbbadclause,nbtotalbad,precisionBad,recallBad,FBad,accuracy)
c additional predictionSize 1 194 228504 0.93 0.00 0.00 6637155 6408845 0.97 28.05 1.87 0.97 (nbgoodclauses,nbtotalgood,precisionGood,recallGood,FGood,nbbadclause,nbtotalbad,precisionBad,recallBad,FBad,accuracy)
c additional predictionSize 2 20616 228504 0.54 0.05 0.09 6616733 6408845 0.97 28.01 1.87 0.97 (nbgoodclauses,nbtotalgood,precisionGood,recallGood,FGood,nbbadclause,nbtotalbad,precisionBad,recallBad,FBad,accuracy)
c additional predictionSize 3 41391 228504 0.31 0.06 0.09 6595958 6408845 0.97 27.92 1.87 0.96 (nbgoodclauses,nbtotalgood,precisionGood,recallGood,FGood,nbbadclause,nbtotalbad,precisionBad,recallBad,FBad,accuracy)
c additional predictionSize 4 56030 228504 0.26 0.06 0.10 6581319 6408845 0.97 27.87 1.87 0.96 (nbgoodclauses,nbtotalgood,precisionGood,recallGood,FGood,nbbadclause,nbtotalbad,precisionBad,recallBad,FBad,accuracy)
c additional predictionSize 5 65362 228504 0.24 0.07 0.11 6571987 6408845 0.97 27.83 1.87 0.96 (nbgoodclauses,nbtotalgood,precisionGood,recallGood,FGood,nbbadclause,nbtotalbad,precisionBad,recallBad,FBad,accuracy)
c additional predictionSize 6 73994 228504 0.22 0.07 0.11 6563355 6408845 0.97 27.79 1.87 0.96 (nbgoodclauses,nbtotalgood,precisionGood,recallGood,FGood,nbbadclause,nbtotalbad,precisionBad,recallBad,FBad,accuracy)
c additional predictionSize 7 83031 228504 0.21 0.07 0.11 6554318 6408845 0.97 27.76 1.87 0.96 (nbgoodclauses,nbtotalgood,precisionGood,recallGood,FGood,nbbadclause,nbtotalbad,precisionBad,recallBad,FBad,accuracy)
c additional predictionSize 8 102334 228504 0.18 0.08 0.11 6535015 6408845 0.97 27.68 1.87 0.96 (nbgoodclauses,nbtotalgood,precisionGood,recallGood,FGood,nbbadclause,nbtotalbad,precisionBad,recallBad,FBad,accuracy)
c additional predictionSize 10 153152 228504 0.14 0.09 0.11 6484197 6408845 0.97 27.47 1.87 0.95 (nbgoodclauses,nbtotalgood,precisionGood,recallGood,FGood,nbbadclause,nbtotalbad,precisionBad,recallBad,FBad,accuracy)
c additional predictionSize 14 184296 228504 0.13 0.11 0.12 6453053 6408845 0.97 27.35 1.87 0.95 (nbgoodclauses,nbtotalgood,precisionGood,recallGood,FGood,nbbadclause,nbtotalbad,precisionBad,recallBad,FBad,accuracy)
c additional predictionSize 18 218171 228504 0.12 0.12 0.12 6419178 6408845 0.97 27.21 1.87 0.94 (nbgoodclauses,nbtotalgood,precisionGood,recallGood,FGood,nbbadclause,nbtotalbad,precisionBad,recallBad,FBad,accuracy)
c additional predictionSize 22 260527 228504 0.11 0.13 0.12 6376822 6408845 0.97 27.04 1.87 0.94 (nbgoodclauses,nbtotalgood,precisionGood,recallGood,FGood,nbbadclause,nbtotalbad,precisionBad,recallBad,FBad,accuracy)
c additional predictionSize 30 382532 228504 0.10 0.16 0.12 6254817 6408845 0.97 26.53 1.87 0.92 (nbgoodclauses,nbtotalgood,precisionGood,recallGood,FGood,nbbadclause,nbtotalbad,precisionBad,recallBad,FBad,accuracy)
c additional predictionSize 40 557345 228504 0.08 0.20 0.12 6080004 6408845 0.97 25.81 1.87 0.90 (nbgoodclauses,nbtotalgood,precisionGood,recallGood,FGood,nbbadclause,nbtotalbad,precisionBad,recallBad,FBad,accuracy)
c additional predictionAge 1 305354 228504 0.09 0.12 0.10 6331995 6408845 0.97 26.83 1.87 0.93 (nbgoodclauses,nbtotalgood,precisionGood,recallGood,FGood,nbbadclause,nbtotalbad,precisionBad,recallBad,FBad,accuracy)
c additional predictionAge 10 305364 228504 0.09 0.12 0.10 6331985 6408845 0.97 26.83 1.87 0.93 (nbgoodclauses,nbtotalgood,precisionGood,recallGood,FGood,nbbadclause,nbtotalbad,precisionBad,recallBad,FBad,accuracy)
c additional predictionAge 25 337927 228504 0.08 0.12 0.10 6299422 6408845 0.97 26.69 1.87 0.92 (nbgoodclauses,nbtotalgood,precisionGood,recallGood,FGood,nbbadclause,nbtotalbad,precisionBad,recallBad,FBad,accuracy)
c additional predictionAge 50 396498 228504 0.07 0.12 0.09 6240851 6408845 0.97 26.44 1.87 0.91 (nbgoodclauses,nbtotalgood,precisionGood,recallGood,FGood,nbbadclause,nbtotalbad,precisionBad,recallBad,FBad,accuracy)
c additional predictionAge 100 440801 228504 0.07 0.13 0.09 6196548 6408845 0.97 26.25 1.87 0.91 (nbgoodclauses,nbtotalgood,precisionGood,recallGood,FGood,nbbadclause,nbtotalbad,precisionBad,recallBad,FBad,accuracy)
c additional predictionAge 250 496916 228504 0.06 0.14 0.09 6140433 6408845 0.97 26.01 1.87 0.90 (nbgoodclauses,nbtotalgood,precisionGood,recallGood,FGood,nbbadclause,nbtotalbad,precisionBad,recallBad,FBad,accuracy)
c additional predictionAge 500 543983 228504 0.06 0.14 0.08 6093366 6408845 0.97 25.81 1.87 0.89 (nbgoodclauses,nbtotalgood,precisionGood,recallGood,FGood,nbbadclause,nbtotalbad,precisionBad,recallBad,FBad,accuracy)
c additional predictionAge 1000 585913 228504 0.06 0.15 0.08 6051436 6408845 0.97 25.63 1.87 0.89 (nbgoodclauses,nbtotalgood,precisionGood,recallGood,FGood,nbbadclause,nbtotalbad,precisionBad,recallBad,FBad,accuracy)
c additional predictionAge 2500 634456 228504 0.05 0.15 0.08 6002893 6408845 0.97 25.42 1.86 0.88 (nbgoodclauses,nbtotalgood,precisionGood,recallGood,FGood,nbbadclause,nbtotalbad,precisionBad,recallBad,FBad,accuracy)
c additional predictionAge 5000 671241 228504 0.05 0.16 0.08 5966108 6408845 0.97 25.27 1.86 0.88 (nbgoodclauses,nbtotalgood,precisionGood,recallGood,FGood,nbbadclause,nbtotalbad,precisionBad,recallBad,FBad,accuracy)
c additional predictionAge 10000 711508 228504 0.05 0.16 0.08 5925841 6408845 0.97 25.10 1.86 0.87 (nbgoodclauses,nbtotalgood,precisionGood,recallGood,FGood,nbbadclause,nbtotalbad,precisionBad,recallBad,FBad,accuracy)
c additional predictionAge 25000 776093 228504 0.05 0.17 0.08 5861256 6408845 0.97 24.82 1.86 0.86 (nbgoodclauses,nbtotalgood,precisionGood,recallGood,FGood,nbbadclause,nbtotalbad,precisionBad,recallBad,FBad,accuracy)
c additional predictionAge 50000 839914 228504 0.05 0.18 0.08 5797435 6408845 0.97 24.55 1.86 0.85 (nbgoodclauses,nbtotalgood,precisionGood,recallGood,FGood,nbbadclause,nbtotalbad,precisionBad,recallBad,FBad,accuracy)
c additional predictionAge 100000 925307 228504 0.05 0.19 0.08 5712042 6408845 0.97 24.19 1.86 0.84 (nbgoodclauses,nbtotalgood,precisionGood,recallGood,FGood,nbbadclause,nbtotalbad,precisionBad,recallBad,FBad,accuracy)
c additional predictionTicks 1 321396 228504 0.09 0.12 0.10 6315953 6408845 0.97 26.76 1.87 0.93 (nbgoodclauses,nbtotalgood,precisionGood,recallGood,FGood,nbbadclause,nbtotalbad,precisionBad,recallBad,FBad,accuracy)
c additional predictionTicks 10 330638 228504 0.09 0.13 0.10 6306711 6408845 0.97 26.73 1.87 0.92 (nbgoodclauses,nbtotalgood,precisionGood,recallGood,FGood,nbbadclause,nbtotalbad,precisionBad,recallBad,FBad,accuracy)
c additional predictionTicks 25 633234 228504 0.06 0.17 0.09 6004115 6408845 0.97 25.45 1.87 0.88 (nbgoodclauses,nbtotalgood,precisionGood,recallGood,FGood,nbbadclause,nbtotalbad,precisionBad,recallBad,FBad,accuracy)
c additional predictionTicks 50 965678 228504 0.05 0.22 0.08 5671671 6408845 0.97 24.04 1.86 0.84 (nbgoodclauses,nbtotalgood,precisionGood,recallGood,FGood,nbbadclause,nbtotalbad,precisionBad,recallBad,FBad,accuracy)
c additional predictionTicks 100 1353139 228504 0.05 0.27 0.08 5284210 6408845 0.97 22.40 1.86 0.78 (nbgoodclauses,nbtotalgood,precisionGood,recallGood,FGood,nbbadclause,nbtotalbad,precisionBad,recallBad,FBad,accuracy)
c additional predictionTicks 250 1975335 228504 0.04 0.36 0.07 4662014 6408845 0.97 19.76 1.85 0.69 (nbgoodclauses,nbtotalgood,precisionGood,recallGood,FGood,nbbadclause,nbtotalbad,precisionBad,recallBad,FBad,accuracy)
c additional predictionTicks 500 2605063 228504 0.04 0.44 0.07 4032286 6408845 0.97 17.09 1.83 0.60 (nbgoodclauses,nbtotalgood,precisionGood,recallGood,FGood,nbbadclause,nbtotalbad,precisionBad,recallBad,FBad,accuracy)
c additional predictionTicks 1000 3251337 228504 0.04 0.53 0.07 3386012 6408845 0.97 14.35 1.81 0.51 (nbgoodclauses,nbtotalgood,precisionGood,recallGood,FGood,nbbadclause,nbtotalbad,precisionBad,recallBad,FBad,accuracy)
c additional predictionTicks 2500 4039432 228504 0.04 0.65 0.07 2597917 6408845 0.97 11.02 1.78 0.40 (nbgoodclauses,nbtotalgood,precisionGood,recallGood,FGood,nbbadclause,nbtotalbad,precisionBad,recallBad,FBad,accuracy)
c additional predictionTicks 5000 4567534 228504 0.04 0.73 0.07 2069815 6408845 0.97 8.78 1.75 0.33 (nbgoodclauses,nbtotalgood,precisionGood,recallGood,FGood,nbbadclause,nbtotalbad,precisionBad,recallBad,FBad,accuracy)
c additional predictionTicks 10000 5018242 228504 0.04 0.79 0.07 1619107 6408845 0.97 6.88 1.70 0.26 (nbgoodclauses,nbtotalgood,precisionGood,recallGood,FGood,nbbadclause,nbtotalbad,precisionBad,recallBad,FBad,accuracy)
c additional predictionTicks 25000 5494360 228504 0.04 0.86 0.07 1142989 6408845 0.97 4.86 1.62 0.20 (nbgoodclauses,nbtotalgood,precisionGood,recallGood,FGood,nbbadclause,nbtotalbad,precisionBad,recallBad,FBad,accuracy)
c additional predictionTicks 50000 5764942 228504 0.04 0.89 0.07 872407 6408845 0.97 3.71 1.54 0.16 (nbgoodclauses,nbtotalgood,precisionGood,recallGood,FGood,nbbadclause,nbtotalbad,precisionBad,recallBad,FBad,accuracy)
c additional predictionTicks 100000 5985919 228504 0.03 0.92 0.07 651430 6408845 0.97 2.77 1.44 0.13 (nbgoodclauses,nbtotalgood,precisionGood,recallGood,FGood,nbbadclause,nbtotalbad,precisionBad,recallBad,FBad,accuracy)
c additional lifetimeGood 2 14 770 19922 1228871 3539546 5039815 5810074 6149427 6480171 6639760 6639800 (0,1,5,10,25,50,75,90,95,99,100-1,100)
c additional lifetimeBad 1 14 196 6720 410486 2181936 4018262 5262845 5816481 6364176 6639784 6639799 (0,1,5,10,25,50,75,90,95,99,100-1,100)
c additional lifetimeBadBad 1 14 28 70 5781 215794 1703516 3979202 4945558 5979080 6639499 6639513 (0,1,5,10,25,50,75,90,95,99,100-1,100)
c additional compositionBad 1 2 4 5 10 32 83 143 205 394 4007 4028 (0,1,5,10,25,50,75,90,95,99,100-1,100)
c additional compositionBadWithGood 0 0 0 0 1 6 16 33 50 112 1242 1295 (0,1,5,10,25,50,75,90,95,99,100-1,100)
c additional compositionBadWithBad 0 0 0 1 2 5 11 18 27 48 246 247 (0,1,5,10,25,50,75,90,95,99,100-1,100)
c additional compositionBadWithInitial 0 0 1 2 5 14 56 91 147 312 3550 3707 (0,1,5,10,25,50,75,90,95,99,100-1,100)
c additional compositionGood 1 2 3 4 7 21 72 116 162 346 3645 4234 (0,1,5,10,25,50,75,90,95,99,100-1,100)
c additional compositionGoodWithGood 0 0 0 0 2 11 26 44 62 128 1171 1460 (0,1,5,10,25,50,75,90,95,99,100-1,100)
c additional compositionGoodWithInitial 0 0 1 2 4 9 45 71 105 257 3183 3733 (0,1,5,10,25,50,75,90,95,99,100-1,100)
c additional propagationGood total 202348766 percentiles 0 1 1 1 1 2 12 159 1133 19254 346075 433128 (0,1,5,10,25,50,75,90,95,99,100-1,100)
c additional propagationBad total 300556252 percentiles 1 1 1 1 1 2 3 10 31 329 614507 614556 (0,1,5,10,25,50,75,90,95,99,100-1,100)
c additional resolutionGood total 13716371 percentiles 0 1 1 1 1 2 8 53 146 951 54462 60032 (0,1,5,10,25,50,75,90,95,99,100-1,100)
c additional resolutionBad total 51686266 percentiles 0 0 0 1 1 1 3 7 16 110 19328 23882 (0,1,5,10,25,50,75,90,95,99,100-1,100)
Computing K-Core for 7342880 clauses...
c building structure for KCore computation.
c the graph has 405467038 edges, maxdegree=4234
c we start the KCore with the value 20
c Non directed graph built
K=20,2618948 nodes removed so far
K=21,2716542 nodes removed so far
K=22,2809760 nodes removed so far
K=23,2899782 nodes removed so far
K=24,2986747 nodes removed so far
K=25,3070180 nodes removed so far
K=26,3150091 nodes removed so far
K=27,3229211 nodes removed so far
K=28,3305156 nodes removed so far
K=29,3378710 nodes removed so far
K=30,3450443 nodes removed so far
K=31,3519308 nodes removed so far
K=32,3588152 nodes removed so far
K=33,3655059 nodes removed so far
K=34,3719447 nodes removed so far
K=35,3782811 nodes removed so far
K=36,3844711 nodes removed so far
K=37,3904875 nodes removed so far
K=38,3961812 nodes removed so far
K=39,4016332 nodes removed so far
K=40,4069520 nodes removed so far
K=41,4119555 nodes removed so far
K=42,4168171 nodes removed so far
K=43,4215068 nodes removed so far
K=44,4260356 nodes removed so far
K=45,4304778 nodes removed so far
K=46,4347602 nodes removed so far
K=47,4389025 nodes removed so far
K=48,4429397 nodes removed so far
K=49,4468686 nodes removed so far
K=50,4506460 nodes removed so far
K=51,4543909 nodes removed so far
K=52,4579966 nodes removed so far
K=53,4614535 nodes removed so far
K=54,4650025 nodes removed so far
K=55,4684168 nodes removed so far
K=56,4718132 nodes removed so far
K=57,4749440 nodes removed so far
K=58,4781554 nodes removed so far
K=59,4813239 nodes removed so far
K=60,4843918 nodes removed so far
K=61,4873937 nodes removed so far
K=62,4904008 nodes removed so far
K=63,4934392 nodes removed so far
K=64,4964156 nodes removed so far
K=65,4993763 nodes removed so far
K=66,5022756 nodes removed so far
K=67,5051997 nodes removed so far
K=68,5081310 nodes removed so far
K=69,5111285 nodes removed so far
K=70,5141056 nodes removed so far
K=71,5171466 nodes removed so far
K=72,5202250 nodes removed so far
K=73,5232362 nodes removed so far
K=74,5263131 nodes removed so far
K=75,5294144 nodes removed so far
K=76,5324987 nodes removed so far
K=77,5356068 nodes removed so far
K=78,5387386 nodes removed so far
K=79,5418462 nodes removed so far
K=80,5449583 nodes removed so far
K=81,5480449 nodes removed so far
K=82,5510713 nodes removed so far
K=83,5540762 nodes removed so far
K=84,5570780 nodes removed so far
K=85,5600130 nodes removed so far
K=86,5629673 nodes removed so far
K=87,5658573 nodes removed so far
K=88,5687025 nodes removed so far
K=89,5714855 nodes removed so far
K=90,5742453 nodes removed so far
K=91,5770021 nodes removed so far
K=92,5796153 nodes removed so far
K=93,5822145 nodes removed so far
K=94,5848083 nodes removed so far
K=95,5872642 nodes removed so far
K=96,5896421 nodes removed so far
K=97,5919808 nodes removed so far
K=98,5942374 nodes removed so far
K=99,5964217 nodes removed so far
K=100,5985932 nodes removed so far
K=101,6007543 nodes removed so far
K=102,6026949 nodes removed so far
K=103,6046033 nodes removed so far
K=104,6064675 nodes removed so far
K=105,6083294 nodes removed so far
K=106,6101510 nodes removed so far
K=107,6118233 nodes removed so far
K=108,6135245 nodes removed so far
K=109,6152744 nodes removed so far
K=110,6168516 nodes removed so far
K=111,6184664 nodes removed so far
K=112,6199663 nodes removed so far
K=113,6214496 nodes removed so far
K=114,6230160 nodes removed so far
K=115,6244912 nodes removed so far
K=116,6258860 nodes removed so far
K=117,6271917 nodes removed so far
K=118,6284465 nodes removed so far
K=119,6297144 nodes removed so far
K=120,6309639 nodes removed so far
K=121,6321535 nodes removed so far
K=122,6333120 nodes removed so far
K=123,6343990 nodes removed so far
K=124,6355039 nodes removed so far
K=125,6366431 nodes removed so far
K=126,6376524 nodes removed so far
K=127,6387189 nodes removed so far
K=128,6397359 nodes removed so far
K=129,6407219 nodes removed so far
K=130,6417481 nodes removed so far
K=131,6426846 nodes removed so far
K=132,6436584 nodes removed so far
K=133,6446152 nodes removed so far
K=134,6455742 nodes removed so far
K=135,6464612 nodes removed so far
K=136,6473549 nodes removed so far
K=137,6483608 nodes removed so far
K=138,6492134 nodes removed so far
K=139,6500238 nodes removed so far
K=140,6508369 nodes removed so far
K=141,6516398 nodes removed so far
K=142,6524127 nodes removed so far
K=143,6531843 nodes removed so far
K=144,6539527 nodes removed so far
K=145,6547302 nodes removed so far
K=146,6554491 nodes removed so far
K=147,6561470 nodes removed so far
K=148,6568483 nodes removed so far
K=149,6575223 nodes removed so far
K=150,6581904 nodes removed so far
K=151,6588352 nodes removed so far
K=152,6595068 nodes removed so far
K=153,6601360 nodes removed so far
K=154,6607745 nodes removed so far
K=155,6614099 nodes removed so far
K=156,6620275 nodes removed so far
K=157,6626404 nodes removed so far
K=158,6632368 nodes removed so far
K=159,6637931 nodes removed so far
K=160,6643392 nodes removed so far
K=161,6648841 nodes removed so far
K=162,6654466 nodes removed so far
K=163,6659847 nodes removed so far
K=164,6665002 nodes removed so far
K=165,6670399 nodes removed so far
K=166,6675687 nodes removed so far
K=167,6680522 nodes removed so far
K=168,6685612 nodes removed so far
K=169,6690603 nodes removed so far
K=170,6695170 nodes removed so far
K=171,6699947 nodes removed so far
K=172,6704742 nodes removed so far
K=173,6709187 nodes removed so far
K=174,6713754 nodes removed so far
K=175,6718207 nodes removed so far
K=176,6722554 nodes removed so far
K=177,6726921 nodes removed so far
K=178,6731220 nodes removed so far
K=179,6735274 nodes removed so far
K=180,6739377 nodes removed so far
K=181,6743435 nodes removed so far
K=182,6747364 nodes removed so far
K=183,6751248 nodes removed so far
K=184,6755236 nodes removed so far
K=185,6759254 nodes removed so far
K=186,6763160 nodes removed so far
K=187,6766989 nodes removed so far
K=188,6770704 nodes removed so far
K=189,6774539 nodes removed so far
K=190,6778168 nodes removed so far
K=191,6781973 nodes removed so far
K=192,6785653 nodes removed so far
K=193,6789238 nodes removed so far
K=194,6792807 nodes removed so far
K=195,6796353 nodes removed so far
K=196,6799732 nodes removed so far
K=197,6803059 nodes removed so far
K=198,6806355 nodes removed so far
K=199,6809758 nodes removed so far
K=200,6812891 nodes removed so far
K=201,6816208 nodes removed so far
K=202,6819527 nodes removed so far
K=203,6822702 nodes removed so far
K=204,6826103 nodes removed so far
K=205,6829071 nodes removed so far
K=206,6832007 nodes removed so far
K=207,6834965 nodes removed so far
K=208,6837880 nodes removed so far
K=209,6840712 nodes removed so far
K=210,6843504 nodes removed so far
K=211,6846412 nodes removed so far
K=212,6849053 nodes removed so far
K=213,6852009 nodes removed so far
K=214,6854662 nodes removed so far
K=215,6857387 nodes removed so far
K=216,6860066 nodes removed so far
K=217,6862650 nodes removed so far
K=218,6865251 nodes removed so far
K=219,6867993 nodes removed so far
K=220,6870624 nodes removed so far
K=221,6873165 nodes removed so far
K=222,6875598 nodes removed so far
K=223,6878044 nodes removed so far
K=224,6880449 nodes removed so far
K=225,6882915 nodes removed so far
K=226,6885362 nodes removed so far
K=227,6887804 nodes removed so far
K=228,6890320 nodes removed so far
K=229,6892915 nodes removed so far
K=230,6895307 nodes removed so far
K=231,6897542 nodes removed so far
K=232,6899893 nodes removed so far
K=233,6902257 nodes removed so far
K=234,6904549 nodes removed so far
K=235,6907247 nodes removed so far
K=236,6909394 nodes removed so far
K=237,6911413 nodes removed so far
K=238,6913616 nodes removed so far
K=239,6915727 nodes removed so far
K=240,6917827 nodes removed so far
K=241,6919858 nodes removed so far
K=242,6921833 nodes removed so far
K=243,6923859 nodes removed so far
K=244,6925835 nodes removed so far
K=245,6927679 nodes removed so far
K=246,6929546 nodes removed so far
K=247,6931591 nodes removed so far
K=248,6933447 nodes removed so far
K=249,6935247 nodes removed so far
K=250,6936975 nodes removed so far
K=251,6938790 nodes removed so far
K=252,6940697 nodes removed so far
K=253,6942555 nodes removed so far
K=254,6944316 nodes removed so far
K=255,6946052 nodes removed so far
K=256,6947614 nodes removed so far
K=257,6949367 nodes removed so far
K=258,6951139 nodes removed so far
K=259,6952771 nodes removed so far
K=260,6954403 nodes removed so far
K=261,6956029 nodes removed so far
K=262,6957734 nodes removed so far
K=263,6959317 nodes removed so far
K=264,6960851 nodes removed so far
K=265,6962364 nodes removed so far
K=266,6964152 nodes removed so far
K=267,6965872 nodes removed so far
K=268,6967372 nodes removed so far
K=269,6969188 nodes removed so far
K=270,6970688 nodes removed so far
K=271,6972122 nodes removed so far
K=272,6973598 nodes removed so far
K=273,6975057 nodes removed so far
K=274,6976478 nodes removed so far
K=275,6978063 nodes removed so far
K=276,6979421 nodes removed so far
K=277,6981036 nodes removed so far
K=278,6982482 nodes removed so far
K=279,6983905 nodes removed so far
K=280,6985209 nodes removed so far
K=281,6986797 nodes removed so far
K=282,6988346 nodes removed so far
K=283,6989726 nodes removed so far
K=284,6991108 nodes removed so far
K=285,6992796 nodes removed so far
K=286,6994292 nodes removed so far
K=287,6995628 nodes removed so far
K=288,6996877 nodes removed so far
K=289,6998425 nodes removed so far
K=290,6999778 nodes removed so far
K=291,7001110 nodes removed so far
K=292,7002486 nodes removed so far
K=293,7003748 nodes removed so far
K=294,7004963 nodes removed so far
K=295,7006425 nodes removed so far
K=296,7007790 nodes removed so far
K=297,7009079 nodes removed so far
K=298,7010368 nodes removed so far
K=299,7011941 nodes removed so far
K=300,7013219 nodes removed so far
K=301,7014415 nodes removed so far
K=302,7015773 nodes removed so far
K=303,7017090 nodes removed so far
K=304,7018332 nodes removed so far
K=305,7019414 nodes removed so far
K=306,7020563 nodes removed so far
K=307,7021565 nodes removed so far
K=308,7022763 nodes removed so far
K=309,7023939 nodes removed so far
K=310,7024900 nodes removed so far
K=311,7025924 nodes removed so far
K=312,7026945 nodes removed so far
K=313,7027892 nodes removed so far
K=314,7028901 nodes removed so far
K=315,7029870 nodes removed so far
K=316,7030796 nodes removed so far
K=317,7031682 nodes removed so far
K=318,7032657 nodes removed so far
K=319,7033623 nodes removed so far
K=320,7034535 nodes removed so far
K=321,7035426 nodes removed so far
K=322,7036500 nodes removed so far
K=323,7037615 nodes removed so far
K=324,7038615 nodes removed so far
K=325,7039445 nodes removed so far
K=326,7040430 nodes removed so far
K=327,7041226 nodes removed so far
K=328,7042082 nodes removed so far
K=329,7043114 nodes removed so far
K=330,7043952 nodes removed so far
K=331,7044764 nodes removed so far
K=332,7045521 nodes removed so far
K=333,7046495 nodes removed so far
K=334,7047441 nodes removed so far
K=335,7048687 nodes removed so far
K=336,7049511 nodes removed so far
K=337,7050175 nodes removed so far
K=338,7050906 nodes removed so far
K=339,7052037 nodes removed so far
K=340,7052799 nodes removed so far
K=341,7053496 nodes removed so far
K=342,7054454 nodes removed so far
K=343,7055118 nodes removed so far
K=344,7055860 nodes removed so far
K=345,7056945 nodes removed so far
K=346,7057656 nodes removed so far
K=347,7058199 nodes removed so far
K=348,7059311 nodes removed so far
K=349,7059963 nodes removed so far
K=350,7060752 nodes removed so far
K=351,7061420 nodes removed so far
K=352,7062021 nodes removed so far
K=353,7062640 nodes removed so far
K=354,7063177 nodes removed so far
K=355,7063847 nodes removed so far
K=356,7064349 nodes removed so far
K=357,7064946 nodes removed so far
K=358,7065695 nodes removed so far
K=359,7066247 nodes removed so far
K=360,7066780 nodes removed so far
K=361,7067338 nodes removed so far
K=362,7067848 nodes removed so far
K=363,7068468 nodes removed so far
K=364,7068978 nodes removed so far
K=365,7069534 nodes removed so far
K=366,7070054 nodes removed so far
K=367,7070873 nodes removed so far
K=368,7071834 nodes removed so far
K=369,7072387 nodes removed so far
K=370,7073032 nodes removed so far
K=371,7073560 nodes removed so far
K=372,7074320 nodes removed so far
K=373,7075202 nodes removed so far
K=374,7075615 nodes removed so far
K=375,7076057 nodes removed so far
K=376,7076573 nodes removed so far
K=377,7077098 nodes removed so far
K=378,7077550 nodes removed so far
K=379,7077949 nodes removed so far
K=380,7078330 nodes removed so far
K=381,7078925 nodes removed so far
K=382,7079396 nodes removed so far
K=383,7079877 nodes removed so far
K=384,7080345 nodes removed so far
K=385,7080786 nodes removed so far
K=386,7081279 nodes removed so far
K=387,7081846 nodes removed so far
K=388,7082275 nodes removed so far
K=389,7082670 nodes removed so far
K=390,7083031 nodes removed so far
K=391,7083425 nodes removed so far
K=392,7083849 nodes removed so far
K=393,7084338 nodes removed so far
K=394,7084692 nodes removed so far
K=395,7085141 nodes removed so far
K=396,7085638 nodes removed so far
K=397,7086008 nodes removed so far
K=398,7086441 nodes removed so far
K=399,7086953 nodes removed so far
K=400,7087362 nodes removed so far
K=401,7087683 nodes removed so far
K=402,7088002 nodes removed so far
K=403,7088383 nodes removed so far
K=404,7088771 nodes removed so far
K=405,7089108 nodes removed so far
K=406,7089446 nodes removed so far
K=407,7089972 nodes removed so far
K=408,7090290 nodes removed so far
K=409,7090688 nodes removed so far
K=410,7091003 nodes removed so far
K=411,7091419 nodes removed so far
K=412,7092159 nodes removed so far
K=413,7092588 nodes removed so far
K=414,7092904 nodes removed so far
K=415,7093490 nodes removed so far
K=416,7093892 nodes removed so far
K=417,7094476 nodes removed so far
K=418,7094776 nodes removed so far
K=419,7095329 nodes removed so far
K=420,7095913 nodes removed so far
K=421,7096267 nodes removed so far
K=422,7096498 nodes removed so far
K=423,7096829 nodes removed so far
K=424,7097038 nodes removed so far
K=425,7097326 nodes removed so far
K=426,7097963 nodes removed so far
K=427,7098359 nodes removed so far
K=428,7098585 nodes removed so far
K=429,7098976 nodes removed so far
K=430,7099212 nodes removed so far
K=431,7099480 nodes removed so far
K=432,7099740 nodes removed so far
K=433,7100133 nodes removed so far
K=434,7100382 nodes removed so far
K=435,7100725 nodes removed so far
K=436,7101008 nodes removed so far
K=437,7101255 nodes removed so far
K=438,7101627 nodes removed so far
K=439,7101828 nodes removed so far
K=440,7102040 nodes removed so far
K=441,7102445 nodes removed so far
K=442,7102593 nodes removed so far
K=443,7104372 nodes removed so far
K=444,7106730 nodes removed so far
K=445,7106866 nodes removed so far
K=446,7107387 nodes removed so far
K=447,7107541 nodes removed so far
K=448,7108353 nodes removed so far
K=449,7108733 nodes removed so far
K=450,7108937 nodes removed so far
K=451,7109150 nodes removed so far
K=452,7109381 nodes removed so far
K=453,7109516 nodes removed so far
K=454,7116997 nodes removed so far
K=455,7117109 nodes removed so far
K=456,7117194 nodes removed so far
K=457,7117474 nodes removed so far
K=458,7117591 nodes removed so far
K=459,7117662 nodes removed so far
K=460,7117721 nodes removed so far
K=461,7117782 nodes removed so far
K=462,7117872 nodes removed so far
K=463,7118098 nodes removed so far
K=464,7118201 nodes removed so far
K=465,7118365 nodes removed so far
K=466,7118528 nodes removed so far
K=467,7118600 nodes removed so far
K=468,7118863 nodes removed so far
K=469,7118942 nodes removed so far
K=470,7119026 nodes removed so far
K=471,7119121 nodes removed so far
K=472,7119215 nodes removed so far
K=473,7119296 nodes removed so far
K=474,7119377 nodes removed so far
K=475,7119464 nodes removed so far
K=476,7119534 nodes removed so far
K=477,7119654 nodes removed so far
K=478,7119777 nodes removed so far
K=479,7119897 nodes removed so far
K=480,7120192 nodes removed so far
K=481,7120268 nodes removed so far
K=482,7120370 nodes removed so far
K=483,7120451 nodes removed so far
K=484,7120609 nodes removed so far
K=485,7120686 nodes removed so far
K=486,7120787 nodes removed so far
K=487,7120870 nodes removed so far
K=488,7120975 nodes removed so far
K=489,7121062 nodes removed so far
K=490,7121163 nodes removed so far
K=491,7121301 nodes removed so far
K=492,7121455 nodes removed so far
K=493,7121557 nodes removed so far
K=494,7121639 nodes removed so far
K=495,7121744 nodes removed so far
K=496,7121884 nodes removed so far
K=497,7121960 nodes removed so far
K=498,7122040 nodes removed so far
K=499,7122201 nodes removed so far
K=500,7122285 nodes removed so far
K=501,7122828 nodes removed so far
K=502,7122941 nodes removed so far
K=503,7123076 nodes removed so far
K=504,7123149 nodes removed so far
K=505,7123297 nodes removed so far
K=506,7123384 nodes removed so far
K=507,7123493 nodes removed so far
K=508,7123582 nodes removed so far
K=509,7123702 nodes removed so far
K=510,7123783 nodes removed so far
K=511,7123881 nodes removed so far
K=512,7123949 nodes removed so far
K=513,7124016 nodes removed so far
K=514,7124089 nodes removed so far
K=515,7124163 nodes removed so far
K=516,7124234 nodes removed so far
K=517,7124319 nodes removed so far
K=518,7124368 nodes removed so far
K=519,7124459 nodes removed so far
K=520,7124530 nodes removed so far
K=521,7124591 nodes removed so far
K=522,7124737 nodes removed so far
K=523,7125355 nodes removed so far
K=524,7125422 nodes removed so far
K=525,7125477 nodes removed so far
K=526,7125528 nodes removed so far
K=527,7125630 nodes removed so far
K=528,7126304 nodes removed so far
K=529,7126345 nodes removed so far
K=530,7126381 nodes removed so far
K=531,7126412 nodes removed so far
K=532,7126444 nodes removed so far
K=533,7126479 nodes removed so far
K=534,7126520 nodes removed so far
K=535,7126544 nodes removed so far
K=536,7126585 nodes removed so far
K=537,7126624 nodes removed so far
K=538,7126715 nodes removed so far
K=539,7126871 nodes removed so far
K=540,7126983 nodes removed so far
K=541,7127215 nodes removed so far
K=542,7127595 nodes removed so far
K=543,7128016 nodes removed so far
K=544,7129615 nodes removed so far
K=545,7129649 nodes removed so far
K=546,7129698 nodes removed so far
K=547,7129730 nodes removed so far
K=548,7129779 nodes removed so far
K=549,7129816 nodes removed so far
K=550,7129853 nodes removed so far
K=551,7129884 nodes removed so far
K=552,7129921 nodes removed so far
K=553,7129960 nodes removed so far
K=554,7129997 nodes removed so far
K=555,7130041 nodes removed so far
K=556,7130087 nodes removed so far
K=557,7130141 nodes removed so far
K=558,7130185 nodes removed so far
K=559,7130218 nodes removed so far
K=560,7130256 nodes removed so far
K=561,7130293 nodes removed so far
K=562,7130364 nodes removed so far
K=563,7130415 nodes removed so far
K=564,7130471 nodes removed so far
K=565,7130522 nodes removed so far
K=566,7130576 nodes removed so far
K=567,7130630 nodes removed so far
K=568,7130679 nodes removed so far
K=569,7130754 nodes removed so far
K=570,7130788 nodes removed so far
K=571,7130831 nodes removed so far
K=572,7130915 nodes removed so far
K=573,7130962 nodes removed so far
K=574,7132962 nodes removed so far
K=575,7132987 nodes removed so far
K=576,7133018 nodes removed so far
K=577,7133043 nodes removed so far
K=578,7133067 nodes removed so far
K=579,7133247 nodes removed so far
K=580,7133266 nodes removed so far
K=581,7133293 nodes removed so far
K=582,7133683 nodes removed so far
K=583,7133715 nodes removed so far
K=584,7133727 nodes removed so far
K=585,7133746 nodes removed so far
K=586,7133772 nodes removed so far
K=587,7133807 nodes removed so far
K=588,7133840 nodes removed so far
K=589,7133852 nodes removed so far
K=590,7133883 nodes removed so far
K=591,7133916 nodes removed so far
K=592,7133940 nodes removed so far
K=593,7133962 nodes removed so far
K=594,7133981 nodes removed so far
K=595,7134013 nodes removed so far
K=596,7134052 nodes removed so far
K=597,7134081 nodes removed so far
K=598,7134104 nodes removed so far
K=599,7134125 nodes removed so far
K=600,7134149 nodes removed so far
K=601,7134191 nodes removed so far
K=602,7134256 nodes removed so far
K=603,7134282 nodes removed so far
K=604,7134315 nodes removed so far
K=605,7134348 nodes removed so far
K=606,7134388 nodes removed so far
K=607,7134410 nodes removed so far
K=608,7134445 nodes removed so far
K=609,7134475 nodes removed so far
K=610,7134503 nodes removed so far
K=611,7134536 nodes removed so far
K=612,7134554 nodes removed so far
K=613,7134584 nodes removed so far
K=614,7134615 nodes removed so far
K=615,7134639 nodes removed so far
K=616,7134665 nodes removed so far
K=617,7134701 nodes removed so far
K=618,7134730 nodes removed so far
K=619,7134759 nodes removed so far
K=620,7134792 nodes removed so far
K=621,7134829 nodes removed so far
K=622,7134868 nodes removed so far
K=623,7134894 nodes removed so far
K=624,7134930 nodes removed so far
K=625,7134966 nodes removed so far
K=626,7134995 nodes removed so far
K=627,7135016 nodes removed so far
K=628,7135041 nodes removed so far
K=629,7135072 nodes removed so far
K=630,7135091 nodes removed so far
K=631,7135116 nodes removed so far
K=632,7135142 nodes removed so far
K=633,7135167 nodes removed so far
K=634,7135191 nodes removed so far
K=635,7135222 nodes removed so far
K=636,7135250 nodes removed so far
K=637,7135283 nodes removed so far
K=638,7135300 nodes removed so far
K=639,7135327 nodes removed so far
K=640,7135364 nodes removed so far
K=641,7135394 nodes removed so far
K=642,7135417 nodes removed so far
K=643,7135439 nodes removed so far
K=644,7135466 nodes removed so far
K=645,7135482 nodes removed so far
K=646,7135500 nodes removed so far
K=647,7135511 nodes removed so far
K=648,7135529 nodes removed so far
K=649,7135545 nodes removed so far
K=650,7135564 nodes removed so far
K=651,7135574 nodes removed so far
K=652,7135587 nodes removed so far
K=653,7135610 nodes removed so far
K=654,7135645 nodes removed so far
K=655,7135665 nodes removed so far
K=656,7135679 nodes removed so far
K=657,7135697 nodes removed so far
K=658,7135719 nodes removed so far
K=659,7135726 nodes removed so far
K=660,7135755 nodes removed so far
K=661,7135795 nodes removed so far
K=662,7135813 nodes removed so far
K=663,7135839 nodes removed so far
K=664,7135877 nodes removed so far
K=665,7135936 nodes removed so far
K=666,7135970 nodes removed so far
K=667,7135990 nodes removed so far
K=668,7136011 nodes removed so far
K=669,7136037 nodes removed so far
K=670,7136084 nodes removed so far
K=671,7136115 nodes removed so far
K=672,7136557 nodes removed so far
K=673,7136570 nodes removed so far
K=674,7136585 nodes removed so far
K=675,7136618 nodes removed so far
K=676,7136643 nodes removed so far
K=677,7136673 nodes removed so far
K=678,7136698 nodes removed so far
K=679,7136710 nodes removed so far
K=680,7136746 nodes removed so far
K=681,7136769 nodes removed so far
K=682,7136787 nodes removed so far
K=683,7136802 nodes removed so far
K=684,7136828 nodes removed so far
K=685,7136844 nodes removed so far
K=686,7136864 nodes removed so far
K=687,7136883 nodes removed so far
K=688,7136911 nodes removed so far
K=689,7136925 nodes removed so far
K=690,7136942 nodes removed so far
K=691,7136954 nodes removed so far
K=692,7136967 nodes removed so far
K=693,7136980 nodes removed so far
K=694,7137001 nodes removed so far
K=695,7137017 nodes removed so far
K=696,7137026 nodes removed so far
K=697,7137036 nodes removed so far
K=698,7137047 nodes removed so far
K=699,7137057 nodes removed so far
K=700,7137063 nodes removed so far
K=701,7137067 nodes removed so far
K=702,7137075 nodes removed so far
K=703,7137083 nodes removed so far
K=704,7137095 nodes removed so far
K=705,7137110 nodes removed so far
K=706,7137120 nodes removed so far
K=707,7137129 nodes removed so far
K=708,7137141 nodes removed so far
K=709,7137156 nodes removed so far
K=710,7137165 nodes removed so far
K=711,7137171 nodes removed so far
K=712,7137178 nodes removed so far
K=713,7137186 nodes removed so far
K=714,7137223 nodes removed so far
K=715,7137229 nodes removed so far
K=716,7137242 nodes removed so far
K=717,7137247 nodes removed so far
K=718,7137256 nodes removed so far
K=719,7137260 nodes removed so far
K=720,7137262 nodes removed so far
K=721,7137265 nodes removed so far
K=722,7137274 nodes removed so far
K=723,7137284 nodes removed so far
K=724,7137294 nodes removed so far
K=725,7137299 nodes removed so far
K=726,7137306 nodes removed so far
K=727,7137308 nodes removed so far
K=728,7137313 nodes removed so far
K=729,7137323 nodes removed so far
K=730,7137330 nodes removed so far
K=731,7137337 nodes removed so far
K=732,7137347 nodes removed so far
K=733,K=734,K=735,K=736,K=737,K=738,K=739,K=740,7140867 nodes removed so far
K=741,K=742,K=743,K=744,K=745,K=746,K=747,K=748,K=749,K=750,K=751,K=752,K=753,K=754,K=755,K=756,K=757,K=758,K=759,K=760,K=761,K=762,K=763,K=764,K=765,K=766,K=767,K=768,K=769,K=770,K=771,K=772,K=773,K=774,K=775,K=776,K=777,K=778,K=779,K=780,K=781,K=782,K=783,K=784,K=785,K=786,K=787,K=788,K=789,K=790,K=791,K=792,K=793,K=794,K=795,K=796,K=797,K=798,K=799,K=800,K=801,K=802,K=803,K=804,K=805,K=806,K=807,K=808,K=809,K=810,K=811,K=812,K=813,K=814,K=815,K=816,K=817,K=818,K=819,K=820,K=821,K=822,K=823,K=824,K=825,K=826,K=827,K=828,K=829,K=830,K=831,K=832,K=833,K=834,K=835,KCore = 835
Building structure for PR...
Computing PR...
Pageranking 6549450 nodes done in 17 iteration. cumulError=5.9217e-11
clause level 1 (Kante=93, Kdesc=546936, core=12):-9517 
clause level 1 (Kante=93, Kdesc=303094, core=0):-9762 
clause level 2 (Kante=33, Kdesc=274286, core=4):-9997 
clause level 277 (Kante=4234, Kdesc=2958, core=4):133 
clause level 4 (Kante=10, Kdesc=7621, core=6):-16196 -144 
Found 1129 good successive clauses in order (1124 originals, maxlevel=277)
c KCorePR 7342880 835 1129 1124 277
c DistanceTo...Unseen 1177442
c DistanceToGoodKCore c   DIST 0: 1129 (+1129) / 1129 (+1129)
c   DIST 1: 843727 (+842598) / 24169 (+23040)
c   DIST 2: 4238597 (+3394870) / 310699 (+286530)
c   DIST 3: 5145873 (+907276) / 439137 (+128438)
c   DIST 4: 5458929 (+313056) / 460000 (+20863)
c   DIST 5: 5658373 (+199444) / 467386 (+7386)
c   DIST 6: 5803016 (+144643) / 471605 (+4219)
c   DIST 7: 5910113 (+107097) / 474467 (+2862)
c   DIST 8: 5988405 (+78292) / 476654 (+2187)
c   DIST 9: 6042988 (+54583) / 477922 (+1268)
c   DIST 10: 6080509 (+37521) / 478714 (+792)
c   DIST 11: 6106970 (+26461) / 479232 (+518)
c   DIST 12: 6124725 (+17755) / 479573 (+341)
c   DIST 13: 6136639 (+11914) / 479808 (+235)
c   DIST 14: 6144770 (+8131) / 479939 (+131)
c   DIST 15: 6150518 (+5748) / 480041 (+102)
c   DIST 16: 6154569 (+4051) / 480108 (+67)
c   DIST 17: 6157538 (+2969) / 480153 (+45)
c   DIST 18: 6159628 (+2090) / 480174 (+21)
c   DIST 19: 6161092 (+1464) / 480197 (+23)
c   DIST 20: 6162095 (+1003) / 480215 (+18)
c   DIST 21: 6162782 (+687) / 480224 (+9)
c   DIST 22: 6163405 (+623) / 480231 (+7)
c   DIST 23: 6163856 (+451) / 480232 (+1)
c   DIST 24: 6164215 (+359) / 480232 (+0)
c   DIST 25: 6164456 (+241) / 480232 (+0)
c   DIST 26: 6164651 (+195) / 480232 (+0)
c   DIST 27: 6164773 (+122) / 480232 (+0)
c   DIST 28: 6164890 (+117) / 480232 (+0)
c   DIST 29: 6165009 (+119) / 480232 (+0)
c   DIST 30: 6165092 (+83) / 480232 (+0)
c   DIST 31: 6165155 (+63) / 480232 (+0)
c   DIST 32: 6165209 (+54) / 480232 (+0)
c   DIST 33: 6165248 (+39) / 480232 (+0)
c   DIST 34: 6165295 (+47) / 480232 (+0)
c   DIST 35: 6165336 (+41) / 480232 (+0)
c   DIST 36: 6165358 (+22) / 480232 (+0)
c   DIST 37: 6165373 (+15) / 480232 (+0)
c   DIST 38: 6165395 (+22) / 480232 (+0)
c   DIST 39: 6165409 (+14) / 480232 (+0)
c   DIST 40: 6165424 (+15) / 480232 (+0)
c   DIST 41: 6165433 (+9) / 480232 (+0)
c   DIST 42: 6165436 (+3) / 480232 (+0)
c   DIST 43: 6165438 (+2) / 480232 (+0)
c TotalDistance=7342880
No graph is dumped
c result of core 4 is UNSAT
c One thread has finished
c Core 4 said it finished
c result of core 1 is UNKNOWN
c result of core 3 is UNKNOWN
c result of core 0 is UNKNOWN
c result of core 2 is UNKNOWN
c result of core 12 is UNKNOWN
c result of core 5 is UNKNOWN
c result of core 6 is UNKNOWN
c result of core 11 is UNKNOWN
c result of core 10 is UNKNOWN
c result of core 7 is UNKNOWN
c result of core 13 is UNKNOWN
c result of core 9 is UNKNOWN
c result of core 8 is UNKNOWN
c restarts              : 1004 (472 conflicts in avg)
c blocked restarts      : 2240 (multiple: 313) 
c last block at restart : 1004
c nb ReduceDB           : 18
c nb removed Clauses    : 450323
c nb learnts DL2        : 1700
c nb learnts size 2     : 1385
c nb learnts size 1     : 15
c conflicts             : 474097         (11 /sec)
c decisions             : 2663606        (0.00 % random) (60 /sec)
c propagations          : 271278560      (6074 /sec)
c conflict literals     : 349252997      (2.92 % deleted)
c nb reduced Clauses    : 1678
c CPU time              : 44659.4 s

s INDETERMINATE
